<svg xmlns="http://www.w3.org/2000/svg" xmlns:xlink="http://www.w3.org/1999/xlink" version="1.1" id="Layer_1" x="0px" y="0px" viewBox="-791 316 225 260" style="enable-background:new -791 316 225 260;" xml:space="preserve" data-product="2017511" data-design="1" data-size="m">
<style type="text/css">
	.st0{fill:#FFFFFF;stroke:#6D6E71;stroke-width:0.34;stroke-linecap:round;stroke-linejoin:round;stroke-miterlimit:10;}
	.st1{fill:#EDEDED;stroke:#6D6E71;stroke-width:0.34;stroke-linecap:round;stroke-linejoin:round;stroke-miterlimit:10;}
	.st2{fill:#FFFFFF;}
	.st3{clip-path:url(#SVGID_2_);}
	.st4{fill:none;stroke:#6D6E71;stroke-width:0.34;stroke-linecap:round;stroke-linejoin:round;stroke-miterlimit:10;}
	.st5{clip-path:url(#SVGID_4_);}
	.st6{fill:none;}
	.st7{fill:#ED1C24;}
</style>
<path class="st0 cannot-edit can-change" d="M-771.2,329.9c0,0-2-6.1,50.1-7.6c52.2-1.5,129.5-3.5,135.6,7.9c0,0-39.1,15.2-91.4,15.3  C-729.2,345.6-771.2,330.2-771.2,329.9z" fill="rgb(255, 255, 255)"></path>
<path class="st1 cannot-edit can-change" d="M-671.8,499.6c-1.9-9.6-2.8-27.1-2.8-27.2l0.5-19.3c0,0-2.8,1.3-4.4,1.4c-1.5,0-4.3-1.4-4.4-1.4l0.5,19.3  c0,0.2-0.9,17.6-2.8,27.3c-39.8-14.2-38.7-140.4-32.6-159.2c11.8,1.4,25.1,2.3,39.5,2.3c14.4,0,27.5-1,39.1-2.3  C-633.2,359.2-632.1,485.2-671.8,499.6z" style="fill: rgb(0, 0, 0);"></path>
<path class="st0 can-change" d="M-685.1,499.6c-0.2,0.9-0.3,1.7-0.5,2.5c-0.1,0.3-0.2,0.6-0.2,0.8c-0.1,0.3-0.2,0.5-0.2,0.8  c-0.1,0.2-0.2,0.5-0.2,0.7c-2.6,6.3-4.7,33.6-4.7,33.9l-2.4,21.2c-59.5,24.8-83.6,1.9-83.9,1.6c-1-6.7-2.2-14.8-3.3-21.5  c-1.1-4.2-3.5-22.8-4.5-35.3c-1.1-13.7-0.8-24.2-0.8-24.3c-1.5-51,1.2-88.2,3.8-99.8c2.7-11.7,4-20.2,8-38.2c1-4.8,2.1-9.1,3-12.7  c0,0,0.7,0.2,1.9,0.6c0.2,0.1,0.5,0.1,0.7,0.2c0.4,0.1,0.8,0.2,1.3,0.4c0.3,0.1,0.6,0.2,1,0.3c0.3,0.1,0.7,0.2,1.1,0.3  s0.8,0.2,1.2,0.3c0.4,0.1,0.9,0.2,1.3,0.4c0.9,0.2,1.9,0.5,2.9,0.8c0.4,0.1,0.8,0.2,1.2,0.3c0.2,0.1,0.5,0.1,0.8,0.2  c0.6,0.2,1.3,0.3,2,0.5c0.4,0.1,0.8,0.2,1.2,0.3c2.9,0.7,6.2,1.4,9.8,2.2c0.5,0.1,1,0.2,1.6,0.3c0.5,0.1,1.1,0.2,1.6,0.3  c0.9,0.2,1.8,0.3,2.7,0.5c0.5,0.1,1,0.2,1.5,0.3c0.1,0,0.2,0,0.3,0.1c0.8,0.1,1.5,0.3,2.3,0.4c2.4,0.4,4.8,0.8,7.4,1.2  c0.6,0.1,1.3,0.2,1.9,0.3c1.1,0.2,2.3,0.3,3.5,0.5c1.5,0.2,3,0.4,4.5,0.6C-723.8,359.2-724.9,485.3-685.1,499.6z" fill="rgb(255, 255, 255)"></path>
<path class="st0 can-change" d="M-570.7,467.9c0,0.2,0,0.4,0,0.6c0,3.7-0.1,7.5-0.2,11.4c0,0.1,0.3,10.6-0.8,24.3c-1,12.6-3.4,31.1-4.5,35.3  c-1.1,6.7-2.3,14.8-3.3,21.5c0,0-0.1,0.1-0.2,0.1c-1.2,1.1-9.7,8.1-27.5,9.5c-4.1,0.3-8.6,0.3-13.7-0.1c-11.5-1-25.6-4.1-42.5-11.2  l-2.3-21.2c0-0.3-2.1-27.5-4.8-33.9c-0.5-1.1-0.9-2.8-1.3-4.8c39.7-14.3,38.7-140.4,32.6-159.2c1.3-0.1,2.5-0.3,3.7-0.5  c0.2,0,0.5-0.1,0.8-0.1c26.9-3.6,44.1-9.4,46.5-10.4c0.1,0.2,0.1,0.4,0.2,0.6c0.9,3.5,1.8,7.5,2.8,11.9c4,18,4.1,22.2,6.9,34  C-576.1,386.6-570.4,422.5-570.7,467.9z" fill="rgb(255, 255, 255)"></path>
<g>
	<g>
		<path class="st2 can-change" d="M-685.1,499.6c-0.2,0.9-0.4,1.7-0.5,2.5c-0.1,0.3-0.2,0.6-0.2,0.8c-0.1,0.3-0.2,0.5-0.2,0.8    c-0.1,0.2-0.2,0.5-0.2,0.7c-2.6,6.3-4.7,33.6-4.7,33.9l-2.4,21.2c-59.5,24.8-83.6,1.9-83.9,1.6c-1-6.7-2.2-14.8-3.3-21.5    c-1.1-4.2-3.5-22.8-4.5-35.3c-1.1-13.7-0.8-24.2-0.8-24.3c-1.5-51,1.2-88.2,3.8-99.8c2.7-11.7,4-20.2,8-38.2c1-4.8,2.1-9.1,3-12.7    c0,0,0.7,0.2,1.9,0.6c0.2,0.1,0.5,0.1,0.7,0.2c0.4,0.1,0.8,0.2,1.3,0.4c0.3,0.1,0.6,0.2,1,0.3c0.3,0.1,0.7,0.2,1.1,0.3    c0.4,0.1,0.8,0.2,1.2,0.3c0.4,0.1,0.9,0.2,1.3,0.4c0.9,0.2,1.9,0.5,2.9,0.8c0.4,0.1,0.8,0.2,1.2,0.3c0.2,0.1,0.5,0.1,0.8,0.2    c0.6,0.2,1.3,0.3,2,0.5c0.4,0.1,0.8,0.2,1.2,0.3c2.9,0.7,6.2,1.4,9.8,2.2c0.5,0.1,1,0.2,1.6,0.3c0.5,0.1,1.1,0.2,1.6,0.3    c0.9,0.2,1.8,0.3,2.7,0.5c0.5,0.1,1,0.2,1.5,0.3c0.1,0,0.2,0,0.3,0.1c0.8,0.1,1.5,0.3,2.3,0.4c2.4,0.4,4.8,0.8,7.4,1.2    c0.6,0.1,1.3,0.2,1.9,0.3c1.1,0.2,2.3,0.3,3.5,0.5c0.8,0.1,1.7,0.2,2.5,0.3c0.6,0.1,1.3,0.2,1.9,0.2v0    C-723.8,359.2-724.9,485.3-685.1,499.6L-685.1,499.6z" fill="rgb(255, 255, 255)" data-fill-id="6"></path>
	</g>
	<g>
		<defs>
			<path id="SVGID_1_" d="M-717.8,340.4c-6.1,18.8-7.1,145,32.7,159.2c-0.4,2-0.8,3.6-1.3,4.7c-2.6,6.3-4.7,33.6-4.7,33.9l-2.4,21.2     c-59.5,24.8-83.6,1.9-83.9,1.6c-1-6.7-2.2-14.8-3.3-21.5c-1.1-4.2-3.5-22.8-4.5-35.3c-1.1-13.7-0.8-24.1-0.8-24.3     c-1.5-51,1.2-88.2,3.8-99.8c2.7-11.7,4-20.1,8-38.2c1-4.8,2.1-9.1,3-12.7C-771,329.3-750.2,336.5-717.8,340.4z"></path>
		</defs>
		<clipPath id="SVGID_2_">
			<use xmlns:xlink="http://www.w3.org/1999/xlink" xlink:href="#SVGID_1_" style="overflow:visible;"></use>
		</clipPath>
		<g class="st3 can-change" fill="rgb(0, 0, 0)">
			<g>
				<path class="st0 can-change" d="M-796.8,517.3l17.1,14.3c0,0,26.7,22.6,86.8-0.1l10.6-4.5l-0.7,25.8c0,0-73.7,26-105.2,0L-796.8,517.3z" fill="rgb(255, 255, 255)" data-fill-id="7"></path>
				<path class="st0 can-change" d="M-797,524.2l17.1,14.3c0,0,26.7,22.6,86.8-0.1l10.6-4.5l-0.7,25.8c0,0-73.7,26-105.2,0L-797,524.2z" fill="rgb(255, 255, 255)" data-fill-id="8"></path>
				<path class="st0 can-change" d="M-797.2,531l17.1,14.3c0,0,26.7,22.6,86.8-0.1l10.6-4.4l-0.7,25.8c0,0-73.7,26-105.2,0L-797.2,531z" fill="rgb(255, 255, 255)" data-fill-id="9"></path>
				<path class="st0 can-change" d="M-797.3,537.8l17.1,14.3c0,0,26.7,22.6,86.8-0.1l10.6-4.4l-0.7,25.8c0,0-73.8,25.9-105.2,0L-797.3,537.8z" fill="rgb(255, 255, 255)" data-fill-id="10"></path>
			</g>
		</g>
	</g>
	<g>
		<path class="st4" d="M-685.1,499.6c-0.2,0.9-0.4,1.7-0.5,2.5c-0.1,0.3-0.2,0.6-0.2,0.8c-0.1,0.3-0.2,0.5-0.2,0.8    c-0.1,0.2-0.2,0.5-0.2,0.7c-2.6,6.3-4.7,33.6-4.7,33.9l-2.4,21.2c-59.5,24.8-83.6,1.9-83.9,1.6c-1-6.7-2.2-14.8-3.3-21.5    c-1.1-4.2-3.5-22.8-4.5-35.3c-1.1-13.7-0.8-24.2-0.8-24.3c-1.5-51,1.2-88.2,3.8-99.8c2.7-11.7,4-20.2,8-38.2c1-4.8,2.1-9.1,3-12.7    c0,0,0.7,0.2,1.9,0.6c0.2,0.1,0.5,0.1,0.7,0.2c0.4,0.1,0.8,0.2,1.3,0.4c0.3,0.1,0.6,0.2,1,0.3c0.3,0.1,0.7,0.2,1.1,0.3    c0.4,0.1,0.8,0.2,1.2,0.3c0.4,0.1,0.9,0.2,1.3,0.4c0.9,0.2,1.9,0.5,2.9,0.8c0.4,0.1,0.8,0.2,1.2,0.3c0.2,0.1,0.5,0.1,0.8,0.2    c0.6,0.2,1.3,0.3,2,0.5c0.4,0.1,0.8,0.2,1.2,0.3c2.9,0.7,6.2,1.4,9.8,2.2c0.5,0.1,1,0.2,1.6,0.3c0.5,0.1,1.1,0.2,1.6,0.3    c0.9,0.2,1.8,0.3,2.7,0.5c0.5,0.1,1,0.2,1.5,0.3c0.1,0,0.2,0,0.3,0.1c0.8,0.1,1.5,0.3,2.3,0.4c2.4,0.4,4.8,0.8,7.4,1.2    c0.6,0.1,1.3,0.2,1.9,0.3c1.1,0.2,2.3,0.3,3.5,0.5c0.8,0.1,1.7,0.2,2.5,0.3c0.6,0.1,1.3,0.2,1.9,0.2v0    C-723.8,359.2-724.9,485.3-685.1,499.6L-685.1,499.6z" fill="none"></path>
	</g>
</g>
<g>
	<g>
		<path class="st2 can-change" d="M-570.7,467.9c0,0.2,0,0.4,0,0.6c-0.1,3.7-0.2,7.5-0.3,11.4c0,0.1,0.3,10.6-0.8,24.3    c-1,12.6-3.4,31.1-4.5,35.3c-1.1,6.7-2.4,14.8-3.3,21.5c0,0-0.1,0.1-0.2,0.1c-1.2,1.1-9.7,8.1-27.5,9.5c-4.1,0.3-8.6,0.3-13.7-0.1    c-11.5-0.9-25.6-4.1-42.6-11.2l-2.4-21.2c0-0.3-2.1-27.5-4.7-33.9c-0.5-1.1-0.9-2.8-1.3-4.7c0,0,0,0,0.1,0    c39.7-14.3,38.7-140.4,32.6-159.2v0c1.3-0.1,2.5-0.3,3.7-0.5c0.2,0,0.5-0.1,0.8-0.1c23.8-3.1,40.7-8,46.6-9.8    c1.5-0.5,2.3-0.8,2.3-0.8c1,3.7,2,8,3,12.7c3.9,18,5.3,26.5,8,38.2C-572.4,390.8-569.9,423.1-570.7,467.9z" fill="rgb(255, 255, 255)" data-fill-id="1"></path>
	</g>
	<g>
		<defs>
			<path id="SVGID_3_" d="M-639.2,340.4c32.4-3.8,53.3-11.1,53.5-11.2c1,3.7,2,8,3,12.7c3.9,18,5.3,26.5,8,38.2     c2.6,11.6,5.3,48.8,3.8,99.8c0,0.1,0.3,10.6-0.8,24.3c-1,12.6-3.4,31.1-4.5,35.3c-1.1,6.7-2.4,14.8-3.3,21.5     c-0.2,0.2-24.4,23.2-83.9-1.6l-2.4-21.2c0-0.3-2.1-27.5-4.7-33.9c-0.5-1.1-0.9-2.8-1.3-4.7C-632.1,485.4-633.2,359.1-639.2,340.4     z"></path>
		</defs>
		<clipPath id="SVGID_4_">
			<use xmlns:xlink="http://www.w3.org/1999/xlink" xlink:href="#SVGID_3_" style="overflow:visible;"></use>
		</clipPath>
		<g class="st5 can-change" fill="rgb(0, 0, 0)">
			<g>
				<path class="st0 can-change" d="M-558.5,517.3l-8.6,35.5c-31.4,26-105.2,0-105.2,0l-0.7-25.8l10.6,4.5c60.1,22.7,86.8,0.1,86.8,0.1      L-558.5,517.3z" fill="rgb(255, 255, 255)" data-fill-id="2"></path>
				<path class="st0 can-change" d="M-558.3,524.2l-8.7,35.5c-31.4,26-105.2,0-105.2,0l-0.7-25.8l10.6,4.5c60.1,22.7,86.8,0.1,86.8,0.1      L-558.3,524.2z" fill="rgb(255, 255, 255)" data-fill-id="3"></path>
				<path class="st0 can-change" d="M-558.1,531l-8.7,35.5c-31.4,26-105.2,0-105.2,0l-0.7-25.8l10.6,4.4c60.1,22.7,86.8,0.1,86.8,0.1      L-558.1,531z" fill="rgb(255, 255, 255)" data-fill-id="4"></path>
				<path class="st0 can-change" d="M-558,537.8l-8.7,35.5c-31.4,25.9-105.2,0-105.2,0l-0.7-25.8l10.6,4.4c60.2,22.7,86.9,0.1,86.9,0.1      L-558,537.8z" fill="rgb(255, 255, 255)" data-fill-id="5"></path>
			</g>
		</g>
	</g>
	<g>
		<path class="st4" d="M-570.7,467.9c0,0.2,0,0.4,0,0.6c-0.1,3.7-0.2,7.5-0.3,11.4c0,0.1,0.3,10.6-0.8,24.3    c-1,12.6-3.4,31.1-4.5,35.3c-1.1,6.7-2.4,14.8-3.3,21.5c0,0-0.1,0.1-0.2,0.1c-1.2,1.1-9.7,8.1-27.5,9.5c-4.1,0.3-8.6,0.3-13.7-0.1    c-11.5-0.9-25.6-4.1-42.6-11.2l-2.4-21.2c0-0.3-2.1-27.5-4.7-33.9c-0.5-1.1-0.9-2.8-1.3-4.7c0,0,0,0,0.1,0    c39.7-14.3,38.7-140.4,32.6-159.2v0c1.3-0.1,2.5-0.3,3.7-0.5c0.2,0,0.5-0.1,0.8-0.1c23.8-3.1,40.7-8,46.6-9.8    c1.5-0.5,2.3-0.8,2.3-0.8c1,3.7,2,8,3,12.7c3.9,18,5.3,26.5,8,38.2C-572.4,390.8-569.9,423.1-570.7,467.9z" fill="none"></path>
	</g>
</g>
<path class="st0 can-change" d="M-678.5,454.4l0.2-111.4" fill="rgb(255, 255, 255)"></path>
<path class="st4" d="M-683.3,465.2c0,0-18.7-3.1-13.1-20c5.5-16.9,6.2-22.2,5.5-29.6c-0.7-7.5-5.8-16.9,12.4-16.9" fill="none"></path>
<path class="st4" d="M-673.6,465.2c0,0,18.6-3.1,13.1-20c-5.6-16.9-6.3-22.2-5.6-29.6c0.7-7.5,5.9-16.9-12.4-16.9" fill="none"></path>
<path class="st4" d="M-772.4,351.7c0,0,33.5,12,94,12c60.6,0,93.5-13.7,93.5-13.7" fill="none"></path>
<path class="st4" d="M-772.4,354.6c0,0,33.5,11.9,94,11.9c60.6,0,93.5-13.7,93.5-13.7" fill="none"></path>
<g>
	<path class="st0 can-change" d="M-678.3,343.8c0,0,15.5,2.7,13.5,8.8C-666.8,358.8-681,346.5-678.3,343.8z" fill="rgb(255, 255, 255)"></path>
	<path class="st0 can-change" d="M-678.3,343.4c0,0-2,0.8-0.7,6.5c1.4,5.6,1.4,11.8,0.3,13.4" fill="rgb(255, 255, 255)"></path>
	<path class="st0 can-change" d="M-678.6,343.4c0,0,3.7,5.4,2.4,8.5s-7.7,1-8.5,5.4" fill="rgb(255, 255, 255)"></path>
	<path class="st0 can-change" d="M-679,343.4c0.7,0.4,3.4,2.5-3,7.5c-6.4,5-5.7-2.4-1.3-3.4C-679,346.5-679.6,343.2-679,343.4z" fill="rgb(255, 255, 255)"></path>
</g>
<g class="human-logo">
	<path d="M-766,526.5l0.8-4.6h2.1l-0.2,1.3h1.5l0.2-1.3h3.7l-0.5,2.7c0,0,0,0.1,0,0.1h0.1h1.1c0.1,0,0.1,0,0.2,0   c0.1-0.1,0.1-0.2,0.1-0.2l0.4-2.5h4.1l0.7,1.9l1.3-1.9h2.5l-0.5,2.6l1.8-2.6h2.1l1,2.7l0.5-2.7h2.4l1.2,1.9l0.3-1.9h2.1l-0.8,4.6   h-2.4l-1.2-1.9l-0.3,1.9h-3.3l-0.2-0.7h-1.7l-0.5,0.7h-3.3l0.2-1.3l-0.9,1.3h-1.4l-0.5-1.4l-0.3,1.4h-2l0.1-0.5c0,0-0.1,0-0.1,0.1   c-0.4,0.3-1,0.4-1.5,0.4h-1.6c-0.4,0-0.9-0.1-1.3-0.3c-0.1-0.1-0.2-0.2-0.3-0.3l-0.1,0.6h-2.1l0.2-1.4h-1.5l-0.2,1.4L-766,526.5   L-766,526.5z"></path>
	<polygon class="st2 can-change" points="-765.4,526 -764.7,522.3 -763.6,522.3 -763.8,523.6 -761.4,523.6 -761.2,522.3 -760.1,522.3    -760.7,526 -761.9,526 -761.6,524.6 -764,524.6 -764.3,526  " fill="rgb(255, 255, 255)"></polygon>
	<path class="st2 can-change" d="M-760,524.7l0.4-2.4h1.1l-0.4,2.1c-0.1,0.5,0.1,0.7,0.5,0.7h1.1c0.5,0,0.7-0.2,0.8-0.7l0.4-2.1h1.1l-0.4,2.4   c-0.2,0.9-0.7,1.4-1.8,1.4h-1.6C-759.7,526.1-760.1,525.6-760,524.7" fill="rgb(255, 255, 255)"></path>
	<polygon class="st2 can-change" points="-755,526 -754.3,522.3 -752.6,522.3 -751.7,524.7 -750,522.3 -748.2,522.3 -748.9,526 -750,526    -749.5,523.4 -749.5,523.4 -751.5,526 -752.4,526 -753.4,523.4 -753.4,523.4 -753.9,526  " fill="rgb(255, 255, 255)"></polygon>
	<path class="st2 can-change" d="M-745.5,523.2l-1,1.4h1.5L-745.5,523.2z M-748.7,526l2.7-3.7h1.5l1.4,3.7h-1.3l-0.2-0.7h-2.3l-0.5,0.7H-748.7z   " fill="rgb(255, 255, 255)"></path>
	<polygon class="st2 can-change" points="-743,526 -742.4,522.3 -740.6,522.3 -738.9,525 -738.9,525 -738.5,522.3 -737.3,522.3 -738,526    -739.7,526 -741.4,523.3 -741.4,523.3 -741.9,526  " fill="rgb(255, 255, 255)"></polygon>
	<path d="M-736.6,525.1l0-0.2h1.1c-0.1,0.4,0.1,0.4,0.4,0.4h1.4c0.2,0,0.5,0,0.5-0.3c0.1-0.3-0.1-0.3-1.5-0.3   c-1.7,0-1.9-0.2-1.7-1.1c0.1-0.7,0.3-1.2,1.7-1.2h1.6c1.3,0,1.4,0.4,1.2,1.1l0,0.1h-1.1c0-0.3,0-0.4-0.5-0.4h-1.3   c-0.2,0-0.4,0.1-0.5,0.3c-0.1,0.3,0.1,0.3,1.3,0.3c1.8,0,2.2,0.1,2,1.2c-0.2,1-0.6,1.2-2.1,1.2h-1.4   C-736.4,526.1-736.8,525.9-736.6,525.1"></path>
	<path d="M-730,523.2l-0.2,0.9h1.8c0.3,0,0.4-0.2,0.4-0.4l0-0.1c0-0.3-0.1-0.4-0.4-0.4L-730,523.2L-730,523.2z M-731.6,526l0.7-3.7   h3.1c1.1,0,1.3,0.5,1.1,1.3l-0.1,0.3c-0.1,0.5-0.5,1.2-1.3,1.2h-2.3l-0.2,0.9H-731.6z"></path>
	<polygon points="-726.8,526 -726.2,522.3 -722.1,522.3 -722.2,523.2 -725.2,523.2 -725.3,523.8 -722.5,523.8 -722.6,524.5    -725.4,524.5 -725.5,525.1 -722.5,525.1 -722.7,526  "></polygon>
	<polygon points="-722.2,526 -721.6,522.3 -717.5,522.3 -717.7,523.2 -720.6,523.2 -720.7,523.8 -717.9,523.8 -718,524.5    -720.8,524.5 -720.9,525.1 -717.9,525.1 -718.1,526  "></polygon>
	<path d="M-716,523.2l-0.3,1.8h2c0.5,0,0.7-0.1,0.8-0.7l0.1-0.5c0.1-0.5-0.1-0.7-0.6-0.7H-716z M-717.6,526l0.7-3.7h3.4   c1.1,0,1.5,0.4,1.3,1.3l-0.2,1.1c-0.2,0.9-0.6,1.3-1.8,1.3L-717.6,526L-717.6,526z"></path>
	<path d="M-710.5,521.6c-0.5,0-0.9,0.4-0.9,1c0,0.6,0.4,1,1,1c0.5,0,0.9-0.4,0.9-1C-709.6,522.1-710,521.6-710.5,521.6    M-710.5,521.4c0.7,0,1.2,0.6,1.2,1.2c0,0.7-0.5,1.2-1.2,1.2c-0.7,0-1.2-0.6-1.2-1.2C-711.7,521.9-711.2,521.4-710.5,521.4    M-710.7,522.2v0.4h0.1c0.2,0,0.3-0.1,0.3-0.2c0-0.1-0.1-0.2-0.3-0.2C-710.6,522.2-710.7,522.2-710.7,522.2 M-710.7,522.7v0.5h-0.2   V522c0.1,0,0.2,0,0.4,0c0.2,0,0.3,0,0.4,0.1c0.1,0,0.1,0.1,0.1,0.3c0,0.1-0.1,0.2-0.3,0.3v0c0.1,0,0.2,0.1,0.2,0.3   c0,0.2,0.1,0.3,0.1,0.3h-0.3c-0.1-0.1-0.1-0.1-0.1-0.3c0-0.1-0.1-0.2-0.3-0.2H-710.7L-710.7,522.7z"></path>
	<rect x="-766" y="521.4" class="st6" width="56.7" height="5.2" fill="none"></rect>
	<path d="M-731.8,527.4h0.3l-0.2,1.1h-0.3L-731.8,527.4z"></path>
	<path d="M-730.7,527.4h0.5l0.5,0.8l0.2-0.8h0.3l-0.2,1.1h-0.5l-0.5-0.8l-0.2,0.8h-0.3L-730.7,527.4z"></path>
	<path d="M-728.2,527.6h-0.5l0.1-0.3h1.3l-0.1,0.3h-0.5l-0.2,0.8h-0.3L-728.2,527.6z"></path>
	<path d="M-725.5,527.4l-0.1,0.2h-0.9l0,0.2h0.8l0,0.2h-0.8l0,0.2h0.9l-0.1,0.2h-1.2l0.2-1.1L-725.5,527.4L-725.5,527.4z"></path>
	<path d="M-724.8,527.4h0.3l-0.2,0.8h0.7l-0.1,0.3h-1.1L-724.8,527.4z"></path>
	<path d="M-723.1,527.4h0.3l-0.2,0.8h0.7l-0.1,0.3h-1.1L-723.1,527.4z"></path>
	<path d="M-721.3,527.4h0.3l-0.2,1.1h-0.3L-721.3,527.4z"></path>
	<path d="M-719.3,527.7C-719.3,527.7-719.3,527.7-719.3,527.7c0-0.1,0-0.1,0-0.1c0,0,0,0-0.1,0l-0.1,0l-0.2,0c-0.1,0-0.2,0-0.2,0.1   c0,0.1-0.1,0.3-0.1,0.3c0,0.1,0.1,0.1,0.2,0.1c0,0,0.1,0,0.3,0c0.2,0,0.2,0,0.2-0.1c0,0,0,0,0-0.1h-0.4l0-0.2h0.7l0,0.1   c0,0.2,0,0.2-0.1,0.3c-0.1,0.1-0.2,0.2-0.3,0.2c0,0-0.2,0-0.4,0c-0.3,0-0.4,0-0.5-0.1c-0.1,0-0.1-0.1-0.1-0.2c0-0.1,0-0.2,0.1-0.4   c0.1-0.3,0.1-0.4,0.3-0.4c0.1,0,0.2,0,0.5,0c0.4,0,0.5,0,0.5,0.1c0.1,0,0.1,0.1,0.1,0.2c0,0,0,0.1,0,0.2L-719.3,527.7L-719.3,527.7   z"></path>
	<path d="M-717,527.4l-0.1,0.2h-0.9l0,0.2h0.8l0,0.2h-0.8l0,0.2h0.9l-0.1,0.2h-1.2l0.2-1.1L-717,527.4L-717,527.4z"></path>
	<path d="M-716.2,527.4h0.5l0.5,0.8l0.2-0.8h0.3l-0.2,1.1h-0.5l-0.5-0.8l-0.2,0.8h-0.3L-716.2,527.4z"></path>
	<path d="M-713.7,527.6h-0.5l0.1-0.3h1.3l-0.1,0.3h-0.5l-0.2,0.8h-0.3L-713.7,527.6z"></path>
	<g>
		<polygon class="st7 can-change" points="-737.2,528.1 -737.3,528.4 -736.1,528.4 -736,528.1   " fill="rgb(237, 28, 36)"></polygon>
		<polygon class="st7 can-change" points="-732.4,527.7 -732.3,527.4 -735.5,527.4 -735.6,527.7   " fill="rgb(237, 28, 36)"></polygon>
		<polygon class="st7 can-change" points="-735.9,527.4 -737.1,527.4 -737.1,527.7 -736,527.7   " fill="rgb(237, 28, 36)"></polygon>
		<polygon class="st7 can-change" points="-735.8,528.4 -732.5,528.4 -732.5,528.1 -735.7,528.1   " fill="rgb(237, 28, 36)"></polygon>
		<polygon class="st2 can-change" points="-735.6,527.7 -735.5,527.4 -735.9,527.4 -736,527.7 -737.1,527.7 -737.2,528.1 -736,528.1     -736.1,528.4 -735.8,528.4 -735.7,528.1 -732.5,528.1 -732.4,527.7   " fill="rgb(255, 255, 255)"></polygon>
	</g>
</g>
<g class="human-logo">
	<path d="M-645.5,526.5l0.8-4.6h2.1l-0.2,1.3h1.5l0.2-1.3h3.7l-0.5,2.7c0,0,0,0.1,0,0.1h0.1h1.1c0.1,0,0.1,0,0.2,0   c0.1-0.1,0.1-0.2,0.1-0.2l0.4-2.5h4.1l0.7,1.9l1.3-1.9h2.5l-0.5,2.6l1.8-2.6h2.1l1,2.7l0.5-2.7h2.4l1.2,1.9l0.3-1.9h2.1l-0.8,4.6   h-2.4l-1.2-1.9l-0.3,1.9h-3.3l-0.2-0.7h-1.7l-0.5,0.7h-3.3l0.2-1.3l-0.9,1.3h-1.4l-0.5-1.4l-0.3,1.4h-2l0.1-0.5c0,0-0.1,0-0.1,0.1   c-0.4,0.3-1,0.4-1.5,0.4h-1.6c-0.4,0-0.9-0.1-1.3-0.3c-0.1-0.1-0.2-0.2-0.3-0.3l-0.1,0.6h-2.1l0.2-1.4h-1.5l-0.2,1.4L-645.5,526.5   L-645.5,526.5z"></path>
	<polygon class="st2 can-change" points="-644.9,526 -644.3,522.3 -643.1,522.3 -643.4,523.6 -641,523.6 -640.7,522.3 -639.6,522.3 -640.2,526    -641.4,526 -641.1,524.6 -643.5,524.6 -643.8,526  " fill="rgb(255, 255, 255)"></polygon>
	<path class="st2 can-change" d="M-639.5,524.7l0.4-2.4h1.1l-0.4,2.1c-0.1,0.5,0.1,0.7,0.5,0.7h1.1c0.5,0,0.7-0.2,0.8-0.7l0.4-2.1h1.1l-0.4,2.4   c-0.2,0.9-0.7,1.4-1.8,1.4h-1.6C-639.2,526.1-639.7,525.6-639.5,524.7" fill="rgb(255, 255, 255)"></path>
	<polygon class="st2 can-change" points="-634.5,526 -633.9,522.3 -632.1,522.3 -631.2,524.7 -629.5,522.3 -627.8,522.3 -628.4,526 -629.5,526    -629.1,523.4 -629.1,523.4 -631,526 -631.9,526 -632.9,523.4 -632.9,523.4 -633.4,526  " fill="rgb(255, 255, 255)"></polygon>
	<path class="st2 can-change" d="M-625,523.2l-1,1.4h1.5L-625,523.2z M-628.3,526l2.7-3.7h1.5l1.4,3.7h-1.3l-0.2-0.7h-2.3l-0.5,0.7H-628.3z" fill="rgb(255, 255, 255)"></path>
	<polygon class="st2 can-change" points="-622.6,526 -621.9,522.3 -620.1,522.3 -618.5,525 -618.5,525 -618,522.3 -616.8,522.3 -617.5,526    -619.3,526 -620.9,523.3 -620.9,523.3 -621.4,526  " fill="rgb(255, 255, 255)"></polygon>
	<path d="M-616.1,525.1l0-0.2h1.1c-0.1,0.4,0.1,0.4,0.4,0.4h1.4c0.2,0,0.5,0,0.5-0.3c0.1-0.3-0.1-0.3-1.5-0.3   c-1.7,0-1.9-0.2-1.7-1.1c0.1-0.7,0.3-1.2,1.7-1.2h1.6c1.3,0,1.4,0.4,1.2,1.1l0,0.1h-1.1c0-0.3,0-0.4-0.5-0.4h-1.3   c-0.2,0-0.4,0.1-0.5,0.3c-0.1,0.3,0.1,0.3,1.3,0.3c1.8,0,2.2,0.1,2,1.2c-0.2,1-0.6,1.2-2.1,1.2h-1.4   C-615.9,526.1-616.3,525.9-616.1,525.1"></path>
	<path d="M-609.5,523.2l-0.2,0.9h1.8c0.3,0,0.4-0.2,0.4-0.4l0-0.1c0-0.3-0.1-0.4-0.4-0.4L-609.5,523.2L-609.5,523.2z M-611.2,526   l0.7-3.7h3.1c1.1,0,1.3,0.5,1.1,1.3l-0.1,0.3c-0.1,0.5-0.5,1.2-1.3,1.2h-2.3l-0.2,0.9H-611.2z"></path>
	<polygon points="-606.3,526 -605.7,522.3 -601.6,522.3 -601.8,523.2 -604.7,523.2 -604.8,523.8 -602,523.8 -602.2,524.5    -604.9,524.5 -605,525.1 -602,525.1 -602.2,526  "></polygon>
	<polygon points="-601.8,526 -601.1,522.3 -597,522.3 -597.2,523.2 -600.1,523.2 -600.2,523.8 -597.4,523.8 -597.6,524.5    -600.4,524.5 -600.5,525.1 -597.5,525.1 -597.6,526  "></polygon>
	<path d="M-595.5,523.2l-0.3,1.8h2c0.5,0,0.7-0.1,0.8-0.7l0.1-0.5c0.1-0.5-0.1-0.7-0.6-0.7H-595.5z M-597.1,526l0.7-3.7h3.4   c1.1,0,1.5,0.4,1.3,1.3l-0.2,1.1c-0.2,0.9-0.6,1.3-1.8,1.3L-597.1,526L-597.1,526z"></path>
	<path d="M-590,521.6c-0.5,0-0.9,0.4-0.9,1c0,0.6,0.4,1,1,1c0.5,0,0.9-0.4,0.9-1C-589.1,522.1-589.5,521.6-590,521.6 M-590,521.4   c0.7,0,1.2,0.6,1.2,1.2c0,0.7-0.5,1.2-1.2,1.2c-0.7,0-1.2-0.6-1.2-1.2C-591.3,521.9-590.7,521.4-590,521.4 M-590.2,522.2v0.4h0.1   c0.2,0,0.3-0.1,0.3-0.2c0-0.1-0.1-0.2-0.3-0.2C-590.1,522.2-590.2,522.2-590.2,522.2 M-590.2,522.7v0.5h-0.2V522c0.1,0,0.2,0,0.4,0   c0.2,0,0.3,0,0.4,0.1c0.1,0,0.1,0.1,0.1,0.3c0,0.1-0.1,0.2-0.3,0.3v0c0.1,0,0.2,0.1,0.2,0.3c0,0.2,0.1,0.3,0.1,0.3h-0.3   c-0.1-0.1-0.1-0.1-0.1-0.3c0-0.1-0.1-0.2-0.3-0.2H-590.2L-590.2,522.7z"></path>
	<rect x="-645.5" y="521.4" class="st6" width="56.7" height="5.2" fill="none"></rect>
	<path d="M-611.3,527.4h0.3l-0.2,1.1h-0.3L-611.3,527.4z"></path>
	<path d="M-610.3,527.4h0.5l0.5,0.8l0.2-0.8h0.3l-0.2,1.1h-0.5l-0.5-0.8l-0.2,0.8h-0.3L-610.3,527.4z"></path>
	<path d="M-607.7,527.6h-0.5l0.1-0.3h1.3l-0.1,0.3h-0.5l-0.2,0.8h-0.3L-607.7,527.6z"></path>
	<path d="M-605,527.4l-0.1,0.2h-0.9l0,0.2h0.8l0,0.2h-0.8l0,0.2h0.9l-0.1,0.2h-1.2l0.2-1.1L-605,527.4L-605,527.4z"></path>
	<path d="M-604.3,527.4h0.3l-0.2,0.8h0.7l-0.1,0.3h-1.1L-604.3,527.4z"></path>
	<path d="M-602.6,527.4h0.3l-0.2,0.8h0.7l-0.1,0.3h-1.1L-602.6,527.4z"></path>
	<path d="M-600.9,527.4h0.3l-0.2,1.1h-0.3L-600.9,527.4z"></path>
	<path d="M-598.8,527.7C-598.8,527.7-598.8,527.7-598.8,527.7c0-0.1,0-0.1,0-0.1c0,0,0,0-0.1,0l-0.1,0l-0.2,0c-0.1,0-0.2,0-0.2,0.1   c0,0.1-0.1,0.3-0.1,0.3c0,0.1,0.1,0.1,0.2,0.1c0,0,0.1,0,0.3,0c0.2,0,0.2,0,0.2-0.1c0,0,0,0,0-0.1h-0.4l0-0.2h0.7l0,0.1   c0,0.2,0,0.2-0.1,0.3c-0.1,0.1-0.2,0.2-0.3,0.2c0,0-0.2,0-0.4,0c-0.3,0-0.4,0-0.5-0.1c-0.1,0-0.1-0.1-0.1-0.2c0-0.1,0-0.2,0.1-0.4   c0.1-0.3,0.1-0.4,0.3-0.4c0.1,0,0.2,0,0.5,0c0.4,0,0.5,0,0.5,0.1c0.1,0,0.1,0.1,0.1,0.2c0,0,0,0.1,0,0.2L-598.8,527.7L-598.8,527.7   z"></path>
	<path d="M-596.5,527.4l-0.1,0.2h-0.9l0,0.2h0.8l0,0.2h-0.8l0,0.2h0.9l-0.1,0.2h-1.2l0.2-1.1L-596.5,527.4L-596.5,527.4z"></path>
	<path d="M-595.8,527.4h0.5l0.5,0.8l0.2-0.8h0.3l-0.2,1.1h-0.5l-0.5-0.8l-0.2,0.8h-0.3L-595.8,527.4z"></path>
	<path d="M-593.2,527.6h-0.5l0.1-0.3h1.3l-0.1,0.3h-0.5l-0.2,0.8h-0.3L-593.2,527.6z"></path>
	<g>
		<polygon class="st7 can-change" points="-616.7,528.1 -616.8,528.4 -615.6,528.4 -615.6,528.1   " fill="rgb(237, 28, 36)"></polygon>
		<polygon class="st7 can-change" points="-611.9,527.7 -611.8,527.4 -615.1,527.4 -615.1,527.7   " fill="rgb(237, 28, 36)"></polygon>
		<polygon class="st7 can-change" points="-615.4,527.4 -616.6,527.4 -616.7,527.7 -615.5,527.7   " fill="rgb(237, 28, 36)"></polygon>
		<polygon class="st7 can-change" points="-615.3,528.4 -612.1,528.4 -612,528.1 -615.2,528.1   " fill="rgb(237, 28, 36)"></polygon>
		<polygon class="st2 can-change" points="-615.1,527.7 -615.1,527.4 -615.4,527.4 -615.5,527.7 -616.7,527.7 -616.7,528.1 -615.6,528.1     -615.6,528.4 -615.3,528.4 -615.2,528.1 -612,528.1 -611.9,527.7   " fill="rgb(255, 255, 255)"></polygon>
	</g>
</g>
</svg>