<svg xmlns="http://www.w3.org/2000/svg" xmlns:xlink="http://www.w3.org/1999/xlink" version="1.1" id="Layer_1" x="0px" y="0px" viewBox="-763 238 280 415" style="enable-background:new -763 238 280 415;" xml:space="preserve" data-product="2017513" data-design="2" data-size="m">
<style type="text/css">
	.st0{fill:#FFFFFF;}
	.st1{clip-path:url(#SVGID_12_);}
	.st2{fill:#FFFFFF;stroke:#6D6E71;stroke-width:0.37;stroke-linecap:round;stroke-linejoin:round;stroke-miterlimit:10;}
	.st3{fill:none;stroke:#6D6E71;stroke-width:0.34;stroke-linecap:round;stroke-linejoin:round;stroke-miterlimit:10;}
	.st4{clip-path:url(#SVGID_14_);}
	.st5{fill:#FFFFFF;stroke:#6D6E71;stroke-width:0.34;stroke-linecap:round;stroke-linejoin:round;stroke-miterlimit:10;}
	.st6{clip-path:url(#SVGID_16_);}
	.st7{fill:#FFFFFF;stroke:#6D6E71;stroke-width:0.23;stroke-linecap:round;stroke-linejoin:round;stroke-miterlimit:10;}
	.st8{fill:#EDEDED;stroke:#6D6E71;stroke-width:0.34;stroke-linecap:round;stroke-linejoin:round;stroke-miterlimit:10;}
	.st9{clip-path:url(#SVGID_18_);}
	.st10{clip-path:url(#SVGID_20_);}
	.st11{fill:none;}
	.st12{fill:#ED1C24;}
</style>
<g>
	<g>
		<path id="SVGID_1_" class="st0 can-change" d="M-662.7,243.2c4.9,3.1,3.9,2.6,8.6,5.2c-15.3,8.2-10.7,70.6-17.7,81.1    c-11.7,16-26.4,9.1-26.3,9.5c0,0.1-7,13.6-8.1,17.3c-1.4,4.5-12.6,25.2-14.7,29.6c-20,7.2-34.4-7.3-36.6-10.9    c0-0.3-0.1-19.7,9.2-59.3c2-9.4,4.6-17.6,7-23.6c4.3-10.6,8.3-15.2,8.4-15.2c3.8-4,23.4-13.9,45.9-22.5    C-679.1,251.3-671.1,246.9-662.7,243.2z" fill="rgb(255, 255, 255)" data-fill-id="13"></path>
	</g>
	<g>
		<defs>
			<path id="SVGID_11_" d="M-662.7,243.2c4.9,3.1,3.9,2.6,8.6,5.2c-15.3,8.2-10.7,70.6-17.7,81.1c-11.7,16-26.4,9.1-26.3,9.5     c0,0.1-7,13.6-8.1,17.3c-1.4,4.5-12.6,25.2-14.7,29.6c-20,7.2-34.4-7.3-36.6-10.9c0-0.3-0.1-19.7,9.2-59.3c2-9.4,4.6-17.6,7-23.6     c4.3-10.6,8.3-15.2,8.4-15.2c3.8-4,23.4-13.9,45.9-22.5C-679.1,251.3-671.1,246.9-662.7,243.2z"></path>
		</defs>
		<clipPath id="SVGID_12_">
			<use xlink:href="#SVGID_11_" style="overflow:visible;"></use>
		</clipPath>
		<g class="st1 can-change" fill="rgb(0, 0, 0)">
			<g>
				<path class="st2 can-change" d="M-768.3,362.5c-0.4-0.3-0.4-1.1-0.1-1.8c0.3-0.7,0.8-1.1,1.2-0.9c0.1,0,0.1,0.1,0.2,0.1      c0.1,0.1,0.2,0.2,0.4,0.3c0.7,0.5,1.3,1.1,2,1.6c5.5,4.3,11.3,7.9,17.2,11.2c6.1,2.7,12.4,4.9,18.8,6.5c6.6,1,13.3,1.7,20,1.7      l1,0l0.1,0h0.2c0.5,0,0.7,0.7,0.6,1.5c-0.2,0.8-0.6,1.4-1.1,1.4l-0.2,0h-0.1l-1,0c-6.8,0-13.6-0.7-20.2-1.7      c-6.5-1.7-12.8-3.9-19-6.7c-6-3.3-11.8-6.9-17.4-11.3c-0.6-0.5-1.3-1.1-2-1.6c0-0.1-0.2-0.3-0.4-0.3      C-768.2,362.6-768.3,362.5-768.3,362.5z" fill="rgb(255, 255, 255)" data-fill-id="26"></path>
				<path class="st2 can-change" d="M-766.3,358.8c-0.3-0.3-0.4-1-0.1-1.6c0.3-0.7,0.7-0.9,1.1-0.6c0.7,0.6,1.4,1.2,2.1,1.8      c5.4,4.2,11.1,7.8,16.9,11c6,2.7,12.2,4.9,18.5,6.5c6.5,0.9,13,1.6,19.7,1.7c0.5-0.1,1,0,1.6-0.1h0.1c0.4,0,0.7,0.5,0.6,1.2      c-0.1,0.7-0.5,1.3-0.9,1.3l-0.1,0c-0.5,0-1.1,0-1.6,0.1c-6.8,0-13.4-0.7-19.9-1.7c-6.4-1.6-12.6-3.7-18.7-6.5      c-5.9-3.3-11.6-6.9-17.1-11.1C-764.9,360-765.6,359.4-766.3,358.8z" fill="rgb(255, 255, 255)" data-fill-id="25"></path>
				<path class="st2 can-change" d="M-763.5,353.2c0.6,0.4,1.2,1,1.8,1.5c5.4,4.2,11,7.6,16.6,10.9c5.9,2.6,12,4.7,18.2,6.3      c6.3,1,12.8,1.6,19.4,1.6c0.6,0,1.3,0,2-0.1h0.1c0.4-0.1,0.6,0.4,0.4,1c-0.1,0.6-0.4,1.1-0.8,1.1l-0.1,0c-0.7,0-1.3,0.1-2.1,0.1      c-6.6,0-13.1-0.7-19.5-1.6c-6.2-1.6-12.4-3.7-18.3-6.4c-5.7-3.3-11.4-6.8-16.7-11c-0.7-0.5-1.2-1-1.9-1.6      c-0.2-0.2-0.3-0.8,0-1.3C-764.1,353.2-763.7,353-763.5,353.2z" fill="rgb(255, 255, 255)" data-fill-id="24"></path>
				<path class="st2 can-change" d="M-761.5,349.9c0.5,0.4,1,0.8,1.5,1.2c5.2,4.1,10.8,7.6,16.4,10.7c5.8,2.6,11.8,4.7,17.9,6.3      c6.2,0.9,12.6,1.6,19,1.6c0.9,0,1.7-0.1,2.5-0.1c0.3-0.1,0.5,0.4,0.3,0.8c-0.1,0.5-0.4,0.9-0.6,0.9c-0.8,0-1.6,0.1-2.5,0.1      c-6.5-0.1-12.9-0.7-19.2-1.7c-6.2-1.5-12.1-3.6-18.1-6.2c-5.6-3.2-11.2-6.7-16.4-10.8c-0.5-0.5-1-0.8-1.5-1.2      c-0.2-0.2-0.2-0.7-0.1-1.1C-762.1,349.9-761.8,349.7-761.5,349.9C-761.5,349.9-761.5,349.9-761.5,349.9z" fill="rgb(255, 255, 255)" data-fill-id="23"></path>
				<path class="st2 can-change" d="M-760.2,347.7c-0.2-0.1-0.3-0.5-0.1-0.8c0.1-0.3,0.4-0.5,0.5-0.3h0c0.4,0.2,0.8,0.6,1.2,0.9      c5.2,4.1,10.6,7.5,16.1,10.6c5.7,2.5,11.6,4.6,17.6,6.1c6.1,1,12.4,1.6,18.7,1.6c0.8,0,1.7-0.1,2.5-0.1h0.3      c0.2,0,0.4,0.3,0.2,0.7c0,0.4-0.3,0.6-0.5,0.6l-0.3,0c-0.8,0.1-1.6,0.1-2.5,0.2c-6.4,0-12.7-0.7-18.9-1.7      c-6-1.5-11.9-3.5-17.7-6.1c-5.5-3.2-11-6.5-16.2-10.6C-759.5,348.4-759.9,348.1-760.2,347.7L-760.2,347.7z" fill="rgb(255, 255, 255)" data-fill-id="22"></path>
				<path class="st2 can-change" d="M-758.2,344c-0.2-0.1-0.1-0.4-0.1-0.6c0.1-0.3,0.3-0.3,0.4-0.2c0.1,0.1,0.3,0.3,0.5,0.4      c0.1,0.1,0.3,0.1,0.3,0.2c5.1,3.9,10.4,7.2,15.8,10.4c5.6,2.5,11.4,4.5,17.3,6c6.1,0.9,12.2,1.5,18.5,1.6c1-0.1,2.1-0.1,3.1-0.2      l0.1,0c0.1,0,0.2,0.2,0.2,0.5c0,0.3-0.2,0.5-0.4,0.5l-0.1,0c-1,0.1-2,0.1-3.1,0.2c-6.3-0.1-12.4-0.7-18.5-1.6      c-5.9-1.6-11.7-3.6-17.4-6.1c-5.5-3.1-10.8-6.4-15.9-10.4c-0.1-0.1-0.2-0.2-0.4-0.2C-757.9,344.4-758.1,344.2-758.2,344z" fill="rgb(255, 255, 255)" data-fill-id="21"></path>
				<path class="st2 can-change" d="M-756.2,340.4c0-0.1,0-0.2,0-0.4c0-0.1,0.2-0.2,0.2-0.1c5.2,4,10.5,7.5,16,10.6c5.5,2.5,11.2,4.4,17,5.9      c6,1,12,1.5,18.2,1.5c1.2,0,2.3-0.1,3.5-0.2c0.1,0,0.1,0.1,0.1,0.2c0,0.2-0.1,0.3-0.2,0.3c-1.2,0.1-2.3,0.2-3.5,0.2      c-6.2-0.1-12.2-0.6-18.2-1.5c-5.9-1.5-11.5-3.5-17.1-6C-745.7,348-751.1,344.4-756.2,340.4z" fill="rgb(255, 255, 255)" data-fill-id="20"></path>
				<path class="st2 can-change" d="M-760.1,373.8c-2.5-1.7-4.9-3.5-7.4-5.3c-1-0.8-2-1.6-2.9-2.5c-0.4-0.4-0.4-1.3-0.1-2.1      c0.4-0.8,1-1.2,1.4-0.8c0.9,0.9,1.9,1.7,2.8,2.5c5.7,4.3,11.5,8.2,17.5,11.4c6.2,2.7,12.6,5,19,6.6c7,1.2,14.1,1.8,21.3,1.7      c0.5,0,0.8,0.7,0.6,1.6c-0.2,0.9-0.7,1.6-1.2,1.6c-2.7,0-5.4-0.1-8-0.2l-8.6,29.5l-40.9-13.7L-760.1,373.8z" fill="rgb(255, 255, 255)" data-fill-id="27"></path>
			</g>
		</g>
	</g>
	<g>
		<path id="SVGID_2_" class="st3" d="M-662.7,243.2c4.9,3.1,3.9,2.6,8.6,5.2c-15.3,8.2-10.7,70.6-17.7,81.1    c-11.7,16-26.4,9.1-26.3,9.5c0,0.1-7,13.6-8.1,17.3c-1.4,4.5-12.6,25.2-14.7,29.6c-20,7.2-34.4-7.3-36.6-10.9    c0-0.3-0.1-19.7,9.2-59.3c2-9.4,4.6-17.6,7-23.6c4.3-10.6,8.3-15.2,8.4-15.2c3.8-4,23.4-13.9,45.9-22.5    C-679.1,251.3-671.1,246.9-662.7,243.2z" fill="none"></path>
	</g>
</g>
<g>
	<g>
		<path id="SVGID_3_" class="st0 can-change" d="M-582.6,243.2c8.3,3.7,16.3,8.1,24.3,11.1c22.5,8.6,42.1,18.5,45.9,22.5    c0.1,0,4.1,4.6,8.4,15.2c2.4,6,5,14.2,7.1,23.6c9.3,39.6,8.7,57.4,8.7,57.7c-2.1,3.6-17.1,15.2-37.2,8.1    c-2.1-4.4-12.2-20.6-13.6-25.1c-1.2-3.7-8.1-17.2-8.1-17.3c0.1-0.4-14.7,6.5-26.3-9.5c-7-10.5-2.4-72.8-17.7-81.1    C-586.4,245.9-587.4,246.3-582.6,243.2z" fill="rgb(255, 255, 255)" data-fill-id="14"></path>
	</g>
	<g>
		<defs>
			<path id="SVGID_13_" d="M-582.6,243.2c8.3,3.7,16.3,8.1,24.3,11.1c22.5,8.6,42.1,18.5,45.9,22.5c0.1,0,4.1,4.6,8.4,15.2     c2.4,6,5,14.2,7.1,23.6c9.3,39.6,8.7,57.4,8.7,57.7c-2.1,3.6-17.1,15.2-37.2,8.1c-2.1-4.4-12.2-20.6-13.6-25.1     c-1.2-3.7-8.1-17.2-8.1-17.3c0.1-0.4-14.7,6.5-26.3-9.5c-7-10.5-2.4-72.8-17.7-81.1C-586.4,245.9-587.4,246.3-582.6,243.2z"></path>
		</defs>
		<clipPath id="SVGID_14_">
			<use xlink:href="#SVGID_13_" style="overflow:visible;"></use>
		</clipPath>
		<g class="st4 can-change" fill="rgb(0, 0, 0)">
			<g>
				<path class="st2 can-change" d="M-475.1,356.8c0,0-0.1,0.1-0.1,0.1c-0.2,0.1-0.3,0.2-0.4,0.3c-0.7,0.5-1.4,1.1-2,1.6      c-5.6,4.4-11.4,8-17.4,11.3c-6.2,2.8-12.5,5-19,6.7c-6.7,1-13.4,1.7-20.2,1.7l-1-0.1h-0.1l-0.2,0c-0.5-0.1-0.9-0.7-1.1-1.4      c-0.2-0.8,0.1-1.4,0.6-1.4h0.2l0.1,0l1,0c6.8,0,13.4-0.7,20-1.7c6.4-1.6,12.7-3.8,18.8-6.5c5.9-3.3,11.7-6.9,17.2-11.2      c0.7-0.5,1.3-1.1,2-1.7c0.2-0.1,0.3-0.2,0.4-0.3c0.1,0,0.1-0.1,0.2-0.1c0.4-0.2,0.9,0.1,1.2,0.8      C-474.6,355.7-474.7,356.5-475.1,356.8z" fill="rgb(255, 255, 255)" data-fill-id="37"></path>
				<path class="st2 can-change" d="M-477.1,353.2c-0.7,0.6-1.4,1.2-2.1,1.8c-5.5,4.2-11.2,7.8-17.1,11.1c-6.1,2.7-12.3,4.9-18.7,6.5      c-6.5,1-13.1,1.7-19.9,1.7c-0.5,0-1.1,0-1.6-0.1l-0.1,0c-0.4,0-0.8-0.6-0.9-1.3c-0.1-0.7,0.2-1.2,0.6-1.2h0.1      c0.6,0.1,1.1,0.1,1.6,0.1c6.7,0,13.3-0.7,19.7-1.7c6.3-1.6,12.5-3.8,18.5-6.5c5.8-3.3,11.5-6.9,16.9-11c0.7-0.6,1.5-1.2,2.1-1.8      c0.3-0.3,0.8,0,1.1,0.6C-476.7,352.2-476.8,352.9-477.1,353.2z" fill="rgb(255, 255, 255)" data-fill-id="36"></path>
				<path class="st2 can-change" d="M-479.9,347.6c0.2-0.2,0.6,0,0.9,0.6c0.2,0.5,0.2,1.1-0.1,1.3c-0.6,0.5-1.2,1-1.8,1.6      c-5.4,4.1-11,7.7-16.7,11c-6,2.7-12.1,4.8-18.3,6.4c-6.5,1-12.9,1.6-19.5,1.6c-0.7,0-1.4,0-2.1-0.1l0,0c-0.3,0-0.7-0.6-0.8-1.1      c-0.1-0.6,0.1-1,0.4-1h0.1c0.7,0,1.4,0.1,2,0.1c6.6,0,13-0.7,19.4-1.6c6.2-1.6,12.3-3.7,18.2-6.4c5.6-3.3,11.3-6.7,16.6-10.9      C-481.2,348.6-480.5,348-479.9,347.6z" fill="rgb(255, 255, 255)" data-fill-id="35"></path>
				<path class="st2 can-change" d="M-481.8,344.2L-481.8,344.2c0.2-0.2,0.6,0,0.8,0.4c0.2,0.4,0.1,0.9,0,1.1c-0.5,0.4-1,0.8-1.5,1.2      c-5.2,4.1-10.9,7.6-16.5,10.8c-5.9,2.6-11.8,4.7-18.1,6.2c-6.3,1.1-12.7,1.6-19.2,1.7c-0.8,0-1.7-0.1-2.5-0.1      c-0.2,0-0.5-0.4-0.6-0.9c-0.1-0.5,0-0.9,0.3-0.8c0.8,0,1.6,0.1,2.5,0.1c6.4,0,12.8-0.7,19-1.6c6.1-1.6,12.1-3.7,17.9-6.3      c5.6-3.1,11.2-6.6,16.4-10.7C-482.8,345-482.3,344.6-481.8,344.2z" fill="rgb(255, 255, 255)" data-fill-id="34"></path>
				<path class="st2 can-change" d="M-483.2,342L-483.2,342c-0.3,0.4-0.7,0.7-1.1,1c-5.2,4.1-10.7,7.4-16.2,10.6c-5.8,2.6-11.7,4.6-17.7,6.1      c-6.2,1-12.5,1.7-18.9,1.7c-0.8-0.1-1.7-0.1-2.5-0.2l-0.3,0c-0.2,0-0.5-0.3-0.5-0.7c-0.1-0.3,0-0.7,0.3-0.7h0.3      c0.8,0,1.7,0.1,2.5,0.1c6.4,0,12.6-0.6,18.7-1.6c6-1.5,11.9-3.5,17.6-6.1c5.5-3.2,10.9-6.5,16.1-10.6c0.4-0.3,0.7-0.6,1.2-0.9h0      c0.1-0.2,0.4,0,0.5,0.3C-482.9,341.5-483,341.9-483.2,342z" fill="rgb(255, 255, 255)" data-fill-id="33"></path>
				<path class="st2 can-change" d="M-485.2,338.4c-0.1,0.2-0.3,0.3-0.4,0.4c-0.1,0.1-0.3,0.1-0.4,0.2c-5.1,4-10.4,7.3-15.9,10.4      c-5.6,2.5-11.4,4.6-17.4,6.1c-6.1,0.9-12.2,1.5-18.5,1.6c-1.1-0.1-2.1-0.1-3.1-0.2l-0.1,0c-0.2,0-0.3-0.2-0.4-0.5      c-0.1-0.2,0.1-0.4,0.2-0.4l0.1,0c1,0.1,2,0.1,3.1,0.2c6.2,0,12.4-0.6,18.5-1.6c5.9-1.5,11.7-3.5,17.3-6      c5.4-3.2,10.7-6.4,15.8-10.4c0.1-0.1,0.2-0.2,0.3-0.2c0.2-0.2,0.3-0.3,0.5-0.4c0.1-0.1,0.3,0,0.4,0.2      C-485,338-485,338.3-485.2,338.4z" fill="rgb(255, 255, 255)" data-fill-id="32"></path>
				<path class="st2 can-change" d="M-487.2,334.7c-5.2,4-10.5,7.6-16,10.6c-5.6,2.5-11.2,4.4-17.1,6c-5.9,1-12,1.4-18.2,1.5      c-1.2-0.1-2.3-0.1-3.5-0.2c-0.1,0-0.2-0.1-0.2-0.3c0-0.2,0-0.3,0.1-0.2c1.2,0.1,2.4,0.2,3.5,0.2c6.1-0.1,12.2-0.5,18.1-1.5      c5.8-1.5,11.5-3.5,17-5.9c5.5-3,10.9-6.6,16-10.6c0.1,0,0.2,0,0.2,0.1C-487.1,334.5-487.1,334.6-487.2,334.7z" fill="rgb(255, 255, 255)" data-fill-id="31"></path>
				<path class="st2 can-change" d="M-483.3,368.2l6.4,30.4l-40.9,13.7l-8.6-29.5c-2.7,0.1-5.3,0.2-8,0.2c-0.5-0.1-1-0.8-1.2-1.6      c-0.2-0.9,0.1-1.6,0.6-1.6c7.3,0.1,14.4-0.5,21.4-1.7c6.5-1.6,12.8-3.9,19-6.6c6-3.2,11.9-7.1,17.5-11.4      c0.9-0.8,1.9-1.6,2.8-2.5c0.4-0.4,1,0,1.4,0.8c0.3,0.8,0.3,1.7-0.1,2.1c-1,0.9-2,1.6-3,2.5      C-478.4,364.7-480.8,366.5-483.3,368.2z" fill="rgb(255, 255, 255)" data-fill-id="38"></path>
			</g>
		</g>
	</g>
	<g>
		<path id="SVGID_4_" class="st3" d="M-582.6,243.2c8.3,3.7,16.3,8.1,24.3,11.1c22.5,8.6,42.1,18.5,45.9,22.5    c0.1,0,4.1,4.6,8.4,15.2c2.4,6,5,14.2,7.1,23.6c9.3,39.6,8.7,57.4,8.7,57.7c-2.1,3.6-17.1,15.2-37.2,8.1    c-2.1-4.4-12.2-20.6-13.6-25.1c-1.2-3.7-8.1-17.2-8.1-17.3c0.1-0.4-14.7,6.5-26.3-9.5c-7-10.5-2.4-72.8-17.7-81.1    C-586.4,245.9-587.4,246.3-582.6,243.2z" fill="none"></path>
	</g>
</g>
<path class="st5 can-change" d="M-582.6,243.2c0.1,0,19.2,8.3,28.1,12.3c-3.9,20.1-6.1,34.6-4.1,59.7c1.1,14.7,9.8,24.6,17.9,30.3  c-1.4,5-5.1,29.7-5.6,39.3c-1.2,14.9-3.7,25.4-2.6,67c-22.8,8.4-50,11.1-74.2,11.1c-24.2,0-53-2.5-75.8-11  c1.1-41.7-2.3-51.2-2.1-65.7c-0.4-9.7-4.1-34.4-5.6-39.3c8.1-5.7,18.8-17.1,19.9-31.8c1.9-25.1-0.3-39.6-4.1-59.7  c8.8-4,27.9-12.3,28.1-12.3c12.7,11.2,34.4,10.4,38.2,10.5h0.8h0.7C-614.8,253.6-593.5,252.9-582.6,243.2z" fill="rgb(255, 255, 255)" data-fill-id="10"></path>
<g>
	<g>
		<path id="SVGID_5_" class="st0 can-change" d="M-579.3,458.3c-0.2-4.6-0.7-18.1-1.6-47.2c-1.1-37.2,23.2-57,27.7-61c2.7-2.4,4.6-7.2,5.7-10.7    c2.1,2.1,4.4,4,6.8,6.1c-1.4,5-5.4,29.6-5.9,39.3c0.3,14.4-3.4,25.4-2.3,67.1c0.7,3,1.6,6.4,2.4,10.3c3.2,14.8,3.4,18.2,5.6,27.8    c2.1,9.6,7.4,43.4,6.2,85.3c0,0.1,0.3,8.6-0.7,19.9c-0.9,10.3-2.8,25.4-3.7,28.9c-0.8,5.4-1.9,12.2-2.7,17.6    c-0.1,0.1-6.2,5.9-20,7.6l-0.1,0c-11,1.3-27,0-48.6-9l-2-17.3c0-0.2-1.7-22.6-3.9-27.8c-2.2-5.2-3.4-26-3.4-26.2l0.5-15.9    c0,0-2.4,1.2-3.6,1.2c-1.3,0-3.6-1.2-3.6-1.2l0.5,15.9c0,0.2-1.1,21-3.4,26.2c-2.2,5.2-3.9,27.6-3.9,27.8l-1.9,17.3    c-23.3,9.7-40,10.5-51.1,8.6c-12.1-2-17.5-7.2-17.6-7.3c-0.8-5.4-1.8-12.2-2.7-17.6c-0.9-3.5-2.8-18.6-3.7-28.9    c-1-11.3-0.7-19.8-0.7-19.9c-0.7-23.1-0.4-43.1,0.6-58.4c0.7-11.2,1.6-19.3,2.5-23.5c2.2-9.6,3.3-16.5,6.5-31.3    c0.9-3.9,1.7-7.4,2.4-10.4c1-41.4-2.3-50.9-2.1-65.4c-0.4-9.7-4.1-34.4-5.6-39.3c2.4-2.1,6.3-5.5,8.4-7.7c1.1,3.5,3,8.3,5.7,10.7    c4.5,4,28.8,23.7,27.7,61c-0.9,29-1.4,42.5-1.6,47.2c12.1,1.7,27,3.1,43.7,3.1C-605.9,461.3-591.1,459.9-579.3,458.3z" fill="rgb(255, 255, 255)" data-fill-id="1"></path>
	</g>
	<g>
		<defs>
			<path id="SVGID_15_" d="M-579.3,458.3c-0.2-4.6-0.7-18.1-1.6-47.2c-1.1-37.2,23.2-57,27.7-61c2.7-2.4,4.6-7.2,5.7-10.7     c2.1,2.1,4.4,4,6.8,6.1c-1.4,5-5.4,29.6-5.9,39.3c0.3,14.4-3.4,25.4-2.3,67.1c0.7,3,1.6,6.4,2.4,10.3c3.2,14.8,3.4,18.2,5.6,27.8     c2.1,9.6,7.4,43.4,6.2,85.3c0,0.1,0.3,8.6-0.7,19.9c-0.9,10.3-2.8,25.4-3.7,28.9c-0.8,5.4-1.9,12.2-2.7,17.6     c-0.1,0.1-6.2,5.9-20,7.6l-0.1,0c-11,1.3-27,0-48.6-9l-2-17.3c0-0.2-1.7-22.6-3.9-27.8c-2.2-5.2-3.4-26-3.4-26.2l0.5-15.9     c0,0-2.4,1.2-3.6,1.2c-1.3,0-3.6-1.2-3.6-1.2l0.5,15.9c0,0.2-1.1,21-3.4,26.2c-2.2,5.2-3.9,27.6-3.9,27.8l-1.9,17.3     c-23.3,9.7-40,10.5-51.1,8.6c-12.1-2-17.5-7.2-17.6-7.3c-0.8-5.4-1.8-12.2-2.7-17.6c-0.9-3.5-2.8-18.6-3.7-28.9     c-1-11.3-0.7-19.8-0.7-19.9c-0.7-23.1-0.4-43.1,0.6-58.4c0.7-11.2,1.6-19.3,2.5-23.5c2.2-9.6,3.3-16.5,6.5-31.3     c0.9-3.9,1.7-7.4,2.4-10.4c1-41.4-2.3-50.9-2.1-65.4c-0.4-9.7-4.1-34.4-5.6-39.3c2.4-2.1,6.3-5.5,8.4-7.7c1.1,3.5,3,8.3,5.7,10.7     c4.5,4,28.8,23.7,27.7,61c-0.9,29-1.4,42.5-1.6,47.2c12.1,1.7,27,3.1,43.7,3.1C-605.9,461.3-591.1,459.9-579.3,458.3z"></path>
		</defs>
		<clipPath id="SVGID_16_">
			<use xlink:href="#SVGID_15_" style="overflow:visible;"></use>
		</clipPath>
		<g class="st6 can-change" fill="rgb(0, 0, 0)">
			<path class="st7 can-change" d="M-630.3,605.1c0.1,0.2,0.2,0.4,0.2,0.6c-3.6,1.5-7.2,2.9-10.8,4.3c-7.3,2-14.8,3.4-22.2,4.4     c-2.1,0.1-4.1,0.1-6.2,0.1c-5.5,0-10.9-0.2-16.3-0.9c-7.5-1.3-15-3.1-22.2-5.6c-4.3-1.8-8.6-3.7-12.8-5.8     c-0.2-0.1-0.5-0.2-0.7-0.3c0-0.2,0.1-0.6,0.1-0.9c4.2,2.1,8.6,4.1,13,5.8c7.3,2.5,14.8,4.4,22.4,5.8c5.4,0.5,10.7,0.8,16,0.8     c2.3,0,4.5,0,6.8-0.2c7.6-0.9,15.1-2.4,22.5-4.4C-637,607.8-633.6,606.5-630.3,605.1z M-628.9,608.6c0.2,0.4,0.3,0.7,0.5,1     c-3.9,1.7-7.7,3.2-11.6,4.7c-7.5,2-15.1,3.5-22.8,4.5c-2.1,0.1-4.3,0.1-6.4,0.1c-5.6,0-11.1-0.3-16.6-0.8     c-7.7-1.4-15.3-3.3-22.7-5.8c-4.4-1.9-8.8-3.7-13.1-5.8c0-0.4,0.1-0.8,0.1-1.2c4.2,2,8.3,3.9,12.7,5.7c7.4,2.5,15,4.4,22.8,5.8     c5.5,0.6,11.2,0.8,16.7,0.8c2.1,0,4.2,0,6.5-0.1c7.7-1,15.4-2.4,23-4.5C-636.1,611.6-632.5,610.1-628.9,608.6z M-627.5,612.1     c0.2,0.5,0.4,1,0.6,1.5c-4.1,1.8-8.3,3.5-12.5,5c-7.6,2.1-15.4,3.6-23.3,4.5c-2.4,0.1-4.8,0.1-7.2,0.1c-5.5,0-11-0.3-16.4-0.9     c-7.8-1.5-15.6-3.4-23.2-6c-4.2-1.7-8.5-3.5-12.6-5.6c0-0.5,0.1-1.1,0.1-1.6c4,1.9,8.2,3.8,12.4,5.5c7.6,2.5,15.3,4.5,23.2,5.9     c5.7,0.6,11.4,0.9,17,0.9c2.2,0,4.4-0.1,6.6-0.1c7.9-1.1,15.7-2.5,23.4-4.6C-635.2,615.3-631.3,613.7-627.5,612.1z M-626,615.7     c0.3,0.6,0.5,1.2,0.7,1.8c-4.4,1.9-8.8,3.7-13.3,5.4c-7.8,2.2-15.8,3.7-23.8,4.7c-2.5,0.1-5,0.2-7.5,0.2     c-5.6,0-11.1-0.3-16.6-0.9c-8-1.5-16-3.5-23.7-6.1c-3.9-1.6-7.8-3.3-11.7-5.1c-0.2-0.1-0.3-0.1-0.5-0.2c0-0.7,0.1-1.5,0.1-2.1     c3.9,1.9,7.9,3.6,12,5.3c7.7,2.6,15.6,4.6,23.7,6c5.5,0.6,11.1,0.9,16.7,0.9c2.4,0,4.9,0,7.4-0.1c8-1,15.9-2.5,23.8-4.6     C-634.3,619.2-630.1,617.5-626,615.7z M-624.5,619.2c0.3,0.8,0.6,1.6,0.9,2.3c-4.7,2.1-9.5,4-14.3,5.8c-8,2.1-16,3.7-24.2,4.7     c-2.5,0.1-4.9,0.1-7.4,0.1c-5.8,0-11.5-0.3-17.2-0.9c-8.2-1.5-16.4-3.5-24.3-6.2c-3.9-1.6-7.7-3.2-11.5-5c0,0-0.1-0.1-0.2-0.1     c0.1-0.9,0.1-1.7,0.2-2.6c3.8,1.8,7.7,3.5,11.6,5.1c7.9,2.7,16,4.6,24.1,6.2c5.6,0.6,11.2,0.9,16.8,0.9c2.5,0,5-0.1,7.7-0.2     c8.1-1,16.2-2.5,24.2-4.8C-633.5,622.9-629,621.1-624.5,619.2z M-623.1,622.8c0.4,0.9,0.8,1.8,1.1,2.6c-5,2.2-10,4.2-15.1,6.1     c-8.1,2.2-16.4,3.8-24.8,4.9c-2.5,0.1-4.9,0.1-7.4,0.1c-5.9,0-11.8-0.3-17.7-0.9c-8.3-1.6-16.6-3.6-24.7-6.3     c-3.8-1.5-7.5-3.1-11.2-4.8c0.1-1,0.1-2,0.2-3c3.7,1.7,7.5,3.3,11.3,4.9c8,2.8,16.2,4.8,24.6,6.3c5.8,0.6,11.6,0.9,17.4,0.9     c2.5,0,5-0.1,7.5-0.2c8.3-1.1,16.5-2.7,24.6-4.9C-632.6,626.8-627.8,624.9-623.1,622.8z M-621.6,626.3c0.5,1,0.9,2,1.2,3     c-5.3,2.4-10.6,4.6-16.1,6.5c-8.3,2.3-16.8,3.9-25.4,5c-2.6,0.1-5.1,0.2-7.8,0.2c-6,0-11.9-0.3-17.8-1c-8.6-1.5-17-3.7-25.2-6.5     c-3.6-1.4-7.2-2.9-10.8-4.6c0.1-1.2,0.2-2.3,0.2-3.5c3.6,1.7,7.3,3.2,11,4.7c8.2,2.8,16.5,4.8,24.9,6.4     c5.9,0.6,11.9,0.9,17.8,0.9c2.5,0,5-0.1,7.5-0.1c8.4-1.1,16.8-2.7,25-5C-631.7,630.6-626.5,628.6-621.6,626.3z M-620,629.9     c1.5,3.5,3,6.8,4.5,10.2c-6.3,2.9-12.6,5.4-18.9,7.6c-8.9,2.4-17.7,4.1-26.6,5.2c-9.1,0.4-18.1,0.1-27-0.8     c-8.9-1.6-17.9-4-26.6-6.8c-3.1-1.3-6.1-2.5-9.2-3.9c0.2-3.9,0.4-7.8,0.6-11.6c3.5,1.6,7,3.1,10.6,4.5c8.2,2.8,16.7,5,25.3,6.5     c5.9,0.6,11.9,1,17.9,1c2.6,0,5.2,0,7.9-0.2c8.6-1.1,17.1-2.7,25.4-5C-630.7,634.5-625.3,632.3-620,629.9z" fill="rgb(255, 255, 255)" data-fill-id="2"></path>
			<path class="st7 can-change" d="M-615.8,605.1c3.3,1.4,6.7,2.7,10.2,3.9c7.4,2,14.9,3.5,22.5,4.4c2.3,0.1,4.5,0.2,6.8,0.2     c5.3,0,10.6-0.3,16-0.8c7.7-1.4,15.1-3.3,22.4-5.8c4.4-1.7,8.8-3.7,13-5.8c0,0.3,0,0.6,0.1,0.9c-0.2,0.1-0.5,0.2-0.7,0.3     c-4.2,2-8.5,3.9-12.8,5.8c-7.2,2.4-14.7,4.2-22.2,5.6c-5.3,0.6-10.8,0.9-16.3,0.9c-2.1,0-4.2,0-6.2-0.1c-7.5-1-15-2.4-22.2-4.4     c-3.6-1.3-7.2-2.8-10.8-4.3C-616,605.5-616,605.3-615.8,605.1z M-617.3,608.6c3.6,1.5,7.3,3,11,4.4c7.6,2,15.2,3.5,23,4.5     c2.3,0.1,4.4,0.1,6.5,0.1c5.6,0,11.2-0.3,16.7-0.8c7.8-1.4,15.4-3.3,22.8-5.8c4.3-1.8,8.5-3.6,12.7-5.7c0,0.4,0.1,0.8,0.1,1.2     c-4.3,2.1-8.7,4-13.1,5.8c-7.4,2.4-15,4.3-22.7,5.8c-5.5,0.6-11,0.8-16.6,0.8c-2.1,0-4.3,0-6.4-0.1c-7.6-1-15.3-2.4-22.8-4.5     c-3.9-1.5-7.7-3-11.6-4.7C-617.5,609.3-617.4,609-617.3,608.6z M-618.6,612.1c3.9,1.6,7.8,3.2,11.7,4.7     c7.7,2.1,15.5,3.5,23.4,4.6c2.2,0.1,4.4,0.1,6.6,0.1c5.7,0,11.4-0.3,17-0.8c7.9-1.5,15.7-3.4,23.2-6c4.2-1.7,8.4-3.5,12.4-5.5     c0.1,0.6,0.1,1.1,0.1,1.6c-4.2,2.1-8.4,3.9-12.6,5.6c-7.5,2.6-15.3,4.5-23.2,6c-5.4,0.5-10.9,0.9-16.4,0.9c-2.4,0-4.9,0-7.2-0.1     c-7.8-0.9-15.6-2.4-23.3-4.5c-4.2-1.6-8.4-3.3-12.5-5C-619,613.1-618.8,612.6-618.6,612.1z M-620.1,615.7     c4.1,1.8,8.4,3.5,12.6,5.1c7.8,2.2,15.8,3.7,23.8,4.7c2.5,0.1,5,0.1,7.4,0.1c5.6,0,11.1-0.3,16.7-0.9c8.1-1.4,15.9-3.4,23.7-6     c4.1-1.7,8-3.4,12-5.3c0.1,0.7,0.1,1.4,0.1,2.1c-0.1,0-0.3,0.1-0.5,0.2c-3.9,1.8-7.8,3.5-11.7,5.1c-7.7,2.6-15.7,4.6-23.7,6.1     c-5.5,0.6-11,0.9-16.6,0.9c-2.5,0-5-0.1-7.5-0.2c-8-1-16-2.5-23.8-4.7c-4.5-1.7-8.9-3.5-13.3-5.4     C-620.6,616.9-620.4,616.3-620.1,615.7z M-621.6,619.2c4.4,1.9,9,3.8,13.5,5.5c7.9,2.2,16,3.8,24.2,4.8c2.6,0.1,5.2,0.2,7.7,0.2     c5.6,0,11.2-0.3,16.8-0.9c8.2-1.5,16.2-3.5,24.1-6.2c3.9-1.6,7.8-3.3,11.6-5.1c0.1,0.8,0.1,1.7,0.2,2.6c-0.1,0-0.1,0-0.2,0.1     c-3.8,1.8-7.7,3.5-11.5,5c-7.9,2.7-16.1,4.7-24.3,6.2c-5.7,0.6-11.5,0.9-17.2,0.9c-2.5,0-4.9-0.1-7.4-0.1     c-8.2-1.1-16.3-2.6-24.2-4.7c-4.8-1.8-9.6-3.7-14.3-5.8C-622.2,620.7-621.9,619.9-621.6,619.2z M-623,622.8     c4.7,2.1,9.5,4,14.4,5.8c8.1,2.2,16.3,3.8,24.6,4.8c2.5,0.1,5,0.2,7.5,0.2c5.8,0,11.6-0.3,17.4-0.9c8.3-1.6,16.5-3.6,24.6-6.3     c3.8-1.5,7.6-3.1,11.3-4.9c0.1,1,0.1,2,0.2,3c-3.7,1.7-7.5,3.3-11.3,4.8c-8,2.7-16.4,4.8-24.7,6.4c-5.9,0.6-11.8,0.9-17.7,0.9     c-2.5,0-5-0.1-7.4-0.1c-8.4-1.1-16.7-2.7-24.8-4.9c-5.1-1.9-10.2-3.9-15.1-6.1C-623.8,624.5-623.4,623.6-623,622.8z      M-624.5,626.3c5,2.3,10.1,4.3,15.2,6.2c8.2,2.3,16.6,3.9,25,5c2.5,0.1,5,0.1,7.5,0.1c6,0,11.9-0.3,17.8-0.9     c8.4-1.6,16.8-3.6,24.9-6.4c3.7-1.5,7.4-3,11-4.7c0.1,1.2,0.1,2.3,0.2,3.5c-3.5,1.6-7.1,3.1-10.7,4.6c-8.2,2.8-16.7,4.9-25.2,6.5     c-5.9,0.6-11.8,1-17.8,1c-2.6,0-5.2-0.1-7.8-0.2c-8.5-1.1-17-2.7-25.3-5c-5.5-1.9-10.8-4.1-16.1-6.6     C-625.4,628.3-625,627.3-624.5,626.3z M-626.1,629.9c5.3,2.4,10.7,4.7,16.2,6.6c8.4,2.3,16.9,3.9,25.4,5c2.6,0.1,5.2,0.2,7.9,0.2     c6,0,12-0.3,17.9-1c8.7-1.5,17.1-3.7,25.3-6.5c3.6-1.4,7.1-2.9,10.6-4.5c0.2,3.8,0.5,7.7,0.6,11.6c-3.1,1.4-6.1,2.6-9.2,3.9     c-8.7,2.8-17.7,5.2-26.6,6.8c-9,0.9-18,1.2-27,0.8c-8.9-1-17.8-2.8-26.7-5.2c-6.3-2.2-12.7-4.7-18.9-7.6     C-629,636.7-627.6,633.3-626.1,629.9z" fill="rgb(255, 255, 255)" data-fill-id="3"></path>
		</g>
	</g>
	<g>
		<path id="SVGID_6_" class="st3" d="M-579.3,458.3c-0.2-4.6-0.7-18.1-1.6-47.2c-1.1-37.2,23.2-57,27.7-61c2.7-2.4,4.6-7.2,5.7-10.7    c2.1,2.1,4.4,4,6.8,6.1c-1.4,5-5.4,29.6-5.9,39.3c0.3,14.4-3.4,25.4-2.3,67.1c0.7,3,1.6,6.4,2.4,10.3c3.2,14.8,3.4,18.2,5.6,27.8    c2.1,9.6,7.4,43.4,6.2,85.3c0,0.1,0.3,8.6-0.7,19.9c-0.9,10.3-2.8,25.4-3.7,28.9c-0.8,5.4-1.9,12.2-2.7,17.6    c-0.1,0.1-6.2,5.9-20,7.6l-0.1,0c-11,1.3-27,0-48.6-9l-2-17.3c0-0.2-1.7-22.6-3.9-27.8c-2.2-5.2-3.4-26-3.4-26.2l0.5-15.9    c0,0-2.4,1.2-3.6,1.2c-1.3,0-3.6-1.2-3.6-1.2l0.5,15.9c0,0.2-1.1,21-3.4,26.2c-2.2,5.2-3.9,27.6-3.9,27.8l-1.9,17.3    c-23.3,9.7-40,10.5-51.1,8.6c-12.1-2-17.5-7.2-17.6-7.3c-0.8-5.4-1.8-12.2-2.7-17.6c-0.9-3.5-2.8-18.6-3.7-28.9    c-1-11.3-0.7-19.8-0.7-19.9c-0.7-23.1-0.4-43.1,0.6-58.4c0.7-11.2,1.6-19.3,2.5-23.5c2.2-9.6,3.3-16.5,6.5-31.3    c0.9-3.9,1.7-7.4,2.4-10.4c1-41.4-2.3-50.9-2.1-65.4c-0.4-9.7-4.1-34.4-5.6-39.3c2.4-2.1,6.3-5.5,8.4-7.7c1.1,3.5,3,8.3,5.7,10.7    c4.5,4,28.8,23.7,27.7,61c-0.9,29-1.4,42.5-1.6,47.2c12.1,1.7,27,3.1,43.7,3.1C-605.9,461.3-591.1,459.9-579.3,458.3z" fill="none"></path>
	</g>
</g>
<path class="st5 can-change" d="M-664.9,414c4.7-1.1,40.1-8.9,84.1-0.4c0.9,24.3,2.5,42,2.7,44.6h-1.1c-11.8,1.6-26.6,3-43.4,3  c-16.7,0-32.7-1.3-44.8-3C-667.3,455.6-665.8,438.1-664.9,414z" fill="rgb(255, 255, 255)" data-fill-id="12"></path>
<path class="st5 can-change" d="M-580.7,416.2c-38.6-8.3-73.6-1.9-84.3,0.5c0-1.1,0.1-2.1,0.1-3.3c4.7-1.4,40.1-10.7,84.1-0.5  C-580.8,414-580.7,415.1-580.7,416.2z" fill="rgb(255, 255, 255)" data-fill-id="11"></path>
<path class="st5 can-change" d="M-595.1,241.3c0-0.2,12.5,2,12.5,2c-46.4,27.4-80.2,0-80.2,0l9.8-1.8C-622.9,256.9-595.1,241.3-595.1,241.3z" fill="rgb(255, 255, 255)" data-fill-id="9"></path>
<path class="st5 can-change" d="M-622.8,554.3l0.1-140.4" fill="rgb(255, 255, 255)"></path>
<g class="cannot-edit"><path class="st8 cannot-edit can-change" d="M-622.8,461.3l0.2,93.1l-0.3,0c-1.3,0-3.6-1.2-3.6-1.2l0.5,15.9c0,0.1-0.6,11.2-1.8,19.3  c-49.5-20-38.8-128.9-38.6-130.1C-654.4,459.9-639.5,461.3-622.8,461.3z" style="fill: rgb(0, 0, 0);"></path><path class="st8 cannot-edit can-change" d="M-623,461.3c16.7,0,31.6-1.4,43.7-3.1c0.1,1.1,10.9,110.1-38.6,130.1c-1.2-8-1.8-19.1-1.8-19.3l0.5-15.8  c0,0-2.4,1.1-3.6,1.2l-0.4,0L-623,461.3z" style="fill: rgb(0, 0, 0);"></path></g>

<path class="st3 cannot-edit" d="M-626,569c0,0-37.3-33.1-12.1-41.2c3.5-1.1,9.4,3,15.6,3c6.8,0,10.8-4,14.4-2.7c23.5,8.7-11.7,40.9-11.7,40.9" fill="none"></path>
<g>
	<g>
		<path id="SVGID_7_" class="st0 can-change" d="M-757.8,374.3l1.7,2.5c16.9,16.5,35.1,9,35.1,9l-5.2,15.5c-21.1,5.3-33.4-10.1-33.4-10.1    L-757.8,374.3z" fill="rgb(255, 255, 255)" data-fill-id="28"></path>
	</g>
	<g>
		<defs>
			<path id="SVGID_17_" d="M-757.8,374.3l1.7,2.5c16.9,16.5,35.1,9,35.1,9l-5.2,15.5c-21.1,5.3-33.4-10.1-33.4-10.1L-757.8,374.3z"></path>
		</defs>
		<clipPath id="SVGID_18_">
			<use xlink:href="#SVGID_17_" style="overflow:visible;"></use>
		</clipPath>
		<g class="st9 can-change" fill="rgb(0, 0, 0)">
			<g>
				<path class="st5 can-change" d="M-761.3,383.6c0,0,12.8,19.1,43.2,12c0,0-6.9,12-7.4,12.2c-0.5,0.3-28.7,0.6-29.7-0.3      c-1-0.9-8.8-13.8-9.2-14.5C-764.8,392.3-761.3,383.6-761.3,383.6z" fill="rgb(255, 255, 255)" data-fill-id="29"></path>
				<path class="st5 can-change" d="M-762,385.9c0,0,12.8,19,43.2,12c0,0-6.9,12-7.4,12.2c-0.5,0.3-28.7,0.6-29.7-0.3c-1-0.9-8.8-13.8-9.2-14.5      C-765.5,394.7-762,385.9-762,385.9z" fill="rgb(255, 255, 255)" data-fill-id="30"></path>
			</g>
		</g>
	</g>
	<g>
		<path id="SVGID_8_" class="st3" d="M-757.8,374.3l1.7,2.5c16.9,16.5,35.1,9,35.1,9l-5.2,15.5c-21.1,5.3-33.4-10.1-33.4-10.1    L-757.8,374.3z" fill="none"></path>
	</g>
</g>
<g>
	<g>
		<path id="SVGID_9_" class="st0 can-change" d="M-488.3,369.9l1.9,17c0,0-12.4,15.4-33.9,10.1l-5.2-15.5c0,0,18.4,7.4,35.5-9.1L-488.3,369.9z" fill="rgb(255, 255, 255)" data-fill-id="39"></path>
	</g>
	<g>
		<defs>
			<path id="SVGID_19_" d="M-488.3,369.9l1.9,17c0,0-12.4,15.4-33.9,10.1l-5.2-15.5c0,0,18.4,7.4,35.5-9.1L-488.3,369.9z"></path>
		</defs>
		<clipPath id="SVGID_20_">
			<use xlink:href="#SVGID_19_" style="overflow:visible;"></use>
		</clipPath>
		<g class="st10 can-change" fill="rgb(0, 0, 0)">
			<g>
				<path class="st5 can-change" d="M-484.7,379c0,0,3.5,8.8,3.1,9.4c-0.4,0.7-8.2,13.5-9.2,14.5c-1,0.9-29.2,0.6-29.7,0.3      c-0.5-0.3-7.4-12.2-7.4-12.2C-497.5,398-484.7,379-484.7,379z" fill="rgb(255, 255, 255)" data-fill-id="40"></path>
				<path class="st5 can-change" d="M-484,381.3c0,0,3.5,8.8,3.1,9.4c-0.4,0.7-8.2,13.5-9.2,14.4c-1,0.9-29.2,0.6-29.7,0.3      c-0.5-0.2-7.4-12.2-7.4-12.2C-496.8,400.4-484,381.3-484,381.3z" fill="rgb(255, 255, 255)" data-fill-id="41"></path>
			</g>
		</g>
	</g>
	<g>
		<path id="SVGID_10_" class="st3" d="M-488.3,369.9l1.9,17c0,0-12.4,15.4-33.9,10.1l-5.2-15.5c0,0,18.4,7.4,35.5-9.1L-488.3,369.9z    " fill="none"></path>
	</g>
</g>
<g class="human-logo">
	<path d="M-651.2,438.4l0.8-4.6h2.1l-0.2,1.3h1.5l0.2-1.3h3.7l-0.5,2.7c0,0,0,0.1,0,0.1h0.1h1.1c0.1,0,0.1,0,0.2,0   c0.1-0.1,0.1-0.2,0.1-0.2l0.4-2.5h4.1l0.7,1.9l1.3-1.9h2.5l-0.5,2.6l1.8-2.6h2.1l1,2.7l0.5-2.7h2.4l1.2,1.9l0.3-1.9h2.1l-0.8,4.6   h-2.4l-1.2-1.9l-0.3,1.9h-3.3l-0.2-0.7h-1.7l-0.5,0.7h-3.3l0.2-1.3l-0.9,1.3h-1.4l-0.5-1.4l-0.3,1.4h-2l0.1-0.5c0,0-0.1,0-0.1,0.1   c-0.4,0.3-1,0.4-1.5,0.4h-1.6c-0.4,0-0.9-0.1-1.3-0.3c-0.1-0.1-0.2-0.2-0.3-0.3l-0.1,0.6h-2.1l0.2-1.4h-1.5l-0.2,1.4L-651.2,438.4   L-651.2,438.4z"></path>
	<polygon class="st0 can-change" points="-650.6,437.9 -649.9,434.2 -648.8,434.2 -649,435.5 -646.6,435.5 -646.4,434.2 -645.3,434.2    -645.9,437.9 -647.1,437.9 -646.8,436.5 -649.2,436.5 -649.5,437.9  " fill="rgb(255, 255, 255)"></polygon>
	<path class="st0 can-change" d="M-645.2,436.6l0.4-2.4h1.1l-0.4,2.1c-0.1,0.5,0.1,0.7,0.5,0.7h1.1c0.5,0,0.7-0.2,0.8-0.7l0.4-2.1h1.1l-0.4,2.4   c-0.2,0.9-0.7,1.4-1.8,1.4h-1.6C-644.9,437.9-645.3,437.5-645.2,436.6" fill="rgb(255, 255, 255)"></path>
	<polygon class="st0 can-change" points="-640.2,437.9 -639.5,434.2 -637.8,434.2 -636.9,436.6 -635.2,434.2 -633.4,434.2 -634.1,437.9    -635.2,437.9 -634.7,435.2 -634.8,435.2 -636.7,437.9 -637.6,437.9 -638.6,435.2 -638.6,435.2 -639.1,437.9  " fill="rgb(255, 255, 255)"></polygon>
	<path class="st0 can-change" d="M-630.7,435l-1,1.4h1.5L-630.7,435z M-634,437.9l2.7-3.7h1.5l1.4,3.7h-1.3l-0.2-0.7h-2.3l-0.5,0.7H-634z" fill="rgb(255, 255, 255)"></path>
	<polygon class="st0 can-change" points="-628.2,437.9 -627.6,434.2 -625.8,434.2 -624.2,436.9 -624.1,436.9 -623.7,434.2 -622.5,434.2    -623.2,437.9 -624.9,437.9 -626.6,435.2 -626.6,435.2 -627.1,437.9  " fill="rgb(255, 255, 255)"></polygon>
	<path d="M-621.8,436.9l0-0.2h1.1c-0.1,0.4,0.1,0.4,0.4,0.4h1.4c0.2,0,0.5,0,0.5-0.3c0.1-0.3-0.1-0.3-1.5-0.3   c-1.7,0-1.9-0.2-1.7-1.1c0.1-0.7,0.3-1.2,1.7-1.2h1.6c1.3,0,1.4,0.4,1.2,1.1l0,0.1h-1.1c0-0.3,0-0.4-0.5-0.4h-1.3   c-0.2,0-0.4,0.1-0.5,0.3c-0.1,0.3,0.1,0.3,1.3,0.3c1.8,0,2.2,0.1,2,1.2c-0.2,1-0.6,1.2-2.1,1.2h-1.4   C-621.6,437.9-622,437.7-621.8,436.9"></path>
	<path d="M-615.2,435.1l-0.2,0.9h1.8c0.3,0,0.4-0.2,0.4-0.4l0-0.1c0-0.3-0.1-0.4-0.4-0.4H-615.2z M-616.8,437.9l0.7-3.7h3.1   c1.1,0,1.3,0.5,1.1,1.3l-0.1,0.3c-0.1,0.5-0.5,1.2-1.3,1.2h-2.3l-0.2,0.9H-616.8z"></path>
	<polygon points="-612,437.9 -611.4,434.2 -607.3,434.2 -607.4,435 -610.4,435 -610.5,435.6 -607.7,435.6 -607.8,436.4    -610.6,436.4 -610.7,437 -607.7,437 -607.9,437.9  "></polygon>
	<polygon points="-607.4,437.9 -606.8,434.2 -602.7,434.2 -602.9,435 -605.8,435 -605.9,435.6 -603.1,435.6 -603.3,436.4    -606,436.4 -606.1,437 -603.1,437 -603.3,437.9  "></polygon>
	<path d="M-601.2,435.1l-0.3,1.8h2c0.5,0,0.7-0.1,0.8-0.7l0.1-0.5c0.1-0.5-0.1-0.7-0.6-0.7H-601.2z M-602.8,437.9l0.7-3.7h3.4   c1.1,0,1.5,0.4,1.3,1.3l-0.2,1.1c-0.2,0.9-0.6,1.3-1.8,1.3L-602.8,437.9L-602.8,437.9z"></path>
	<path d="M-595.7,433.5c-0.5,0-0.9,0.4-0.9,1c0,0.6,0.4,1,1,1c0.5,0,0.9-0.4,0.9-1C-594.8,433.9-595.2,433.5-595.7,433.5    M-595.7,433.2c0.7,0,1.2,0.6,1.2,1.2c0,0.7-0.5,1.2-1.2,1.2s-1.2-0.6-1.2-1.2C-596.9,433.8-596.4,433.2-595.7,433.2 M-595.9,434   v0.4h0.1c0.2,0,0.3-0.1,0.3-0.2c0-0.1-0.1-0.2-0.3-0.2C-595.8,434-595.9,434-595.9,434 M-595.9,434.6v0.5h-0.2v-1.2   c0.1,0,0.2,0,0.4,0c0.2,0,0.3,0,0.4,0.1c0.1,0,0.1,0.1,0.1,0.3c0,0.1-0.1,0.2-0.3,0.3v0c0.1,0,0.2,0.1,0.2,0.3   c0,0.2,0.1,0.3,0.1,0.3h-0.3c-0.1-0.1-0.1-0.1-0.1-0.3c0-0.1-0.1-0.2-0.3-0.2H-595.9L-595.9,434.6z"></path>
	<rect x="-651.2" y="433.2" class="st11" width="56.7" height="5.2" fill="none"></rect>
	<path d="M-617,439.2h0.3l-0.2,1.1h-0.3L-617,439.2z"></path>
	<path d="M-615.9,439.2h0.5l0.5,0.8l0.2-0.8h0.3l-0.2,1.1h-0.5l-0.5-0.8l-0.2,0.8h-0.3L-615.9,439.2z"></path>
	<path d="M-613.4,439.5h-0.5l0.1-0.3h1.3l-0.1,0.3h-0.5l-0.2,0.8h-0.3L-613.4,439.5z"></path>
	<path d="M-610.7,439.2l-0.1,0.2h-0.9l0,0.2h0.8l0,0.2h-0.8l0,0.2h0.9l-0.1,0.2h-1.2l0.2-1.1L-610.7,439.2L-610.7,439.2z"></path>
	<path d="M-610,439.2h0.3l-0.2,0.8h0.7l-0.1,0.3h-1.1L-610,439.2z"></path>
	<path d="M-608.3,439.2h0.3l-0.2,0.8h0.7l-0.1,0.3h-1.1L-608.3,439.2z"></path>
	<path d="M-606.5,439.2h0.3l-0.2,1.1h-0.3L-606.5,439.2z"></path>
	<path d="M-604.5,439.6C-604.5,439.6-604.5,439.5-604.5,439.6c0-0.1,0-0.1,0-0.1c0,0,0,0-0.1,0l-0.1,0l-0.2,0c-0.1,0-0.2,0-0.2,0.1   c0,0.1-0.1,0.3-0.1,0.4c0,0.1,0.1,0.1,0.2,0.1c0,0,0.1,0,0.3,0c0.2,0,0.2,0,0.2-0.1c0,0,0,0,0-0.1h-0.4l0-0.2h0.7l0,0.1   c0,0.2,0,0.2-0.1,0.3c-0.1,0.1-0.2,0.2-0.3,0.2c0,0-0.2,0-0.4,0c-0.3,0-0.4,0-0.5-0.1c-0.1,0-0.1-0.1-0.1-0.2c0-0.1,0-0.2,0.1-0.4   c0.1-0.3,0.1-0.4,0.3-0.4c0.1,0,0.2,0,0.5,0c0.4,0,0.5,0,0.5,0.1c0.1,0,0.1,0.1,0.1,0.2c0,0,0,0.1,0,0.2L-604.5,439.6L-604.5,439.6   z"></path>
	<path d="M-602.2,439.2l-0.1,0.2h-0.9l0,0.2h0.8l0,0.2h-0.8l0,0.2h0.9l-0.1,0.2h-1.2l0.2-1.1L-602.2,439.2L-602.2,439.2z"></path>
	<path d="M-601.4,439.2h0.5l0.5,0.8l0.2-0.8h0.3l-0.2,1.1h-0.5l-0.5-0.8l-0.2,0.8h-0.3L-601.4,439.2z"></path>
	<path d="M-598.9,439.5h-0.5l0.1-0.3h1.3l-0.1,0.3h-0.5l-0.2,0.8h-0.3L-598.9,439.5z"></path>
	<g>
		<polygon class="st12 can-change" points="-622.4,439.9 -622.5,440.3 -621.3,440.3 -621.2,439.9   " fill="rgb(237, 28, 36)"></polygon>
		<polygon class="st12 can-change" points="-617.6,439.6 -617.5,439.2 -620.7,439.2 -620.8,439.6   " fill="rgb(237, 28, 36)"></polygon>
		<polygon class="st12 can-change" points="-621.1,439.2 -622.3,439.2 -622.3,439.6 -621.2,439.6   " fill="rgb(237, 28, 36)"></polygon>
		<polygon class="st12 can-change" points="-621,440.3 -617.7,440.3 -617.7,439.9 -620.9,439.9   " fill="rgb(237, 28, 36)"></polygon>
		<polygon class="st0 can-change" points="-620.8,439.6 -620.7,439.2 -621.1,439.2 -621.2,439.6 -622.3,439.6 -622.4,439.9 -621.2,439.9     -621.3,440.3 -621,440.3 -620.9,439.9 -617.7,439.9 -617.6,439.6   " fill="rgb(255, 255, 255)"></polygon>
	</g>
</g>
</svg>