<svg xmlns="http://www.w3.org/2000/svg" xmlns:xlink="http://www.w3.org/1999/xlink" version="1.1" id="Layer_1" x="0px" y="0px" viewBox="0 0 295 368" style="enable-background:new 0 0 295 368;" xml:space="preserve" data-product="2017501" data-design="5" data-size="m">
<g>
	
		<path style="fill-rule:evenodd;clip-rule:evenodd;fill:#FFFFFF;stroke:#6D6E71;stroke-width:0.34;stroke-linecap:round;stroke-linejoin:round;stroke-miterlimit:10;" d="   M189.585,11.545c0,0,22.67,12.69,34.01,16.98c11.31,4.28,31.83,13.09,31.83,13.09s12.11,5.22,17.58,18.8   c5.47,13.54,11.59,34.89,12.76,59.78c1.16,24.91,3.91,29.39,3.77,36.82c0,0-2.56-0.51-7.37,0.45c-4.82,1-26.31,6.24-28.63,6.58   l-11.31-28.69c0,0,2.15-42.54-18.51-67.86c0,0-15.4-14.37-20.3-18.71c-4.9-4.31-20.47-14.68-26.93-17.88   C176.485,30.905,189.605,10.945,189.585,11.545z" data-fill-id="4" class="can-change"></path>
	
		<path style="fill-rule:evenodd;clip-rule:evenodd;fill:#E6E7E8;stroke:#6D6E71;stroke-width:0.31;stroke-linecap:round;stroke-linejoin:round;stroke-miterlimit:10;" d="   M6.885,170.675c0,0-1.41-0.68,7.77,1.93c9.13,2.61,29,4.54,31.63,10.69c0,0-8.84,0.9-23.04-2.81c-14.17-3.68-19.36-6.92-19.36-6.92   L6.885,170.675z" class="cannot-edit can-change"></path>
	
		<path style="fill-rule:evenodd;clip-rule:evenodd;fill:#FFFFFF;stroke:#6D6E71;stroke-width:0.34;stroke-linecap:round;stroke-linejoin:round;stroke-miterlimit:10;" d="   M105.425,11.545c-0.03-0.6,13.09,19.21,13.09,19.21c-6.46,3.21-22.05,13.72-26.96,18.03c-4.87,4.34-20.29,18.71-20.29,18.71   c-20.64,25.32-18.51,67.86-18.51,67.86l-11.28,28.69c-2.36-0.34-23.82-5.58-28.66-6.58c-4.82-0.96-7.37-0.45-7.37-0.45   c-0.14-7.43,2.61-11.91,3.77-36.82c1.16-24.89,7.28-46.24,12.75-59.78c5.47-13.58,17.61-18.8,17.61-18.8s20.49-8.81,31.83-13.09   C82.715,24.235,105.425,11.545,105.425,11.545z" class="can-change" data-fill-id="100"></path>
	
		<path style="fill-rule: evenodd;clip-rule: evenodd;fill: #E4E5E6;stroke: rgb(109, 110, 113);stroke-width: 0.34;stroke-linecap: round;stroke-linejoin: round;stroke-miterlimit: 10;" d="   M147.605,362.925c-1.54,0.08-50.49,2.35-77.08-21.46c-0.11-0.14-11.65-13.07-12.05-20.1c0.03-0.03,2.19-4.62,13.33-5.33   c11.17-0.73,75.82-0.9,75.77-0.9c-0.09,0,64.65,0.17,75.8,0.9c11.16,0.71,13.32,5.3,13.35,5.33c-0.43,7.03-11.94,19.96-12.05,20.1   C198.085,365.275,149.135,363.005,147.605,362.925z" class="cannot-edit can-change"></path>
	
		<path style="fill-rule:evenodd;clip-rule:evenodd;fill:#FFFFFF;stroke:#6D6E71;stroke-width:0.34;stroke-linecap:round;stroke-linejoin:round;stroke-miterlimit:10;" d="   M118.515,30.755c7.49,8.14,17.07,12.93,28.97,12.7l0.09,271.68c-25.52,0.05-80.28,1.67-80.28,1.67   c7.65-75.23,7.31-110.98-0.09-145.25c-7.37-34.24-14.45-36.2-14.45-36.2c-2.35-39.06,14.23-63.21,18.51-67.86   c1.42-2.04,11.88-10.63,20.29-18.71C100.005,40.735,118.515,30.755,118.515,30.755z" class="can-change"></path>
	<g>
		<defs>
			<path id="SVGID_1_" d="M176.485,30.905c0,0,18.48,9.83,26.93,17.88c8.45,8.08,18.88,16.67,20.3,18.71     c4.3,4.65,20.86,28.8,18.51,67.86c0,0-6.21,4.4-14.46,36.2c-7.37,34.27-7.71,70.02-0.06,145.25c0,0-54.76-1.62-80.28-1.67     l0.06-271.68C154.575,43.405,165.455,42.755,176.485,30.905z"></path>
		</defs>
		<use xlink:href="#SVGID_1_" style="fill-rule:evenodd;clip-rule:evenodd;fill:#FFFFFF;stroke:#6D6E71;stroke-width:0.34;stroke-linecap:round;stroke-linejoin:round;stroke-miterlimit:10;" data-fill-id="1" class="can-change"></use>
		<clipPath id="SVGID_2_">
			<use xlink:href="#SVGID_1_" style="overflow:visible;"></use>
		</clipPath>
		<g style="clip-path:url(#SVGID_2_);">
			<g>
				
					<path style="fill-rule:evenodd;clip-rule:evenodd;fill:#FFFFFF;stroke:#6D6E71;stroke-width:0.34;stroke-linecap:round;stroke-linejoin:round;stroke-miterlimit:10;" d="      M174.615,108.375h7.31v217.3h-7.31V108.375z" class="can-change"></path>
				
					<path style="fill-rule:evenodd;clip-rule:evenodd;fill:#FFFFFF;stroke:#6D6E71;stroke-width:0.34;stroke-linecap:round;stroke-linejoin:round;stroke-miterlimit:10;" d="      M189.265,108.375h7.32v217.3h-7.32V108.375z" class="can-change"></path>
				
					<path style="fill-rule:evenodd;clip-rule:evenodd;fill:#FFFFFF;stroke:#6D6E71;stroke-width:0.34;stroke-linecap:round;stroke-linejoin:round;stroke-miterlimit:10;" d="      M181.925,108.375h7.34v217.3h-7.34V108.375z" class="can-change"></path>
			</g>
		</g>
		
			<use xlink:href="#SVGID_1_" style="overflow:visible;fill-rule:evenodd;clip-rule:evenodd;fill:none;stroke:#6D6E71;stroke-width:0.34;stroke-linecap:round;stroke-linejoin:round;stroke-miterlimit:10;"></use>
	</g>
	
		<path style="fill-rule:evenodd;clip-rule:evenodd;fill:none;stroke:#6D6E71;stroke-width:0.34;stroke-linecap:round;stroke-linejoin:round;stroke-miterlimit:10;" d="   M69.955,332.135c0-1.07,1.7-15.47,1.7-15.47"></path>
	
		<path style="fill-rule:evenodd;clip-rule:evenodd;fill:none;stroke:#6D6E71;stroke-width:0.34;stroke-linecap:round;stroke-linejoin:round;stroke-miterlimit:10;" d="   M224.845,332.135c0-1.07-1.7-15.47-1.7-15.47"></path>
	
		<path style="fill-rule:evenodd;clip-rule:evenodd;fill:none;stroke:#6D6E71;stroke-width:0.34;stroke-linecap:round;stroke-linejoin:round;stroke-miterlimit:10;" d="   M70.865,323.775c0,0,68.15,31.92,152.9-0.03"></path>
	
		<path style="fill-rule:evenodd;clip-rule:evenodd;fill:none;stroke:#6D6E71;stroke-width:0.34;stroke-linecap:round;stroke-linejoin:round;stroke-miterlimit:10;" d="   M115.625,335.765l-1.05-20.12"></path>
	
		<path style="fill-rule:evenodd;clip-rule:evenodd;fill:none;stroke:#6D6E71;stroke-width:0.34;stroke-linecap:round;stroke-linejoin:round;stroke-miterlimit:10;" d="   M116.955,315.815l1.11,20.15"></path>
	
		<path style="fill-rule:evenodd;clip-rule:evenodd;fill:none;stroke:#6D6E71;stroke-width:0.34;stroke-linecap:round;stroke-linejoin:round;stroke-miterlimit:10;" d="   M179.125,335.455l1.1-19.87"></path>
	
		<path style="fill-rule:evenodd;clip-rule:evenodd;fill:none;stroke:#6D6E71;stroke-width:0.34;stroke-linecap:round;stroke-linejoin:round;stroke-miterlimit:10;" d="   M177.785,315.525l-1.1,20.27"></path>
	
		<path style="fill-rule:evenodd;clip-rule:evenodd;fill:#FFFFFF;stroke:#6D6E71;stroke-width:0.34;stroke-linecap:round;stroke-linejoin:round;stroke-miterlimit:10;" d="   M66.445,170.905l0.68,0.28v-0.05c2.13,0.76,4.48,1.75,6.66,2.94l0.03,0.03c9.04,26.39,18.88,70.25,24.6,141.99   c-16.95,0.4-30.84,0.71-31.12,0.71c-0.06,0-5.24,0.08-8.82,4.56c0-0.37,3.94-40.82,4.99-65.7c0-18.37,0.68-51.28-4.31-86.83   l3.6,0.79L66.445,170.905z" data-fill-id="16" class="can-change"></path>
	
		<path style="fill-rule:evenodd;clip-rule:evenodd;fill:#FFFFFF;stroke:#6D6E71;stroke-width:0.34;stroke-linecap:round;stroke-linejoin:round;stroke-miterlimit:10;" d="   M228.755,170.935l3.46-1.11l3.63-0.88c-4.99,35.55-4.31,68.46-4.31,86.83c1.05,24.89,4.99,65.34,4.99,65.71   c-3.57-4.48-8.76-4.57-8.82-4.57c-0.28,0-14.17-0.45-31.12-0.85c5.72-71.74,15.56-115.45,24.6-141.84l0.03-0.03   c2.18-1.19,4.54-2.18,6.66-2.95v0.06C227.905,171.185,228.725,171.045,228.755,170.935z" data-fill-id="2" class="can-change"></path>
	
		<path style="fill-rule:evenodd;clip-rule:evenodd;fill:#FFFFFF;stroke:#6D6E71;stroke-width:0.34;stroke-linecap:round;stroke-linejoin:round;stroke-miterlimit:10;" d="   M59.155,168.835c-0.99-7.06-2.35-14.03-4.08-20.75l-4.28,20.67c-0.05-0.06-2.49-2.67-7.74-4.17l-1.58-0.54l11.31-28.8   c0.08,0.06,10.51,7.97,21,38.83C69.255,171.925,64.435,169.825,59.155,168.835z" data-fill-id="17" class="can-change"></path>
	
		<path style="fill-rule:evenodd;clip-rule:evenodd;fill:#FFFFFF;stroke:#6D6E71;stroke-width:0.34;stroke-linecap:round;stroke-linejoin:round;stroke-miterlimit:10;" d="   M235.845,168.945c-5.27,1-10.09,3.09-14.63,5.25c10.49-30.87,20.92-38.78,21.01-38.84l11.31,28.8l-1.59,0.54   c-5.25,1.5-7.68,4.11-7.74,4.17l-4.28-20.67C238.195,154.915,236.835,161.895,235.845,168.945z" data-fill-id="3" class="can-change"></path>
	
		<path style="fill-rule:evenodd;clip-rule:evenodd;fill:#D1D3D4;stroke:#000000;stroke-width:2.83;stroke-linecap:round;stroke-linejoin:round;stroke-miterlimit:10;" d="   M105.425,11.545c0,0,18.62-6.52,42.06-6.58c23.44-0.06,42.1,6.58,42.1,6.58l-13.1,19.36c-12.98,13.52-29,12.55-29,12.55   c-18.96,0-28.97-12.7-28.97-12.7L105.425,11.545z" class="cannot-edit can-change"></path>
	
		<path style="fill-rule:evenodd;clip-rule:evenodd;fill:none;stroke:#6D6E71;stroke-width:1.02;stroke-linecap:round;stroke-linejoin:round;stroke-miterlimit:10;" d="   M147.425,317.515l0.06-274.42"></path>
	
		<path style="fill-rule:evenodd;clip-rule:evenodd;fill:none;stroke:#6D6E71;stroke-width:0.34;stroke-linecap:round;stroke-linejoin:round;stroke-miterlimit:10;" d="   M149.615,317.515l0.05-274.42"></path>
	
		<path style="fill-rule:evenodd;clip-rule:evenodd;fill:none;stroke:#6D6E71;stroke-width:0.34;stroke-linecap:round;stroke-linejoin:round;stroke-miterlimit:10;" d="   M145.275,317.515l0.09-274.42"></path>
	<g>
		<path style="fill-rule:evenodd;clip-rule:evenodd;fill:#FFFFFF;" d="M147.515,46.865h0.79c0,0,0.15-0.23,0.17-0.68    c0.03-0.4,0.15-0.4,0.15-0.4s0.31-0.29,0.42-0.34c0.17-0.12,0.14-0.34,0.14-0.34s0-0.34,0-0.8c-0.03-0.45-0.14-0.51-0.14-0.51    l-1.02-1.04v-0.52l-0.54-0.02l-0.54,0.02v0.52l-1.02,1.04c0,0-0.11,0.06-0.14,0.51c0,0.46,0,0.8,0,0.8s-0.03,0.22,0.14,0.34    c0.14,0.05,0.46,0.34,0.46,0.34s0.08,0,0.11,0.4c0.06,0.45,0.17,0.68,0.17,0.68H147.515" class="can-change"></path>
		<path style="fill-rule:evenodd;clip-rule:evenodd;" d="M147.515,46.865h0.79c0,0,0.15-0.23,0.17-0.68c0-0.2,0.03-0.32,0.06-0.35    l0.09-0.05c0,0,0.31-0.29,0.42-0.34c0.11-0.09,0.14-0.26,0.14-0.31v-0.03c0,0,0-0.14,0-0.4c0-0.11,0-0.25,0-0.4    c-0.03-0.45-0.14-0.53-0.14-0.53l-1.02-1.02v-0.52l-0.54-0.02l-0.54,0.02v0.52l-1.02,1.04c0,0-0.11,0.06-0.14,0.51    c0,0.15,0,0.29,0,0.4c0,0.26,0,0.4,0,0.4v0.03c0,0.05,0.03,0.22,0.14,0.31c0.14,0.05,0.46,0.34,0.46,0.34l0.05,0.05    c0.03,0.03,0.06,0.15,0.06,0.35c0.06,0.45,0.17,0.68,0.17,0.68H147.515h-0.85c0,0-0.11-0.23-0.17-0.68c0-0.2-0.03-0.32-0.06-0.35    l-0.05-0.05c0,0-0.32-0.29-0.46-0.34c-0.11-0.09-0.14-0.26-0.14-0.31v-0.03c0,0,0-0.14,0-0.4c0-0.11,0-0.25,0-0.4    c0.03-0.45,0.14-0.53,0.14-0.53l1.02-1.02v-0.52l0.54-0.02l0.54,0.02v0.52l1.02,1.02c0,0,0.11,0.08,0.14,0.53c0,0.15,0,0.29,0,0.4    c0,0.26,0,0.4,0,0.4v0.03c0,0.05-0.03,0.22-0.14,0.31c-0.11,0.05-0.42,0.34-0.42,0.34l-0.09,0.05c-0.03,0.03-0.06,0.15-0.06,0.35    c-0.02,0.45-0.17,0.68-0.17,0.68H147.515z" class="can-change"></path>
		<path style="fill-rule:evenodd;clip-rule:evenodd;" d="M147.145,42.465h0.68v3.15h-0.68V42.465v3.15h0.68v-3.15H147.145z" class="can-change"></path>
		<path style="fill-rule:evenodd;clip-rule:evenodd;fill:#FFFFFF;" d="M147.455,47.395l1.36-0.02c0,0,0.03-2.36,0.12-2.61    c0.03-0.26-0.14-0.31-0.14-0.31h-1.34h-1.3c0,0-0.2,0.05-0.11,0.31c0.05,0.25,0.08,2.61,0.08,2.61L147.455,47.395" class="can-change"></path>
		<path style="fill-rule:evenodd;clip-rule:evenodd;" d="M147.485,47.375h1.33c0,0,0.03-2.36,0.12-2.61v-0.09    c0-0.2-0.14-0.22-0.14-0.22h-1.34h-1.3c0,0-0.11,0.02-0.11,0.22v0.09c0.05,0.25,0.08,2.61,0.08,2.61H147.485h-1.36    c0,0-0.03-2.36-0.08-2.61v-0.09c0-0.2,0.11-0.22,0.11-0.22h1.3h1.34c0,0,0.14,0.02,0.14,0.22v0.09c-0.09,0.25-0.12,2.61-0.12,2.61    H147.485z" class="can-change"></path>
		<path style="fill-rule:evenodd;clip-rule:evenodd;fill:#4F5053;" d="M148.115,51.165h-1.28c-0.57-0.11-0.54-0.96-0.54-0.96    l-0.17-2.83h2.69l-0.17,2.83C148.645,50.205,148.645,51.055,148.115,51.165z" class="can-change"></path>
		<path style="fill-rule:evenodd;clip-rule:evenodd;" d="M148.115,51.165c0.53-0.11,0.53-0.9,0.53-0.96l0.17-2.83h-2.69l0.17,2.83    c0,0.06,0,0.85,0.54,0.96H148.115h-1.28c-0.54-0.11-0.54-0.9-0.54-0.96l-0.17-2.83h2.69l-0.17,2.83    C148.645,50.265,148.645,51.055,148.115,51.165z" class="can-change"></path>
		<path style="fill-rule:evenodd;clip-rule:evenodd;" d="M147.915,47.175c0.08-0.63,0.28-1.02,0.62-1.48v-0.85h-2.13v0.85    c0.34,0.46,0.54,0.85,0.66,1.48H147.915h-0.85c-0.12-0.63-0.32-1.02-0.66-1.48v-0.85h2.13v0.85    C148.195,46.155,147.995,46.545,147.915,47.175z" class="can-change"></path>
		<path style="fill-rule:evenodd;clip-rule:evenodd;" d="M146.495,43.855h0.65v0.62h-0.65V43.855v0.62h0.65v-0.62H146.495z" class="can-change"></path>
		<path style="fill-rule:evenodd;clip-rule:evenodd;" d="M147.825,43.855h0.63v0.62h-0.63V43.855v0.62h0.63v-0.62H147.825z" class="can-change"></path>
		<path style="fill-rule:evenodd;clip-rule:evenodd;" d="M147.825,44.675h0.63v0.63h-0.63V44.675v0.63h0.63v-0.63H147.825z" class="can-change"></path>
		<path style="fill-rule:evenodd;clip-rule:evenodd;" d="M146.495,44.675h0.65v0.63h-0.65V44.675v0.63h0.65v-0.63H146.495z" class="can-change"></path>
	</g>
	
		<path style="fill-rule:evenodd;clip-rule:evenodd;fill:#FFFFFF;stroke:#6D6E71;stroke-width:0.34;stroke-linecap:round;stroke-linejoin:round;stroke-miterlimit:10;" d="   M150.855,41.075c0,0,1.65,0.54,1.22,1.82c-0.39,1.24-0.76,4.31-5.69,6.91c0,0-2.64,1.28-2.73-1.53c-0.11-2.78-0.14-5.27-0.08-5.52   c0.08-0.26-0.54-1.82,1.45-1.68C146.975,41.215,150.855,41.075,150.855,41.075z" class="can-change"></path>
	
		<path style="fill-rule:evenodd;clip-rule:evenodd;fill:none;stroke:#6D6E71;stroke-width:0.34;stroke-linecap:round;stroke-linejoin:round;stroke-miterlimit:10;" d="   M144.455,41.275c0,0,0,7.31,0.48,7.46c0.48,0.14,4.96-1.59,6.15-6.61"></path>
	
		<path style="fill-rule: evenodd;clip-rule: evenodd;fill: #E4E5E6;stroke: rgb(0, 0, 0);stroke-width: 2.83;stroke-linecap: round;stroke-linejoin: round;stroke-miterlimit: 10;" d="   M58.475,321.365c0,0,2.47-4.5,13.18-4.7c10.72-0.2,70.5-1.65,75.77-1.53c0,0,51.88,0.56,80.28,1.78c0,0,5.84,0.14,8.82,4.57   c0,0-7.29,41.55-85.24,41.55s-88.19-29.56-92.3-39.34L58.475,321.365z" class="cannot-edit can-change"></path>
	<g>
		<defs>
			<path id="SVGID_3_" d="M50.795,168.755l-4.51,14.65c0,0-2.72-2.07-7.39-3.54c-4.68-1.48-31.16-6.3-31.16-6.3s-2.24-0.31-3.85,0     l1.56-16.55c0,0,3.23-0.31,7.37,0.45c4.14,0.77,30.24,7.12,30.24,7.12s5.19,1.84,6.47,3L50.795,168.755z"></path>
		</defs>
		<use xlink:href="#SVGID_3_" style="overflow:visible;fill-rule:evenodd;clip-rule:evenodd;fill:#FFFFFF;" data-fill-id="10" class="can-change"></use>
		<clipPath id="SVGID_4_">
			<use xlink:href="#SVGID_3_" style="overflow:visible;"></use>
		</clipPath>
		<g style="clip-path:url(#SVGID_4_);">
			<g>
				
					<path style="fill-rule:evenodd;clip-rule:evenodd;fill:#FFFFFF;stroke:#6D6E71;stroke-width:0.34;stroke-linecap:round;stroke-linejoin:round;stroke-miterlimit:10;" d="      M50.055,172.435l-4.5,14.66c0,0-2.72-2.07-7.4-3.55c-4.68-1.47-31.15-6.29-31.15-6.29s-2.24-0.31-3.86,0l1.56-16.56      c0,0,3.23-0.31,7.37,0.46c4.14,0.76,30.25,7.11,30.25,7.11s5.18,1.85,6.46,3.01L50.055,172.435z" data-fill-id="11" class="can-change"></path>
				
					<path style="fill-rule:evenodd;clip-rule:evenodd;fill:#FFFFFF;stroke:#6D6E71;stroke-width:0.34;stroke-linecap:round;stroke-linejoin:round;stroke-miterlimit:10;" d="      M49.665,176.465l-4.51,14.65c0,0-2.72-2.07-7.4-3.54c-4.67-1.48-31.15-6.3-31.15-6.3s-2.24-0.31-3.86,0l1.56-16.55      c0,0,3.24-0.31,7.37,0.45c4.14,0.77,30.25,7.12,30.25,7.12s5.19,1.84,6.46,3L49.665,176.465z" data-fill-id="12" class="can-change"></path>
				
					<path style="fill-rule:evenodd;clip-rule:evenodd;fill:#FFFFFF;stroke:#6D6E71;stroke-width:0.34;stroke-linecap:round;stroke-linejoin:round;stroke-miterlimit:10;" d="      M49.405,180.685l-4.5,14.65c0,0-2.73-2.07-7.4-3.54c-4.68-1.47-31.16-6.29-31.16-6.29s-2.23-0.31-3.85,0l1.56-16.56      c0,0,3.23-0.31,7.37,0.46c4.14,0.76,30.24,7.11,30.24,7.11s5.19,1.84,6.47,3.01L49.405,180.685z" data-fill-id="13" class="can-change"></path>
			</g>
		</g>
		
			<use xlink:href="#SVGID_3_" style="overflow:visible;fill-rule:evenodd;clip-rule:evenodd;fill:none;stroke:#6D6E71;stroke-width:0.34;stroke-linecap:round;stroke-linejoin:round;stroke-miterlimit:10;"></use>
	</g>
	
		<path style="fill-rule:evenodd;clip-rule:evenodd;fill:#E6E7E8;stroke:#6D6E71;stroke-width:0.31;stroke-linecap:round;stroke-linejoin:round;stroke-miterlimit:10;" d="   M288.115,170.795l3,2.89c0,0-5.18,3.23-19.36,6.91c-14.2,3.72-23.04,2.81-23.04,2.81c2.63-6.15,22.5-8.08,31.63-10.69   C289.535,170.115,288.115,170.795,288.115,170.795z" class="cannot-edit can-change"></path>
	
		<path style="fill-rule:evenodd;clip-rule:evenodd;fill:#FFFFFF;stroke:#6D6E71;stroke-width:0.34;stroke-linecap:round;stroke-linejoin:round;stroke-miterlimit:10;" d="   M244.205,168.865l1.28-1.16c1.27-1.17,6.46-3.01,6.46-3.01s26.11-6.35,30.24-7.11c4.14-0.77,7.37-0.46,7.37-0.46l1.56,16.56   c-1.61-0.31-3.85,0-3.85,0s-26.48,4.82-31.15,6.29c-4.68,1.47-7.4,3.54-7.4,3.54L244.205,168.865z" class="can-change"></path>
	<g>
		<defs>
			<path id="SVGID_5_" d="M244.205,168.865l1.28-1.16c1.27-1.17,6.46-3.01,6.46-3.01s26.11-6.35,30.24-7.11     c4.14-0.77,7.37-0.46,7.37-0.46l1.56,16.56c-1.61-0.31-3.85,0-3.85,0s-26.48,4.82-31.15,6.29c-4.68,1.47-7.4,3.54-7.4,3.54     L244.205,168.865z"></path>
		</defs>
		<use xlink:href="#SVGID_5_" style="overflow:visible;fill-rule:evenodd;clip-rule:evenodd;fill:#FFFFFF;" data-fill-id="6" class="can-change"></use>
		<clipPath id="SVGID_6_">
			<use xlink:href="#SVGID_5_" style="overflow:visible;"></use>
		</clipPath>
		<g style="clip-path:url(#SVGID_6_);">
			<g>
				
					<path style="fill-rule:evenodd;clip-rule:evenodd;fill:#FFFFFF;stroke:#6D6E71;stroke-width:0.34;stroke-linecap:round;stroke-linejoin:round;stroke-miterlimit:10;" d="      M244.945,172.545l1.27-1.16c1.28-1.16,6.47-3,6.47-3s26.1-6.35,30.24-7.12c4.14-0.76,7.37-0.45,7.37-0.45l1.56,16.55      c-1.62-0.31-3.85,0-3.85,0s-26.48,4.82-31.16,6.3c-4.67,1.47-7.4,3.54-7.4,3.54L244.945,172.545z" data-fill-id="7" class="can-change"></path>
				
					<path style="fill-rule:evenodd;clip-rule:evenodd;fill:#FFFFFF;stroke:#6D6E71;stroke-width:0.34;stroke-linecap:round;stroke-linejoin:round;stroke-miterlimit:10;" d="      M245.335,176.575l1.28-1.16c1.27-1.17,6.46-3.01,6.46-3.01s26.11-6.35,30.25-7.11c4.14-0.77,7.37-0.46,7.37-0.46l1.56,16.56      c-1.62-0.31-3.86,0-3.86,0s-26.47,4.82-31.15,6.29s-7.4,3.54-7.4,3.54L245.335,176.575z" data-fill-id="8" class="can-change"></path>
				
					<path style="fill-rule:evenodd;clip-rule:evenodd;fill:#FFFFFF;stroke:#6D6E71;stroke-width:0.34;stroke-linecap:round;stroke-linejoin:round;stroke-miterlimit:10;" d="      M245.595,180.795l1.27-1.16c1.28-1.16,6.47-3,6.47-3s26.1-6.35,30.24-7.12c4.14-0.76,7.37-0.45,7.37-0.45l1.56,16.55      c-1.61-0.31-3.85,0-3.85,0s-26.48,4.82-31.16,6.29c-4.67,1.48-7.39,3.55-7.39,3.55L245.595,180.795z" data-fill-id="9" class="can-change"></path>
			</g>
		</g>
		
			<use xlink:href="#SVGID_5_" style="overflow:visible;fill-rule:evenodd;clip-rule:evenodd;fill:none;stroke:#6D6E71;stroke-width:0.34;stroke-linecap:round;stroke-linejoin:round;stroke-miterlimit:10;"></use>
	</g>
	<g class="human-logo">
		<path style="fill-rule:evenodd;clip-rule:evenodd;" d="M156.275,94.526l0.872-4.899h2.187l-0.245,1.398h1.542l0.257-1.398h3.937    l-0.496,2.838c-0.012,0.036-0.018,0.078-0.024,0.119h0.084h1.195c0.072,0,0.155,0,0.227-0.036c0.054-0.072,0.072-0.167,0.09-0.251    l0.472-2.671h4.344l0.717,1.978l1.416-1.978h2.683l-0.484,2.689l1.93-2.689h2.163l1.064,2.862l0.508-2.862h2.539l1.237,2.002    l0.353-2.002h2.199l-0.872,4.899h-2.539l-1.237-2.002l-0.358,2.002h-3.453l-0.251-0.687h-1.84l-0.478,0.687h-3.513l0.239-1.356    l-0.992,1.356h-1.488l-0.573-1.506l-0.275,1.506h-2.151l0.084-0.478c-0.024,0.03-0.054,0.048-0.084,0.072    c-0.448,0.341-1.034,0.454-1.583,0.454h-1.727c-0.466,0-0.968-0.072-1.344-0.358c-0.113-0.078-0.215-0.185-0.287-0.305    l-0.107,0.615h-2.193l0.263-1.482h-1.547l-0.263,1.482H156.275z" class="can-change"></path>
		<polygon style="fill-rule:evenodd;clip-rule:evenodd;fill:#FFFFFF;" points="156.855,94.025 157.554,90.105 158.755,90.105     158.504,91.503 161.043,91.503 161.288,90.105 162.495,90.105 161.796,94.025 160.595,94.025 160.864,92.543 158.325,92.543     158.062,94.025   " class="can-change"></polygon>
		<path style="fill-rule:evenodd;clip-rule:evenodd;fill:#FFFFFF;" d="M162.591,92.633l0.442-2.528h1.207l-0.394,2.259    c-0.09,0.502,0.054,0.699,0.544,0.699h1.195c0.496,0,0.705-0.197,0.795-0.699l0.4-2.259h1.207l-0.454,2.528    c-0.167,0.968-0.759,1.44-1.858,1.44h-1.727C162.842,94.072,162.417,93.601,162.591,92.633" class="can-change"></path>
		<polygon style="fill-rule:evenodd;clip-rule:evenodd;fill:#FFFFFF;" points="167.837,94.025 168.53,90.105 170.376,90.105     171.29,92.633 173.101,90.105 174.947,90.105 174.254,94.025 173.083,94.025 173.579,91.205 173.567,91.205 171.493,94.025     170.591,94.025 169.516,91.205 169.504,91.205 169.008,94.025   " class="can-change"></polygon>
		<path style="fill-rule:evenodd;clip-rule:evenodd;fill:#FFFFFF;" d="M177.851,91.007l-1.016,1.482h1.536L177.851,91.007z     M174.409,94.025l2.82-3.92h1.571l1.458,3.92h-1.338l-0.245-0.687h-2.438l-0.484,0.687H174.409z" class="can-change"></path>
		<polygon style="fill-rule:evenodd;clip-rule:evenodd;fill:#FFFFFF;" points="180.426,94.025 181.119,90.105 182.977,90.105     184.734,92.949 184.746,92.949 185.248,90.105 186.455,90.105 185.768,94.025 183.903,94.025 182.141,91.175 182.129,91.175     181.627,94.025   " class="can-change"></polygon>
		<path style="fill-rule:evenodd;clip-rule:evenodd;" d="M187.19,93.009l0.048-0.263h1.207c-0.072,0.412,0.09,0.448,0.442,0.448    h1.47c0.263,0,0.526-0.03,0.58-0.329c0.054-0.346-0.077-0.364-1.631-0.364c-1.81,0-1.978-0.221-1.804-1.183    c0.125-0.711,0.281-1.261,1.798-1.261h1.685c1.386,0,1.434,0.472,1.309,1.159l-0.018,0.126h-1.201    c0.048-0.287,0.036-0.4-0.514-0.4h-1.338c-0.263,0-0.466,0.09-0.508,0.299c-0.06,0.347,0.084,0.359,1.38,0.353    c1.87-0.006,2.282,0.102,2.085,1.249c-0.191,1.057-0.586,1.231-2.175,1.231h-1.464C187.447,94.072,187.046,93.863,187.19,93.009" class="can-change"></path>
		<path style="fill-rule:evenodd;clip-rule:evenodd;" d="M194.162,91.079l-0.173,0.986h1.876c0.275,0,0.418-0.185,0.46-0.418    l0.03-0.149c0.042-0.269-0.06-0.418-0.424-0.418H194.162z M192.442,94.025l0.693-3.92h3.274c1.147,0,1.326,0.574,1.183,1.344    l-0.054,0.335c-0.108,0.58-0.478,1.255-1.326,1.255h-2.396l-0.173,0.986H192.442z" class="can-change"></path>
		<polygon style="fill-rule:evenodd;clip-rule:evenodd;" points="197.52,94.025 198.213,90.105 202.504,90.105 202.348,91.007     199.259,91.007 199.151,91.641 202.073,91.641 201.93,92.453 199.008,92.453 198.895,93.087 202.055,93.087 201.882,94.025   " class="can-change"></polygon>
		<polygon style="fill-rule:evenodd;clip-rule:evenodd;" points="202.348,94.025 203.035,90.105 207.331,90.105 207.17,91.007     204.087,91.007 203.973,91.641 206.895,91.641 206.758,92.453 203.83,92.453 203.716,93.087 206.877,93.087 206.71,94.025   " class="can-change"></polygon>
		<path style="fill-rule:evenodd;clip-rule:evenodd;" d="M208.939,91.079l-0.341,1.936h2.127c0.52,0,0.747-0.144,0.843-0.705    l0.096-0.526c0.095-0.556-0.078-0.705-0.591-0.705H208.939z M207.218,94.025l0.687-3.92h3.627c1.207,0,1.56,0.394,1.386,1.368    l-0.209,1.189c-0.174,0.968-0.663,1.362-1.864,1.362H207.218z" class="can-change"></path>
		<path style="fill-rule:evenodd;clip-rule:evenodd;" d="M214.711,89.37c-0.562,0-0.986,0.466-0.986,1.028    c0,0.586,0.424,1.034,1.004,1.034c0.55,0.006,0.98-0.448,0.98-1.028C215.708,89.836,215.278,89.37,214.711,89.37 M214.728,89.095    c0.717,0,1.297,0.592,1.297,1.303c0,0.723-0.58,1.309-1.309,1.309s-1.314-0.586-1.314-1.309    C213.402,89.687,213.988,89.095,214.728,89.095 M214.513,89.968v0.377h0.149c0.161,0,0.293-0.06,0.293-0.179    c0-0.132-0.072-0.209-0.275-0.209C214.609,89.956,214.543,89.962,214.513,89.968 M214.501,90.559v0.514h-0.263v-1.314    c0.102-0.012,0.251-0.024,0.454-0.024c0.245,0,0.352,0.024,0.436,0.108c0.072,0.048,0.137,0.149,0.137,0.281    c0,0.143-0.131,0.239-0.275,0.305v0.018c0.131,0.036,0.185,0.131,0.233,0.311c0.042,0.203,0.06,0.269,0.09,0.317h-0.281    c-0.054-0.054-0.078-0.149-0.108-0.317c-0.03-0.137-0.108-0.197-0.275-0.197H214.501z" class="can-change"></path>
		<rect x="156.275" y="89.095" style="fill:none;" width="59.75" height="5.479"></rect>
		<path d="M192.248,95.412h0.343l-0.24,1.128h-0.343L192.248,95.412z"></path>
		<path d="M193.392,95.412h0.546l0.501,0.857l0.172-0.857h0.325l-0.238,1.128h-0.551l-0.494-0.849l-0.171,0.849h-0.33    L193.392,95.412z"></path>
		<path d="M196.062,95.691h-0.502l0.059-0.279h1.348l-0.059,0.279h-0.502l-0.181,0.849h-0.343L196.062,95.691z"></path>
		<path d="M198.897,95.412l-0.054,0.255h-0.91l-0.042,0.194h0.861l-0.047,0.223h-0.861l-0.042,0.199h0.923l-0.054,0.255h-1.261    l0.24-1.128H198.897z"></path>
		<path d="M199.671,95.412h0.343l-0.181,0.849h0.776l-0.059,0.279h-1.119L199.671,95.412z"></path>
		<path d="M201.478,95.412h0.343l-0.181,0.849h0.776l-0.059,0.279h-1.119L201.478,95.412z"></path>
		<path d="M203.285,95.412h0.343l-0.24,1.128h-0.343L203.285,95.412z"></path>
		<path d="M205.456,95.794c0.002-0.015,0.005-0.03,0.005-0.042c0.002-0.037-0.02-0.064-0.057-0.074    c-0.03-0.009-0.032-0.009-0.115-0.009l-0.156-0.002l-0.216,0.002c-0.152,0-0.206,0.029-0.24,0.127    c-0.034,0.1-0.074,0.303-0.074,0.369c0,0.088,0.054,0.12,0.201,0.122c0.037,0.002,0.113,0.002,0.311,0.002    c0.159,0,0.208-0.015,0.245-0.073c0.012-0.022,0.017-0.036,0.029-0.102h-0.434l0.046-0.21h0.769l-0.034,0.156    c-0.034,0.162-0.044,0.198-0.074,0.272c-0.058,0.138-0.178,0.21-0.36,0.215c-0.039,0.002-0.221,0.002-0.431,0.002    c-0.36,0-0.438-0.008-0.529-0.059c-0.066-0.037-0.1-0.112-0.1-0.218c0-0.073,0.02-0.189,0.069-0.396    c0.066-0.282,0.151-0.392,0.338-0.44c0.096-0.024,0.228-0.032,0.522-0.032c0.411,0,0.477,0.007,0.563,0.061    c0.054,0.032,0.081,0.09,0.081,0.171c0,0.042-0.007,0.088-0.022,0.159H205.456z"></path>
		<path d="M207.9,95.412l-0.054,0.255h-0.91l-0.042,0.194h0.86l-0.047,0.223h-0.861l-0.042,0.199h0.923l-0.054,0.255h-1.261    l0.24-1.128H207.9z"></path>
		<path d="M208.674,95.412h0.546l0.501,0.857l0.172-0.857h0.325l-0.238,1.128h-0.551l-0.494-0.849l-0.171,0.849h-0.33    L208.674,95.412z"></path>
		<path d="M211.344,95.691h-0.502l0.059-0.279h1.348l-0.059,0.279h-0.502l-0.181,0.849h-0.343L211.344,95.691z"></path>
		<g>
			<polygon style="fill:#ED1C24;" points="186.559,96.157 186.478,96.539 187.721,96.539 187.804,96.157    " class="can-change"></polygon>
			<polygon style="fill:#ED1C24;" points="191.643,95.794 191.724,95.412 188.336,95.412 188.254,95.794    " class="can-change"></polygon>
			<polygon style="fill:#ED1C24;" points="187.964,95.412 186.718,95.412 186.636,95.794 187.882,95.794    " class="can-change"></polygon>
			<polygon style="fill:#ED1C24;" points="188.094,96.539 191.484,96.539 191.566,96.157 188.176,96.157    " class="can-change"></polygon>
			<polygon style="fill:#FFFFFF;" points="188.254,95.794 188.336,95.412 187.964,95.412 187.882,95.794 186.636,95.794      186.559,96.157 187.804,96.157 187.721,96.539 188.094,96.539 188.176,96.157 191.566,96.157 191.643,95.794    " class="can-change"></polygon>
		</g>
	</g>
</g>
<wappalyzerData id="wappalyzerData" style="display: none"></wappalyzerData><script id="wappalyzerEnvDetection" src="chrome-extension://gppongmhjkpfnbhagpmjfkannfbllamg/js/inject.js"></script></svg>