<svg xmlns="http://www.w3.org/2000/svg" xmlns:xlink="http://www.w3.org/1999/xlink" version="1.1" id="Layer_1" x="0px" y="0px" viewBox="-805 221 196 450" style="enable-background:new -805 221 196 450;" xml:space="preserve" data-product="2017503" data-design="3" data-size="m">
<style type="text/css">
	.st0{fill:#EDEDED;stroke:#6D6E70;stroke-width:0.34;stroke-linecap:round;stroke-linejoin:round;stroke-miterlimit:10;}
	.st1{fill:#FFFFFF;stroke:#6D6E70;stroke-width:0.34;stroke-linecap:round;stroke-linejoin:round;stroke-miterlimit:10;}
	.st2{fill:none;stroke:#6D6E70;stroke-width:0.34;stroke-linecap:round;stroke-linejoin:round;stroke-miterlimit:10;}
</style>
<path class="st0 cannot-edit can-change" d="M-702.1,599.1c-1-7.8-1.6-17-1.6-17.2l0.5-16.1c-0.5,0.2-2.6,1.1-3.8,1.1h-0.2c-1.1,0-3.3-0.9-3.8-1.1l0.5,16.1  c0,0.1-0.5,9.4-1.6,17.2c-72.2-19.5-48.9-160.2-44.5-184.1c20.1-0.7,49.1-1.1,99,0.3C-653,440-630.2,579.7-702.1,599.1z" style="fill: rgb(0, 0, 0);"/>
<path class="st1 can-change" d="M-611.3,588.2c0,0.1,0.3,8.8-0.7,20.3c-0.7,8-2.2,18.9-3.2,25.1c0,0.1,0,0.2,0,0.4c-0.4,2.8-1.1,7.4-1.8,12.4  c-0.1,0.9-0.3,1.7-0.4,2.6c-0.1,0.8-0.2,1.6-0.3,2.4c-0.4,2.8-0.8,5.6-1.2,8.1c-0.2,0.2-21.7,19.6-74.8-1.3l-0.1-1.1l-1.9-20.2  c0-0.2-1.9-23-4.3-28.3c-0.8-1.8-1.5-5.5-2-9.5c71.9-19.4,49.1-159.1,44.5-183.8c-49.9-1.3-78.9-1-99-0.3  c-4.4,23.8-27.7,164.6,44.5,184.1c-0.5,4-1.3,7.7-2.1,9.5c-2.4,5.4-4.2,28.1-4.3,28.3l-2.2,21.3v0c-26,10.3-44.4,10.8-56.4,8.6  c-0.5-0.1-1-0.2-1.5-0.3c-0.4-0.1-0.9-0.2-1.3-0.3c-10.5-2.4-15.2-6.8-15.4-6.8c-0.9-5.9-1.9-13.2-2.8-18.9c-0.1-1-0.3-2-0.4-2.9  c-0.1-0.5-0.1-0.9-0.2-1.3c-0.1-0.9-0.2-1.6-0.3-2.3c0-0.2-0.1-0.4-0.1-0.6c-0.2-1.4-0.3-2.2-0.3-2.3h0.1c-1-6.4-2.1-15.6-2.7-22.6  c-1-11.5-0.7-20.2-0.7-20.3c-1.4-42.6,9.1-87,11.5-96.8c2.4-9.8,8.4-60.2,11.9-75.3h0c2.7-1.7,5.6-3.6,8.7-6c0.5-0.4,1-0.8,1.5-1.2  c0.5-0.4,1-0.8,1.6-1.2c0.5-0.4,1.1-0.8,1.6-1.3c0.5-0.4,1.1-0.9,1.7-1.4c0.8-0.7,1.6-1.4,2.4-2.1c0.7-0.6,1.3-1.2,2-1.8  c0.1-0.1,0.2-0.2,0.3-0.3c10.9-10.1,23.1-24,35.7-42.6l31.8,0.1c7,14.4,18.5,27.6,30.1,37.9c6.6,5.9,13.2,10.8,19,14.5  c2,1.3,3.9,2.4,5.6,3.4c0,0,0,0,0.1,0c0,0,0,0.1,0,0.1c0,0.2,0.1,0.3,0.1,0.5c0.1,0.4,0.2,0.8,0.3,1.3c3.2,14.9,9.6,53.7,12.7,69.8  c0,0,0,0.1,0,0.1c0.5,2.4,0.8,4.3,1.1,5.5C-620.4,501.2-609.9,545.6-611.3,588.2z" style="fill: rgb(255, 255, 255);"/>
<path class="st1 can-change" d="M-611.5,588.1c0,0.1,0.3,8.8-0.7,20.3c-0.6,7-1.8,16.2-2.7,22.6h0.1c0,0-0.1,1-0.4,2.6c0,0.1,0,0.2,0,0.4  c-0.4,2.8-1.1,7.5-1.8,12.4c-0.1,0.9-0.3,1.7-0.4,2.6c-0.1,0.8-0.2,1.6-0.3,2.4c-0.4,2.8-0.8,5.5-1.2,8c-0.2,0.2-21.7,19.6-74.8-1.3  l-0.1-1l-2.1-20.3c-0.1-0.2-1.9-23-4.2-28.3c-0.5-1.2-1-3.1-1.4-5.4c-0.2-1.2-0.4-2.6-0.6-4c0,0,0,0,0.1,0  c71.9-19.4,49.1-159.1,44.5-183.8c-0.4-2.3-0.7-3.6-0.7-3.7l-3.5-15.5l-0.6-2.8l-0.1-0.4c4.7,4.9,9.2,9.1,13.5,12.7  c0.1,0.1,0.2,0.2,0.3,0.3c2,1.7,4,3.2,5.9,4.6c2,1.5,4,2.9,5.8,4.1c0.7,0.4,1.4,0.9,2,1.3c0,0,0.1,0,0.1,0.1  c3,13.2,8.1,53.3,10.8,69.8c0,0,0,0.1,0,0.1c0.4,2.3,0.7,4.2,1,5.4C-620.6,501.1-610.1,545.5-611.5,588.1z" style="fill: rgb(255, 255, 255);" data-fill-id="2"/>
<path class="st1 can-change" d="M-712,599.1c-0.2,1.4-0.4,2.8-0.6,4c-0.4,2.3-0.9,4.2-1.4,5.4c-2.4,5.4-4.2,28.1-4.3,28.3l-2.2,21.3  c-0.1,0-0.1,0.1-0.2,0.1c-26,10.2-44.4,10.8-56.4,8.6c-0.5-0.1-1-0.2-1.5-0.3c-0.4-0.1-0.9-0.2-1.3-0.3c-10.5-2.4-15.3-6.8-15.5-6.8  c-0.8-5.9-1.9-13.2-2.7-18.9c-0.2-1-0.3-2-0.4-2.9c-0.1-0.5-0.1-0.9-0.2-1.3c-0.1-0.9-0.2-1.6-0.3-2.3c0-0.2-0.1-0.4-0.1-0.6  c-0.2-1.4-0.3-2.2-0.3-2.3h0.1c-1-6.4-2.1-15.6-2.7-22.6c-1-11.5-0.7-20.2-0.7-20.3c-1.4-42.6,9.1-87,11.5-96.8  c2.4-9.8,8.4-60.2,11.9-75.3h0c2.7-1.7,5.6-3.6,8.7-6c0.5-0.4,1-0.8,1.5-1.2c0.5-0.4,1-0.8,1.6-1.2c0.5-0.4,1.1-0.8,1.6-1.3  c0.5-0.4,1.1-0.9,1.7-1.4c4-3.4,8.2-7.4,12.6-11.9l-4.4,18.6c0,0.1-0.3,1.3-0.7,3.4C-761,438.8-784.3,579.6-712,599.1  C-712.1,599.1-712,599.1-712,599.1z" style="fill: rgb(255, 255, 255);" data-fill-id="1"/>
<path class="st0 cannot-edit can-change" d="M-647.2,230.6c0,0-15.2,60.1,3.3,181l-24.9-12.6c0,0-10.5-135.7,5.1-174.8L-647.2,230.6z" style="fill: rgb(0, 0, 0);"/>
<path class="st0 cannot-edit can-change" d="M-766.8,230.6l16.6-6.5c15.5,39.2,5.1,174.9,5.1,174.9l-24.9,12.6C-751.6,290.7-766.8,230.6-766.8,230.6z" style="fill: rgb(0, 0, 0);"/>
<path class="st1 can-change" d="M-706.9,566.9l-1.3-208.8" style="fill: rgb(255, 255, 255);"/>
<path class="st2" d="M-711.9,581.1c0,0-65.5-51.5-8.3-70.3c3.3-1.1,8.7-2.2,12.8-2.2" style="fill: none;"/>
<path class="st2" d="M-701.7,581.1c0,0,66.5-52.4,7-70.7c-3-0.9-8.2-1.9-12.7-1.8" style="fill: none;"/>
<path class="st0 cannot-edit can-change" d="M-692,358.1h-31.8c0.1-0.7,5.4-69.1-43-127.5l16.6-6.5c0.4,0.6,38.7,40.5,41.6,88.3c3.1-47.8,43.6-87.7,44-88.2  l17.5,6.5C-698.2,289-692,357.4-692,358.1z" style="fill: rgb(0, 0, 0);"/>
<path class="st0 cannot-edit can-change" d="M-634.9,416c-0.6,0-1.2,0-1.8-0.1c-7.4-0.2-14.3-0.5-20.9-0.6c-49.9-1.3-78.9-1-99-0.3c-9,0.3-16.2,0.7-22.6,1  h-0.1c7.2-4.4,17.2-13.1,27.3-25.1c10.1-12,20.3-27.3,28.2-44.8l31.8,0.1c3.9,16.3,16.5,33.7,29.6,47.2c4.5,4.7,9.1,8.9,13.4,12.4  c0.1,0.1,0.2,0.2,0.3,0.3c4.2,3.4,8.2,6.1,11.5,7.9c0,0,0,0,0,0.1c0,0.1,0,0.1,0.1,0.2C-636.6,414.7-635.2,415.2-634.9,416  C-634.9,416-634.9,416-634.9,416z" style="fill: rgb(0, 0, 0);"/>
<path class="st0 cannot-edit can-change" d="M-720.9,376h25.4v38.4h-25.4V376z" style="fill: rgb(0, 0, 0);"/>
<path class="st0 cannot-edit can-change" d="M-720.9,376h25.4v6.9h-25.4V376z" style="fill: rgb(0, 0, 0);"/>
<path class="st0 cannot-edit can-change" d="M-720.9,376h25.4v4.9h-25.4V376z" style="fill: rgb(0, 0, 0);"/>
</svg>