<svg xmlns="http://www.w3.org/2000/svg" xmlns:xlink="http://www.w3.org/1999/xlink" version="1.1" id="Layer_1" x="0px" y="0px" viewBox="0 0 292 363" enable-background="new 0 0 292 363" xml:space="preserve" data-product="2017501" data-design="6" data-size="m">
<g>
	
		<path fill-rule="evenodd" clip-rule="evenodd" fill="#FFFFFF" stroke="#6D6E70" stroke-width="0.34" stroke-linecap="round" stroke-linejoin="round" stroke-miterlimit="10" d="   M188.1,9c0,0,22.7,12.7,34,17c11.3,4.3,31.8,13.1,31.8,13.1s12.1,5.2,17.6,18.8c5.5,13.5,11.6,34.9,12.8,59.8   c1.2,24.9,3.9,29.4,3.8,36.8c0,0-2.6-0.5-7.4,0.4c-4.8,1-26.3,6.2-28.6,6.6l-11.3-28.7c0,0,2.1-42.5-18.5-67.9   c0,0-15.4-14.4-20.3-18.7C197,42,181.4,31.6,175,28.4C175,28.4,188.1,8.4,188.1,9z" data-fill-id="4" class="can-change"></path>
	
		<path fill-rule="evenodd" clip-rule="evenodd" fill="#E6E7E8" stroke="#6D6E70" stroke-width="0.31" stroke-linecap="round" stroke-linejoin="round" stroke-miterlimit="10" d="   M5.4,168.2c0,0-1.4-0.7,7.8,1.9c9.1,2.6,29,4.5,31.6,10.7c0,0-8.8,0.9-23-2.8c-14.2-3.7-19.4-6.9-19.4-6.9L5.4,168.2z" class="cannot-edit can-change"></path>
	
		<path fill-rule="evenodd" clip-rule="evenodd" fill="#FFFFFF" stroke="#6D6E70" stroke-width="0.34" stroke-linecap="round" stroke-linejoin="round" stroke-miterlimit="10" d="   M103.9,9c0-0.6,13.1,19.2,13.1,19.2c-6.5,3.2-22.1,13.7-27,18C85.2,50.6,69.8,65,69.8,65c-20.6,25.3-18.5,67.9-18.5,67.9L40,161.5   c-2.4-0.3-23.8-5.6-28.7-6.6c-4.8-1-7.4-0.4-7.4-0.4c-0.1-7.4,2.6-11.9,3.8-36.8C8.9,92.8,15,71.5,20.5,57.9   c5.5-13.6,17.6-18.8,17.6-18.8S58.6,30.3,69.9,26C81.2,21.7,103.9,9,103.9,9z" class="can-change"></path>
	
		<path fill-rule="evenodd" clip-rule="evenodd" fill="#E6E7E8" stroke="#6D6E70" stroke-width="0.34" stroke-linecap="round" stroke-linejoin="round" stroke-miterlimit="10" d="   M146.1,360.4c-1.5,0.1-50.5,2.4-77.1-21.5c-0.1-0.1-11.7-13.1-12.1-20.1c0,0,2.2-4.6,13.3-5.3c11.2-0.7,75.8-0.9,75.8-0.9   c-0.1,0,64.7,0.2,75.8,0.9c11.2,0.7,13.3,5.3,13.4,5.3c-0.4,7-11.9,20-12.1,20.1C196.6,362.8,147.6,360.5,146.1,360.4z" class="can-change"></path>
	<g>
		<defs>
			<path id="SVGID_1_" d="M117,28.3c7.5,8.1,17.1,12.9,29,12.7l0.1,271.7c-25.5,0.1-80.3,1.7-80.3,1.7c7.7-75.2,7.3-111-0.1-145.2     c-7.4-34.2-14.5-36.2-14.5-36.2C48.9,93.8,65.5,69.6,69.8,65c1.4-2,11.9-10.6,20.3-18.7C98.5,38.2,117,28.3,117,28.3z"></path>
		</defs>
		<use xlink:href="#SVGID_1_" overflow="visible" fill-rule="evenodd" clip-rule="evenodd" fill="#FFFFFF" class="can-change filled" style="fill: rgb(0, 102, 179);"></use>
		<clipPath id="SVGID_2_">
			<use xlink:href="#SVGID_1_" overflow="visible"></use>
		</clipPath>
		<g clip-path="url(#SVGID_2_)">
			
				<path fill-rule="evenodd" clip-rule="evenodd" fill="#FFFFFF" stroke="#6D6E70" stroke-width="0.45" stroke-linecap="round" stroke-linejoin="round" stroke-miterlimit="10" d="     M46.6,120.8l-63-186.3l149.1-37.2c0,0,199.6,39,213.8,40.8c14.2,1.8-103.4,182.8-103.4,182.8C130.5,101.3,46.6,120.8,46.6,120.8z     " class="can-change selected filled" style="fill: rgb(0, 102, 179);"></path>
		</g>
		
			<use xlink:href="#SVGID_1_" overflow="visible" fill-rule="evenodd" clip-rule="evenodd" fill="none" stroke="#6D6E70" stroke-width="0.34" stroke-linecap="round" stroke-linejoin="round" stroke-miterlimit="10"></use>
	</g>
	<g>
		<defs>
			<path id="SVGID_3_" d="M175,28.4c0,0,18.5,9.8,26.9,17.9c8.5,8.1,18.9,16.7,20.3,18.7c4.3,4.7,20.9,28.8,18.5,67.9     c0,0-6.2,4.4-14.5,36.2c-7.4,34.3-7.7,70-0.1,145.2c0,0-54.8-1.6-80.3-1.7L146,41C153.1,40.9,164,40.3,175,28.4z"></path>
		</defs>
		<use xlink:href="#SVGID_3_" overflow="visible" fill-rule="evenodd" clip-rule="evenodd" fill="#FFFFFF" data-fill-id="1" class="can-change"></use>
		<clipPath id="SVGID_4_">
			<use xlink:href="#SVGID_3_" overflow="visible"></use>
		</clipPath>
		<g clip-path="url(#SVGID_4_)">
			
				<path fill-rule="evenodd" clip-rule="evenodd" fill="#FFFFFF" stroke="#6D6E70" stroke-width="0.45" stroke-linecap="round" stroke-linejoin="round" stroke-miterlimit="10" d="     M46.6,120.8l-63-186.3l149.1-37.2c0,0,199.6,39,213.8,40.8c14.2,1.8-103.4,182.8-103.4,182.8C130.5,101.3,46.6,120.8,46.6,120.8z     " class="can-change filled" style="fill: rgb(0, 102, 179);"></path>
		</g>
		
			<use xlink:href="#SVGID_3_" overflow="visible" fill-rule="evenodd" clip-rule="evenodd" fill="none" stroke="#6D6E70" stroke-width="0.34" stroke-linecap="round" stroke-linejoin="round" stroke-miterlimit="10"></use>
	</g>
	
		<path fill-rule="evenodd" clip-rule="evenodd" fill="none" stroke="#6D6E70" stroke-width="0.34" stroke-linecap="round" stroke-linejoin="round" stroke-miterlimit="10" d="   M68.5,329.6c0-1.1,1.7-15.5,1.7-15.5"></path>
	
		<path fill-rule="evenodd" clip-rule="evenodd" fill="none" stroke="#6D6E70" stroke-width="0.34" stroke-linecap="round" stroke-linejoin="round" stroke-miterlimit="10" d="   M223.3,329.6c0-1.1-1.7-15.5-1.7-15.5"></path>
	
		<path fill-rule="evenodd" clip-rule="evenodd" fill="none" stroke="#6D6E70" stroke-width="0.34" stroke-linecap="round" stroke-linejoin="round" stroke-miterlimit="10" d="   M69.4,321.3c0,0,68.2,31.9,152.9,0"></path>
	
		<path fill-rule="evenodd" clip-rule="evenodd" fill="none" stroke="#6D6E70" stroke-width="0.34" stroke-linecap="round" stroke-linejoin="round" stroke-miterlimit="10" d="   M114.1,333.3l-1.1-20.1"></path>
	
		<path fill-rule="evenodd" clip-rule="evenodd" fill="none" stroke="#6D6E70" stroke-width="0.34" stroke-linecap="round" stroke-linejoin="round" stroke-miterlimit="10" d="   M115.5,313.3l1.1,20.1"></path>
	
		<path fill-rule="evenodd" clip-rule="evenodd" fill="none" stroke="#6D6E70" stroke-width="0.34" stroke-linecap="round" stroke-linejoin="round" stroke-miterlimit="10" d="   M177.6,333l1.1-19.9"></path>
	
		<path fill-rule="evenodd" clip-rule="evenodd" fill="none" stroke="#6D6E70" stroke-width="0.34" stroke-linecap="round" stroke-linejoin="round" stroke-miterlimit="10" d="   M176.3,313l-1.1,20.3"></path>
	
		<path fill-rule="evenodd" clip-rule="evenodd" fill="#FFFFFF" stroke="#6D6E70" stroke-width="0.34" stroke-linecap="round" stroke-linejoin="round" stroke-miterlimit="10" d="   M64.9,168.4l0.7,0.3v0c2.1,0.8,4.5,1.8,6.7,2.9l0,0c9,26.4,18.9,70.2,24.6,142c-17,0.4-30.8,0.7-31.1,0.7c-0.1,0-5.2,0.1-8.8,4.6   c0-0.4,3.9-40.8,5-65.7c0-18.4,0.7-51.3-4.3-86.8l3.6,0.8L64.9,168.4z" data-fill-id="6" class="can-change"></path>
	
		<path fill-rule="evenodd" clip-rule="evenodd" fill="#FFFFFF" stroke="#6D6E70" stroke-width="0.34" stroke-linecap="round" stroke-linejoin="round" stroke-miterlimit="10" d="   M227.3,168.4l3.5-1.1l3.6-0.9c-5,35.6-4.3,68.5-4.3,86.8c1.1,24.9,5,65.3,5,65.7c-3.6-4.5-8.8-4.6-8.8-4.6   c-0.3,0-14.2-0.4-31.1-0.8c5.7-71.7,15.6-115.5,24.6-141.8l0,0c2.2-1.2,4.5-2.2,6.7-2.9v0.1C226.4,168.7,227.2,168.5,227.3,168.4z" data-fill-id="2" class="can-change"></path>
	
		<path fill-rule="evenodd" clip-rule="evenodd" fill="#FFFFFF" stroke="#6D6E70" stroke-width="0.34" stroke-linecap="round" stroke-linejoin="round" stroke-miterlimit="10" d="   M57.7,166.3c-1-7.1-2.3-14-4.1-20.8l-4.3,20.7c0-0.1-2.5-2.7-7.7-4.2l-1.6-0.5l11.3-28.8c0.1,0.1,10.5,8,21,38.8   C67.8,169.4,62.9,167.3,57.7,166.3z" data-fill-id="7" class="can-change"></path>
	
		<path fill-rule="evenodd" clip-rule="evenodd" fill="#FFFFFF" stroke="#6D6E70" stroke-width="0.34" stroke-linecap="round" stroke-linejoin="round" stroke-miterlimit="10" d="   M234.3,166.4c-5.3,1-10.1,3.1-14.6,5.2c10.5-30.9,20.9-38.8,21-38.8l11.3,28.8l-1.6,0.5c-5.2,1.5-7.7,4.1-7.7,4.2l-4.3-20.7   C236.7,152.4,235.3,159.4,234.3,166.4z" data-fill-id="3" class="can-change"></path>
	
		<path fill-rule="evenodd" clip-rule="evenodd" fill="#D0D2D3" stroke="#000000" stroke-width="2.83" stroke-linecap="round" stroke-linejoin="round" stroke-miterlimit="10" d="   M103.9,9c0,0,18.6-6.5,42.1-6.6S188.1,9,188.1,9L175,28.4C162,41.9,146,41,146,41c-19,0-29-12.7-29-12.7L103.9,9z" class="cannot-edit"></path>
	
		<path fill-rule="evenodd" clip-rule="evenodd" fill="none" stroke="#6D6E70" stroke-width="1.02" stroke-linecap="round" stroke-linejoin="round" stroke-miterlimit="10" d="   M145.9,315L146,40.6"></path>
	
		<path fill-rule="evenodd" clip-rule="evenodd" fill="none" stroke="#6D6E70" stroke-width="0.34" stroke-linecap="round" stroke-linejoin="round" stroke-miterlimit="10" d="   M148.1,315l0-274.4"></path>
	
		<path fill-rule="evenodd" clip-rule="evenodd" fill="none" stroke="#6D6E70" stroke-width="0.34" stroke-linecap="round" stroke-linejoin="round" stroke-miterlimit="10" d="   M143.8,315l0.1-274.4"></path>
	<g>
		<path fill-rule="evenodd" clip-rule="evenodd" fill="#FFFFFF" d="M146,44.4h0.8c0,0,0.2-0.2,0.2-0.7c0-0.4,0.1-0.4,0.1-0.4    s0.3-0.3,0.4-0.3c0.2-0.1,0.1-0.3,0.1-0.3s0-0.3,0-0.8c0-0.5-0.1-0.5-0.1-0.5l-1-1v-0.5l-0.5,0l-0.5,0v0.5l-1,1    c0,0-0.1,0.1-0.1,0.5c0,0.5,0,0.8,0,0.8s0,0.2,0.1,0.3c0.1,0,0.5,0.3,0.5,0.3s0.1,0,0.1,0.4c0.1,0.4,0.2,0.7,0.2,0.7H146" class="can-change"></path>
		<path fill-rule="evenodd" clip-rule="evenodd" d="M146,44.4h0.8c0,0,0.2-0.2,0.2-0.7c0-0.2,0-0.3,0.1-0.4l0.1,0    c0,0,0.3-0.3,0.4-0.3c0.1-0.1,0.1-0.3,0.1-0.3v0c0,0,0-0.1,0-0.4c0-0.1,0-0.2,0-0.4c0-0.5-0.1-0.5-0.1-0.5l-1-1v-0.5l-0.5,0    l-0.5,0v0.5l-1,1c0,0-0.1,0.1-0.1,0.5c0,0.1,0,0.3,0,0.4c0,0.3,0,0.4,0,0.4v0c0,0.1,0,0.2,0.1,0.3c0.1,0,0.5,0.3,0.5,0.3l0.1,0    c0,0,0.1,0.2,0.1,0.4c0.1,0.4,0.2,0.7,0.2,0.7H146h-0.9c0,0-0.1-0.2-0.2-0.7c0-0.2,0-0.3-0.1-0.4l-0.1,0c0,0-0.3-0.3-0.5-0.3    c-0.1-0.1-0.1-0.3-0.1-0.3v0c0,0,0-0.1,0-0.4c0-0.1,0-0.2,0-0.4c0-0.5,0.1-0.5,0.1-0.5l1-1v-0.5l0.5,0l0.5,0v0.5l1,1    c0,0,0.1,0.1,0.1,0.5c0,0.1,0,0.3,0,0.4c0,0.3,0,0.4,0,0.4v0c0,0.1,0,0.2-0.1,0.3c-0.1,0-0.4,0.3-0.4,0.3l-0.1,0    c0,0-0.1,0.2-0.1,0.4c0,0.4-0.2,0.7-0.2,0.7H146z"></path>
		<path fill-rule="evenodd" clip-rule="evenodd" d="M145.6,40h0.7v3.2h-0.7V40v3.2h0.7V40H145.6z"></path>
		<path fill-rule="evenodd" clip-rule="evenodd" fill="#FFFFFF" d="M146,44.9l1.4,0c0,0,0-2.4,0.1-2.6c0-0.3-0.1-0.3-0.1-0.3H146    h-1.3c0,0-0.2,0.1-0.1,0.3c0.1,0.2,0.1,2.6,0.1,2.6L146,44.9" class="can-change"></path>
		<path fill-rule="evenodd" clip-rule="evenodd" d="M146,44.9h1.3c0,0,0-2.4,0.1-2.6v-0.1c0-0.2-0.1-0.2-0.1-0.2H146h-1.3    c0,0-0.1,0-0.1,0.2v0.1c0.1,0.2,0.1,2.6,0.1,2.6H146h-1.4c0,0,0-2.4-0.1-2.6v-0.1c0-0.2,0.1-0.2,0.1-0.2h1.3h1.3    c0,0,0.1,0,0.1,0.2v0.1c-0.1,0.2-0.1,2.6-0.1,2.6H146z"></path>
		<path fill-rule="evenodd" clip-rule="evenodd" fill="#4F5052" d="M146.6,48.7h-1.3c-0.6-0.1-0.5-1-0.5-1l-0.2-2.8h2.7l-0.2,2.8    C147.1,47.7,147.1,48.6,146.6,48.7z" class="can-change"></path>
		<path fill-rule="evenodd" clip-rule="evenodd" d="M146.6,48.7c0.5-0.1,0.5-0.9,0.5-1l0.2-2.8h-2.7l0.2,2.8c0,0.1,0,0.9,0.5,1    H146.6h-1.3c-0.5-0.1-0.5-0.9-0.5-1l-0.2-2.8h2.7l-0.2,2.8C147.1,47.8,147.1,48.6,146.6,48.7z"></path>
		<path fill-rule="evenodd" clip-rule="evenodd" d="M146.4,44.7c0.1-0.6,0.3-1,0.6-1.5v-0.8h-2.1v0.8c0.3,0.5,0.5,0.8,0.7,1.5H146.4    h-0.8c-0.1-0.6-0.3-1-0.7-1.5v-0.8h2.1v0.8C146.7,43.7,146.5,44,146.4,44.7z"></path>
		<path fill-rule="evenodd" clip-rule="evenodd" d="M145,41.4h0.7V42H145V41.4V42h0.7v-0.6H145z"></path>
		<path fill-rule="evenodd" clip-rule="evenodd" d="M146.3,41.4h0.6V42h-0.6V41.4V42h0.6v-0.6H146.3z"></path>
		<path fill-rule="evenodd" clip-rule="evenodd" d="M146.3,42.2h0.6v0.6h-0.6V42.2v0.6h0.6v-0.6H146.3z"></path>
		<path fill-rule="evenodd" clip-rule="evenodd" d="M145,42.2h0.7v0.6H145V42.2v0.6h0.7v-0.6H145z"></path>
	</g>
	
		<path fill-rule="evenodd" clip-rule="evenodd" fill="#FFFFFF" stroke="#6D6E70" stroke-width="0.34" stroke-linecap="round" stroke-linejoin="round" stroke-miterlimit="10" d="   M149.4,38.6c0,0,1.7,0.5,1.2,1.8c-0.4,1.2-0.8,4.3-5.7,6.9c0,0-2.6,1.3-2.7-1.5c-0.1-2.8-0.1-5.3-0.1-5.5c0.1-0.3-0.5-1.8,1.4-1.7   C145.5,38.7,149.4,38.6,149.4,38.6z" class="can-change"></path>
	
		<path fill-rule="evenodd" clip-rule="evenodd" fill="none" stroke="#6D6E70" stroke-width="0.34" stroke-linecap="round" stroke-linejoin="round" stroke-miterlimit="10" d="   M143,38.8c0,0,0,7.3,0.5,7.5c0.5,0.1,5-1.6,6.2-6.6"></path>
	
		<path fill-rule="evenodd" clip-rule="evenodd" fill="none" stroke="#000000" stroke-width="2.83" stroke-linecap="round" stroke-linejoin="round" stroke-miterlimit="10" d="   M57,318.9c0,0,2.5-4.5,13.2-4.7c10.7-0.2,70.5-1.6,75.8-1.5c0,0,51.9,0.6,80.3,1.8c0,0,5.8,0.1,8.8,4.6c0,0-7.3,41.6-85.2,41.6   S61.6,331,57.5,321.2L57,318.9z" class="cannot-edit can-change" style="fill: #E4E5E6;"></path>
	
		<path fill-rule="evenodd" clip-rule="evenodd" fill="#FFFFFF" stroke="#6D6E70" stroke-width="0.34" stroke-linecap="round" stroke-linejoin="round" stroke-miterlimit="10" d="   M49.3,166.3l-4.5,14.6c0,0-2.7-2.1-7.4-3.5c-4.7-1.5-31.2-6.3-31.2-6.3s-2.2-0.3-3.9,0l1.6-16.6c0,0,3.2-0.3,7.4,0.4   c4.1,0.8,30.2,7.1,30.2,7.1s5.2,1.8,6.5,3L49.3,166.3z" data-fill-id="8" class="can-change"></path>
	
		<path fill-rule="evenodd" clip-rule="evenodd" fill="#E6E7E8" stroke="#6D6E70" stroke-width="0.31" stroke-linecap="round" stroke-linejoin="round" stroke-miterlimit="10" d="   M286.6,168.3l3,2.9c0,0-5.2,3.2-19.4,6.9c-14.2,3.7-23,2.8-23,2.8c2.6-6.1,22.5-8.1,31.6-10.7C288,167.6,286.6,168.3,286.6,168.3z" class="cannot-edit can-change"></path>
	
		<path fill-rule="evenodd" clip-rule="evenodd" fill="#FFFFFF" stroke="#6D6E70" stroke-width="0.34" stroke-linecap="round" stroke-linejoin="round" stroke-miterlimit="10" d="   M242.7,166.4l1.3-1.2c1.3-1.2,6.5-3,6.5-3s26.1-6.4,30.2-7.1c4.1-0.8,7.4-0.5,7.4-0.5l1.6,16.6c-1.6-0.3-3.8,0-3.8,0   s-26.5,4.8-31.2,6.3c-4.7,1.5-7.4,3.5-7.4,3.5L242.7,166.4z" data-fill-id="5" class="can-change"></path>
	<g class="human-logo">
		<path fill-rule="evenodd" clip-rule="evenodd" fill="#231F20" d="M154.8,92l0.9-4.9h2.2l-0.2,1.4h1.5l0.3-1.4h3.9l-0.5,2.8    c0,0,0,0.1,0,0.1h0.1h1.2c0.1,0,0.2,0,0.2,0c0.1-0.1,0.1-0.2,0.1-0.3l0.5-2.7h4.3l0.7,2l1.4-2h2.7l-0.5,2.7l1.9-2.7h2.2l1.1,2.9    l0.5-2.9h2.5l1.2,2l0.4-2h2.2l-0.9,4.9h-2.5l-1.2-2l-0.4,2h-3.5l-0.3-0.7H175l-0.5,0.7H171l0.2-1.4l-1,1.4h-1.5l-0.6-1.5l-0.3,1.5    h-2.2l0.1-0.5c0,0-0.1,0-0.1,0.1c-0.4,0.3-1,0.5-1.6,0.5h-1.7c-0.5,0-1-0.1-1.3-0.4c-0.1-0.1-0.2-0.2-0.3-0.3l-0.1,0.6h-2.2    l0.3-1.5h-1.5L157,92H154.8z" class="can-change"></path>
		<polygon fill-rule="evenodd" clip-rule="evenodd" fill="#FFFFFF" points="155.4,91.5 156.1,87.6 157.3,87.6 157,89 159.5,89     159.8,87.6 161,87.6 160.3,91.5 159.1,91.5 159.4,90 156.8,90 156.6,91.5   " class="can-change"></polygon>
		<path fill-rule="evenodd" clip-rule="evenodd" fill="#FFFFFF" d="M161.1,90.1l0.4-2.5h1.2l-0.4,2.3c-0.1,0.5,0.1,0.7,0.5,0.7h1.2    c0.5,0,0.7-0.2,0.8-0.7l0.4-2.3h1.2l-0.5,2.5c-0.2,1-0.8,1.4-1.9,1.4h-1.7C161.3,91.6,160.9,91.1,161.1,90.1" class="can-change"></path>
		<polygon fill-rule="evenodd" clip-rule="evenodd" fill="#FFFFFF" points="166.3,91.5 167,87.6 168.9,87.6 169.8,90.1 171.6,87.6     173.4,87.6 172.8,91.5 171.6,91.5 172.1,88.7 172.1,88.7 170,91.5 169.1,91.5 168,88.7 168,88.7 167.5,91.5   " class="can-change"></polygon>
		<path fill-rule="evenodd" clip-rule="evenodd" fill="#FFFFFF" d="M176.4,88.5l-1,1.5h1.5L176.4,88.5z M172.9,91.5l2.8-3.9h1.6    l1.5,3.9h-1.3l-0.2-0.7h-2.4l-0.5,0.7H172.9z" class="can-change"></path>
		<polygon fill-rule="evenodd" clip-rule="evenodd" fill="#FFFFFF" points="178.9,91.5 179.6,87.6 181.5,87.6 183.2,90.4     183.2,90.4 183.7,87.6 185,87.6 184.3,91.5 182.4,91.5 180.6,88.7 180.6,88.7 180.1,91.5   " class="can-change"></polygon>
		<path fill-rule="evenodd" clip-rule="evenodd" fill="#231F20" d="M185.7,90.5l0-0.3h1.2c-0.1,0.4,0.1,0.4,0.4,0.4h1.5    c0.3,0,0.5,0,0.6-0.3c0.1-0.3-0.1-0.4-1.6-0.4c-1.8,0-2-0.2-1.8-1.2c0.1-0.7,0.3-1.3,1.8-1.3h1.7c1.4,0,1.4,0.5,1.3,1.2l0,0.1    h-1.2c0-0.3,0-0.4-0.5-0.4h-1.3c-0.3,0-0.5,0.1-0.5,0.3c-0.1,0.3,0.1,0.4,1.4,0.4c1.9,0,2.3,0.1,2.1,1.2c-0.2,1.1-0.6,1.2-2.2,1.2    H187C185.9,91.6,185.5,91.4,185.7,90.5" class="can-change"></path>
		<path fill-rule="evenodd" clip-rule="evenodd" fill="#231F20" d="M192.7,88.6l-0.2,1h1.9c0.3,0,0.4-0.2,0.5-0.4l0-0.1    c0-0.3-0.1-0.4-0.4-0.4H192.7z M190.9,91.5l0.7-3.9h3.3c1.1,0,1.3,0.6,1.2,1.3l-0.1,0.3c-0.1,0.6-0.5,1.3-1.3,1.3h-2.4l-0.2,1    H190.9z" class="can-change"></path>
		<polygon fill-rule="evenodd" clip-rule="evenodd" fill="#231F20" points="196,91.5 196.7,87.6 201,87.6 200.8,88.5 197.8,88.5     197.7,89.1 200.6,89.1 200.4,90 197.5,90 197.4,90.6 200.6,90.6 200.4,91.5   " class="can-change"></polygon>
		<polygon fill-rule="evenodd" clip-rule="evenodd" fill="#231F20" points="200.8,91.5 201.5,87.6 205.8,87.6 205.7,88.5     202.6,88.5 202.5,89.1 205.4,89.1 205.3,90 202.3,90 202.2,90.6 205.4,90.6 205.2,91.5   " class="can-change"></polygon>
		<path fill-rule="evenodd" clip-rule="evenodd" fill="#231F20" d="M207.4,88.6l-0.3,1.9h2.1c0.5,0,0.7-0.1,0.8-0.7l0.1-0.5    c0.1-0.6-0.1-0.7-0.6-0.7H207.4z M205.7,91.5l0.7-3.9h3.6c1.2,0,1.6,0.4,1.4,1.4l-0.2,1.2c-0.2,1-0.7,1.4-1.9,1.4H205.7z" class="can-change"></path>
		<path fill-rule="evenodd" clip-rule="evenodd" fill="#231F20" d="M213.2,86.9c-0.6,0-1,0.5-1,1c0,0.6,0.4,1,1,1c0.5,0,1-0.4,1-1    C214.2,87.3,213.8,86.9,213.2,86.9 M213.2,86.6c0.7,0,1.3,0.6,1.3,1.3c0,0.7-0.6,1.3-1.3,1.3s-1.3-0.6-1.3-1.3    C211.9,87.2,212.5,86.6,213.2,86.6 M213,87.5v0.4h0.1c0.2,0,0.3-0.1,0.3-0.2c0-0.1-0.1-0.2-0.3-0.2C213.1,87.5,213,87.5,213,87.5     M213,88.1v0.5h-0.3v-1.3c0.1,0,0.3,0,0.5,0c0.2,0,0.4,0,0.4,0.1c0.1,0,0.1,0.1,0.1,0.3c0,0.1-0.1,0.2-0.3,0.3v0    c0.1,0,0.2,0.1,0.2,0.3c0,0.2,0.1,0.3,0.1,0.3h-0.3c-0.1-0.1-0.1-0.1-0.1-0.3c0-0.1-0.1-0.2-0.3-0.2H213z" class="can-change"></path>
		<rect x="154.8" y="86.6" fill="none" width="59.7" height="5.5"></rect>
		<path fill="#231F20" d="M190.7,92.9h0.3l-0.2,1.1h-0.3L190.7,92.9z" class="can-change"></path>
		<path fill="#231F20" d="M191.9,92.9h0.5l0.5,0.9l0.2-0.9h0.3l-0.2,1.1h-0.6l-0.5-0.8L192,94h-0.3L191.9,92.9z" class="can-change"></path>
		<path fill="#231F20" d="M194.6,93.2h-0.5l0.1-0.3h1.3l-0.1,0.3h-0.5l-0.2,0.8h-0.3L194.6,93.2z" class="can-change"></path>
		<path fill="#231F20" d="M197.4,92.9l-0.1,0.3h-0.9l0,0.2h0.9l0,0.2h-0.9l0,0.2h0.9l-0.1,0.3h-1.3l0.2-1.1H197.4z" class="can-change"></path>
		<path fill="#231F20" d="M198.2,92.9h0.3l-0.2,0.8h0.8L199,94h-1.1L198.2,92.9z" class="can-change"></path>
		<path fill="#231F20" d="M200,92.9h0.3l-0.2,0.8h0.8l-0.1,0.3h-1.1L200,92.9z" class="can-change"></path>
		<path fill="#231F20" d="M201.8,92.9h0.3l-0.2,1.1h-0.3L201.8,92.9z" class="can-change"></path>
		<path fill="#231F20" d="M204,93.3C204,93.3,204,93.3,204,93.3c0-0.1,0-0.1-0.1-0.1c0,0,0,0-0.1,0l-0.2,0l-0.2,0    c-0.2,0-0.2,0-0.2,0.1c0,0.1-0.1,0.3-0.1,0.4c0,0.1,0.1,0.1,0.2,0.1c0,0,0.1,0,0.3,0c0.2,0,0.2,0,0.2-0.1c0,0,0,0,0-0.1h-0.4    l0-0.2h0.8l0,0.2c0,0.2,0,0.2-0.1,0.3c-0.1,0.1-0.2,0.2-0.4,0.2c0,0-0.2,0-0.4,0c-0.4,0-0.4,0-0.5-0.1c-0.1,0-0.1-0.1-0.1-0.2    c0-0.1,0-0.2,0.1-0.4c0.1-0.3,0.2-0.4,0.3-0.4c0.1,0,0.2,0,0.5,0c0.4,0,0.5,0,0.6,0.1c0.1,0,0.1,0.1,0.1,0.2c0,0,0,0.1,0,0.2H204z    " class="can-change"></path>
		<path fill="#231F20" d="M206.4,92.9l-0.1,0.3h-0.9l0,0.2h0.9l0,0.2h-0.9l0,0.2h0.9l-0.1,0.3h-1.3l0.2-1.1H206.4z" class="can-change"></path>
		<path fill="#231F20" d="M207.2,92.9h0.5l0.5,0.9l0.2-0.9h0.3l-0.2,1.1h-0.6l-0.5-0.8l-0.2,0.8h-0.3L207.2,92.9z" class="can-change"></path>
		<path fill="#231F20" d="M209.8,93.2h-0.5l0.1-0.3h1.3l-0.1,0.3h-0.5L210,94h-0.3L209.8,93.2z" class="can-change"></path>
		<g>
			<polygon fill="#EC1C24" points="185.1,93.7 185,94 186.2,94 186.3,93.7    " class="can-change"></polygon>
			<polygon fill="#EC1C24" points="190.1,93.3 190.2,92.9 186.8,92.9 186.8,93.3    " class="can-change"></polygon>
			<polygon fill="#EC1C24" points="186.5,92.9 185.2,92.9 185.1,93.3 186.4,93.3    " class="can-change"></polygon>
			<polygon fill="#EC1C24" points="186.6,94 190,94 190.1,93.7 186.7,93.7    " class="can-change"></polygon>
			<polygon fill="#FFFFFF" points="186.8,93.3 186.8,92.9 186.5,92.9 186.4,93.3 185.1,93.3 185.1,93.7 186.3,93.7 186.2,94      186.6,94 186.7,93.7 190.1,93.7 190.1,93.3    " class="can-change"></polygon>
		</g>
	</g>
</g>
</svg>