<svg xmlns="http://www.w3.org/2000/svg" xmlns:xlink="http://www.w3.org/1999/xlink" version="1.1" id="Layer_1" x="0px" y="0px" viewBox="-791 316 225 260" style="enable-background:new -791 316 225 260;" xml:space="preserve" data-product="2017511" data-design="1" data-size="m">
<style type="text/css">
	.st0{fill:#EDEDED;stroke:#6D6E71;stroke-width:0.34;stroke-linecap:round;stroke-linejoin:round;stroke-miterlimit:10;}
	.st1{fill:#FFFFFF;}
	.st2{clip-path:url(#SVGID_4_);}
	.st3{fill:#FFFFFF;stroke:#6D6E71;stroke-width:0.34;stroke-linecap:round;stroke-linejoin:round;stroke-miterlimit:10;}
	.st4{fill:none;stroke:#6D6E71;stroke-width:0.34;stroke-linecap:round;stroke-linejoin:round;stroke-miterlimit:10;}
</style>
<path class="st0 cannot-edit can-change" d="M-623.9,319.6c0.1,0.3,1.9,4.9,2.1,5.2c1.4,2.4,3,5,4.4,8.1c0.7,1.6,1.5,3.2,2,5.2c6.2,13.8,10.4,40.3,9.2,54h0  c-2.1,22.3-12,43.7-18.4,52.2c-8.1,10.7-14.1,99.1-13.8,106c0.3,7,0.3,18.2,0.3,18.2c-24,8.6-64.7,7.1-78.6,4.6  c-13.8-2.4-12.8-4.6-12.8-4.6c0-3.8-3-27.6-3-27.8c-20.9-97.7-1.9-91.4-12.1-114.5c-7.8-17.8-6.9-70.4-6.1-93.6  c0.2-6.5,1.2-11.2,1.2-11.7l6.4-0.8c0.7,0.1,49.6-5.2,69.8-2.9C-654.6,316.2-624.1,319.6-623.9,319.6z" style="fill: rgb(0, 0, 0);"/>
<g>
	<g>
		<path id="SVGID_1_" class="st1 can-change logo-area" d="M-732,544.5L-732,544.5c-0.2-2.2-0.4-3.7-0.4-3.8c-4.8-17.9-8-44.4-9.4-56.2    c17.5-33.2,21.4-89.9,21.4-90.8c0-0.4,1.4-40.4,2.1-75.4c7.7-0.7,15.5-1.2,23.3-1.5c8.4-0.3,16.2-0.2,21.9,0.4    c8.1-0.4,18.5,0,27.6,0.6c-0.5,20.4-1.4,64-1.4,83.8c0,11.4,2.9,42.2,14.2,79.4c-2.1,19.8-4.8,51.1-5.5,63.4l-0.1,1.1    c-0.2,2.8-0.3,7.3-0.2,8.1c0.3,5.8,0.2,16.5,0.2,16.5c-23.6,7.1-65,5.8-78.6,3.8c-13.7-2-12.6-3.7-12.6-3.8    C-729.6,567.7-731.1,550.5-732,544.5z" fill="rgb(255, 255, 255)" data-fill-id="1"/>
	</g>
	<g>
		<defs>
			<path id="SVGID_3_" d="M-732,544.5L-732,544.5c-0.2-2.2-0.4-3.7-0.4-3.8c-4.8-17.9-8-44.4-9.4-56.2     c17.5-33.2,21.4-89.9,21.4-90.8c0-0.4,1.4-40.4,2.1-75.4c7.7-0.7,15.5-1.2,23.3-1.5c8.4-0.3,16.2-0.2,21.9,0.4     c8.1-0.4,18.5,0,27.6,0.6c-0.5,20.4-1.4,64-1.4,83.8c0,11.4,2.9,42.2,14.2,79.4c-2.1,19.8-4.8,51.1-5.5,63.4l-0.1,1.1     c-0.2,2.8-0.3,7.3-0.2,8.1c0.3,5.8,0.2,16.5,0.2,16.5c-23.6,7.1-65,5.8-78.6,3.8c-13.7-2-12.6-3.7-12.6-3.8     C-729.6,567.7-731.1,550.5-732,544.5z"/>
		</defs>
		<clipPath id="SVGID_4_">
			<use xlink:href="#SVGID_3_" style="overflow:visible;"/>
		</clipPath>
		<g class="st2 can-change" fill="rgb(0, 0, 0)">
			<g>
				<path class="st3 can-change" d="M-605.2,528.8l-12.4,32.2c-44.9,23.5-150.3,0-150.3,0l-1-23.3l15.2,4c85.9,20.6,124,0.1,124,0.1      L-605.2,528.8z" fill="rgb(255, 255, 255)" data-fill-id="2"/>
				<path class="st3 can-change" d="M-605,535l-12.4,32.2c-44.9,23.5-150.3,0-150.3,0l-1.1-23.3l15.2,4c85.9,20.5,124,0.1,124,0.1L-605,535z" fill="rgb(255, 255, 255)" data-fill-id="3"/>
				<path class="st3 can-change" d="M-604.8,541.2l-12.4,32.2c-44.9,23.5-150.3,0-150.3,0l-1-23.3l15.2,4c85.9,20.5,124,0.1,124,0.1      L-604.8,541.2z" fill="rgb(255, 255, 255)" data-fill-id="4"/>
				<path class="st3 can-change" d="M-604.6,547.4l-12.4,32.2c-44.9,23.5-150.3,0-150.3,0l-1-23.3l15.2,4c85.9,20.5,124,0.1,124,0.1      L-604.6,547.4z" fill="rgb(255, 255, 255)" data-fill-id="5"/>
			</g>
		</g>
	</g>
	<g>
		<path id="SVGID_2_" class="st4" d="M-732,544.5L-732,544.5c-0.2-2.2-0.4-3.7-0.4-3.8c-4.8-17.9-8-44.4-9.4-56.2    c17.5-33.2,21.4-89.9,21.4-90.8c0-0.4,1.4-40.4,2.1-75.4c7.7-0.7,15.5-1.2,23.3-1.5c8.4-0.3,16.2-0.2,21.9,0.4    c8.1-0.4,18.5,0,27.6,0.6c-0.5,20.4-1.4,64-1.4,83.8c0,11.4,2.9,42.2,14.2,79.4c-2.1,19.8-4.8,51.1-5.5,63.4l-0.1,1.1    c-0.2,2.8-0.3,7.3-0.2,8.1c0.3,5.8,0.2,16.5,0.2,16.5c-23.6,7.1-65,5.8-78.6,3.8c-13.7-2-12.6-3.7-12.6-3.8    C-729.6,567.7-731.1,550.5-732,544.5z" fill="none"/>
	</g>
</g>
<path class="st4" d="M-749.7,341.8c0,0,70-9.5,134.3-3.7" fill="none"/>
<path class="st4" d="M-749.7,344.6c0,0,70-9.5,134.3-3.7" fill="none"/>
</svg>