<svg xmlns="http://www.w3.org/2000/svg" xmlns:xlink="http://www.w3.org/1999/xlink" version="1.1" id="Layer_1" x="0px" y="0px" viewBox="-761 236 285 420" style="enable-background:new -761 236 285 420;" xml:space="preserve" data-product="2017505" data-design="1" data-size="m">
<style type="text/css">
	.st0{fill:#FFFFFF;stroke:#6D6E71;stroke-width:0.34;stroke-linecap:round;stroke-linejoin:round;stroke-miterlimit:10;}
	.st1{fill:#FFFFFF;}
	.st2{clip-path:url(#SVGID_12_);}
	.st3{fill:none;stroke:#6D6E71;stroke-width:0.34;stroke-linecap:round;stroke-linejoin:round;stroke-miterlimit:10;}
	.st4{clip-path:url(#SVGID_14_);}
	.st5{clip-path:url(#SVGID_16_);}
	.st6{clip-path:url(#SVGID_18_);}
	.st7{clip-path:url(#SVGID_20_);}
	.st8{fill:#EDEDED;stroke:#6D6E71;stroke-width:0.34;stroke-linecap:round;stroke-linejoin:round;stroke-miterlimit:10;}
	.st9{fill:none;}
	.st10{fill:#ED1C24;}
</style>
<path class="st0 cannot-edit can-change" d="M-656.2,248.5c3.4,0.3,36.4,22.1,77.5,0c0,0-5.5,52-41.4,48.3c-35.9-3.7-41.6-46.9-38.9-47.6  C-656.2,248.5-659.6,248.1-656.2,248.5z" fill="rgb(255, 255, 255)"></path>
<g>
	<g>
		<path id="SVGID_1_" class="st1 can-change" d="M-528.3,376.4c-2-4.3-7.5-12.6-8.9-17c-1.2-3.6-7.8-25.2-7.8-25.3c0.1-0.3-4.8-23.4-3.5-39.4    c-1.2-3.7-2.8-7-4.8-9.9c-8.8-8.1-11.3-10.9-26.3-19c3.2-11,2.8-10.7,4.3-19.6c31.3,12,58.1,27.2,63.2,32.5    c0.1,0,4.1,4.5,8.3,14.9c2.4,5.9,5,14,6.9,23.2c8.1,34.1,8.9,46.7,9,49.5c2.5,15.8,2.4,21.8,2.4,22c0.3,26.9-3.1,111.2-3.2,112    l-0.3-0.4c-0.8-0.5-3.8-1.1-6.7-1.1c-2.8,0-14.2-1.2-20.2-1.1c-6,0.2-7.7,2.4-7.7,2.5c-1.6-8-0.9-21.6-2.5-51.4    C-527.9,419.1-524.4,384.5-528.3,376.4z" fill="rgb(255, 255, 255)" data-fill-id="2"></path>
	</g>
	<g>
		<defs>
			<path id="SVGID_11_" d="M-528.3,376.4c-2-4.3-7.5-12.6-8.9-17c-1.2-3.6-7.8-25.2-7.8-25.3c0.1-0.3-4.8-23.4-3.5-39.4     c-1.2-3.7-2.8-7-4.8-9.9c-8.8-8.1-11.3-10.9-26.3-19c3.2-11,2.8-10.7,4.3-19.6c31.3,12,58.1,27.2,63.2,32.5     c0.1,0,4.1,4.5,8.3,14.9c2.4,5.9,5,14,6.9,23.2c8.1,34.1,8.9,46.7,9,49.5c2.5,15.8,2.4,21.8,2.4,22c0.3,26.9-3.1,111.2-3.2,112     l-0.3-0.4c-0.8-0.5-3.8-1.1-6.7-1.1c-2.8,0-14.2-1.2-20.2-1.1c-6,0.2-7.7,2.4-7.7,2.5c-1.6-8-0.9-21.6-2.5-51.4     C-527.9,419.1-524.4,384.5-528.3,376.4z"></path>
		</defs>
		<clipPath id="SVGID_12_">
			<use xmlns:xlink="http://www.w3.org/1999/xlink" xlink:href="#SVGID_11_" style="overflow:visible;"></use>
		</clipPath>
		<g class="st2 can-change" fill="rgb(0, 0, 0)">
			<g>
				<g>
					<path class="st0 can-change" d="M-503.2,453.6l6.1,0.2l-2.8,72.4l-6.1-0.2L-503.2,453.6z" fill="rgb(255, 255, 255)"></path>
					<path class="st0 can-change" d="M-484.7,454.3l6.2,0.2l-2.8,72.5l-6.2-0.2L-484.7,454.3z" fill="rgb(255, 255, 255)"></path>
					<path class="st0 can-change" d="M-490.9,454.1l6.1,0.2l-2.8,72.4l-6.1-0.2L-490.9,454.1z" fill="rgb(255, 255, 255)" data-fill-id="21"></path>
				</g>
				<path class="st0 can-change" d="M-497,453.9l6.2,0.2l-2.8,72.4l-6.2-0.2L-497,453.9z" fill="rgb(255, 255, 255)" data-fill-id="20"></path>
			</g>
		</g>
	</g>
	<g>
		<path id="SVGID_2_" class="st3" d="M-528.3,376.4c-2-4.3-7.5-12.6-8.9-17c-1.2-3.6-7.8-25.2-7.8-25.3c0.1-0.3-4.8-23.4-3.5-39.4    c-1.2-3.7-2.8-7-4.8-9.9c-8.8-8.1-11.3-10.9-26.3-19c3.2-11,2.8-10.7,4.3-19.6c31.3,12,58.1,27.2,63.2,32.5    c0.1,0,4.1,4.5,8.3,14.9c2.4,5.9,5,14,6.9,23.2c8.1,34.1,8.9,46.7,9,49.5c2.5,15.8,2.4,21.8,2.4,22c0.3,26.9-3.1,111.2-3.2,112    l-0.3-0.4c-0.8-0.5-3.8-1.1-6.7-1.1c-2.8,0-14.2-1.2-20.2-1.1c-6,0.2-7.7,2.4-7.7,2.5c-1.6-8-0.9-21.6-2.5-51.4    C-527.9,419.1-524.4,384.5-528.3,376.4z" fill="none"></path>
	</g>
</g>
<g>
	<g>
		<path id="SVGID_3_" class="st1 can-change" d="M-708.7,376.4c-3.9,8.1-0.3,42.8-2,72.6c-1.7,29.8-1,43.4-2.5,51.4c0,0-1.7-2.3-7.7-2.5    c-6-0.1-17.4,1.1-20.2,1.1c-2.9,0-5.9,0.7-6.7,1.1l-0.3,0.4c-0.1-0.8-3.5-85.1-3.2-112c0-0.2-0.1-6.2,2.4-22    c0.1-2.8,0.9-15.5,9-49.5c2-9.3,4.5-17.3,6.9-23.2c4.2-10.4,8.2-14.9,8.3-14.9c5.1-5.3,31.9-20.5,63.2-32.5    c1.6,9,1.1,8.6,4.3,19.6c-15.1,8.1-17.5,10.9-26.3,19c-2.1,2.8-3.6,6.2-4.9,9.9c1.3,16-3.5,39.1-3.5,39.4c0,0.1-6.7,21.7-7.8,25.3    C-701.2,363.8-706.7,372-708.7,376.4z" fill="rgb(255, 255, 255)" data-fill-id="3"></path>
	</g>
	<g>
		<defs>
			<path id="SVGID_13_" d="M-708.7,376.4c-3.9,8.1-0.3,42.8-2,72.6c-1.7,29.8-1,43.4-2.5,51.4c0,0-1.7-2.3-7.7-2.5     c-6-0.1-17.4,1.1-20.2,1.1c-2.9,0-5.9,0.7-6.7,1.1l-0.3,0.4c-0.1-0.8-3.5-85.1-3.2-112c0-0.2-0.1-6.2,2.4-22     c0.1-2.8,0.9-15.5,9-49.5c2-9.3,4.5-17.3,6.9-23.2c4.2-10.4,8.2-14.9,8.3-14.9c5.1-5.3,31.9-20.5,63.2-32.5     c1.6,9,1.1,8.6,4.3,19.6c-15.1,8.1-17.5,10.9-26.3,19c-2.1,2.8-3.6,6.2-4.9,9.9c1.3,16-3.5,39.1-3.5,39.4     c0,0.1-6.7,21.7-7.8,25.3C-701.2,363.8-706.7,372-708.7,376.4z"></path>
		</defs>
		<clipPath id="SVGID_14_">
			<use xmlns:xlink="http://www.w3.org/1999/xlink" xlink:href="#SVGID_13_" style="overflow:visible;"></use>
		</clipPath>
		<g class="st4 can-change" fill="rgb(0, 0, 0)">
			<g>
				<g>
					<path class="st0 can-change" d="M-734.1,453.6l2.8,72.5l-6.2,0.2l-2.8-72.4L-734.1,453.6z" fill="rgb(255, 255, 255)"></path>
					<path class="st0 can-change" d="M-752.6,454.3l2.8,72.4l-6.2,0.2l-2.8-72.5L-752.6,454.3z" fill="rgb(255, 255, 255)"></path>
					<path class="st0 can-change" d="M-746.4,454.1l2.8,72.4l-6.2,0.2l-2.8-72.4L-746.4,454.1z" fill="rgb(255, 255, 255)" data-fill-id="22"></path>
				</g>
				<path class="st0 can-change" d="M-740.2,453.9l2.8,72.4l-6.2,0.2l-2.8-72.4L-740.2,453.9z" fill="rgb(255, 255, 255)" data-fill-id="23"></path>
			</g>
		</g>
	</g>
	<g>
		<path id="SVGID_4_" class="st3" d="M-708.7,376.4c-3.9,8.1-0.3,42.8-2,72.6c-1.7,29.8-1,43.4-2.5,51.4c0,0-1.7-2.3-7.7-2.5    c-6-0.1-17.4,1.1-20.2,1.1c-2.9,0-5.9,0.7-6.7,1.1l-0.3,0.4c-0.1-0.8-3.5-85.1-3.2-112c0-0.2-0.1-6.2,2.4-22    c0.1-2.8,0.9-15.5,9-49.5c2-9.3,4.5-17.3,6.9-23.2c4.2-10.4,8.2-14.9,8.3-14.9c5.1-5.3,31.9-20.5,63.2-32.5    c1.6,9,1.1,8.6,4.3,19.6c-15.1,8.1-17.5,10.9-26.3,19c-2.1,2.8-3.6,6.2-4.9,9.9c1.3,16-3.5,39.1-3.5,39.4c0,0.1-6.7,21.7-7.8,25.3    C-701.2,363.8-706.7,372-708.7,376.4z" fill="none"></path>
	</g>
</g>
<g>
	<g>
		<path id="SVGID_5_" class="st1 can-change" d="M-698.6,356c2.7-6.6,16.3-43.8,6.6-96.6c0.1-0.1,15.5-8.4,30.4-13.2l0.4,2.3l3.6-2.4    c9.1,39.3,19.6,49.7,39.1,49.8h0.1v166.5h0c-23.8,0-52.3-2.5-74.8-10.8c1.1-41.1-2.3-50.4-2-64.7c-0.3-6.6-2.2-20.5-3.8-29.9    C-699.1,356.7-699,356.3-698.6,356z" fill="rgb(255, 255, 255)"></path>
	</g>
	<g>
		<defs>
			<path id="SVGID_15_" d="M-698.6,356c2.7-6.6,16.3-43.8,6.6-96.6c0.1-0.1,15.5-8.4,30.4-13.2l0.4,2.3l3.6-2.4     c9.1,39.3,19.6,49.7,39.1,49.8h0.1v166.5h0c-23.8,0-52.3-2.5-74.8-10.8c1.1-41.1-2.3-50.4-2-64.7c-0.3-6.6-2.2-20.5-3.8-29.9     C-699.1,356.7-699,356.3-698.6,356z"></path>
		</defs>
		<clipPath id="SVGID_16_">
			<use xmlns:xlink="http://www.w3.org/1999/xlink" xlink:href="#SVGID_15_" style="overflow:visible;"></use>
		</clipPath>
		<g class="st5 can-change" fill="rgb(0, 0, 0)">
			<g>
				<path class="st0 can-change" d="M-721.6,385.4v-11.1H-515v11.1H-721.6z" fill="rgb(255, 255, 255)"></path>
				<path class="st0 can-change" d="M-721.6,352.1V341H-515v11.1H-721.6z" fill="rgb(255, 255, 255)"></path>
				<path xmlns="http://www.w3.org/2000/svg" class="st0 can-change" d="M-721.6,363.2v-11.1H-515v11.1H-721.6z" fill="rgb(255, 255, 255)"></path>
<path xmlns="http://www.w3.org/2000/svg" class="st0 can-change" d="M-721.6,374.3v-11.1H-515v11.1H-732.6z" fill="rgb(255, 255, 255)"></path>
			</g>
		</g>
	</g>
	<g>
		<path id="SVGID_6_" class="st3" d="M-698.6,356c2.7-6.6,16.3-43.8,6.6-96.6c0.1-0.1,15.5-8.4,30.4-13.2l0.4,2.3l3.6-2.4    c9.1,39.3,19.6,49.7,39.1,49.8h0.1v166.5h0c-23.8,0-52.3-2.5-74.8-10.8c1.1-41.1-2.3-50.4-2-64.7c-0.3-6.6-2.2-20.5-3.8-29.9    C-699.1,356.7-699,356.3-698.6,356z" fill="none"></path>
	</g>
</g>
<g>
	<g>
		<path id="SVGID_7_" class="st1 can-change" d="M-538.4,356c0.3,0.3,0.5,0.7,0.5,1.1c-1.6,9.4-3.5,23.2-3.8,29.9c0.3,14.3-3.1,23.6-2,64.7    c-22.5,8.3-51,10.8-74.8,10.8h0V295.9h0.1c19.5-0.2,30-10.6,39.1-49.8l3.6,2.4l0.4-2.3c14.9,4.8,30.2,13.1,30.4,13.2    C-554.7,312.1-541.1,349.3-538.4,356z" fill="rgb(255, 255, 255)" data-fill-id="25"></path>
	</g>
	<g>
		<defs>
			<path id="SVGID_17_" d="M-538.4,356c0.3,0.3,0.5,0.7,0.5,1.1c-1.6,9.4-3.5,23.2-3.8,29.9c0.3,14.3-3.1,23.6-2,64.7     c-22.5,8.3-51,10.8-74.8,10.8h0V295.9h0.1c19.5-0.2,30-10.6,39.1-49.8l3.6,2.4l0.4-2.3c14.9,4.8,30.2,13.1,30.4,13.2     C-554.7,312.1-541.1,349.3-538.4,356z"></path>
		</defs>
		<clipPath id="SVGID_18_">
			<use xmlns:xlink="http://www.w3.org/1999/xlink" xlink:href="#SVGID_17_" style="overflow:visible;"></use>
		</clipPath>
		<g class="st6 can-change" fill="rgb(0, 0, 0)">
			<g>
				<path class="st0 can-change" d="M-721.6,385.4v-11.1H-515v11.1H-721.6z" fill="rgb(255, 255, 255)" data-fill-id="16"></path>
				<path class="st0 can-change" d="M-721.6,352.1V341H-515v11.1H-721.6z" fill="rgb(255, 255, 255)" data-fill-id="18"></path>
				<path xmlns="http://www.w3.org/2000/svg" class="st0 can-change" d="M-721.6,363.2v-11.1H-515v11.1H-721.6z" fill="rgb(255, 255, 255)" data-fill-id="17"></path>
<path xmlns="http://www.w3.org/2000/svg" class="st0 can-change" d="M-721.6,374.2v-11.1H-515v11.1H-721.6z" fill="rgb(255, 255, 255)" data-fill-id="99" style="
"></path>
			</g>
		</g>
	</g>
	<g>
		<path id="SVGID_8_" class="st3" d="M-538.4,356c0.3,0.3,0.5,0.7,0.5,1.1c-1.6,9.4-3.5,23.2-3.8,29.9c0.3,14.3-3.1,23.6-2,64.7    c-22.5,8.3-51,10.8-74.8,10.8h0V295.9h0.1c19.5-0.2,30-10.6,39.1-49.8l3.6,2.4l0.4-2.3c14.9,4.8,30.2,13.1,30.4,13.2    C-554.7,312.1-541.1,349.3-538.4,356z" fill="none"></path>
	</g>
</g>
<g>
	<g>
		<path id="SVGID_9_" class="st1 can-change selected filled" d="M-531.6,562.9c0,3.3-0.1,6.5-0.2,9.9c0,0.1,0.3,8.5-0.6,19.6c-0.8,10.1-2.8,25-3.6,28.5    c-0.9,5.4-1.9,12-2.7,17.3c-0.2,0.2-19.6,18.7-67.6-1.3l-1.9-17.1c0-0.2-1.7-22.2-3.9-27.3c-2.2-5.2-3.3-25.6-3.3-25.8l0.5-15.6    c0,0-2.3,1.1-3.5,1.2c-1.2,0-3.5-1.2-3.5-1.2l0.4,15.6c0,0.2-1.1,20.6-3.3,25.8c-2.2,5.1-3.8,27.1-3.9,27.3l-1.9,17.1    c-48.1,20-67.5,1.5-67.7,1.3c-0.8-5.4-1.8-12-2.7-17.3c-0.9-3.5-2.8-18.3-3.6-28.5c-0.9-11.1-0.6-19.5-0.6-19.6    c-1.3-41.2,0.9-71.1,3.1-80.6c2.2-9.5,3.2-16.2,6.4-30.8c0.8-3.9,1.7-7.3,2.4-10.3c1-40.8-2.3-50.1-2-64.3    c-0.3-6.6-2.2-20.5-3.8-29.9c3.1-9,3.1-12.9,7-23.3c18.9,18,19.5,49.1,20.8,68.5c0.8,11.7,2.7,32.9,0.6,54.7    c13.1,2.6,31.3,5.2,52.4,5.2c21.3,0,39.3-2.5,52-5.2c-2.1-21.8-0.2-43,0.5-54.7c1.3-19.5,1.9-50.6,20.8-68.5    c3.9,10.3,3.9,14.2,7.1,23.3c-1.6,9.4-3.5,23.2-3.8,29.9c0.3,14.2-3,23.6-2,64.3c0.7,2.9,1.6,6.4,2.4,10.3    c3.2,14.6,4.3,21.3,6.4,30.8C-532.9,500.9-530.9,526.9-531.6,562.9z" fill="rgb(255, 255, 255)" data-fill-id="1" style="fill: rgb(0, 102, 179);"></path>
	</g>
	<g>
		<defs>
			<path id="SVGID_19_" d="M-531.6,562.9c0,3.3-0.1,6.5-0.2,9.9c0,0.1,0.3,8.5-0.6,19.6c-0.8,10.1-2.8,25-3.6,28.5     c-0.9,5.4-1.9,12-2.7,17.3c-0.2,0.2-19.6,18.7-67.6-1.3l-1.9-17.1c0-0.2-1.7-22.2-3.9-27.3c-2.2-5.2-3.3-25.6-3.3-25.8l0.5-15.6     c0,0-2.3,1.1-3.5,1.2c-1.2,0-3.5-1.2-3.5-1.2l0.4,15.6c0,0.2-1.1,20.6-3.3,25.8c-2.2,5.1-3.8,27.1-3.9,27.3l-1.9,17.1     c-48.1,20-67.5,1.5-67.7,1.3c-0.8-5.4-1.8-12-2.7-17.3c-0.9-3.5-2.8-18.3-3.6-28.5c-0.9-11.1-0.6-19.5-0.6-19.6     c-1.3-41.2,0.9-71.1,3.1-80.6c2.2-9.5,3.2-16.2,6.4-30.8c0.8-3.9,1.7-7.3,2.4-10.3c1-40.8-2.3-50.1-2-64.3     c-0.3-6.6-2.2-20.5-3.8-29.9c3.1-9,3.1-12.9,7-23.3c18.9,18,19.5,49.1,20.8,68.5c0.8,11.7,2.7,32.9,0.6,54.7     c13.1,2.6,31.3,5.2,52.4,5.2c21.3,0,39.3-2.5,52-5.2c-2.1-21.8-0.2-43,0.5-54.7c1.3-19.5,1.9-50.6,20.8-68.5     c3.9,10.3,3.9,14.2,7.1,23.3c-1.6,9.4-3.5,23.2-3.8,29.9c0.3,14.2-3,23.6-2,64.3c0.7,2.9,1.6,6.4,2.4,10.3     c3.2,14.6,4.3,21.3,6.4,30.8C-532.9,500.9-530.9,526.9-531.6,562.9z"></path>
		</defs>
		<clipPath id="SVGID_20_">
			<use xmlns:xlink="http://www.w3.org/1999/xlink" xlink:href="#SVGID_19_" style="overflow:visible;"></use>
		</clipPath>
		<g class="st7 can-change" fill="rgb(0, 0, 0)">
			<g>
				<path class="st0 can-change" d="M-715,602.9l14.1,11.8c0,0,22,18.6,71.7-0.1l8.8-3.6l-0.6,21.3c0,0-60.9,21.4-86.8,0L-715,602.9z" fill="rgb(255, 255, 255)" data-fill-id="8"></path>
				<path class="st0 can-change" d="M-715.2,608.6l14.1,11.8c0,0,22.1,18.7,71.7-0.1l8.8-3.7l-0.6,21.3c0,0-60.9,21.4-86.8,0L-715.2,608.6z" fill="rgb(255, 255, 255)" data-fill-id="9"></path>
				<path class="st0 can-change" d="M-715.3,614.2l14.1,11.8c0,0,22,18.6,71.7-0.1l8.8-3.7l-0.6,21.3c0,0-60.9,21.4-86.8,0L-715.3,614.2z" fill="rgb(255, 255, 255)" data-fill-id="10"></path>
				<path class="st0 can-change" d="M-715.5,619.8l14.2,11.8c0,0,22,18.6,71.7-0.1l8.8-3.7l-0.6,21.3c0,0-60.9,21.4-86.8,0L-715.5,619.8z" fill="rgb(255, 255, 255)" data-fill-id="11"></path>
			</g>
			<g>
				<path class="st0 can-change" d="M-521.2,602.9l-7.2,29.3c-25.9,21.4-86.8,0-86.8,0l-0.6-21.3l8.8,3.6c49.6,18.7,71.7,0.1,71.7,0.1      L-521.2,602.9z" fill="rgb(255, 255, 255)" data-fill-id="4"></path>
				<path class="st0 can-change" d="M-521.1,608.6l-7.2,29.3c-25.9,21.4-86.8,0-86.8,0l-0.6-21.3l8.8,3.7c49.6,18.7,71.7,0.1,71.7,0.1      L-521.1,608.6z" fill="rgb(255, 255, 255)" data-fill-id="5"></path>
				<path class="st0 can-change" d="M-521,614.2l-7.2,29.3c-25.9,21.4-86.8,0-86.8,0l-0.6-21.3l8.8,3.7c49.6,18.7,71.7,0.1,71.7,0.1L-521,614.2      z" fill="rgb(255, 255, 255)" data-fill-id="6"></path>
				<path class="st0 can-change" d="M-520.8,619.8l-7.2,29.3c-25.9,21.4-86.8,0-86.8,0l-0.6-21.3l8.8,3.7c49.6,18.7,71.7,0.1,71.7,0.1      L-520.8,619.8z" fill="rgb(255, 255, 255)" data-fill-id="7"></path>
			</g>
		</g>
	</g>
	<g>
		<path id="SVGID_10_" class="st3" d="M-531.6,562.9c0,3.3-0.1,6.5-0.2,9.9c0,0.1,0.3,8.5-0.6,19.6c-0.8,10.1-2.8,25-3.6,28.5    c-0.9,5.4-1.9,12-2.7,17.3c-0.2,0.2-19.6,18.7-67.6-1.3l-1.9-17.1c0-0.2-1.7-22.2-3.9-27.3c-2.2-5.2-3.3-25.6-3.3-25.8l0.5-15.6    c0,0-2.3,1.1-3.5,1.2c-1.2,0-3.5-1.2-3.5-1.2l0.4,15.6c0,0.2-1.1,20.6-3.3,25.8c-2.2,5.1-3.8,27.1-3.9,27.3l-1.9,17.1    c-48.1,20-67.5,1.5-67.7,1.3c-0.8-5.4-1.8-12-2.7-17.3c-0.9-3.5-2.8-18.3-3.6-28.5c-0.9-11.1-0.6-19.5-0.6-19.6    c-1.3-41.2,0.9-71.1,3.1-80.6c2.2-9.5,3.2-16.2,6.4-30.8c0.8-3.9,1.7-7.3,2.4-10.3c1-40.8-2.3-50.1-2-64.3    c-0.3-6.6-2.2-20.5-3.8-29.9c3.1-9,3.1-12.9,7-23.3c18.9,18,19.5,49.1,20.8,68.5c0.8,11.7,2.7,32.9,0.6,54.7    c13.1,2.6,31.3,5.2,52.4,5.2c21.3,0,39.3-2.5,52-5.2c-2.1-21.8-0.2-43,0.5-54.7c1.3-19.5,1.9-50.6,20.8-68.5    c3.9,10.3,3.9,14.2,7.1,23.3c-1.6,9.4-3.5,23.2-3.8,29.9c0.3,14.2-3,23.6-2,64.3c0.7,2.9,1.6,6.4,2.4,10.3    c3.2,14.6,4.3,21.3,6.4,30.8C-532.9,500.9-530.9,526.9-531.6,562.9z" fill="none"></path>
	</g>
</g>
<g class="cannot-edit"><path class="st8 cannot-edit can-change" d="M-618.3,462.2v90.1h-0.2c-1.2,0-3.5-1.2-3.5-1.2l0.4,15.6c0,0.2-0.8,14.9-2.4,22.5  c-59.4-26.8-46.9-131.2-46.8-132.2C-657.5,459.6-639.4,462.2-618.3,462.2z" style="fill: rgb(0, 0, 0);"></path><path class="st8 cannot-edit can-change" d="M-618.7,462.1c21.1,0,39.2-2.5,52.4-5.2c0.1,1.1,12.6,105.5-46.8,132.2c-1.6-7.6-2.4-22.4-2.4-22.5l0.5-15.6  c0,0-2.3,1.1-3.6,1.2h-0.1L-618.7,462.1L-618.7,462.1z" style="fill: rgb(0, 0, 0);"></path></g>

<path class="st0 cannot-edit can-change" d="M-488.8,500.4l-0.2,0.9c0,0-5.2,2.3-17.7,2c-12.4-0.3-17-3-17-3c3.5-4.4,18.1-2,26.2-1.6  C-489.5,499-488.8,500.4-488.8,500.4z" fill="rgb(255, 255, 255)"></path>
<path class="st0 cannot-edit can-change" d="M-748.2,500.4c0,0,0.6-1.4,8.8-1.7c8.1-0.4,22.6-2.8,26.2,1.6c0,0-4.6,2.7-17,3c-12.5,0.3-17.7-2-17.7-2  L-748.2,500.4z" fill="rgb(255, 255, 255)"></path>
<path class="st0 can-change" d="M-655,246c0,0,34.5,20,73.4-0.2l-1.9,8.2c0,0-29.9,18.8-69.8-0.4C-653.4,253.6-655,245.8-655,246z" fill="rgb(255, 255, 255)"></path>
<path class="st0 can-change" d="M-618.5,552.3l0.2-89.9" fill="rgb(255, 255, 255)"></path>
<path class="st0 can-change" d="M-618.5,431.1l0.2-135.8" fill="rgb(255, 255, 255)"></path>
<g class="cannot-edit"><path class="st3 cannot-edit" d="M-623.3,564.8c0,0-19-3.1-13.4-20.4c5.7-17.2,6.4-22.7,5.7-30.3c-0.7-7.6-6-17.3,12.7-17.3" fill="none"></path><path class="st3 cannot-edit" d="M-613.5,564.8c0,0,19-3.1,13.4-20.4c-5.6-17.2-6.3-22.7-5.6-30.3c0.7-7.6,6-17.3-12.7-17.3" fill="none"></path></g>

<path class="st0 can-change" d="M-661.7,246.2l6.6-0.2c0,0,2.5,17.3,11.1,33.6c5.3,10.1,16.5,14.2,25.6,13.9c0,0,9.6,0.4,16.2-4.7  c4.5-3.4,9.1-8.4,12.8-16.8c3.4-8.5,5.9-17.3,7.6-26.2l6.3,0.3c0,0-4.7,24.9-11.5,35.2c-6.8,10.2-15.9,18.6-31.8,19  c-15.9,0.4-27.7-9.8-32.1-17.8c-4.5-8.1-8.7-21.3-10.2-31.2L-661.7,246.2z" fill="rgb(255, 255, 255)" data-fill-id="15"></path>
<path class="st0 can-change" d="M-618.5,462.4l0-169" fill="rgb(255, 255, 255)"></path>
<path class="st0 can-change" d="M-616.5,462.4l0.1-169" fill="rgb(255, 255, 255)"></path>
<path class="st0 can-change" d="M-620.5,462.4l0.1-169" fill="rgb(255, 255, 255)"></path>
<g>
	<path class="st0 can-change" d="M-618.4,296.9h0.7c0,0,0.1-0.2,0.2-0.6c0-0.4,0.1-0.4,0.1-0.4s0.3-0.3,0.4-0.3c0.2-0.1,0.1-0.3,0.1-0.3   s0-0.3,0-0.7c0-0.4-0.1-0.5-0.1-0.5l-0.9-1v-0.5l-0.5,0l-0.5,0v0.5l-0.9,1c0,0-0.1,0.1-0.1,0.5c0,0.4,0,0.7,0,0.7s0,0.2,0.1,0.3   c0.1,0.1,0.4,0.3,0.4,0.3s0.1,0,0.1,0.4c0,0.4,0.1,0.6,0.1,0.6H-618.4" fill="rgb(255, 255, 255)"></path>
	<path class="st0 can-change" d="M-618.4,296.9h0.7c0,0,0.1-0.2,0.2-0.6c0-0.2,0-0.3,0-0.3l0.1,0c0,0,0.3-0.3,0.4-0.3c0.1-0.1,0.1-0.2,0.1-0.3   v0c0,0,0-0.1,0-0.4c0-0.1,0-0.2,0-0.4c0-0.4-0.1-0.5-0.1-0.5l-0.9-0.9v-0.5l-0.5,0l-0.5,0v0.5l-0.9,1c0,0-0.1,0.1-0.1,0.5   c0,0.1,0,0.2,0,0.4c0,0.2,0,0.4,0,0.4v0c0,0.1,0,0.2,0.1,0.3c0.1,0.1,0.4,0.3,0.4,0.3l0.1,0c0,0,0.1,0.1,0.1,0.3   c0,0.4,0.1,0.6,0.1,0.6H-618.4h-0.8c0,0-0.1-0.2-0.1-0.6c0-0.2,0-0.3-0.1-0.3l-0.1,0c0,0-0.3-0.3-0.4-0.3c-0.1-0.1-0.1-0.2-0.1-0.3   v0c0,0,0-0.1,0-0.4c0-0.1,0-0.2,0-0.4c0-0.4,0.1-0.5,0.1-0.5l0.9-0.9v-0.5l0.5,0l0.5,0v0.5l0.9,0.9c0,0,0.1,0.1,0.1,0.5   c0,0.1,0,0.2,0,0.4c0,0.2,0,0.4,0,0.4v0c0,0.1,0,0.2-0.1,0.3c-0.1,0.1-0.4,0.3-0.4,0.3l-0.1,0c0,0,0,0.1,0,0.3   c0,0.4-0.2,0.6-0.2,0.6S-618.4,296.9-618.4,296.9z" fill="rgb(255, 255, 255)"></path>
	<path class="st0 can-change" d="M-618.8,292.8h0.6v2.9h-0.6V292.8v2.9h0.6v-2.9H-618.8z" fill="rgb(255, 255, 255)"></path>
	<path class="st0 can-change" d="M-618.5,297.4l1.3,0c0,0,0-2.2,0.1-2.4c0-0.2-0.1-0.3-0.1-0.3h-1.2h-1.2c0,0-0.2,0-0.1,0.3   c0.1,0.2,0.1,2.4,0.1,2.4L-618.5,297.4" fill="rgb(255, 255, 255)"></path>
	<path class="st0 can-change" d="M-618.5,297.4h1.2c0,0,0-2.2,0.1-2.4v-0.1c0-0.2-0.1-0.2-0.1-0.2h-1.2h-1.2c0,0-0.1,0-0.1,0.2v0.1   c0.1,0.2,0.1,2.4,0.1,2.4H-618.5h-1.3c0,0,0-2.2-0.1-2.4v-0.1c0-0.2,0.1-0.2,0.1-0.2h1.2h1.2c0,0,0.1,0,0.1,0.2v0.1   c-0.1,0.2-0.1,2.4-0.1,2.4H-618.5z" fill="rgb(255, 255, 255)"></path>
	<path class="st0 can-change" d="M-617.8,300.9h-1.2c-0.5-0.1-0.5-0.9-0.5-0.9l-0.2-2.6h2.5l-0.2,2.6C-617.4,300-617.4,300.8-617.8,300.9z" fill="rgb(255, 255, 255)"></path>
	<path class="st0 can-change" d="M-617.8,300.9c0.5-0.1,0.5-0.9,0.5-0.9l0.2-2.6h-2.5l0.2,2.6c0,0,0,0.8,0.5,0.9H-617.8h-1.2   c-0.5-0.1-0.5-0.9-0.5-0.9l-0.2-2.6h2.5l-0.2,2.6C-617.4,300.1-617.4,300.8-617.8,300.9z" fill="rgb(255, 255, 255)"></path>
	<path class="st0 can-change" d="M-618,297.2c0.1-0.6,0.3-1,0.6-1.4V295h-2v0.8c0.3,0.4,0.5,0.8,0.6,1.4H-618h-0.8c-0.1-0.6-0.3-1-0.6-1.4V295   h2v0.8C-617.8,296.2-618,296.6-618,297.2z" fill="rgb(255, 255, 255)"></path>
	<path class="st0 can-change" d="M-619.3,294.1h0.6v0.6h-0.6V294.1v0.6h0.6v-0.6H-619.3z" fill="rgb(255, 255, 255)"></path>
	<path class="st0 can-change" d="M-618.1,294.1h0.6v0.6h-0.6V294.1v0.6h0.6v-0.6H-618.1z" fill="rgb(255, 255, 255)"></path>
	<path class="st0 can-change" d="M-618.1,294.9h0.6v0.6h-0.6V294.9v0.6h0.6v-0.6H-618.1z" fill="rgb(255, 255, 255)"></path>
	<path class="st0 can-change" d="M-619.3,294.9h0.6v0.6h-0.6V294.9v0.6h0.6v-0.6H-619.3z" fill="rgb(255, 255, 255)"></path>
</g>
<path class="st0 can-change" d="M-748.7,486.9c1.4-0.4,2.9-0.9,4.9-1.1c3.2-0.3,22.9-1.4,23.1-1.4c0.1,0,4.6,0.2,8.7,1.4  c-0.2,6.5-0.5,11.1-1.1,14.6c0,0-1.7-2.3-7.7-2.5c-6-0.1-17.4,1.1-20.2,1.1c-2.9,0-5.9,0.7-6.7,1.1l-0.3,0.4  C-748.2,500.2-748.4,495-748.7,486.9z" fill="rgb(255, 255, 255)" data-fill-id="13"></path>
<path class="st0 can-change" d="M-488.3,486.9c-0.3,8.2-0.5,13.4-0.5,13.6l-0.3-0.4c-0.8-0.5-3.8-1.1-6.7-1.1c-2.8,0-14.2-1.2-20.2-1.1  c-6,0.2-7.6,2.4-7.7,2.5c-0.7-3.5-1-8-1.2-14.6c4.1-1.2,8.6-1.4,8.7-1.4c0.2,0,19.9,1.1,23,1.4C-491.1,486-489.7,486.4-488.3,486.9z  " fill="rgb(255, 255, 255)" data-fill-id="12"></path>
<g class="human-logo">
	<path d="M-612.1,329.3l0.8-4.6h2.1l-0.2,1.3h1.5l0.2-1.3h3.7l-0.5,2.7c0,0,0,0.1,0,0.1h0.1h1.1c0.1,0,0.1,0,0.2,0   c0.1-0.1,0.1-0.2,0.1-0.2l0.4-2.5h4.1l0.7,1.9l1.3-1.9h2.5l-0.5,2.6l1.8-2.6h2.1l1,2.7l0.5-2.7h2.4l1.2,1.9l0.3-1.9h2.1l-0.8,4.6   h-2.4l-1.2-1.9l-0.3,1.9h-3.3l-0.2-0.7h-1.7l-0.5,0.7h-3.3l0.2-1.3l-0.9,1.3h-1.4l-0.5-1.4l-0.3,1.4h-2l0.1-0.5c0,0-0.1,0-0.1,0.1   c-0.4,0.3-1,0.4-1.5,0.4h-1.6c-0.4,0-0.9-0.1-1.3-0.3c-0.1-0.1-0.2-0.2-0.3-0.3l-0.1,0.6h-2.1l0.2-1.4h-1.5l-0.2,1.4H-612.1z"></path>
	<polygon class="st1 can-change" points="-611.5,328.8 -610.9,325.1 -609.7,325.1 -610,326.4 -607.6,326.4 -607.3,325.1 -606.2,325.1    -606.9,328.8 -608,328.8 -607.7,327.4 -610.2,327.4 -610.4,328.8  " fill="rgb(255, 255, 255)"></polygon>
	<path class="st1 can-change" d="M-606.1,327.5l0.4-2.4h1.1l-0.4,2.1c-0.1,0.5,0.1,0.7,0.5,0.7h1.1c0.5,0,0.7-0.2,0.8-0.7l0.4-2.1h1.1l-0.4,2.4   c-0.2,0.9-0.7,1.4-1.8,1.4h-1.6C-605.9,328.9-606.3,328.4-606.1,327.5" fill="rgb(255, 255, 255)"></path>
	<polygon class="st1 can-change" points="-601.1,328.8 -600.5,325.1 -598.7,325.1 -597.9,327.5 -596.1,325.1 -594.4,325.1 -595,328.8    -596.2,328.8 -595.7,326.2 -595.7,326.2 -597.7,328.8 -598.5,328.8 -599.5,326.2 -599.5,326.2 -600,328.8  " fill="rgb(255, 255, 255)"></polygon>
	<path class="st1 can-change" d="M-591.6,326l-1,1.4h1.5L-591.6,326z M-594.9,328.8l2.7-3.7h1.5l1.4,3.7h-1.3l-0.2-0.7h-2.3l-0.5,0.7H-594.9z" fill="rgb(255, 255, 255)"></path>
	<polygon class="st1 can-change" points="-589.2,328.8 -588.5,325.1 -586.8,325.1 -585.1,327.8 -585.1,327.8 -584.6,325.1 -583.5,325.1    -584.1,328.8 -585.9,328.8 -587.6,326.1 -587.6,326.1 -588,328.8  " fill="rgb(255, 255, 255)"></polygon>
	<path d="M-582.8,327.9l0-0.2h1.1c-0.1,0.4,0.1,0.4,0.4,0.4h1.4c0.2,0,0.5,0,0.5-0.3c0.1-0.3-0.1-0.3-1.5-0.3   c-1.7,0-1.9-0.2-1.7-1.1c0.1-0.7,0.3-1.2,1.7-1.2h1.6c1.3,0,1.4,0.4,1.2,1.1l0,0.1h-1.1c0-0.3,0-0.4-0.5-0.4h-1.3   c-0.2,0-0.4,0.1-0.5,0.3c-0.1,0.3,0.1,0.3,1.3,0.3c1.8,0,2.2,0.1,2,1.2c-0.2,1-0.6,1.2-2.1,1.2h-1.4   C-582.5,328.9-582.9,328.7-582.8,327.9"></path>
	<path d="M-576.1,326l-0.2,0.9h1.8c0.3,0,0.4-0.2,0.4-0.4l0-0.1c0-0.3-0.1-0.4-0.4-0.4L-576.1,326L-576.1,326z M-577.8,328.8   l0.7-3.7h3.1c1.1,0,1.3,0.5,1.1,1.3l-0.1,0.3c-0.1,0.6-0.5,1.2-1.3,1.2h-2.3l-0.2,0.9H-577.8z"></path>
	<polygon points="-573,328.8 -572.3,325.1 -568.2,325.1 -568.4,326 -571.3,326 -571.4,326.6 -568.6,326.6 -568.8,327.3    -571.5,327.3 -571.7,327.9 -568.7,327.9 -568.8,328.8  "></polygon>
	<polygon points="-568.4,328.8 -567.7,325.1 -563.7,325.1 -563.8,326 -566.7,326 -566.8,326.6 -564.1,326.6 -564.2,327.3    -567,327.3 -567.1,327.9 -564.1,327.9 -564.2,328.8  "></polygon>
	<path d="M-562.1,326l-0.3,1.8h2c0.5,0,0.7-0.1,0.8-0.7l0.1-0.5c0.1-0.5-0.1-0.7-0.6-0.7H-562.1z M-563.8,328.8l0.7-3.7h3.4   c1.1,0,1.5,0.4,1.3,1.3l-0.2,1.1c-0.2,0.9-0.6,1.3-1.8,1.3L-563.8,328.8L-563.8,328.8z"></path>
	<path d="M-556.6,324.4c-0.5,0-0.9,0.4-0.9,1c0,0.6,0.4,1,1,1c0.5,0,0.9-0.4,0.9-1C-555.7,324.9-556.1,324.4-556.6,324.4    M-556.6,324.2c0.7,0,1.2,0.6,1.2,1.2c0,0.7-0.5,1.2-1.2,1.2c-0.7,0-1.2-0.6-1.2-1.2C-557.9,324.7-557.3,324.2-556.6,324.2    M-556.8,325v0.4h0.1c0.2,0,0.3-0.1,0.3-0.2c0-0.1-0.1-0.2-0.3-0.2C-556.7,325-556.8,325-556.8,325 M-556.8,325.5v0.5h-0.2v-1.2   c0.1,0,0.2,0,0.4,0c0.2,0,0.3,0,0.4,0.1c0.1,0,0.1,0.1,0.1,0.3c0,0.1-0.1,0.2-0.3,0.3v0c0.1,0,0.2,0.1,0.2,0.3   c0,0.2,0.1,0.3,0.1,0.3h-0.3c-0.1-0.1-0.1-0.1-0.1-0.3c0-0.1-0.1-0.2-0.3-0.2C-556.7,325.5-556.8,325.5-556.8,325.5z"></path>
	<rect x="-612.1" y="324.2" class="st9" width="56.7" height="5.2" fill="none"></rect>
	<path d="M-578,330.2h0.3l-0.2,1.1h-0.3L-578,330.2z"></path>
	<path d="M-576.9,330.2h0.5l0.5,0.8l0.2-0.8h0.3l-0.2,1.1h-0.5l-0.5-0.8l-0.2,0.8h-0.3L-576.9,330.2z"></path>
	<path d="M-574.3,330.4h-0.5l0.1-0.3h1.3l-0.1,0.3h-0.5l-0.2,0.8h-0.3L-574.3,330.4z"></path>
	<path d="M-571.7,330.2l-0.1,0.2h-0.9l0,0.2h0.8l0,0.2h-0.8l0,0.2h0.9l-0.1,0.2h-1.2l0.2-1.1L-571.7,330.2L-571.7,330.2z"></path>
	<path d="M-570.9,330.2h0.3l-0.2,0.8h0.7l-0.1,0.3h-1.1L-570.9,330.2z"></path>
	<path d="M-569.2,330.2h0.3l-0.2,0.8h0.7l-0.1,0.3h-1.1L-569.2,330.2z"></path>
	<path d="M-567.5,330.2h0.3l-0.2,1.1h-0.3L-567.5,330.2z"></path>
	<path d="M-565.4,330.5C-565.4,330.5-565.4,330.5-565.4,330.5c0-0.1,0-0.1,0-0.1c0,0,0,0-0.1,0l-0.1,0l-0.2,0c-0.1,0-0.2,0-0.2,0.1   c0,0.1-0.1,0.3-0.1,0.3c0,0.1,0.1,0.1,0.2,0.1c0,0,0.1,0,0.3,0c0.2,0,0.2,0,0.2-0.1c0,0,0,0,0-0.1h-0.4l0-0.2h0.7l0,0.1   c0,0.2,0,0.2-0.1,0.3c-0.1,0.1-0.2,0.2-0.3,0.2c0,0-0.2,0-0.4,0c-0.3,0-0.4,0-0.5-0.1c-0.1,0-0.1-0.1-0.1-0.2c0-0.1,0-0.2,0.1-0.4   c0.1-0.3,0.1-0.4,0.3-0.4c0.1,0,0.2,0,0.5,0c0.4,0,0.5,0,0.5,0.1c0.1,0,0.1,0.1,0.1,0.2c0,0,0,0.1,0,0.2L-565.4,330.5L-565.4,330.5   z"></path>
	<path d="M-563.1,330.2l-0.1,0.2h-0.9l0,0.2h0.8l0,0.2h-0.8l0,0.2h0.9l-0.1,0.2h-1.2l0.2-1.1L-563.1,330.2L-563.1,330.2z"></path>
	<path d="M-562.4,330.2h0.5l0.5,0.8l0.2-0.8h0.3l-0.2,1.1h-0.5l-0.5-0.8l-0.2,0.8h-0.3L-562.4,330.2z"></path>
	<path d="M-559.8,330.4h-0.5l0.1-0.3h1.3l-0.1,0.3h-0.5l-0.2,0.8h-0.3L-559.8,330.4z"></path>
	<g>
		<polygon class="st10 can-change" points="-583.4,330.9 -583.4,331.2 -582.3,331.2 -582.2,330.9   " fill="rgb(237, 28, 36)"></polygon>
		<polygon class="st10 can-change" points="-578.5,330.5 -578.5,330.2 -581.7,330.2 -581.8,330.5   " fill="rgb(237, 28, 36)"></polygon>
		<polygon class="st10 can-change" points="-582,330.2 -583.2,330.2 -583.3,330.5 -582.1,330.5   " fill="rgb(237, 28, 36)"></polygon>
		<polygon class="st10 can-change" points="-581.9,331.2 -578.7,331.2 -578.6,330.9 -581.8,330.9   " fill="rgb(237, 28, 36)"></polygon>
		<polygon class="st1 can-change" points="-581.8,330.5 -581.7,330.2 -582,330.2 -582.1,330.5 -583.3,330.5 -583.4,330.9 -582.2,330.9     -582.3,331.2 -581.9,331.2 -581.8,330.9 -578.6,330.9 -578.5,330.5   " fill="rgb(255, 255, 255)"></polygon>
	</g>
</g>
<g class="human-logo">
	<path d="M-694.6,610.2l0.8-4.6h2.1l-0.2,1.3h1.5l0.2-1.3h3.7l-0.5,2.7c0,0,0,0.1,0,0.1h0.1h1.1c0.1,0,0.1,0,0.2,0   c0.1-0.1,0.1-0.2,0.1-0.2l0.4-2.5h4.1l0.7,1.9l1.3-1.9h2.5l-0.5,2.6l1.8-2.6h2.1l1,2.7l0.5-2.7h2.4l1.2,1.9l0.3-1.9h2.1l-0.8,4.6   h-2.4l-1.2-1.9l-0.3,1.9h-3.3l-0.2-0.7h-1.7l-0.5,0.7h-3.3l0.2-1.3l-0.9,1.3h-1.4l-0.5-1.4l-0.3,1.4h-2l0.1-0.5c0,0-0.1,0-0.1,0.1   c-0.4,0.3-1,0.4-1.5,0.4h-1.6c-0.4,0-0.9-0.1-1.3-0.3c-0.1-0.1-0.2-0.2-0.3-0.3l-0.1,0.6h-2.1l0.2-1.4h-1.5l-0.2,1.4H-694.6z"></path>
	<polygon class="st1 can-change" points="-694.1,609.7 -693.4,606 -692.3,606 -692.5,607.3 -690.1,607.3 -689.9,606 -688.7,606 -689.4,609.7    -690.5,609.7 -690.3,608.3 -692.7,608.3 -693,609.7  " fill="rgb(255, 255, 255)"></polygon>
	<path class="st1 can-change" d="M-688.7,608.4l0.4-2.4h1.1l-0.4,2.1c-0.1,0.5,0.1,0.7,0.5,0.7h1.1c0.5,0,0.7-0.2,0.8-0.7l0.4-2.1h1.1l-0.4,2.4   c-0.2,0.9-0.7,1.4-1.8,1.4h-1.6C-688.4,609.7-688.8,609.3-688.7,608.4" fill="rgb(255, 255, 255)"></path>
	<polygon class="st1 can-change" points="-683.7,609.7 -683,606 -681.3,606 -680.4,608.4 -678.7,606 -676.9,606 -677.6,609.7 -678.7,609.7    -678.2,607 -678.2,607 -680.2,609.7 -681.1,609.7 -682.1,607 -682.1,607 -682.6,609.7  " fill="rgb(255, 255, 255)"></polygon>
	<path class="st1 can-change" d="M-674.2,606.8l-1,1.4h1.5L-674.2,606.8z M-677.4,609.7l2.7-3.7h1.5l1.4,3.7h-1.3l-0.2-0.7h-2.3l-0.5,0.7   H-677.4z" fill="rgb(255, 255, 255)"></path>
	<polygon class="st1 can-change" points="-671.7,609.7 -671.1,606 -669.3,606 -667.6,608.7 -667.6,608.7 -667.2,606 -666,606 -666.7,609.7    -668.4,609.7 -670.1,607 -670.1,607 -670.6,609.7  " fill="rgb(255, 255, 255)"></polygon>
	<path d="M-665.3,608.7l0-0.2h1.1c-0.1,0.4,0.1,0.4,0.4,0.4h1.4c0.2,0,0.5,0,0.5-0.3c0.1-0.3-0.1-0.3-1.5-0.3   c-1.7,0-1.9-0.2-1.7-1.1c0.1-0.7,0.3-1.2,1.7-1.2h1.6c1.3,0,1.4,0.4,1.2,1.1l0,0.1h-1.1c0-0.3,0-0.4-0.5-0.4h-1.3   c-0.2,0-0.4,0.1-0.5,0.3c-0.1,0.3,0.1,0.3,1.3,0.3c1.8,0,2.2,0.1,2,1.2c-0.2,1-0.6,1.2-2.1,1.2h-1.4   C-665.1,609.7-665.4,609.5-665.3,608.7"></path>
	<path d="M-658.7,606.9l-0.2,0.9h1.8c0.3,0,0.4-0.2,0.4-0.4l0-0.1c0-0.3-0.1-0.4-0.4-0.4L-658.7,606.9L-658.7,606.9z M-660.3,609.7   l0.7-3.7h3.1c1.1,0,1.3,0.5,1.1,1.3l-0.1,0.3c-0.1,0.5-0.5,1.2-1.3,1.2h-2.3l-0.2,0.9L-660.3,609.7L-660.3,609.7z"></path>
	<polygon points="-655.5,609.7 -654.8,606 -650.8,606 -650.9,606.8 -653.9,606.8 -654,607.4 -651.2,607.4 -651.3,608.2    -654.1,608.2 -654.2,608.8 -651.2,608.8 -651.4,609.7  "></polygon>
	<polygon points="-650.9,609.7 -650.3,606 -646.2,606 -646.3,606.8 -649.3,606.8 -649.4,607.4 -646.6,607.4 -646.7,608.2    -649.5,608.2 -649.6,608.8 -646.6,608.8 -646.8,609.7  "></polygon>
	<path d="M-644.7,606.9l-0.3,1.8h2c0.5,0,0.7-0.1,0.8-0.7l0.1-0.5c0.1-0.5-0.1-0.7-0.6-0.7H-644.7z M-646.3,609.7l0.7-3.7h3.4   c1.1,0,1.5,0.4,1.3,1.3l-0.2,1.1c-0.2,0.9-0.6,1.3-1.8,1.3L-646.3,609.7L-646.3,609.7z"></path>
	<path d="M-639.2,605.3c-0.5,0-0.9,0.4-0.9,1c0,0.6,0.4,1,1,1c0.5,0,0.9-0.4,0.9-1C-638.2,605.7-638.7,605.3-639.2,605.3    M-639.2,605c0.7,0,1.2,0.6,1.2,1.2c0,0.7-0.5,1.2-1.2,1.2s-1.2-0.6-1.2-1.2C-640.4,605.6-639.9,605-639.2,605 M-639.4,605.9v0.4   h0.1c0.2,0,0.3-0.1,0.3-0.2c0-0.1-0.1-0.2-0.3-0.2C-639.3,605.8-639.4,605.8-639.4,605.9 M-639.4,606.4v0.5h-0.2v-1.2   c0.1,0,0.2,0,0.4,0c0.2,0,0.3,0,0.4,0.1c0.1,0,0.1,0.1,0.1,0.3c0,0.1-0.1,0.2-0.3,0.3v0c0.1,0,0.2,0.1,0.2,0.3   c0,0.2,0.1,0.3,0.1,0.3h-0.3c-0.1-0.1-0.1-0.1-0.1-0.3c0-0.1-0.1-0.2-0.3-0.2L-639.4,606.4L-639.4,606.4z"></path>
	<rect x="-694.6" y="605" class="st9" width="56.7" height="5.2" fill="none"></rect>
	<path d="M-660.5,611h0.3l-0.2,1.1h-0.3L-660.5,611z"></path>
	<path d="M-659.4,611h0.5l0.5,0.8l0.2-0.8h0.3l-0.2,1.1h-0.5l-0.5-0.8l-0.2,0.8h-0.3L-659.4,611z"></path>
	<path d="M-656.9,611.3h-0.5l0.1-0.3h1.3l-0.1,0.3h-0.5l-0.2,0.8h-0.3L-656.9,611.3z"></path>
	<path d="M-654.2,611l-0.1,0.2h-0.9l0,0.2h0.8l0,0.2h-0.8l0,0.2h0.9l-0.1,0.2h-1.2l0.2-1.1L-654.2,611L-654.2,611z"></path>
	<path d="M-653.5,611h0.3l-0.2,0.8h0.7l-0.1,0.3h-1.1L-653.5,611z"></path>
	<path d="M-651.8,611h0.3l-0.2,0.8h0.7l-0.1,0.3h-1.1L-651.8,611z"></path>
	<path d="M-650,611h0.3l-0.2,1.1h-0.3L-650,611z"></path>
	<path d="M-648,611.4C-648,611.4-648,611.4-648,611.4c0-0.1,0-0.1-0.1-0.1c0,0,0,0-0.1,0l-0.1,0l-0.2,0c-0.1,0-0.2,0-0.2,0.1   c0,0.1-0.1,0.3-0.1,0.4c0,0.1,0.1,0.1,0.2,0.1c0,0,0.1,0,0.3,0c0.2,0,0.2,0,0.2-0.1c0,0,0,0,0-0.1h-0.4l0-0.2h0.7l0,0.1   c0,0.2,0,0.2-0.1,0.3c-0.1,0.1-0.2,0.2-0.3,0.2c0,0-0.2,0-0.4,0c-0.3,0-0.4,0-0.5-0.1c-0.1,0-0.1-0.1-0.1-0.2c0-0.1,0-0.2,0.1-0.4   c0.1-0.3,0.1-0.4,0.3-0.4c0.1,0,0.2,0,0.5,0c0.4,0,0.5,0,0.5,0.1c0.1,0,0.1,0.1,0.1,0.2c0,0,0,0.1,0,0.2L-648,611.4L-648,611.4z"></path>
	<path d="M-645.7,611l-0.1,0.2h-0.9l0,0.2h0.8l0,0.2h-0.8l0,0.2h0.9l-0.1,0.2h-1.2l0.2-1.1L-645.7,611L-645.7,611z"></path>
	<path d="M-644.9,611h0.5l0.5,0.8l0.2-0.8h0.3l-0.2,1.1h-0.5l-0.5-0.8l-0.2,0.8h-0.3L-644.9,611z"></path>
	<path d="M-642.4,611.3h-0.5l0.1-0.3h1.3l-0.1,0.3h-0.5l-0.2,0.8h-0.3L-642.4,611.3z"></path>
	<g>
		<polygon class="st10 can-change" points="-665.9,611.7 -666,612.1 -664.8,612.1 -664.7,611.7   " fill="rgb(237, 28, 36)"></polygon>
		<polygon class="st10 can-change" points="-661.1,611.4 -661,611 -664.2,611 -664.3,611.4   " fill="rgb(237, 28, 36)"></polygon>
		<polygon class="st10 can-change" points="-664.6,611 -665.8,611 -665.8,611.4 -664.7,611.4   " fill="rgb(237, 28, 36)"></polygon>
		<polygon class="st10 can-change" points="-664.5,612.1 -661.2,612.1 -661.2,611.7 -664.4,611.7   " fill="rgb(237, 28, 36)"></polygon>
		<polygon class="st1 can-change" points="-664.3,611.4 -664.2,611 -664.6,611 -664.7,611.4 -665.8,611.4 -665.9,611.7 -664.7,611.7     -664.8,612.1 -664.5,612.1 -664.4,611.7 -661.2,611.7 -661.1,611.4   " fill="rgb(255, 255, 255)"></polygon>
	</g>
</g>
<g class="human-logo">
	<path d="M-597,610.2l0.8-4.6h2.1l-0.2,1.3h1.5l0.2-1.3h3.7l-0.5,2.7c0,0,0,0.1,0,0.1h0.1h1.1c0.1,0,0.1,0,0.2,0   c0.1-0.1,0.1-0.2,0.1-0.2l0.4-2.5h4.1l0.7,1.9l1.3-1.9h2.5l-0.5,2.6l1.8-2.6h2.1l1,2.7l0.5-2.7h2.4l1.2,1.9l0.3-1.9h2.1l-0.8,4.6   h-2.4l-1.2-1.9l-0.3,1.9h-3.3l-0.2-0.7h-1.7l-0.5,0.7h-3.3l0.2-1.3l-0.9,1.3h-1.4l-0.5-1.4l-0.3,1.4h-2l0.1-0.5c0,0-0.1,0-0.1,0.1   c-0.4,0.3-1,0.4-1.5,0.4h-1.6c-0.4,0-0.9-0.1-1.3-0.3c-0.1-0.1-0.2-0.2-0.3-0.3l-0.1,0.6h-2.1l0.2-1.4h-1.5l-0.2,1.4H-597z"></path>
	<polygon class="st1 can-change" points="-596.5,609.7 -595.8,606 -594.7,606 -594.9,607.3 -592.5,607.3 -592.3,606 -591.1,606 -591.8,609.7    -592.9,609.7 -592.7,608.3 -595.1,608.3 -595.3,609.7  " fill="rgb(255, 255, 255)"></polygon>
	<path class="st1 can-change" d="M-591.1,608.4l0.4-2.4h1.1l-0.4,2.1c-0.1,0.5,0.1,0.7,0.5,0.7h1.1c0.5,0,0.7-0.2,0.8-0.7l0.4-2.1h1.1l-0.4,2.4   c-0.2,0.9-0.7,1.4-1.8,1.4h-1.6C-590.8,609.7-591.2,609.3-591.1,608.4" fill="rgb(255, 255, 255)"></path>
	<polygon class="st1 can-change" points="-586.1,609.7 -585.4,606 -583.7,606 -582.8,608.4 -581.1,606 -579.3,606 -580,609.7 -581.1,609.7    -580.6,607 -580.6,607 -582.6,609.7 -583.5,609.7 -584.5,607 -584.5,607 -585,609.7  " fill="rgb(255, 255, 255)"></polygon>
	<path class="st1 can-change" d="M-576.6,606.8l-1,1.4h1.5L-576.6,606.8z M-579.8,609.7l2.7-3.7h1.5l1.4,3.7h-1.3l-0.2-0.7h-2.3l-0.5,0.7   H-579.8z" fill="rgb(255, 255, 255)"></path>
	<polygon class="st1 can-change" points="-574.1,609.7 -573.5,606 -571.7,606 -570,608.7 -570,608.7 -569.6,606 -568.4,606 -569.1,609.7    -570.8,609.7 -572.5,607 -572.5,607 -573,609.7  " fill="rgb(255, 255, 255)"></polygon>
	<path d="M-567.7,608.7l0-0.2h1.1c-0.1,0.4,0.1,0.4,0.4,0.4h1.4c0.2,0,0.5,0,0.5-0.3c0.1-0.3-0.1-0.3-1.5-0.3   c-1.7,0-1.9-0.2-1.7-1.1c0.1-0.7,0.3-1.2,1.7-1.2h1.6c1.3,0,1.4,0.4,1.2,1.1l0,0.1h-1.1c0-0.3,0-0.4-0.5-0.4h-1.3   c-0.2,0-0.4,0.1-0.5,0.3c-0.1,0.3,0.1,0.3,1.3,0.3c1.8,0,2.2,0.1,2,1.2c-0.2,1-0.6,1.2-2.1,1.2h-1.4   C-567.5,609.7-567.8,609.5-567.7,608.7"></path>
	<path d="M-561.1,606.9l-0.2,0.9h1.8c0.3,0,0.4-0.2,0.4-0.4l0-0.1c0-0.3-0.1-0.4-0.4-0.4L-561.1,606.9L-561.1,606.9z M-562.7,609.7   l0.7-3.7h3.1c1.1,0,1.3,0.5,1.1,1.3l-0.1,0.3c-0.1,0.5-0.5,1.2-1.3,1.2h-2.3l-0.2,0.9L-562.7,609.7L-562.7,609.7z"></path>
	<polygon points="-557.9,609.7 -557.2,606 -553.2,606 -553.3,606.8 -556.3,606.8 -556.4,607.4 -553.6,607.4 -553.7,608.2    -556.5,608.2 -556.6,608.8 -553.6,608.8 -553.8,609.7  "></polygon>
	<polygon points="-553.3,609.7 -552.7,606 -548.6,606 -548.7,606.8 -551.7,606.8 -551.8,607.4 -549,607.4 -549.1,608.2    -551.9,608.2 -552,608.8 -549,608.8 -549.2,609.7  "></polygon>
	<path d="M-547.1,606.9l-0.3,1.8h2c0.5,0,0.7-0.1,0.8-0.7l0.1-0.5c0.1-0.5-0.1-0.7-0.6-0.7H-547.1z M-548.7,609.7l0.7-3.7h3.4   c1.1,0,1.5,0.4,1.3,1.3l-0.2,1.1c-0.2,0.9-0.6,1.3-1.8,1.3L-548.7,609.7L-548.7,609.7z"></path>
	<path d="M-541.6,605.3c-0.5,0-0.9,0.4-0.9,1c0,0.6,0.4,1,1,1c0.5,0,0.9-0.4,0.9-1C-540.6,605.7-541.1,605.3-541.6,605.3    M-541.6,605c0.7,0,1.2,0.6,1.2,1.2c0,0.7-0.6,1.2-1.2,1.2c-0.7,0-1.2-0.6-1.2-1.2C-542.8,605.6-542.3,605-541.6,605 M-541.8,605.9   v0.4h0.1c0.2,0,0.3-0.1,0.3-0.2c0-0.1-0.1-0.2-0.3-0.2C-541.7,605.8-541.8,605.8-541.8,605.9 M-541.8,606.4v0.5h-0.2v-1.2   c0.1,0,0.2,0,0.4,0c0.2,0,0.3,0,0.4,0.1c0.1,0,0.1,0.1,0.1,0.3c0,0.1-0.1,0.2-0.3,0.3v0c0.1,0,0.2,0.1,0.2,0.3   c0,0.2,0.1,0.3,0.1,0.3h-0.3c-0.1-0.1-0.1-0.1-0.1-0.3c0-0.1-0.1-0.2-0.3-0.2L-541.8,606.4L-541.8,606.4z"></path>
	<rect x="-597" y="605" class="st9" width="56.7" height="5.2" fill="none"></rect>
	<path d="M-562.9,611h0.3l-0.2,1.1h-0.3L-562.9,611z"></path>
	<path d="M-561.8,611h0.5l0.5,0.8l0.2-0.8h0.3l-0.2,1.1h-0.5l-0.5-0.8l-0.2,0.8h-0.3L-561.8,611z"></path>
	<path d="M-559.3,611.3h-0.5l0.1-0.3h1.3l-0.1,0.3h-0.5l-0.2,0.8h-0.3L-559.3,611.3z"></path>
	<path d="M-556.6,611l-0.1,0.2h-0.9l0,0.2h0.8l0,0.2h-0.8l0,0.2h0.9l-0.1,0.2h-1.2l0.2-1.1L-556.6,611L-556.6,611z"></path>
	<path d="M-555.9,611h0.3l-0.2,0.8h0.7l-0.1,0.3h-1.1L-555.9,611z"></path>
	<path d="M-554.2,611h0.3l-0.2,0.8h0.7l-0.1,0.3h-1.1L-554.2,611z"></path>
	<path d="M-552.4,611h0.3l-0.2,1.1h-0.3L-552.4,611z"></path>
	<path d="M-550.4,611.4C-550.4,611.4-550.4,611.4-550.4,611.4c0-0.1,0-0.1,0-0.1c0,0,0,0-0.1,0l-0.1,0l-0.2,0c-0.1,0-0.2,0-0.2,0.1   c0,0.1-0.1,0.3-0.1,0.4c0,0.1,0.1,0.1,0.2,0.1c0,0,0.1,0,0.3,0c0.2,0,0.2,0,0.2-0.1c0,0,0,0,0-0.1h-0.4l0-0.2h0.7l0,0.1   c0,0.2,0,0.2-0.1,0.3c-0.1,0.1-0.2,0.2-0.3,0.2c0,0-0.2,0-0.4,0c-0.3,0-0.4,0-0.5-0.1c-0.1,0-0.1-0.1-0.1-0.2c0-0.1,0-0.2,0.1-0.4   c0.1-0.3,0.1-0.4,0.3-0.4c0.1,0,0.2,0,0.5,0c0.4,0,0.5,0,0.5,0.1c0.1,0,0.1,0.1,0.1,0.2c0,0,0,0.1,0,0.2L-550.4,611.4L-550.4,611.4   z"></path>
	<path d="M-548.1,611l-0.1,0.2h-0.9l0,0.2h0.8l0,0.2h-0.8l0,0.2h0.9l-0.1,0.2h-1.2l0.2-1.1L-548.1,611L-548.1,611z"></path>
	<path d="M-547.3,611h0.5l0.5,0.8l0.2-0.8h0.3l-0.2,1.1h-0.5l-0.5-0.8l-0.2,0.8h-0.3L-547.3,611z"></path>
	<path d="M-544.8,611.3h-0.5l0.1-0.3h1.3l-0.1,0.3h-0.5l-0.2,0.8h-0.3L-544.8,611.3z"></path>
	<g>
		<polygon class="st10 can-change" points="-568.3,611.7 -568.4,612.1 -567.2,612.1 -567.1,611.7   " fill="rgb(237, 28, 36)"></polygon>
		<polygon class="st10 can-change" points="-563.5,611.4 -563.4,611 -566.6,611 -566.7,611.4   " fill="rgb(237, 28, 36)"></polygon>
		<polygon class="st10 can-change" points="-567,611 -568.2,611 -568.2,611.4 -567.1,611.4   " fill="rgb(237, 28, 36)"></polygon>
		<polygon class="st10 can-change" points="-566.9,612.1 -563.6,612.1 -563.6,611.7 -566.8,611.7   " fill="rgb(237, 28, 36)"></polygon>
		<polygon class="st1 can-change" points="-566.7,611.4 -566.6,611 -567,611 -567.1,611.4 -568.2,611.4 -568.3,611.7 -567.1,611.7     -567.2,612.1 -566.9,612.1 -566.8,611.7 -563.6,611.7 -563.5,611.4   " fill="rgb(255, 255, 255)"></polygon>
	</g>
</g>
<wappalyzerData id="wappalyzerData" style="display: none"></wappalyzerData><script id="wappalyzerEnvDetection" src="chrome-extension://gppongmhjkpfnbhagpmjfkannfbllamg/js/inject.js"></script></svg>