<svg xmlns="http://www.w3.org/2000/svg" xmlns:xlink="http://www.w3.org/1999/xlink" version="1.1" id="Layer_1" x="0px" y="0px" viewBox="0 0 297 368" style="enable-background:new 0 0 297 368;" xml:space="preserve" data-product="2017501" data-design="1" data-size="m">
<g>
	<g>
		<defs>
			<path id="SVGID_1_" d="M148.385,359.71c-1.53,0.08-50.48,2.35-77.07-21.46l-3.29-3.71c7.62-75.06,7.57-131.98,0.17-166.2     c-7.37-34.24-14.37-36.14-14.46-36.2c-5.16-32.34-0.51-47.14,6.01-63.32c1.42-2.04,17.12-23.64,25.57-31.69     c8.19-8.85,32.94-24.07,39.66-28.21c12.44-0.37,21.09-1.19,44.84-0.37c7.11,4.59,28.06,16.95,40.14,29.65     c8.42,8.05,26.33,24.27,27.75,26.31c4.28,4.62,13.32,30.22,5.5,67.63c-0.06,0.06-6.97,3.38-14.46,36.2     c-7.37,34.22-7.42,91.11,0.17,166.2l-3.46,3.71C198.875,362.06,149.915,359.79,148.385,359.71z"/>
		</defs>
		<use xmlns:xlink="http://www.w3.org/1999/xlink" xlink:href="#SVGID_1_" style="fill-rule:evenodd;clip-rule:evenodd;fill:#FFFFFF;stroke:#6D6E71;stroke-width:0.34;stroke-linecap:round;stroke-linejoin:round;stroke-miterlimit:10;" data-fill-id="15" class="can-change"/>
		<clipPath id="SVGID_2_">
			<use xmlns:xlink="http://www.w3.org/1999/xlink" xlink:href="#SVGID_1_" style="overflow:visible;"/>
		</clipPath>
		<g style="clip-path:url(#SVGID_2_);">
			<g>
				<g>
					
						<path style="fill-rule:evenodd;clip-rule:evenodd;fill:#FFFFFF;stroke:#6D6E71;stroke-width:0.34;stroke-linecap:round;stroke-linejoin:round;stroke-miterlimit:10;" d="       M131.435-19.94h8.79v398.61h-8.79V-19.94z" class="can-change"/>
					
						<path style="fill-rule:evenodd;clip-rule:evenodd;fill:#FFFFFF;stroke:#6D6E71;stroke-width:0.34;stroke-linecap:round;stroke-linejoin:round;stroke-miterlimit:10;" d="       M157.765-19.94h8.79v398.61h-8.79V-19.94z" class="can-change"/>
					
						<path style="fill-rule:evenodd;clip-rule:evenodd;fill:#FFFFFF;stroke:#6D6E71;stroke-width:0.34;stroke-linecap:round;stroke-linejoin:round;stroke-miterlimit:10;" d="       M149.005-19.94h8.76v398.61h-8.76V-19.94z" class="can-change"/>
				</g>
				
					<path style="fill-rule:evenodd;clip-rule:evenodd;fill:#FFFFFF;stroke:#6D6E71;stroke-width:0.34;stroke-linecap:round;stroke-linejoin:round;stroke-miterlimit:10;" d="      M140.225-19.94h8.78v398.61h-8.78V-19.94z" class="can-change"/>
			</g>
		</g>
		
			<use xmlns:xlink="http://www.w3.org/1999/xlink" xlink:href="#SVGID_1_" style="overflow:visible;fill-rule:evenodd;clip-rule:evenodd;fill:none;stroke:#6D6E71;stroke-width:0.34;stroke-linecap:round;stroke-linejoin:round;stroke-miterlimit:10;"/>
	</g>
	
		<path style="fill-rule:evenodd;clip-rule:evenodd;fill:none;stroke:#6D6E71;stroke-width:0.34;stroke-linecap:round;stroke-linejoin:round;stroke-miterlimit:10;" d="   M236.345,316.11c-0.06,0.2-8.31,19.19-31.27,28.89c-21.12,8.9-51.7,9.44-56.72,9.49h-0.74h1.45h-0.71   c-5.04-0.05-35.63-0.59-56.75-9.49c-22.96-9.7-31.18-28.69-31.26-28.89"/>
	
		<path style="fill-rule:evenodd;clip-rule:evenodd;fill:none;stroke:#6D6E71;stroke-width:0.34;stroke-linecap:round;stroke-linejoin:round;stroke-miterlimit:10;" d="   M236.345,314.13c-0.06,0.22-8.31,19.19-31.27,28.88c-21.12,8.93-51.7,9.47-56.72,9.5h-0.74h1.45h-0.71   c-5.04-0.03-35.63-0.57-56.75-9.5c-22.96-9.69-31.18-28.66-31.26-28.88"/>
	
		<path style="fill-rule:evenodd;clip-rule:evenodd;fill:#FFFFFF;stroke:#6D6E71;stroke-width:0.34;stroke-linecap:round;stroke-linejoin:round;stroke-miterlimit:10;" d="   M147.505,242.13h2.21v0.03l20.87,0.19c0.11,0,10.29,0.15,15.64,1.36c5.39,1.25,36.68,8.93,36.99,8.99c0,0.34,0.66,32.91,4.11,67.04   c-0.19,0.23-19.75,21.74-77.61,22.08h-2.21c-57.88-0.34-77.44-21.85-77.64-22.08c3.49-34.13,4.11-66.7,4.11-67.04   c0.31-0.06,31.61-7.74,36.99-8.99c5.36-1.21,15.54-1.36,15.65-1.36l20.89-0.19V242.13z" data-fill-id="16" class="can-change"/>
	
		<path style="fill-rule:evenodd;clip-rule:evenodd;fill:none;stroke:#6D6E71;stroke-width:0.34;stroke-linecap:round;stroke-linejoin:round;stroke-miterlimit:10;" d="   M147.675,245.36l0.14,94.05"/>
	
		<path style="fill-rule:evenodd;clip-rule:evenodd;fill:none;stroke:#6D6E71;stroke-width:0.34;stroke-linecap:round;stroke-linejoin:round;stroke-miterlimit:10;" d="   M149.575,245.36l0.14,94.05"/>
	
		<path style="fill-rule:evenodd;clip-rule:evenodd;fill:none;stroke:#6D6E71;stroke-width:0.34;stroke-linecap:round;stroke-linejoin:round;stroke-miterlimit:10;" d="   M73.635,255.39c0.34-0.11,33.68-9.15,45.81-10.09c0.06,0,5.19-0.22,8.11-0.25c2.29-0.03,15.27-0.17,21-0.2l2.69-0.03h-5.38   l2.69,0.03c5.7,0.03,18.71,0.17,20.98,0.2c2.92,0.03,8.08,0.25,8.13,0.25c12.11,0.94,45.44,9.98,45.78,10.09"/>
	
		<path style="fill-rule:evenodd;clip-rule:evenodd;fill:none;stroke:#6D6E71;stroke-width:0.34;stroke-linecap:round;stroke-linejoin:round;stroke-miterlimit:10;" d="   M73.635,257.12c0.34-0.08,33.68-9.15,45.81-10.09c0.06,0,5.19-0.2,8.11-0.25c2.29-0.03,15.27-0.17,21-0.2l2.69-0.03h-5.38   l2.69,0.03c5.7,0.03,18.71,0.17,20.98,0.2c2.92,0.05,8.08,0.25,8.13,0.25c12.11,0.94,45.44,10.01,45.78,10.09"/>
	<g>
		
			<path style="fill-rule:evenodd;clip-rule:evenodd;fill:none;stroke:#6D6E71;stroke-width:0.34;stroke-linecap:round;stroke-linejoin:round;stroke-miterlimit:10;" d="    M146.595,249.27l3.97-3.51"/>
		
			<path style="fill-rule:evenodd;clip-rule:evenodd;fill:none;stroke:#6D6E71;stroke-width:0.34;stroke-linecap:round;stroke-linejoin:round;stroke-miterlimit:10;" d="    M146.595,251.03l3.97-3.52"/>
		
			<path style="fill-rule:evenodd;clip-rule:evenodd;fill:none;stroke:#6D6E71;stroke-width:0.34;stroke-linecap:round;stroke-linejoin:round;stroke-miterlimit:10;" d="    M146.595,252.79l3.97-3.52"/>
		
			<path style="fill-rule:evenodd;clip-rule:evenodd;fill:none;stroke:#6D6E71;stroke-width:0.34;stroke-linecap:round;stroke-linejoin:round;stroke-miterlimit:10;" d="    M146.595,254.54l3.97-3.51"/>
		
			<path style="fill-rule:evenodd;clip-rule:evenodd;fill:none;stroke:#6D6E71;stroke-width:0.34;stroke-linecap:round;stroke-linejoin:round;stroke-miterlimit:10;" d="    M146.595,256.3l3.97-3.51"/>
		
			<path style="fill-rule:evenodd;clip-rule:evenodd;fill:none;stroke:#6D6E71;stroke-width:0.34;stroke-linecap:round;stroke-linejoin:round;stroke-miterlimit:10;" d="    M146.595,245.76l3.97,3.51"/>
		
			<path style="fill-rule:evenodd;clip-rule:evenodd;fill:none;stroke:#6D6E71;stroke-width:0.34;stroke-linecap:round;stroke-linejoin:round;stroke-miterlimit:10;" d="    M146.595,247.51l3.97,3.52"/>
		
			<path style="fill-rule:evenodd;clip-rule:evenodd;fill:none;stroke:#6D6E71;stroke-width:0.34;stroke-linecap:round;stroke-linejoin:round;stroke-miterlimit:10;" d="    M146.595,249.27l3.97,3.52"/>
		
			<path style="fill-rule:evenodd;clip-rule:evenodd;fill:none;stroke:#6D6E71;stroke-width:0.34;stroke-linecap:round;stroke-linejoin:round;stroke-miterlimit:10;" d="    M146.595,251.03l3.97,3.51"/>
		
			<path style="fill-rule:evenodd;clip-rule:evenodd;fill:none;stroke:#6D6E71;stroke-width:0.34;stroke-linecap:round;stroke-linejoin:round;stroke-miterlimit:10;" d="    M146.595,252.79l3.97,3.51"/>
	</g>
	<g>
		<defs>
			<path id="SVGID_3_" d="M231.975,154.74l5.59,6.15c-4.99,35.54-6.15,78.29-4.4,97.11c2.13,22.59,4.37,59.78,4.37,60.15     c-1.11,9.19-8.33,17.41-14.94,22.74c-5.16,4.16-10.18,6.49-10.18,6.49C200.515,251.62,224.635,175.77,231.975,154.74z"/>
		</defs>
		<use xmlns:xlink="http://www.w3.org/1999/xlink" xlink:href="#SVGID_3_" style="overflow:visible;fill-rule:evenodd;clip-rule:evenodd;fill:#FFFFFF;" data-fill-id="18" class="can-change"/>
		<clipPath id="SVGID_4_">
			<use xmlns:xlink="http://www.w3.org/1999/xlink" xlink:href="#SVGID_3_" style="overflow:visible;"/>
		</clipPath>
		<g style="clip-path:url(#SVGID_4_);">
			<g>
				<g>
					
						<path style="fill-rule:evenodd;clip-rule:evenodd;fill:#FFFFFF;stroke:#6D6E71;stroke-width:0.34;stroke-linecap:round;stroke-linejoin:round;stroke-miterlimit:10;" d="       M231.015,276.54v82.52h-7.03v-82.52H231.015z" class="can-change"/>
					
						<path style="fill-rule:evenodd;clip-rule:evenodd;fill:#FFFFFF;stroke:#6D6E71;stroke-width:0.34;stroke-linecap:round;stroke-linejoin:round;stroke-miterlimit:10;" d="       M238.045,276.54v82.52h-7.03v-82.52H238.045z" data-fill-id="21" class="can-change"/>
				</g>
			</g>
		</g>
		
			<use xmlns:xlink="http://www.w3.org/1999/xlink" xlink:href="#SVGID_3_" style="overflow:visible;fill-rule:evenodd;clip-rule:evenodd;fill:none;stroke:#6D6E71;stroke-width:0.34;stroke-linecap:round;stroke-linejoin:round;stroke-miterlimit:10;"/>
	</g>
	<g>
		<defs>
			<path id="SVGID_5_" d="M192.865,9.49c0,0,20.38,11.53,31.72,15.82c11.31,4.28,31.83,13.09,31.83,13.09s12.1,5.22,17.57,18.8     c5.5,13.54,11.63,34.89,12.76,59.78c1.16,24.91,3.91,29.39,3.8,36.82c-9.16,6.75-22.23,8.7-35.44,11.42l-11.9-33.08     c0,0,10.43-46.29-10.23-71.6c0,0-18.12-18.03-23.02-22.34c-4.91-4.31-33.68-26.47-40.14-29.65     C169.815,8.55,183.845,9.09,192.865,9.49z"/>
		</defs>
		<use xmlns:xlink="http://www.w3.org/1999/xlink" xlink:href="#SVGID_5_" style="overflow:visible;fill-rule:evenodd;clip-rule:evenodd;fill:#FFFFFF;" class="can-change" data-fill-id="100"/>
		<clipPath id="SVGID_6_">
			<use xmlns:xlink="http://www.w3.org/1999/xlink" xlink:href="#SVGID_5_" style="overflow:visible;"/>
		</clipPath>
		<g style="clip-path:url(#SVGID_6_);">
			<g>
				<g>
					
						<path style="fill-rule:evenodd;clip-rule:evenodd;fill:#FFFFFF;stroke:#6D6E71;stroke-width:0.34;stroke-linecap:round;stroke-linejoin:round;stroke-miterlimit:10;" d="       M313.305,199.18l-6.92,1.22l-16.13-91.95l6.95-1.22L313.305,199.18z" class="can-change"/>
					
						<path style="fill-rule:evenodd;clip-rule:evenodd;fill:#FFFFFF;stroke:#6D6E71;stroke-width:0.34;stroke-linecap:round;stroke-linejoin:round;stroke-miterlimit:10;" d="       M292.525,202.84l-6.91,1.19l-16.11-91.96l6.92-1.22L292.525,202.84z" class="can-change"/>
					
						<path style="fill-rule:evenodd;clip-rule:evenodd;fill:#FFFFFF;stroke:#6D6E71;stroke-width:0.34;stroke-linecap:round;stroke-linejoin:round;stroke-miterlimit:10;" d="       M299.475,201.62l-6.95,1.22l-16.1-91.99l6.92-1.19L299.475,201.62z" data-fill-id="25" class="can-change"/>
				</g>
				
					<path style="fill-rule:evenodd;clip-rule:evenodd;fill:#FFFFFF;stroke:#6D6E71;stroke-width:0.34;stroke-linecap:round;stroke-linejoin:round;stroke-miterlimit:10;" d="      M306.355,200.4l-6.91,1.22l-16.1-91.96l6.91-1.21L306.355,200.4z" data-fill-id="22" class="can-change"/>
			</g>
		</g>
		
			<use xmlns:xlink="http://www.w3.org/1999/xlink" xlink:href="#SVGID_5_" style="overflow:visible;fill-rule:evenodd;clip-rule:evenodd;fill:none;stroke:#6D6E71;stroke-width:0.34;stroke-linecap:round;stroke-linejoin:round;stroke-miterlimit:10;"/>
	</g>
	<g>
		<defs>
			<path id="SVGID_7_" d="M104.075,9.49c9.02-0.4,22.88-0.71,22.88-0.71c-6.46,3.2-34.27,22.85-39.15,27.18     c-4.9,4.31-21.99,24.86-21.99,24.86c-20.64,25.32-12.08,71.32-12.08,71.32l-11.85,32.97c-10.97-1.96-27.61-4.82-35.46-10.77     c-0.14-7.43,2.64-12.45,3.77-37.36c1.16-24.89,7.29-46.24,12.76-59.78c5.5-13.58,17.6-18.8,17.6-18.8s20.49-8.81,31.83-13.09     C83.725,21.02,104.075,9.49,104.075,9.49z"/>
		</defs>
		<use xmlns:xlink="http://www.w3.org/1999/xlink" xlink:href="#SVGID_7_" style="overflow:visible;fill-rule:evenodd;clip-rule:evenodd;fill:#FFFFFF;" data-fill-id="3" class="can-change"/>
		<clipPath id="SVGID_8_">
			<use xmlns:xlink="http://www.w3.org/1999/xlink" xlink:href="#SVGID_7_" style="overflow:visible;"/>
		</clipPath>
		<g style="clip-path:url(#SVGID_8_);">
			<g>
				<g>
					
						<path style="fill-rule:evenodd;clip-rule:evenodd;fill:#FFFFFF;stroke:#6D6E71;stroke-width:0.34;stroke-linecap:round;stroke-linejoin:round;stroke-miterlimit:10;" d="       M-15.455,199.18l16.1-91.95l6.91,1.22l-16.1,91.95L-15.455,199.18z" class="can-change"/>
					
						<path style="fill-rule:evenodd;clip-rule:evenodd;fill:#FFFFFF;stroke:#6D6E71;stroke-width:0.34;stroke-linecap:round;stroke-linejoin:round;stroke-miterlimit:10;" d="       M5.295,202.84l16.13-91.99l6.91,1.22l-16.13,91.96L5.295,202.84z" class="can-change"/>
					
						<path style="fill-rule:evenodd;clip-rule:evenodd;fill:#FFFFFF;stroke:#6D6E71;stroke-width:0.34;stroke-linecap:round;stroke-linejoin:round;stroke-miterlimit:10;" d="       M-1.625,201.62l16.1-91.96l6.92,1.19l-16.1,91.99L-1.625,201.62z" data-fill-id="24" class="can-change"/>
				</g>
				
					<path style="fill-rule:evenodd;clip-rule:evenodd;fill:#FFFFFF;stroke:#6D6E71;stroke-width:0.34;stroke-linecap:round;stroke-linejoin:round;stroke-miterlimit:10;" d="      M-8.545,200.4l16.13-91.95l6.92,1.21l-16.13,91.96L-8.545,200.4z" data-fill-id="23" class="can-change"/>
			</g>
		</g>
		
			<use xmlns:xlink="http://www.w3.org/1999/xlink" xlink:href="#SVGID_7_" style="overflow:visible;fill-rule:evenodd;clip-rule:evenodd;fill:none;stroke:#6D6E71;stroke-width:0.34;stroke-linecap:round;stroke-linejoin:round;stroke-miterlimit:10;"/>
	</g>
	<g>
		<defs>
			<path id="SVGID_9_" d="M65.015,154.74c7.34,21.03,31.47,96.88,19.56,192.64c0,0-5.02-2.33-10.17-6.49     c-6.61-5.33-13.84-13.55-14.94-22.74c0-0.37,2.24-37.56,4.36-60.15c1.76-18.82,0.6-61.57-4.39-97.11L65.015,154.74z"/>
		</defs>
		<use xmlns:xlink="http://www.w3.org/1999/xlink" xlink:href="#SVGID_9_" style="overflow:visible;fill-rule:evenodd;clip-rule:evenodd;fill:#FFFFFF;" data-fill-id="1" class="can-change"/>
		<clipPath id="SVGID_10_">
			<use xmlns:xlink="http://www.w3.org/1999/xlink" xlink:href="#SVGID_9_" style="overflow:visible;"/>
		</clipPath>
		<g style="clip-path:url(#SVGID_10_);">
			<g>
				<g>
					
						<path style="fill-rule:evenodd;clip-rule:evenodd;fill:#FFFFFF;stroke:#6D6E71;stroke-width:0.34;stroke-linecap:round;stroke-linejoin:round;stroke-miterlimit:10;" d="       M66.295,276.54h7.03v82.52h-7.03V276.54z" data-fill-id="13" class="can-change"/>
					
						<path style="fill-rule:evenodd;clip-rule:evenodd;fill:#FFFFFF;stroke:#6D6E71;stroke-width:0.34;stroke-linecap:round;stroke-linejoin:round;stroke-miterlimit:10;" d="       M59.265,276.54h7.03v82.52h-7.03V276.54z" data-fill-id="12" class="can-change"/>
				</g>
				
					<path style="fill-rule:evenodd;clip-rule:evenodd;fill:#FFFFFF;stroke:#6D6E71;stroke-width:0.34;stroke-linecap:round;stroke-linejoin:round;stroke-miterlimit:10;" d="      M52.265,276.54h7.03v82.52h-7.03V276.54z" data-fill-id="12" class="can-change"/>
			</g>
		</g>
		
			<use xmlns:xlink="http://www.w3.org/1999/xlink" xlink:href="#SVGID_9_" style="overflow:visible;fill-rule:evenodd;clip-rule:evenodd;fill:none;stroke:#6D6E71;stroke-width:0.34;stroke-linecap:round;stroke-linejoin:round;stroke-miterlimit:10;"/>
	</g>
	
		<path style="fill-rule:evenodd;clip-rule:evenodd;fill:#FFFFFF;stroke:#6D6E71;stroke-width:0.34;stroke-linecap:round;stroke-linejoin:round;stroke-miterlimit:10;" d="   M59.435,160.89c-0.88-5.45-2.01-10.8-3.37-16.02l-4.28,20.67c-0.03-0.06-3.97,0.17-9.1-0.4l-0.8-0.03l11.91-33.08   c0.05,0.06,5.55,2.83,11.22,22.71L59.435,160.89z" data-fill-id="2" class="can-change"/>
	
		<path style="fill-rule:evenodd;clip-rule:evenodd;fill:#FFFFFF;stroke:#6D6E71;stroke-width:0.34;stroke-linecap:round;stroke-linejoin:round;stroke-miterlimit:10;" d="   M237.565,161l-5.59-6.15c5.67-19.87,11.17-22.65,11.23-22.71l11.9,33.08l-0.79,0.03c-5.13,0.57-9.07,0.34-9.1,0.4l-4.28-20.67   C239.575,150.2,238.445,155.56,237.565,161z" data-fill-id="19" class="can-change"/>
	
		<path style="fill-rule:evenodd;clip-rule:evenodd;fill:none;stroke:#000000;stroke-width:2.83;stroke-linecap:round;stroke-linejoin:round;stroke-miterlimit:10;" d="   M104.075,9.49c0,0,48.45-2.81,88.79,0"/>
	
		<path style="fill-rule:evenodd;clip-rule:evenodd;fill:none;stroke:#000000;stroke-width:2.83;stroke-linecap:round;stroke-linejoin:round;stroke-miterlimit:10;" d="   M59.465,318.15c0,0,0.71,17.04,25.11,29.23"/>
	
		<path style="fill-rule:evenodd;clip-rule:evenodd;fill:none;stroke:#000000;stroke-width:2.83;stroke-linecap:round;stroke-linejoin:round;stroke-miterlimit:10;" d="   M238.015,318.15c0,0-0.71,17.04-25.11,29.23"/>
	
		<path style="fill-rule:evenodd;clip-rule:evenodd;fill:#FFFFFF;stroke:#6D6E71;stroke-width:0.34;stroke-linecap:round;stroke-linejoin:round;stroke-miterlimit:10;" d="   M6.425,154.34c1.25,0.17,16.56,9.95,45.36,11.2l-3.35,16.8c0,0-23.19,3.01-44.9-11.42L6.425,154.34z" data-fill-id="4" class="can-change"/>
	
		<path style="fill-rule:evenodd;clip-rule:evenodd;fill:#FFFFFF;stroke:#6D6E71;stroke-width:0.34;stroke-linecap:round;stroke-linejoin:round;stroke-miterlimit:10;" d="   M290.575,154.45l2.89,16.58c-21.72,14.43-44.9,11.43-44.9,11.43l-3.35-16.81C274.015,164.4,289.325,154.62,290.575,154.45z" data-fill-id="20" class="can-change"/>
	<g class="human-logo">
		<path style="fill-rule:evenodd;clip-rule:evenodd;" d="M120.09,323.462l0.828-4.649h2.075l-0.233,1.327h1.463l0.244-1.327h3.736    l-0.471,2.693c-0.011,0.034-0.017,0.074-0.023,0.113h0.079h1.134c0.068,0,0.147,0,0.215-0.034    c0.051-0.068,0.068-0.159,0.085-0.238l0.448-2.535h4.122l0.68,1.877l1.344-1.877h2.546l-0.459,2.551l1.831-2.551h2.052    l1.009,2.716l0.482-2.716h2.41l1.174,1.899l0.335-1.899h2.086l-0.828,4.649h-2.41l-1.174-1.899l-0.34,1.899h-3.277l-0.238-0.652    h-1.746l-0.453,0.652h-3.334l0.227-1.287l-0.941,1.287h-1.412l-0.544-1.429l-0.261,1.429h-2.041l0.079-0.453    c-0.023,0.028-0.051,0.045-0.079,0.068c-0.425,0.323-0.981,0.431-1.503,0.431h-1.639c-0.442,0-0.919-0.068-1.276-0.34    c-0.108-0.074-0.204-0.176-0.272-0.289l-0.102,0.584h-2.081l0.249-1.406h-1.468l-0.25,1.406H120.09z" class="can-change"/>
		<polygon style="fill-rule:evenodd;clip-rule:evenodd;fill:#FFFFFF;" points="120.64,322.986 121.303,319.266 122.443,319.266     122.205,320.593 124.615,320.593 124.847,319.266 125.993,319.266 125.329,322.986 124.189,322.986 124.445,321.58     122.035,321.58 121.785,322.986   " class="can-change"/>
		<path style="fill-rule:evenodd;clip-rule:evenodd;fill:#FFFFFF;" d="M126.083,321.665l0.42-2.399h1.145l-0.374,2.143    c-0.085,0.476,0.051,0.664,0.516,0.664h1.134c0.471,0,0.669-0.187,0.754-0.664l0.38-2.143h1.145l-0.431,2.399    c-0.159,0.919-0.72,1.366-1.763,1.366h-1.639C126.321,323.031,125.919,322.583,126.083,321.665" class="can-change"/>
		<polygon style="fill-rule:evenodd;clip-rule:evenodd;fill:#FFFFFF;" points="131.062,322.986 131.719,319.266 133.471,319.266     134.339,321.665 136.057,319.266 137.809,319.266 137.151,322.986 136.04,322.986 136.51,320.31 136.499,320.31 134.532,322.986     133.675,322.986 132.655,320.31 132.643,320.31 132.173,322.986   " class="can-change"/>
		<path style="fill-rule:evenodd;clip-rule:evenodd;fill:#FFFFFF;" d="M140.564,320.122l-0.964,1.406h1.457L140.564,320.122z     M137.299,322.986l2.676-3.72h1.491l1.384,3.72h-1.27l-0.232-0.652h-2.313l-0.459,0.652H137.299z" class="can-change"/>
		<polygon style="fill-rule:evenodd;clip-rule:evenodd;fill:#FFFFFF;" points="143.008,322.986 143.666,319.266 145.429,319.266     147.096,321.965 147.107,321.965 147.584,319.266 148.729,319.266 148.077,322.986 146.308,322.986 144.635,320.281     144.624,320.281 144.148,322.986   " class="can-change"/>
		<path style="fill-rule:evenodd;clip-rule:evenodd;" d="M149.427,322.022l0.045-0.249h1.145c-0.068,0.391,0.085,0.425,0.419,0.425    h1.395c0.25,0,0.499-0.028,0.55-0.312c0.051-0.329-0.074-0.346-1.548-0.346c-1.718,0-1.877-0.21-1.712-1.123    c0.119-0.675,0.266-1.196,1.707-1.196h1.599c1.315,0,1.361,0.448,1.242,1.1l-0.017,0.119h-1.14c0.045-0.272,0.034-0.38-0.488-0.38    h-1.27c-0.25,0-0.442,0.085-0.482,0.283c-0.057,0.329,0.079,0.34,1.31,0.335c1.775-0.006,2.166,0.096,1.979,1.185    c-0.181,1.003-0.556,1.168-2.064,1.168h-1.389C149.67,323.031,149.29,322.833,149.427,322.022" class="can-change"/>
		<path style="fill-rule:evenodd;clip-rule:evenodd;" d="M156.043,320.191l-0.165,0.935h1.78c0.261,0,0.397-0.176,0.437-0.397    l0.028-0.142c0.04-0.255-0.057-0.397-0.402-0.397H156.043z M154.41,322.986l0.658-3.72h3.107c1.089,0,1.259,0.544,1.123,1.276    l-0.051,0.317c-0.102,0.55-0.454,1.191-1.259,1.191h-2.274l-0.164,0.935H154.41z" class="can-change"/>
		<polygon style="fill-rule:evenodd;clip-rule:evenodd;" points="159.23,322.986 159.888,319.266 163.959,319.266 163.811,320.122     160.88,320.122 160.778,320.723 163.551,320.723 163.414,321.495 160.642,321.495 160.534,322.096 163.534,322.096     163.369,322.986   " class="can-change"/>
		<polygon style="fill-rule:evenodd;clip-rule:evenodd;" points="163.811,322.986 164.464,319.266 168.54,319.266 168.387,320.122     165.461,320.122 165.354,320.723 168.126,320.723 167.996,321.495 165.217,321.495 165.11,322.096 168.109,322.096     167.951,322.986   " class="can-change"/>
		<path style="fill-rule:evenodd;clip-rule:evenodd;" d="M170.065,320.191l-0.323,1.837h2.018c0.494,0,0.709-0.136,0.8-0.669    l0.091-0.499c0.091-0.527-0.074-0.669-0.561-0.669H170.065z M168.432,322.986l0.652-3.72h3.442c1.145,0,1.48,0.374,1.316,1.298    l-0.198,1.128c-0.165,0.918-0.63,1.293-1.769,1.293H168.432z" class="can-change"/>
		<path style="fill-rule:evenodd;clip-rule:evenodd;" d="M175.543,318.569c-0.533,0-0.936,0.442-0.936,0.975    c0,0.556,0.403,0.981,0.953,0.981c0.522,0.006,0.93-0.425,0.93-0.975C176.489,319.011,176.081,318.569,175.543,318.569     M175.56,318.308c0.68,0,1.23,0.562,1.23,1.236c0,0.686-0.55,1.242-1.242,1.242c-0.692,0-1.247-0.556-1.247-1.242    C174.301,318.869,174.857,318.308,175.56,318.308 M175.355,319.136v0.357h0.142c0.153,0,0.278-0.057,0.278-0.17    c0-0.125-0.068-0.199-0.261-0.199C175.446,319.124,175.384,319.13,175.355,319.136 M175.344,319.697v0.488h-0.249v-1.247    c0.096-0.011,0.238-0.023,0.431-0.023c0.232,0,0.334,0.023,0.414,0.102c0.068,0.045,0.13,0.142,0.13,0.266    c0,0.136-0.125,0.227-0.261,0.289v0.017c0.125,0.034,0.176,0.125,0.221,0.295c0.04,0.193,0.057,0.255,0.085,0.3h-0.267    c-0.051-0.051-0.074-0.142-0.102-0.3c-0.028-0.13-0.102-0.187-0.261-0.187H175.344z" class="can-change"/>
		<rect x="120.09" y="318.308" style="fill:none;" width="56.7" height="5.199"/>
		<path d="M154.226,324.302h0.326l-0.228,1.07h-0.326L154.226,324.302z"/>
		<path d="M155.312,324.302h0.518l0.475,0.813l0.164-0.813h0.308l-0.226,1.07h-0.523l-0.469-0.806l-0.162,0.806h-0.313    L155.312,324.302z"/>
		<path d="M157.846,324.567h-0.477l0.056-0.265h1.279l-0.056,0.265h-0.477L158,325.372h-0.326L157.846,324.567z"/>
		<path d="M160.536,324.302l-0.051,0.242h-0.863l-0.04,0.184h0.817l-0.045,0.212h-0.817l-0.04,0.189h0.876l-0.051,0.242h-1.197    l0.228-1.07H160.536z"/>
		<path d="M161.271,324.302h0.326l-0.172,0.805h0.736l-0.056,0.265h-1.062L161.271,324.302z"/>
		<path d="M162.986,324.302h0.326l-0.172,0.805h0.736l-0.056,0.265h-1.062L162.986,324.302z"/>
		<path d="M164.7,324.302h0.326l-0.228,1.07h-0.326L164.7,324.302z"/>
		<path d="M166.76,324.664c0.002-0.014,0.005-0.029,0.005-0.04c0.002-0.035-0.019-0.061-0.055-0.071    c-0.029-0.008-0.03-0.008-0.109-0.008l-0.148-0.002l-0.205,0.002c-0.144,0-0.196,0.027-0.228,0.12    c-0.032,0.095-0.071,0.287-0.071,0.35c0,0.083,0.051,0.114,0.191,0.116c0.035,0.002,0.108,0.002,0.295,0.002    c0.151,0,0.197-0.014,0.233-0.069c0.011-0.021,0.016-0.034,0.027-0.096h-0.412l0.043-0.199h0.73l-0.032,0.148    c-0.032,0.154-0.042,0.188-0.071,0.258c-0.055,0.131-0.168,0.199-0.342,0.204c-0.037,0.002-0.21,0.002-0.409,0.002    c-0.342,0-0.416-0.008-0.502-0.056c-0.063-0.035-0.095-0.106-0.095-0.207c0-0.069,0.019-0.18,0.066-0.375    c0.063-0.268,0.143-0.372,0.321-0.417c0.091-0.022,0.217-0.03,0.496-0.03c0.39,0,0.452,0.006,0.534,0.058    c0.051,0.03,0.077,0.085,0.077,0.162c0,0.04-0.006,0.083-0.021,0.151H166.76z"/>
		<path d="M169.08,324.302l-0.051,0.242h-0.863l-0.04,0.184h0.817l-0.045,0.212h-0.817l-0.04,0.189h0.876l-0.051,0.242h-1.197    l0.228-1.07H169.08z"/>
		<path d="M169.815,324.302h0.518l0.475,0.813l0.164-0.813h0.308l-0.226,1.07h-0.523l-0.469-0.806l-0.162,0.806h-0.313    L169.815,324.302z"/>
		<path d="M172.348,324.567h-0.477l0.056-0.265h1.279l-0.056,0.265h-0.477l-0.172,0.806h-0.326L172.348,324.567z"/>
		<g>
			<polygon style="fill:#ED1C24;" points="148.828,325.01 148.751,325.372 149.931,325.372 150.009,325.01    " class="can-change"/>
			<polygon style="fill:#ED1C24;" points="153.653,324.664 153.73,324.302 150.515,324.302 150.437,324.664    " class="can-change"/>
			<polygon style="fill:#ED1C24;" points="150.162,324.302 148.979,324.302 148.902,324.664 150.084,324.664    " class="can-change"/>
			<polygon style="fill:#ED1C24;" points="150.284,325.372 153.502,325.372 153.579,325.01 150.362,325.01    " class="can-change"/>
			<polygon style="fill:#FFFFFF;" points="150.437,324.664 150.515,324.302 150.162,324.302 150.084,324.664 148.902,324.664      148.828,325.01 150.009,325.01 149.931,325.372 150.284,325.372 150.362,325.01 153.579,325.01 153.653,324.664    " class="can-change"/>
		</g>
	</g>
</g>
<wappalyzerdata id="wappalyzerData" style="display: none"/><script id="wappalyzerEnvDetection" src="chrome-extension://gppongmhjkpfnbhagpmjfkannfbllamg/js/inject.js"/><wappalyzerdata id="wappalyzerData" style="display: none"/><script id="wappalyzerEnvDetection" src="chrome-extension://gppongmhjkpfnbhagpmjfkannfbllamg/js/inject.js"/></svg>