<svg xmlns="http://www.w3.org/2000/svg" xmlns:xlink="http://www.w3.org/1999/xlink" version="1.1" x="0px" y="0px" viewBox="0 0 288.59 377.63" style="enable-background:new 0 0 288.59 377.63;" xml:space="preserve" data-product="2017501" data-design="8" data-size="m">
<g id="Layer_2">
	<g>
		
			<path style="fill-rule: evenodd; clip-rule: evenodd; fill: rgb(114, 191, 68); stroke: rgb(109, 110, 113); stroke-width: 0.34; stroke-linecap: round; stroke-linejoin: round; stroke-miterlimit: 10;" d="    M186.89,16.25c0,0,22.67,12.69,34.01,16.98c11.31,4.28,31.83,13.09,31.83,13.09s12.11,5.22,17.58,18.8    c5.47,13.54,11.59,34.89,12.76,59.78c1.16,24.91,3.91,29.39,3.77,36.82c0,0-2.56-0.51-7.37,0.45c-4.82,1-26.31,6.24-28.63,6.58    l-11.31-28.69c0,0,2.15-42.54-18.51-67.86c0,0-15.4-14.37-20.3-18.71c-4.9-4.31-20.47-14.68-26.93-17.88    C173.79,35.61,186.91,15.65,186.89,16.25z" data-fill-id="5" class="can-change filled"></path>
		
			<path style="fill-rule:evenodd;clip-rule:evenodd;fill:#E6E7E8;stroke:#6D6E71;stroke-width:0.31;stroke-linecap:round;stroke-linejoin:round;stroke-miterlimit:10;" d="    M4.19,175.38c0,0-1.41-0.68,7.77,1.93c9.13,2.61,29,4.54,31.63,10.69c0,0-8.84,0.9-23.04-2.81c-14.17-3.68-19.36-6.92-19.36-6.92    L4.19,175.38z" class="cannot-edit can-change"></path>
		
			<path style="fill-rule: evenodd; clip-rule: evenodd; fill: rgb(114, 191, 68); stroke: rgb(109, 110, 113); stroke-width: 0.34; stroke-linecap: round; stroke-linejoin: round; stroke-miterlimit: 10;" d="    M102.73,16.25c-0.03-0.6,13.09,19.21,13.09,19.21c-6.46,3.21-22.05,13.72-26.96,18.03C83.99,57.83,68.57,72.2,68.57,72.2    c-20.64,25.32-18.51,67.86-18.51,67.86l-11.28,28.69c-2.36-0.34-23.82-5.58-28.66-6.58c-4.82-0.96-7.37-0.45-7.37-0.45    c-0.14-7.43,2.61-11.91,3.77-36.82c1.16-24.89,7.28-46.24,12.75-59.78c5.47-13.58,17.61-18.8,17.61-18.8s20.49-8.81,31.83-13.09    C80.02,28.94,102.73,16.25,102.73,16.25z" class="can-change filled" data-fill-id="100"></path>
		
			<path style="fill-rule:evenodd;clip-rule:evenodd;fill:#E6E7E8;stroke:#6D6E71;stroke-width:0.34;stroke-linecap:round;stroke-linejoin:round;stroke-miterlimit:10;" d="    M144.91,367.63c-1.54,0.08-50.49,2.35-77.08-21.46c-0.11-0.14-11.65-13.07-12.05-20.1c0.03-0.03,2.19-4.62,13.33-5.33    c11.17-0.73,75.82-0.9,75.77-0.9c-0.09,0,64.65,0.17,75.8,0.9c11.16,0.71,13.32,5.3,13.35,5.33c-0.43,7.03-11.94,19.96-12.05,20.1    C195.39,369.98,146.44,367.71,144.91,367.63z" class="cannot-edit can-change"></path>
		<g>
			<defs>
				<path id="SVGID_1_" d="M115.82,35.46c7.49,8.14,17.07,12.93,28.97,12.7l0.09,271.68c-25.52,0.05-80.28,1.67-80.28,1.67      c7.65-75.23,7.31-110.98-0.09-145.25c-7.37-34.24-14.45-36.2-14.45-36.2C47.71,101,64.29,76.85,68.57,72.2      c1.42-2.04,11.88-10.63,20.29-18.71C97.31,45.44,115.82,35.46,115.82,35.46z"></path>
			</defs>
			<use xlink:href="#SVGID_1_" style="overflow: visible; fill-rule: evenodd; clip-rule: evenodd; fill: rgb(0, 102, 179);" class="can-change filled"></use>
			<clipPath id="SVGID_2_">
				<use xlink:href="#SVGID_1_" style="overflow:visible;"></use>
			</clipPath>
			<g style="clip-path:url(#SVGID_2_);">
				<g>
					
						<path style="fill-rule:evenodd;clip-rule:evenodd;fill:#FFFFFF;stroke:#6D6E71;stroke-width:0.34;stroke-linecap:round;stroke-linejoin:round;stroke-miterlimit:10;" d="       M139.92,0.17h9.41v381.66h-9.41V0.17z" class="can-change"></path>
					
						<path style="fill-rule: evenodd; clip-rule: evenodd; fill: rgb(0, 187, 223); stroke: rgb(109, 110, 113); stroke-width: 0.34; stroke-linecap: round; stroke-linejoin: round; stroke-miterlimit: 10;" d="       M130.51,0.17h9.41v381.66h-9.41V0.17z" class="can-change filled"></path>
				</g>
			</g>
			
				<use xlink:href="#SVGID_1_" style="overflow:visible;fill-rule:evenodd;clip-rule:evenodd;fill:none;stroke:#6D6E71;stroke-width:0.34;stroke-linecap:round;stroke-linejoin:round;stroke-miterlimit:10;"></use>
		</g>
		<g>
			<defs>
				<path id="SVGID_3_" d="M173.79,35.61c0,0,18.48,9.83,26.93,17.88c8.45,8.08,18.88,16.67,20.3,18.71      c4.3,4.65,20.86,28.8,18.51,67.86c0,0-6.21,4.4-14.46,36.2c-7.37,34.27-7.71,70.02-0.06,145.25c0,0-54.76-1.62-80.28-1.67      l0.06-271.68C151.88,48.11,162.76,47.46,173.79,35.61z"></path>
			</defs>
			<use xlink:href="#SVGID_3_" style="fill-rule: evenodd; clip-rule: evenodd; fill: rgb(0, 102, 179); stroke: rgb(109, 110, 113); stroke-width: 0.34; stroke-linecap: round; stroke-linejoin: round; stroke-miterlimit: 10;" data-fill-id="1" class="can-change filled"></use>
			<clipPath id="SVGID_4_">
				<use xlink:href="#SVGID_3_" style="overflow:visible;"></use>
			</clipPath>
			<g style="clip-path:url(#SVGID_4_);">
				<g>
					
						<path style="fill-rule: evenodd; clip-rule: evenodd; fill: rgb(0, 187, 223); stroke: rgb(109, 110, 113); stroke-width: 0.34; stroke-linecap: round; stroke-linejoin: round; stroke-miterlimit: 10;" d="       M149.33,0.17h9.41v381.66h-9.41V0.17z" class="can-change filled selected"></path>
					
						<path style="fill-rule:evenodd;clip-rule:evenodd;fill:#FFFFFF;stroke:#6D6E71;stroke-width:0.34;stroke-linecap:round;stroke-linejoin:round;stroke-miterlimit:10;" d="       M139.92,0.17h9.41v381.66h-9.41V0.17z" class="can-change"></path>
				</g>
			</g>
			
				<use xlink:href="#SVGID_3_" style="overflow:visible;fill-rule:evenodd;clip-rule:evenodd;fill:none;stroke:#6D6E71;stroke-width:0.34;stroke-linecap:round;stroke-linejoin:round;stroke-miterlimit:10;"></use>
		</g>
		
			<path style="fill-rule:evenodd;clip-rule:evenodd;fill:none;stroke:#6D6E71;stroke-width:0.34;stroke-linecap:round;stroke-linejoin:round;stroke-miterlimit:10;" d="    M67.26,336.84c0-1.07,1.7-15.47,1.7-15.47"></path>
		
			<path style="fill-rule:evenodd;clip-rule:evenodd;fill:none;stroke:#6D6E71;stroke-width:0.34;stroke-linecap:round;stroke-linejoin:round;stroke-miterlimit:10;" d="    M222.15,336.84c0-1.07-1.7-15.47-1.7-15.47"></path>
		
			<path style="fill-rule:evenodd;clip-rule:evenodd;fill:none;stroke:#6D6E71;stroke-width:0.34;stroke-linecap:round;stroke-linejoin:round;stroke-miterlimit:10;" d="    M68.17,328.48c0,0,68.15,31.92,152.9-0.03"></path>
		
			<path style="fill-rule:evenodd;clip-rule:evenodd;fill:none;stroke:#6D6E71;stroke-width:0.34;stroke-linecap:round;stroke-linejoin:round;stroke-miterlimit:10;" d="    M112.93,340.47l-1.05-20.12"></path>
		
			<path style="fill-rule:evenodd;clip-rule:evenodd;fill:none;stroke:#6D6E71;stroke-width:0.34;stroke-linecap:round;stroke-linejoin:round;stroke-miterlimit:10;" d="    M114.26,320.52l1.11,20.15"></path>
		
			<path style="fill-rule:evenodd;clip-rule:evenodd;fill:none;stroke:#6D6E71;stroke-width:0.34;stroke-linecap:round;stroke-linejoin:round;stroke-miterlimit:10;" d="    M176.43,340.16l1.1-19.87"></path>
		
			<path style="fill-rule:evenodd;clip-rule:evenodd;fill:none;stroke:#6D6E71;stroke-width:0.34;stroke-linecap:round;stroke-linejoin:round;stroke-miterlimit:10;" d="    M175.09,320.23l-1.1,20.27"></path>
		
			<path style="fill-rule: evenodd; clip-rule: evenodd; fill: rgb(114, 191, 68); stroke: rgb(109, 110, 113); stroke-width: 0.34; stroke-linecap: round; stroke-linejoin: round; stroke-miterlimit: 10;" d="    M63.75,175.61l0.68,0.28v-0.05c2.13,0.76,4.48,1.75,6.66,2.94l0.03,0.03C80.16,205.2,90,249.06,95.72,320.8    c-16.95,0.4-30.84,0.71-31.12,0.71c-0.06,0-5.24,0.08-8.82,4.56c0-0.37,3.94-40.82,4.99-65.7c0-18.37,0.68-51.28-4.31-86.83    l3.6,0.79L63.75,175.61z" data-fill-id="7" class="can-change filled"></path>
		
			<path style="fill-rule: evenodd; clip-rule: evenodd; fill: rgb(114, 191, 68); stroke: rgb(109, 110, 113); stroke-width: 0.34; stroke-linecap: round; stroke-linejoin: round; stroke-miterlimit: 10;" d="    M226.06,175.64l3.46-1.11l3.63-0.88c-4.99,35.55-4.31,68.46-4.31,86.83c1.05,24.89,4.99,65.34,4.99,65.71    c-3.57-4.48-8.76-4.57-8.82-4.57c-0.28,0-14.17-0.45-31.12-0.85c5.72-71.74,15.56-115.45,24.6-141.84l0.03-0.03    c2.18-1.19,4.54-2.18,6.66-2.95v0.06C225.21,175.89,226.03,175.75,226.06,175.64z" data-fill-id="2" class="can-change filled"></path>
		
			<path style="fill-rule: evenodd; clip-rule: evenodd; fill: rgb(114, 191, 68); stroke: rgb(109, 110, 113); stroke-width: 0.34; stroke-linecap: round; stroke-linejoin: round; stroke-miterlimit: 10;" d="    M56.46,173.54c-0.99-7.06-2.35-14.03-4.08-20.75l-4.28,20.67c-0.05-0.06-2.49-2.67-7.74-4.17l-1.58-0.54l11.31-28.8    c0.08,0.06,10.51,7.97,21,38.83C66.56,176.63,61.74,174.53,56.46,173.54z" data-fill-id="8" class="can-change filled"></path>
		
			<path style="fill-rule: evenodd; clip-rule: evenodd; fill: rgb(114, 191, 68); stroke: rgb(109, 110, 113); stroke-width: 0.34; stroke-linecap: round; stroke-linejoin: round; stroke-miterlimit: 10;" d="    M233.15,173.65c-5.27,1-10.09,3.09-14.63,5.25c10.49-30.87,20.92-38.78,21.01-38.84l11.31,28.8l-1.59,0.54    c-5.25,1.5-7.68,4.11-7.74,4.17l-4.28-20.67C235.5,159.62,234.14,166.6,233.15,173.65z" data-fill-id="3" class="can-change filled"></path>
		
			<path style="fill-rule:evenodd;clip-rule:evenodd;fill:#D1D3D4;stroke:#000000;stroke-width:2.83;stroke-linecap:round;stroke-linejoin:round;stroke-miterlimit:10;" d="    M102.73,16.25c0,0,18.62-6.52,42.06-6.58s42.1,6.58,42.1,6.58l-13.1,19.36c-12.98,13.52-29,12.55-29,12.55    c-18.96,0-28.97-12.7-28.97-12.7L102.73,16.25z" class="cannot-edit can-change"></path>
		
			<path style="fill-rule:evenodd;clip-rule:evenodd;fill:none;stroke:#6D6E71;stroke-width:1.02;stroke-linecap:round;stroke-linejoin:round;stroke-miterlimit:10;" d="    M144.73,322.22l0.06-274.42"></path>
		
			<path style="fill-rule:evenodd;clip-rule:evenodd;fill:none;stroke:#6D6E71;stroke-width:0.34;stroke-linecap:round;stroke-linejoin:round;stroke-miterlimit:10;" d="    M146.92,322.22l0.05-274.42"></path>
		
			<path style="fill-rule:evenodd;clip-rule:evenodd;fill:none;stroke:#6D6E71;stroke-width:0.34;stroke-linecap:round;stroke-linejoin:round;stroke-miterlimit:10;" d="    M142.58,322.22l0.09-274.42"></path>
		<g>
			<path style="fill-rule:evenodd;clip-rule:evenodd;fill:#FFFFFF;" d="M144.82,51.57h0.79c0,0,0.15-0.23,0.17-0.68     c0.03-0.4,0.15-0.4,0.15-0.4s0.31-0.29,0.42-0.34c0.17-0.12,0.14-0.34,0.14-0.34s0-0.34,0-0.8c-0.03-0.45-0.14-0.51-0.14-0.51     l-1.02-1.04v-0.52l-0.54-0.02l-0.54,0.02v0.52l-1.02,1.04c0,0-0.11,0.06-0.14,0.51c0,0.46,0,0.8,0,0.8s-0.03,0.22,0.14,0.34     c0.14,0.05,0.46,0.34,0.46,0.34s0.08,0,0.11,0.4c0.06,0.45,0.17,0.68,0.17,0.68H144.82" class="can-change"></path>
			<path style="fill-rule:evenodd;clip-rule:evenodd;" d="M144.82,51.57h0.79c0,0,0.15-0.23,0.17-0.68c0-0.2,0.03-0.32,0.06-0.35     l0.09-0.05c0,0,0.31-0.29,0.42-0.34c0.11-0.09,0.14-0.26,0.14-0.31v-0.03c0,0,0-0.14,0-0.4c0-0.11,0-0.25,0-0.4     c-0.03-0.45-0.14-0.53-0.14-0.53l-1.02-1.02v-0.52l-0.54-0.02l-0.54,0.02v0.52l-1.02,1.04c0,0-0.11,0.06-0.14,0.51     c0,0.15,0,0.29,0,0.4c0,0.26,0,0.4,0,0.4v0.03c0,0.05,0.03,0.22,0.14,0.31c0.14,0.05,0.46,0.34,0.46,0.34l0.05,0.05     c0.03,0.03,0.06,0.15,0.06,0.35c0.06,0.45,0.17,0.68,0.17,0.68H144.82h-0.85c0,0-0.11-0.23-0.17-0.68c0-0.2-0.03-0.32-0.06-0.35     l-0.05-0.05c0,0-0.32-0.29-0.46-0.34c-0.11-0.09-0.14-0.26-0.14-0.31v-0.03c0,0,0-0.14,0-0.4c0-0.11,0-0.25,0-0.4     c0.03-0.45,0.14-0.53,0.14-0.53l1.02-1.02v-0.52l0.54-0.02l0.54,0.02v0.52l1.02,1.02c0,0,0.11,0.08,0.14,0.53     c0,0.15,0,0.29,0,0.4c0,0.26,0,0.4,0,0.4v0.03c0,0.05-0.03,0.22-0.14,0.31c-0.11,0.05-0.42,0.34-0.42,0.34l-0.09,0.05     c-0.03,0.03-0.06,0.15-0.06,0.35c-0.02,0.45-0.17,0.68-0.17,0.68H144.82z" class="can-change"></path>
			<path style="fill-rule:evenodd;clip-rule:evenodd;" d="M144.45,47.17h0.68v3.15h-0.68V47.17v3.15h0.68v-3.15H144.45z" class="can-change"></path>
			<path style="fill-rule:evenodd;clip-rule:evenodd;fill:#FFFFFF;" d="M144.76,52.1l1.36-0.02c0,0,0.03-2.36,0.12-2.61     c0.03-0.26-0.14-0.31-0.14-0.31h-1.34h-1.3c0,0-0.2,0.05-0.11,0.31c0.05,0.25,0.08,2.61,0.08,2.61L144.76,52.1" class="can-change"></path>
			<path style="fill-rule:evenodd;clip-rule:evenodd;" d="M144.79,52.08h1.33c0,0,0.03-2.36,0.12-2.61v-0.09     c0-0.2-0.14-0.22-0.14-0.22h-1.34h-1.3c0,0-0.11,0.02-0.11,0.22v0.09c0.05,0.25,0.08,2.61,0.08,2.61H144.79h-1.36     c0,0-0.03-2.36-0.08-2.61v-0.09c0-0.2,0.11-0.22,0.11-0.22h1.3h1.34c0,0,0.14,0.02,0.14,0.22v0.09     c-0.09,0.25-0.12,2.61-0.12,2.61H144.79z" class="can-change"></path>
			<path style="fill-rule:evenodd;clip-rule:evenodd;fill:#4F5053;" d="M145.42,55.87h-1.28c-0.57-0.11-0.54-0.96-0.54-0.96     l-0.17-2.83h2.69l-0.17,2.83C145.95,54.91,145.95,55.76,145.42,55.87z" class="can-change"></path>
			<path style="fill-rule:evenodd;clip-rule:evenodd;" d="M145.42,55.87c0.53-0.11,0.53-0.9,0.53-0.96l0.17-2.83h-2.69l0.17,2.83     c0,0.06,0,0.85,0.54,0.96H145.42h-1.28c-0.54-0.11-0.54-0.9-0.54-0.96l-0.17-2.83h2.69l-0.17,2.83     C145.95,54.97,145.95,55.76,145.42,55.87z" class="can-change"></path>
			<path style="fill-rule:evenodd;clip-rule:evenodd;" d="M145.22,51.88c0.08-0.63,0.28-1.02,0.62-1.48v-0.85h-2.13v0.85     c0.34,0.46,0.54,0.85,0.66,1.48H145.22h-0.85c-0.12-0.63-0.32-1.02-0.66-1.48v-0.85h2.13v0.85     C145.5,50.86,145.3,51.25,145.22,51.88z" class="can-change"></path>
			<path style="fill-rule:evenodd;clip-rule:evenodd;" d="M143.8,48.56h0.65v0.62h-0.65V48.56v0.62h0.65v-0.62H143.8z" class="can-change"></path>
			<path style="fill-rule:evenodd;clip-rule:evenodd;" d="M145.13,48.56h0.63v0.62h-0.63V48.56v0.62h0.63v-0.62H145.13z" class="can-change"></path>
			<path style="fill-rule:evenodd;clip-rule:evenodd;" d="M145.13,49.38h0.63v0.63h-0.63V49.38v0.63h0.63v-0.63H145.13z" class="can-change"></path>
			<path style="fill-rule:evenodd;clip-rule:evenodd;" d="M143.8,49.38h0.65v0.63h-0.65V49.38v0.63h0.65v-0.63H143.8z" class="can-change"></path>
		</g>
		
			<path style="fill-rule:evenodd;clip-rule:evenodd;fill:#FFFFFF;stroke:#6D6E71;stroke-width:0.34;stroke-linecap:round;stroke-linejoin:round;stroke-miterlimit:10;" d="    M148.16,45.78c0,0,1.65,0.54,1.22,1.82c-0.39,1.24-0.76,4.31-5.69,6.91c0,0-2.64,1.28-2.73-1.53c-0.11-2.78-0.14-5.27-0.08-5.52    c0.08-0.26-0.54-1.82,1.45-1.68C144.28,45.92,148.16,45.78,148.16,45.78z" class="can-change"></path>
		
			<path style="fill-rule:evenodd;clip-rule:evenodd;fill:none;stroke:#6D6E71;stroke-width:0.34;stroke-linecap:round;stroke-linejoin:round;stroke-miterlimit:10;" d="    M141.76,45.98c0,0,0,7.31,0.48,7.46c0.48,0.14,4.96-1.59,6.15-6.61"></path>
		
			<path style="fill-rule: evenodd;clip-rule: evenodd;fill: #E4E5E6;stroke: rgb(0, 0, 0);stroke-width: 2.83;stroke-linecap: round;stroke-linejoin: round;stroke-miterlimit: 10;" d="    M55.78,326.07c0,0,2.47-4.5,13.18-4.7c10.72-0.2,70.5-1.65,75.77-1.53c0,0,51.88,0.56,80.28,1.78c0,0,5.84,0.14,8.82,4.57    c0,0-7.29,41.55-85.24,41.55s-88.19-29.56-92.3-39.34L55.78,326.07z" class="cannot-edit can-change"></path>
		<g>
			<defs>
				<path id="SVGID_5_" d="M48.1,173.46l-4.51,14.65c0,0-2.72-2.07-7.39-3.54c-4.68-1.48-31.16-6.3-31.16-6.3s-2.24-0.31-3.85,0      l1.56-16.55c0,0,3.23-0.31,7.37,0.45c4.14,0.77,30.24,7.12,30.24,7.12s5.19,1.84,6.47,3L48.1,173.46z"></path>
			</defs>
			<use xlink:href="#SVGID_5_" style="overflow: visible; fill-rule: evenodd; clip-rule: evenodd; fill: rgb(0, 187, 223);" data-fill-id="9" class="can-change filled"></use>
			<clipPath id="SVGID_6_">
				<use xlink:href="#SVGID_5_" style="overflow:visible;"></use>
			</clipPath>
			<g style="clip-path:url(#SVGID_6_);">
				
					<path style="fill-rule: evenodd; clip-rule: evenodd; fill: rgb(255, 242, 0); stroke: rgb(109, 110, 113); stroke-width: 0.34; stroke-linecap: round; stroke-linejoin: round; stroke-miterlimit: 10;" d="      M48.07,181.56l-4.5,14.66c0,0-2.72-2.07-7.4-3.55c-4.68-1.47-31.15-6.29-31.15-6.29s-3.24-0.11-4.85,0.2l0.39-16.78      c0,0,5.39-0.28,9.53,0.48c4.14,0.77,30.24,7.12,30.24,7.12s5.19,1.84,6.47,3L48.07,181.56z" data-fill-id="10" class="can-change filled"></path>
			</g>
			
				<use xlink:href="#SVGID_5_" style="overflow:visible;fill-rule:evenodd;clip-rule:evenodd;fill:none;stroke:#6D6E71;stroke-width:0.34;stroke-linecap:round;stroke-linejoin:round;stroke-miterlimit:10;"></use>
		</g>
		
			<path style="fill-rule:evenodd;clip-rule:evenodd;fill:#E6E7E8;stroke:#6D6E71;stroke-width:0.31;stroke-linecap:round;stroke-linejoin:round;stroke-miterlimit:10;" d="    M285.42,175.5l3,2.89c0,0-5.18,3.23-19.36,6.91c-14.2,3.72-23.04,2.81-23.04,2.81c2.63-6.15,22.5-8.08,31.63-10.69    C286.84,174.82,285.42,175.5,285.42,175.5z" class="cannot-edit can-change"></path>
		
			<path style="fill-rule: evenodd; clip-rule: evenodd; fill: rgb(114, 191, 68); stroke: rgb(109, 110, 113); stroke-width: 0.34; stroke-linecap: round; stroke-linejoin: round; stroke-miterlimit: 10;" d="    M241.51,173.57l1.28-1.16c1.27-1.17,6.46-3.01,6.46-3.01s26.11-6.35,30.24-7.11c4.14-0.77,7.37-0.46,7.37-0.46l1.56,16.56    c-1.61-0.31-3.85,0-3.85,0s-26.48,4.82-31.15,6.29c-4.68,1.47-7.4,3.54-7.4,3.54L241.51,173.57z" data-fill-id="4" class="can-change filled"></path>
		<g class="human-logo">
			<path style="fill-rule:evenodd;clip-rule:evenodd;" d="M162.09,107.741l0.872-4.899h2.187l-0.245,1.398h1.542l0.257-1.398h3.937     l-0.496,2.838c-0.012,0.036-0.018,0.078-0.024,0.119h0.084h1.195c0.072,0,0.155,0,0.227-0.036     c0.054-0.072,0.072-0.167,0.09-0.251l0.472-2.671h4.344l0.717,1.978l1.416-1.978h2.683l-0.484,2.689l1.93-2.689h2.163     l1.064,2.862l0.508-2.862h2.539l1.237,2.002l0.353-2.002h2.199l-0.872,4.899h-2.539l-1.237-2.002l-0.358,2.002h-3.453     l-0.251-0.687h-1.84l-0.478,0.687h-3.513l0.239-1.356l-0.992,1.356h-1.488l-0.573-1.506l-0.275,1.506h-2.151l0.084-0.478     c-0.024,0.03-0.054,0.048-0.084,0.072c-0.448,0.341-1.034,0.454-1.583,0.454h-1.727c-0.466,0-0.968-0.072-1.344-0.358     c-0.113-0.078-0.215-0.185-0.287-0.305l-0.107,0.615h-2.193l0.263-1.482h-1.547l-0.263,1.482H162.09z" class="can-change"></path>
			<polygon style="fill-rule:evenodd;clip-rule:evenodd;fill:#FFFFFF;" points="162.67,107.239 163.369,103.32 164.57,103.32      164.319,104.718 166.858,104.718 167.103,103.32 168.31,103.32 167.611,107.239 166.41,107.239 166.679,105.758 164.139,105.758      163.877,107.239    " class="can-change"></polygon>
			<path style="fill-rule:evenodd;clip-rule:evenodd;fill:#FFFFFF;" d="M168.406,105.847l0.442-2.528h1.207l-0.394,2.259     c-0.09,0.502,0.054,0.699,0.544,0.699h1.195c0.496,0,0.705-0.197,0.795-0.699l0.4-2.259h1.207l-0.454,2.528     c-0.167,0.968-0.759,1.44-1.858,1.44h-1.727C168.657,107.287,168.232,106.815,168.406,105.847" class="can-change"></path>
			<polygon style="fill-rule:evenodd;clip-rule:evenodd;fill:#FFFFFF;" points="173.652,107.239 174.345,103.32 176.191,103.32      177.105,105.847 178.916,103.32 180.762,103.32 180.069,107.239 178.898,107.239 179.394,104.419 179.382,104.419      177.308,107.239 176.406,107.239 175.331,104.419 175.319,104.419 174.823,107.239    " class="can-change"></polygon>
			<path style="fill-rule:evenodd;clip-rule:evenodd;fill:#FFFFFF;" d="M183.666,104.222l-1.016,1.482h1.536L183.666,104.222z      M180.224,107.239l2.82-3.92h1.571l1.458,3.92h-1.338l-0.245-0.687h-2.438l-0.484,0.687H180.224z" class="can-change"></path>
			<polygon style="fill-rule:evenodd;clip-rule:evenodd;fill:#FFFFFF;" points="186.241,107.239 186.934,103.32 188.792,103.32      190.549,106.164 190.561,106.164 191.063,103.32 192.27,103.32 191.583,107.239 189.718,107.239 187.956,104.389      187.944,104.389 187.442,107.239    " class="can-change"></polygon>
			<path style="fill-rule:evenodd;clip-rule:evenodd;" d="M193.005,106.224l0.048-0.263h1.207c-0.072,0.412,0.09,0.448,0.442,0.448     h1.47c0.263,0,0.526-0.03,0.58-0.329c0.054-0.346-0.077-0.364-1.631-0.364c-1.81,0-1.978-0.221-1.804-1.183     c0.125-0.711,0.281-1.261,1.798-1.261h1.685c1.386,0,1.434,0.472,1.309,1.159l-0.018,0.126h-1.201     c0.048-0.287,0.036-0.4-0.514-0.4h-1.338c-0.263,0-0.466,0.09-0.508,0.299c-0.06,0.347,0.084,0.359,1.38,0.353     c1.87-0.006,2.282,0.102,2.085,1.249c-0.191,1.057-0.586,1.231-2.175,1.231h-1.464     C193.262,107.287,192.861,107.078,193.005,106.224" class="can-change"></path>
			<path style="fill-rule:evenodd;clip-rule:evenodd;" d="M199.977,104.294l-0.173,0.986h1.876c0.275,0,0.418-0.185,0.46-0.418     l0.03-0.149c0.042-0.269-0.06-0.418-0.424-0.418H199.977z M198.257,107.239l0.693-3.92h3.274c1.147,0,1.326,0.574,1.183,1.344     l-0.054,0.335c-0.108,0.58-0.478,1.255-1.326,1.255h-2.396l-0.173,0.986H198.257z" class="can-change"></path>
			<polygon style="fill-rule:evenodd;clip-rule:evenodd;" points="203.335,107.239 204.028,103.32 208.319,103.32 208.163,104.222      205.074,104.222 204.966,104.855 207.888,104.855 207.745,105.668 204.823,105.668 204.71,106.301 207.87,106.301      207.697,107.239    " class="can-change"></polygon>
			<polygon style="fill-rule:evenodd;clip-rule:evenodd;" points="208.163,107.239 208.85,103.32 213.146,103.32 212.985,104.222      209.902,104.222 209.788,104.855 212.71,104.855 212.573,105.668 209.645,105.668 209.531,106.301 212.692,106.301      212.525,107.239    " class="can-change"></polygon>
			<path style="fill-rule:evenodd;clip-rule:evenodd;" d="M214.754,104.294l-0.341,1.936h2.127c0.52,0,0.747-0.144,0.843-0.705     l0.096-0.526c0.095-0.556-0.078-0.705-0.591-0.705H214.754z M213.033,107.239l0.687-3.92h3.627c1.207,0,1.56,0.394,1.386,1.368     l-0.209,1.189c-0.174,0.968-0.663,1.362-1.864,1.362H213.033z" class="can-change"></path>
			<path style="fill-rule:evenodd;clip-rule:evenodd;" d="M220.526,102.585c-0.562,0-0.986,0.466-0.986,1.028     c0,0.586,0.424,1.034,1.004,1.034c0.55,0.006,0.98-0.448,0.98-1.028C221.523,103.051,221.093,102.585,220.526,102.585      M220.543,102.31c0.717,0,1.297,0.592,1.297,1.303c0,0.723-0.58,1.309-1.309,1.309s-1.314-0.586-1.314-1.309     C219.217,102.902,219.803,102.31,220.543,102.31 M220.328,103.182v0.377h0.149c0.161,0,0.293-0.06,0.293-0.179     c0-0.132-0.072-0.209-0.275-0.209C220.424,103.171,220.358,103.177,220.328,103.182 M220.316,103.774v0.514h-0.263v-1.314     c0.102-0.012,0.251-0.024,0.454-0.024c0.245,0,0.352,0.024,0.436,0.108c0.072,0.048,0.137,0.149,0.137,0.281     c0,0.143-0.131,0.239-0.275,0.305v0.018c0.131,0.036,0.185,0.131,0.233,0.311c0.042,0.203,0.06,0.269,0.09,0.317h-0.281     c-0.054-0.054-0.078-0.149-0.108-0.317c-0.03-0.137-0.108-0.197-0.275-0.197H220.316z" class="can-change"></path>
			<rect x="162.09" y="102.31" style="fill:none;" width="59.75" height="5.479"></rect>
			<path d="M198.063,108.627h0.343l-0.24,1.128h-0.343L198.063,108.627z"></path>
			<path d="M199.207,108.627h0.546l0.501,0.857l0.172-0.857h0.325l-0.238,1.128h-0.551l-0.494-0.849l-0.171,0.849h-0.33     L199.207,108.627z"></path>
			<path d="M201.877,108.905h-0.502l0.059-0.279h1.348l-0.059,0.279h-0.502l-0.181,0.849h-0.343L201.877,108.905z"></path>
			<path d="M204.712,108.627l-0.054,0.255h-0.91l-0.042,0.194h0.861l-0.047,0.223h-0.861l-0.042,0.199h0.923l-0.054,0.255h-1.261     l0.24-1.128H204.712z"></path>
			<path d="M205.486,108.627h0.343l-0.181,0.849h0.776l-0.059,0.279h-1.119L205.486,108.627z"></path>
			<path d="M207.293,108.627h0.343l-0.181,0.849h0.776l-0.059,0.279h-1.119L207.293,108.627z"></path>
			<path d="M209.1,108.627h0.343l-0.24,1.128h-0.343L209.1,108.627z"></path>
			<path d="M211.271,109.009c0.002-0.015,0.005-0.03,0.005-0.042c0.002-0.037-0.02-0.064-0.058-0.074     c-0.03-0.009-0.032-0.009-0.115-0.009l-0.156-0.002l-0.216,0.002c-0.152,0-0.206,0.029-0.24,0.127     c-0.034,0.1-0.074,0.303-0.074,0.369c0,0.088,0.054,0.12,0.201,0.122c0.037,0.002,0.113,0.002,0.311,0.002     c0.159,0,0.208-0.015,0.245-0.073c0.012-0.022,0.017-0.036,0.029-0.102h-0.434l0.046-0.21h0.769l-0.034,0.156     c-0.034,0.162-0.044,0.198-0.074,0.272c-0.058,0.138-0.178,0.21-0.36,0.215c-0.039,0.002-0.221,0.002-0.431,0.002     c-0.36,0-0.438-0.008-0.529-0.059c-0.066-0.037-0.1-0.112-0.1-0.218c0-0.073,0.02-0.189,0.069-0.396     c0.066-0.282,0.151-0.392,0.338-0.44c0.096-0.024,0.228-0.032,0.522-0.032c0.411,0,0.477,0.007,0.563,0.061     c0.054,0.032,0.081,0.09,0.081,0.171c0,0.042-0.007,0.088-0.022,0.159H211.271z"></path>
			<path d="M213.715,108.627l-0.054,0.255h-0.91l-0.042,0.194h0.86l-0.047,0.223h-0.861l-0.042,0.199h0.923l-0.054,0.255h-1.261     l0.24-1.128H213.715z"></path>
			<path d="M214.49,108.627h0.546l0.501,0.857l0.172-0.857h0.325l-0.238,1.128h-0.551l-0.494-0.849l-0.171,0.849h-0.33     L214.49,108.627z"></path>
			<path d="M217.159,108.905h-0.502l0.059-0.279h1.348l-0.059,0.279h-0.502l-0.181,0.849h-0.343L217.159,108.905z"></path>
			<g>
				<polygon style="fill:#ED1C24;" points="192.374,109.372 192.293,109.754 193.536,109.754 193.619,109.372     " class="can-change"></polygon>
				<polygon style="fill:#ED1C24;" points="197.458,109.008 197.539,108.627 194.151,108.627 194.069,109.008     " class="can-change"></polygon>
				<polygon style="fill:#ED1C24;" points="193.779,108.627 192.533,108.627 192.451,109.008 193.697,109.008     " class="can-change"></polygon>
				<polygon style="fill:#ED1C24;" points="193.909,109.754 197.299,109.754 197.381,109.372 193.991,109.372     " class="can-change"></polygon>
				<polygon style="fill:#FFFFFF;" points="194.069,109.008 194.151,108.627 193.779,108.627 193.697,109.008 192.451,109.008       192.374,109.372 193.619,109.372 193.536,109.754 193.909,109.754 193.991,109.372 197.381,109.372 197.458,109.008     " class="can-change"></polygon>
			</g>
		</g>
	</g>
</g>
<g id="Layer_1">
</g>
<wappalyzerdata id="wappalyzerData" style="display: none"></wappalyzerdata><script id="wappalyzerEnvDetection" src="chrome-extension://gppongmhjkpfnbhagpmjfkannfbllamg/js/inject.js"></script></svg>