<svg xmlns="http://www.w3.org/2000/svg" xmlns:xlink="http://www.w3.org/1999/xlink" version="1.1" id="Layer_1" x="0px" y="0px" viewBox="-801 216 205 460" style="enable-background:new -801 216 205 460;" xml:space="preserve" data-product="2017503" data-design="5" data-size="m">
<style type="text/css">
	.st0{fill:#FFFFFF;stroke:#6D6E71;stroke-width:0.34;stroke-linecap:round;stroke-linejoin:round;stroke-miterlimit:10;}
	.st1{fill:#FFFFFF;}
	.st2{clip-path:url(#SVGID_4_);}
	.st3{fill:none;stroke:#6D6E71;stroke-width:0.34;stroke-linecap:round;stroke-linejoin:round;stroke-miterlimit:10;}
	.st4{fill:#EDEDED;stroke:#6D6E71;stroke-width:0.34;stroke-linecap:round;stroke-linejoin:round;stroke-miterlimit:10;}
</style>
<path class="st0 can-change" d="M-749.8,634.1c10.3-7.1,39.3-22.1,83.2,4.5c0,0,2.4,1.6,6.4,2.5c-0.2,3.9,0,6.6,0.1,7.6  c0.3,6.7,0.2,11.9,0.2,12c-22.8,8.2-61.7,6.6-74.8,4.3c-13.1-2.3-12.2-4.3-12.2-4.3c0-3.6-2.1-21.1-2.2-21.3  C-749.6,637.7-749.5,635.8-749.8,634.1" style="fill: rgb(255, 255, 255);"/>
<path class="st0 can-change" d="M-749.8,634.1c0.3,1.6,0.3,3.5,0.7,5.3c0.1,0.2,2.2,17.7,2.2,21.3c0,0-0.9,2.1,12.2,4.3  c13.2,2.3,52,3.9,74.8-4.3c0-0.2,0.1-5.4-0.2-12c0-1-0.3-3.7-0.1-7.6c-4-0.9-6.4-2.4-6.4-2.5c-18.9-11.4-35-15.1-48-15.1  C-732,623.5-743.9,630.1-749.8,634.1" style="fill: rgb(255, 255, 255);"/>
<g>
	<g>
		<path id="SVGID_1_" class="st1 can-change" d="M-767.4,449.7c0-8.5,24.1-45.8,30.2-58c18,34.5,66.7-0.9,99-44.7    c-7.4,68.4,5.2,102.6,8.4,129.1c3.3,26.4-9.6,56-17.4,66.2c-7.7,10.2-13.5,94.4-13.2,101.1c0.3,6.6,0.3,17.4,0.3,17.4    c-22.8,8.2-61.7,6.6-74.8,4.3c-13.2-2.3-12.2-4.3-12.2-4.3c0-3.6-2.8-26.6-2.8-26.6c-20-93-1.9-87.1-11.5-109.1    C-771,503.1-767.4,449.7-767.4,449.7z" style="fill: rgb(255, 255, 255);" data-fill-id="1"/>
	</g>
	<g>
		<defs>
			<path id="SVGID_3_" d="M-767.4,449.7c0-8.5,24.1-45.8,30.2-58c18,34.5,66.7-0.9,99-44.7c-7.4,68.4,5.2,102.6,8.4,129.1     c3.3,26.4-9.6,56-17.4,66.2c-7.7,10.2-13.5,94.4-13.2,101.1c0.3,6.6,0.3,17.4,0.3,17.4c-22.8,8.2-61.7,6.6-74.8,4.3     c-13.2-2.3-12.2-4.3-12.2-4.3c0-3.6-2.8-26.6-2.8-26.6c-20-93-1.9-87.1-11.5-109.1C-771,503.1-767.4,449.7-767.4,449.7z"/>
		</defs>
		<clipPath id="SVGID_4_">
			<use xlink:href="#SVGID_3_" style="overflow:visible;"/>
		</clipPath>
		<g class="st2 can-change" style="fill: rgb(0, 0, 0);">
			<g>
				<path class="st0 can-change" d="M-626.3,634.9l-12.1,31.6c-44.1,23.1-147.5,0-147.5,0l-1-22.9l14.9,3.9c84.3,20.2,121.8,0.1,121.8,0.1      L-626.3,634.9z" style="fill: rgb(255, 255, 255);" data-fill-id="2"/>
				<path class="st0 can-change" d="M-626.1,638.1l-12.2,31.6c-44.1,23.1-147.5,0-147.5,0l-1-22.9l14.9,3.9c84.3,20.2,121.8,0.1,121.8,0.1      L-626.1,638.1z" style="fill: rgb(255, 255, 255);" data-fill-id="3"/>
				<path class="st0 can-change" d="M-625.8,641.3l-12.2,31.6c-44.1,23.1-147.5,0-147.5,0l-1-22.9l14.9,3.9c84.3,20.1,121.8,0.1,121.8,0.1      L-625.8,641.3z" style="fill: rgb(255, 255, 255);" data-fill-id="4"/>
			</g>
		</g>
	</g>
	<g>
		<path id="SVGID_2_" class="st3" d="M-767.4,449.7c0-8.5,24.1-45.8,30.2-58c18,34.5,66.7-0.9,99-44.7    c-7.4,68.4,5.2,102.6,8.4,129.1c3.3,26.4-9.6,56-17.4,66.2c-7.7,10.2-13.5,94.4-13.2,101.1c0.3,6.6,0.3,17.4,0.3,17.4    c-22.8,8.2-61.7,6.6-74.8,4.3c-13.2-2.3-12.2-4.3-12.2-4.3c0-3.6-2.8-26.6-2.8-26.6c-20-93-1.9-87.1-11.5-109.1    C-771,503.1-767.4,449.7-767.4,449.7z" style="fill: none;"/>
	</g>
</g>
<path class="st4 cannot-edit can-change" d="M-667.8,239.4c-23-8.1-50.2,15.6-60.7,52.9c-11.4,40.7-9.3,51.6-8.8,99.4c-6.2,1.6-11.9,4-17.1,4.6  c0.3-4.4,0.4-9.2,0.2-14.4c-1.7-34.9-0.5-94.2,24.2-128.2c15.1-17.6,30.3-30,49.9-28.6c19.6,1.4,51.2,12,51.2,52.4  c0,24.3-5,51.6-9.2,69.6c-5.3,7.4-7.7,11.3-15,17.8c2.7-11.2,4.1-29.8,7.9-43.5C-634.6,284.2-644.8,247.5-667.8,239.4z" style="fill: rgb(0, 0, 0);"/>
<path class="st4 cannot-edit can-change" d="M-655.3,581.8c-22.1-23.9-9.3-146.9-9.2-198.9c30.6,1.9,9.7,3.1,24.6,22.9c1.8,31.9,8,52.8,10.2,70.2  c3.3,26.4-9.6,56-17.4,66.2C-650.3,546.5-653.1,563.2-655.3,581.8z" style="fill: rgb(0, 0, 0);"/>
<path class="st4 cannot-edit can-change" d="M-737.3,391.7c0.4,35.2,2.5,168.2-21.2,190.5c-4.1-39.9,4.5-40.5-2.8-57.2c-9.6-22-6-74.8-6-75.4  c0-8.5,1.2-21.9,6.4-32.6c4.8-9.9,4.2-10.9,6.6-20.7C-748.2,395.2-743.5,393.3-737.3,391.7z" style="fill: rgb(0, 0, 0);"/>
<path class="st4 cannot-edit can-change" d="M-640.2,405.8l-75.3-0.1c17.1-2,34.5-13.8,50-28.3c10.3-9.6,19.9-20,27.3-30.5  C-639.3,370.3-639.7,385.3-640.2,405.8z" style="fill: rgb(0, 0, 0);"/>
</svg>