<svg xmlns="http://www.w3.org/2000/svg" xmlns:xlink="http://www.w3.org/1999/xlink" version="1.1" id="Layer_1" x="0px" y="0px" viewBox="-809 232 189 427" style="enable-background:new -809 232 189 427;" xml:space="preserve" data-product="2017507" data-design="3" data-size="m">
<style type="text/css">
	.st0{fill:#FFFFFF;stroke:#6D6E70;stroke-width:0.34;stroke-linecap:round;stroke-linejoin:round;stroke-miterlimit:10;}
	.st1{fill:#FFFFFF;}
	.st2{clip-path:url(#SVGID_4_);}
	.st3{fill:none;stroke:#6D6E70;stroke-width:0.34;stroke-linecap:round;stroke-linejoin:round;stroke-miterlimit:10;}
	.st4{fill:#EDEDED;stroke:#6D6E70;stroke-width:0.34;stroke-linecap:round;stroke-linejoin:round;stroke-miterlimit:10;}
	.st5{fill:#231F20;}
	.st6{fill:none;}
	.st7{fill:#EC1C24;}
</style>
<path class="st0 cannot-edit can-change" d="M-751.6,239c3.4,0.3,36.4,22.1,77.6,0c0,0-5.5,52-41.4,48.3c-35.9-3.8-41.7-47-38.9-47.6  C-751.5,239.1-755,238.6-751.6,239z" fill="rgb(255, 255, 255)"></path>
<g>
	<g>
		<path id="SVGID_1_" class="st1 can-change" d="M-799,350.6c2.8-7,17.2-46.2,6.9-101.8c0.2-0.1,16.3-8.8,32-13.9l0.4,2.5l3.8-2.6    c9.6,41.4,20.7,52.4,41.2,52.6h0.2c20.6-0.2,31.7-11.1,41.2-52.6l3.8,2.6l0.4-2.5c15.7,5.1,31.9,13.8,32,13.9    c-10.3,55.6,4.1,94.8,7,101.8c0.3,0.3,0.5,0.7,0.4,1.1c-1.7,9.9-3.6,24.5-4,31.5c0.3,15-3.2,24.9-2.1,68.2    c-23.7,8.8-53.7,11.4-78.8,11.4h-0.1c-25.2,0-55.1-2.7-78.8-11.4c1.1-43.3-2.5-53.2-2.1-68.2c-0.3-7-2.3-21.6-4-31.5    C-799.5,351.3-799.3,350.9-799,350.6z" fill="rgb(255, 255, 255)" data-fill-id="2"></path>
	</g>
	<g>
		<defs>
			<path id="SVGID_3_" d="M-799,350.6c2.8-7,17.2-46.2,6.9-101.8c0.2-0.1,16.3-8.8,32-13.9l0.4,2.5l3.8-2.6     c9.6,41.4,20.7,52.4,41.2,52.6h0.2c20.6-0.2,31.7-11.1,41.2-52.6l3.8,2.6l0.4-2.5c15.7,5.1,31.9,13.8,32,13.9     c-10.3,55.6,4.1,94.8,7,101.8c0.3,0.3,0.5,0.7,0.4,1.1c-1.7,9.9-3.6,24.5-4,31.5c0.3,15-3.2,24.9-2.1,68.2     c-23.7,8.8-53.7,11.4-78.8,11.4h-0.1c-25.2,0-55.1-2.7-78.8-11.4c1.1-43.3-2.5-53.2-2.1-68.2c-0.3-7-2.3-21.6-4-31.5     C-799.5,351.3-799.3,350.9-799,350.6z"></path>
		</defs>
		<clipPath id="SVGID_4_">
			<use xlink:href="#SVGID_3_" style="overflow:visible;"></use>
		</clipPath>
		<g class="st2 can-change" fill="rgb(0, 0, 0)">
			<path class="st0 can-change" d="M-784.8,356.6l-53.1-71.4l6.1-96.6l232-3.4l4.8,95.2l-49,76.2C-728.3,344.3-780.7,357.2-784.8,356.6z" fill="rgb(255, 255, 255)" data-fill-id="3"></path>
		</g>
	</g>
	<g>
		<path id="SVGID_2_" class="st3" d="M-799,350.6c2.8-7,17.2-46.2,6.9-101.8c0.2-0.1,16.3-8.8,32-13.9l0.4,2.5l3.8-2.6    c9.6,41.4,20.7,52.4,41.2,52.6h0.2c20.6-0.2,31.7-11.1,41.2-52.6l3.8,2.6l0.4-2.5c15.7,5.1,31.9,13.8,32,13.9    c-10.3,55.6,4.1,94.8,7,101.8c0.3,0.3,0.5,0.7,0.4,1.1c-1.7,9.9-3.6,24.5-4,31.5c0.3,15-3.2,24.9-2.1,68.2    c-23.7,8.8-53.7,11.4-78.8,11.4h-0.1c-25.2,0-55.1-2.7-78.8-11.4c1.1-43.3-2.5-53.2-2.1-68.2c-0.3-7-2.3-21.6-4-31.5    C-799.5,351.3-799.3,350.9-799,350.6z" fill="none"></path>
	</g>
</g>
<path class="st0 can-change selected filled" d="M-622.9,568.8c0,3.4-0.1,6.9-0.2,10.4c0,0.1,0.2,9-0.7,20.7c-0.9,10.7-2.9,26.4-3.8,30  c-0.9,5.6-2,12.6-2.8,18.3c-0.2,0.2-20.7,19.7-71.3-1.4l-2-18c0-0.2-1.8-23.4-4.1-28.8s-3.4-27-3.4-27.2l0.4-16.5  c0,0-2.4,1.2-3.7,1.2s-3.7-1.2-3.7-1.2l0.5,16.5c0,0.2-1.2,21.8-3.5,27.2c-2.3,5.4-4.1,28.6-4.1,28.8l-2,18  c-50.7,21.1-71.2,1.6-71.4,1.4c-0.8-5.7-1.9-12.6-2.8-18.3c-1-3.6-3-19.4-3.9-30c-0.9-11.7-0.7-20.6-0.7-20.7  c-1.3-43.4,1-75,3.2-84.9c2.3-10,3.4-17.1,6.8-32.4c0.9-4.1,1.7-7.7,2.5-10.8c1.1-43-2.5-52.8-2.1-67.8c-0.3-7-2.3-21.6-4-31.5  c3.3-9.5,3.3-13.6,7.4-24.5c19.9,18.9,20.5,51.8,21.9,72.3c0.9,12.4,2.8,34.7,0.6,57.7c13.9,2.8,33,5.4,55.2,5.4  c22.4,0,41.4-2.7,54.8-5.5c-2.2-23-0.2-45.3,0.6-57.7c1.4-20.5,2-53.3,21.9-72.3c4.2,10.9,4.2,15,7.4,24.5c-1.7,9.9-3.6,24.5-4,31.5  c0.3,15-3.2,24.9-2.1,67.8c0.8,3.1,1.7,6.7,2.5,10.8c3.3,15.4,4.5,22.5,6.8,32.4C-624.3,503.4-622.2,530.8-622.9,568.8z" fill="rgb(255, 255, 255)" data-fill-id="1" style="fill: rgb(237, 28, 36);"></path>
<g class="cannot-edit"><path class="st4 cannot-edit can-change" d="M-714.3,462.5v95h-0.1c-1.3,0-3.7-1.2-3.7-1.2l0.5,16.5c0,0.2-0.8,15.7-2.5,23.8  c-62.6-28.3-49.4-138.3-49.3-139.4C-755.6,459.9-736.5,462.5-714.3,462.5z" style="fill: rgb(0, 0, 0);"></path><path class="st4 cannot-edit can-change" d="M-714.7,462.5c22.2,0,41.3-2.7,55.2-5.4c0.1,1.1,13.3,111.1-49.3,139.4c-1.7-8-2.5-23.6-2.5-23.8l0.4-16.5  c0,0-2.4,1.2-3.7,1.2h-0.1V462.5z" style="fill: rgb(0, 0, 0);"></path></g>

<path class="st0 can-change" d="M-753,234.6c0,0,36.5,21.1,77.4-0.1l-2,8.6c0,0-31.5,19.8-73.6-0.4C-751.3,242.7-753,234.5-753,234.6z" fill="rgb(255, 255, 255)"></path>
<path class="st0 can-change" d="M-714.5,557.5l0.1-94.7" fill="rgb(255, 255, 255)"></path>
<g class="cannot-edit"><path class="st3" d="M-718.5,566.7c0,0-15.8-2.6-11.2-17c4.7-14.4,5.3-18.9,4.7-25.2c-0.6-6.3-5-14.4,10.6-14.4" fill="none"></path><path class="st3" d="M-710.3,566.7c0,0,15.8-2.6,11.1-17s-5.3-18.9-4.7-25.2c0.6-6.3,5-14.4-10.5-14.4" fill="none"></path></g>

<path class="st0 can-change" d="M-760,234.8l7-0.2c0,0,2.6,18.2,11.7,35.5c5.6,10.7,17.4,15,27,14.7c0,0,10.2,0.4,17.1-4.9  c4.7-3.6,9.6-8.9,13.5-17.7c3.6-8.9,6.3-18.2,8-27.6l6.7,0.2c0,0-5,26.3-12.1,37.1c-7.1,10.7-16.7,19.7-33.5,20  c-16.8,0.4-29.2-10.3-33.9-18.8c-4.7-8.5-9.1-22.5-10.8-32.9L-760,234.8z" fill="rgb(255, 255, 255)" data-fill-id="8"></path>
<path class="st0 cannot-edit can-change" d="M-792,248.7c1.7-1.7,10.4,9.7,11.3,48.5c1,38.9-16.6,47.6-16.6,47.6l-4.5-0.4c0,0,11.2-9.4,12.6-40.7  C-787.5,272.4-792,248.7-792,248.7z" fill="rgb(255, 255, 255)"></path>
<path class="st0 can-change" d="M-785.5,245.4l0.9,3c6.7,18.9,7.9,53,7.9,53c2.9,44.7-22.7,50.3-22.7,50.3l-2.3-7.2  c12.3-6.7,19.1-17.4,18.4-41.3c-0.8-23.9-8.7-54.5-8.7-54.5C-791.5,248.2-785.5,245.4-785.5,245.4z" fill="rgb(255, 255, 255)" data-fill-id="10"></path>
<path class="st0 cannot-edit can-change" d="M-636.8,248.7c0,0-4.5,23.7-3,55s12.7,40.7,12.7,40.7l-4.5,0.4c0,0-17.6-8.7-16.6-47.6  C-647.2,258.5-638.5,247.1-636.8,248.7z" fill="rgb(255, 255, 255)"></path>
<path class="st0 can-change" d="M-643.3,245.4c0,0,6,2.8,6.5,3.3c0,0-8,30.5-8.7,54.4s6.2,34.6,18.4,41.3l-2.3,7.2c0,0-25.6-5.6-22.7-50.3  c0,0,1.2-34.1,7.9-53L-643.3,245.4z" fill="rgb(255, 255, 255)" data-fill-id="9"></path>
<g class="human-logo">
	<path class="st5 can-change" d="M-714,329.4l0.8-4.6h2.1l-0.2,1.2h1.5l0.2-1.3h3.7l-0.5,2.7v0.1h0.1h1.1c0.1,0,0.1,0,0.2,0   c0.1-0.1,0.1-0.2,0.1-0.2l0.4-2.5h4.1l0.7,1.9l1.3-1.9h2.5l-0.5,2.6l1.8-2.6h2.1l1,2.7l0.5-2.7h2.4l1.2,1.9l0.3-1.9h2.1l-0.8,4.6   h-2.2l-1.2-1.9l-0.3,1.9h-3.3l-0.2-0.7h-1.7l-0.5,0.7h-3.3l0.2-1.3l-0.9,1.3h-1.4l-0.5-1.4l-0.3,1.4h-2l0.1-0.5c0,0-0.1,0-0.1,0.1   c-0.4,0.3-1,0.4-1.5,0.4h-1.6c-0.4,0-0.9-0.1-1.3-0.3c-0.1-0.1-0.2-0.2-0.3-0.3l-0.1,0.6h-2.1l0.2-1.4h-1.5l-0.2,1.4H-714   L-714,329.4z" fill="rgb(35, 31, 32)"></path>
	<polygon class="st1 can-change" points="-713.4,328.9 -712.8,325.2 -711.6,325.2 -711.9,326.5 -709.4,326.5 -709.2,325.2 -708.1,325.2    -708.7,328.9 -709.9,328.9 -709.6,327.5 -712,327.5 -712.3,328.9  " fill="rgb(255, 255, 255)"></polygon>
	<path class="st1 can-change" d="M-708,327.6l0.4-2.4h1.1l-0.4,2.1c-0.1,0.5,0.1,0.7,0.5,0.7h1.1c0.5,0,0.7-0.2,0.8-0.7l0.4-2.1h1.1l-0.4,2.4   c-0.2,0.9-0.7,1.4-1.8,1.4h-1.6C-707.7,328.9-708.1,328.5-708,327.6" fill="rgb(255, 255, 255)"></path>
	<polygon class="st1 can-change" points="-703,328.9 -702.3,325.2 -700.6,325.2 -699.7,327.6 -698,325.2 -696.3,325.2 -696.9,328.9 -698,328.9    -697.6,326.2 -697.6,326.2 -699.5,328.9 -700.4,328.9 -701.4,326.2 -701.4,326.2 -701.9,328.9  " fill="rgb(255, 255, 255)"></polygon>
	<path class="st1 can-change" d="M-693.5,326l-1,1.4h1.5L-693.5,326z M-696.8,328.9l2.7-3.7h1.5l1.4,3.7h-1.3l-0.2-0.7h-2.3l-0.5,0.7H-696.8z" fill="rgb(255, 255, 255)"></path>
	<polygon class="st1 can-change" points="-691.1,328.9 -690.4,325.2 -688.6,325.2 -687,327.9 -687,327.9 -686.5,325.2 -685.3,325.2 -686,328.9    -687.8,328.9 -689.4,326.2 -689.4,326.2 -689.9,328.9  " fill="rgb(255, 255, 255)"></polygon>
	<path class="st5 can-change" d="M-684.6,327.9v-0.2h1.1c-0.1,0.4,0.1,0.4,0.4,0.4h1.4c0.2,0,0.5,0,0.6-0.3c0.1-0.3-0.1-0.3-1.5-0.3   c-1.7,0-1.9-0.2-1.7-1.1c0.1-0.7,0.3-1.2,1.7-1.2h1.6c1.3,0,1.4,0.4,1.2,1.1v0.1h-1.2c0-0.3,0-0.4-0.5-0.4h-1.3   c-0.2,0-0.4,0.1-0.5,0.3c-0.1,0.3,0.1,0.3,1.3,0.3c1.8,0,2.2,0.1,2,1.2c-0.2,1-0.6,1.2-2.1,1.2h-1.4   C-684.4,328.9-684.8,328.7-684.6,327.9" fill="rgb(35, 31, 32)"></path>
	<path class="st5 can-change" d="M-678,326.1l-0.2,0.9h1.8c0.3,0,0.4-0.2,0.4-0.4v-0.1c0-0.3-0.1-0.4-0.4-0.4H-678z M-679.7,328.9l0.7-3.7h3.1   c1.1,0,1.3,0.5,1.1,1.3l-0.1,0.3c-0.1,0.5-0.5,1.2-1.3,1.2h-2.3l-0.2,0.9C-678.7,328.9-679.7,328.9-679.7,328.9z" fill="rgb(35, 31, 32)"></path>
	<polygon class="st5 can-change" points="-674.8,328.9 -674.2,325.2 -670.1,325.2 -670.3,326 -673.2,326 -673.3,326.6 -670.5,326.6    -670.6,327.4 -673.4,327.4 -673.5,328 -670.5,328 -670.7,328.9  " fill="rgb(35, 31, 32)"></polygon>
	<polygon class="st5 can-change" points="-670.3,328.9 -669.6,325.2 -665.5,325.2 -665.7,326 -668.6,326 -668.7,326.6 -665.9,326.6    -666.1,327.4 -668.8,327.4 -669,328 -666,328 -666.1,328.9  " fill="rgb(35, 31, 32)"></polygon>
	<path class="st5 can-change" d="M-664,326.1l-0.3,1.8h2c0.5,0,0.7-0.1,0.8-0.7l0.1-0.5c0.1-0.5-0.1-0.7-0.6-0.7h-2V326.1z M-665.6,328.9   l0.7-3.7h3.4c1.1,0,1.5,0.4,1.3,1.3l-0.2,1.1c-0.2,0.9-0.6,1.3-1.8,1.3C-662.2,328.9-665.6,328.9-665.6,328.9z" fill="rgb(35, 31, 32)"></path>
	<path class="st5 can-change" d="M-658.5,324.5c-0.5,0-0.9,0.4-0.9,1s0.4,1,1,1c0.5,0,0.9-0.4,0.9-1C-657.6,324.9-658,324.5-658.5,324.5    M-658.5,324.2c0.7,0,1.2,0.6,1.2,1.2c0,0.7-0.6,1.2-1.2,1.2s-1.2-0.6-1.2-1.2C-659.8,324.8-659.2,324.2-658.5,324.2 M-658.7,325   v0.4h0.1c0.2,0,0.3-0.1,0.3-0.2c0-0.1-0.1-0.2-0.3-0.2C-658.6,325-658.7,325-658.7,325 M-658.7,325.6v0.5h-0.3v-1.2   c0.1,0,0.2,0,0.4,0c0.2,0,0.3,0,0.4,0.1c0.1,0,0.1,0.1,0.1,0.3c0,0.1-0.1,0.2-0.3,0.3l0,0c0.1,0,0.2,0.1,0.2,0.3   c0,0.2,0.1,0.3,0.1,0.3h-0.3c-0.1-0.1-0.1-0.1-0.1-0.3c0-0.1-0.1-0.2-0.3-0.2h0.1V325.6z" fill="rgb(35, 31, 32)"></path>
	<rect x="-714" y="324.2" class="st6" width="56.7" height="5.2" fill="none"></rect>
	<path class="st5 can-change" d="M-679.8,330.2h0.3l-0.2,1.1h-0.3L-679.8,330.2z" fill="rgb(35, 31, 32)"></path>
	<path class="st5 can-change" d="M-678.8,330.2h0.5l0.5,0.8l0.2-0.8h0.3l-0.2,1.1h-0.5l-0.5-0.8l-0.2,0.8h-0.3L-678.8,330.2z" fill="rgb(35, 31, 32)"></path>
	<path class="st5 can-change" d="M-676.2,330.5h-0.5l0.1-0.3h1.3l-0.1,0.3h-0.5l-0.2,0.8h-0.3L-676.2,330.5z" fill="rgb(35, 31, 32)"></path>
	<path class="st5 can-change" d="M-673.5,330.2l-0.1,0.2h-0.9v0.2h0.8v0.2h-0.8v0.2h0.9l-0.1,0.2h-1.2l0.2-1.1h1.2V330.2z" fill="rgb(35, 31, 32)"></path>
	<path class="st5 can-change" d="M-672.8,330.2h0.3l-0.2,0.8h0.7l-0.1,0.3h-0.9L-672.8,330.2z" fill="rgb(35, 31, 32)"></path>
	<path class="st5 can-change" d="M-671.1,330.2h0.3l-0.2,0.8h0.7l-0.1,0.3h-1.1L-671.1,330.2z" fill="rgb(35, 31, 32)"></path>
	<path class="st5 can-change" d="M-669.4,330.2h0.3l-0.2,1.1h-0.3L-669.4,330.2z" fill="rgb(35, 31, 32)"></path>
	<path class="st5 can-change" d="M-667.3,330.6C-667.3,330.6-667.3,330.5-667.3,330.6c0-0.1,0-0.1,0-0.1s0,0-0.1,0h-0.1h-0.2   c-0.1,0-0.2,0-0.2,0.1s-0.1,0.3-0.1,0.3c0,0.1,0.1,0.1,0.2,0.1c0,0,0.1,0,0.3,0c0.2,0,0.2,0,0.2-0.1c0,0,0,0,0-0.1h-0.4v-0.2h0.7   v0.1c0,0.2,0,0.2-0.1,0.3c-0.1,0.1-0.2,0.2-0.3,0.2c0,0-0.2,0-0.4,0c-0.3,0-0.4,0-0.5-0.1c-0.1,0-0.1-0.1-0.1-0.2   c0-0.1,0-0.2,0.1-0.4c0.1-0.3,0.1-0.4,0.3-0.4c0.1,0,0.2,0,0.5,0c0.4,0,0.5,0,0.5,0.1c0.1,0,0.1,0.1,0.1,0.2c0,0,0,0.1,0,0.2   H-667.3z" fill="rgb(35, 31, 32)"></path>
	<path class="st5 can-change" d="M-665,330.2l-0.1,0.2h-0.9v0.2h0.8v0.2h-0.8v0.2h0.9l-0.1,0.2h-1.2l0.2-1.1h1.2V330.2z" fill="rgb(35, 31, 32)"></path>
	<path class="st5 can-change" d="M-664.2,330.2h0.5l0.5,0.8l0.2-0.8h0.3l-0.2,1.1h-0.5l-0.5-0.8l-0.2,0.8h-0.3L-664.2,330.2z" fill="rgb(35, 31, 32)"></path>
	<path class="st5 can-change" d="M-661.7,330.5h-0.5l0.1-0.3h1.3l-0.1,0.3h-0.5l-0.2,0.8h-0.3L-661.7,330.5z" fill="rgb(35, 31, 32)"></path>
	<g>
		<polygon class="st7 can-change" points="-685.2,330.9 -685.3,331.3 -684.1,331.3 -684.1,330.9   " fill="rgb(236, 28, 36)"></polygon>
		<polygon class="st7 can-change" points="-680.4,330.6 -680.3,330.2 -683.5,330.2 -683.6,330.6   " fill="rgb(236, 28, 36)"></polygon>
		<polygon class="st7 can-change" points="-683.9,330.2 -685.1,330.2 -685.2,330.6 -684,330.6   " fill="rgb(236, 28, 36)"></polygon>
		<polygon class="st7 can-change" points="-683.8,331.3 -680.6,331.3 -680.5,330.9 -683.7,330.9   " fill="rgb(236, 28, 36)"></polygon>
		<polygon class="st1 can-change" points="-683.6,330.6 -683.5,330.2 -683.9,330.2 -684,330.6 -685.2,330.6 -685.2,330.9 -684.1,330.9     -684.1,331.3 -683.8,331.3 -683.7,330.9 -680.5,330.9 -680.4,330.6   " fill="rgb(255, 255, 255)"></polygon>
	</g>
</g>
<g class="human-logo">
	<path class="st5 can-change" d="M-792.6,637.3l0.8-4.6h2.1l-0.2,1.3h1.5l0.2-1.3h3.7l-0.5,2.7v0.1h0.1h1.1c0.1,0,0.1,0,0.2,0   c0.1-0.1,0.1-0.2,0.1-0.2l0.4-2.5h4.1l0.7,1.9l1.3-1.9h2.5l-0.5,2.6l1.8-2.6h2.1l1,2.7l0.5-2.7h2.6l1.2,1.9l0.3-1.9h2.1l-0.8,4.6   h-2.4l-1.2-1.9l-0.3,1.9h-3.3l-0.2-0.7h-1.7l-0.5,0.7h-3.3l0.1-1.4l-0.9,1.3h-1.4l-0.5-1.4l-0.3,1.4h-2l0.1-0.5c0,0-0.1,0-0.1,0.1   c-0.4,0.3-1,0.4-1.5,0.4h-1.6c-0.4,0-0.9-0.1-1.3-0.3c-0.1-0.1-0.2-0.2-0.3-0.3l-0.1,0.6h-2.1l0.2-1.4h-1.5l-0.2,1.4L-792.6,637.3   L-792.6,637.3z" fill="rgb(35, 31, 32)"></path>
	<polygon class="st1 can-change" points="-792,636.8 -791.4,633.1 -790.2,633.1 -790.5,634.4 -788.1,634.4 -787.8,633.1 -786.7,633.1    -787.3,636.8 -788.5,636.8 -788.2,635.4 -790.6,635.4 -790.9,636.8  " fill="rgb(255, 255, 255)"></polygon>
	<path class="st1 can-change" d="M-786.6,635.5l0.4-2.4h1.2l-0.4,2.1c-0.1,0.5,0.1,0.7,0.5,0.7h1.1c0.5,0,0.7-0.2,0.8-0.7l0.4-2.1h1.1l-0.4,2.4   c-0.2,0.9-0.7,1.4-1.8,1.4h-1.6C-786.3,636.9-786.7,636.4-786.6,635.5" fill="rgb(255, 255, 255)"></path>
	<polygon class="st1 can-change" points="-781.6,636.8 -780.9,633.1 -779.2,633.1 -778.3,635.5 -776.6,633.1 -774.9,633.1 -775.5,636.8    -776.6,636.8 -776.2,634.1 -776.2,634.1 -778.1,636.8 -779,636.8 -780,634.1 -780,634.1 -780.5,636.8  " fill="rgb(255, 255, 255)"></polygon>
	<path class="st1 can-change" d="M-772.1,633.9l-1,1.4h1.5L-772.1,633.9z M-775.4,636.8l2.7-3.7h1.5l1.4,3.7h-1.3l-0.2-0.7h-2.3l-0.5,0.7   H-775.4z" fill="rgb(255, 255, 255)"></path>
	<polygon class="st1 can-change" points="-769.7,636.8 -769,633.1 -767.2,633.1 -765.6,635.8 -765.6,635.8 -765.1,633.1 -763.9,633.1    -764.6,636.8 -766.4,636.8 -768,634.1 -768,634.1 -768.5,636.8  " fill="rgb(255, 255, 255)"></polygon>
	<path class="st5 can-change" d="M-763.2,635.8v-0.2h1.1c-0.1,0.4,0.1,0.4,0.4,0.4h1.4c0.2,0,0.5,0,0.6-0.3c0.1-0.3-0.1-0.3-1.5-0.3   c-1.7,0-1.9-0.2-1.7-1.1c0.1-0.7,0.3-1.2,1.7-1.2h1.6c1.3,0,1.4,0.4,1.2,1.1v0.1h-1.1c0-0.3,0-0.4-0.5-0.4h-1.3   c-0.2,0-0.4,0.1-0.5,0.3c-0.1,0.3,0.1,0.3,1.3,0.3c1.8,0,2.2,0.1,2,1.2c-0.2,1-0.6,1.2-2.1,1.2h-1.4   C-763,636.9-763.4,636.7-763.2,635.8" fill="rgb(35, 31, 32)"></path>
	<path class="st5 can-change" d="M-756.6,634l-0.2,0.9h1.8c0.3,0,0.4-0.2,0.4-0.4v-0.1c0-0.3-0.1-0.4-0.4-0.4H-756.6z M-758.3,636.8l0.7-3.7   h3.1c1.1,0,1.3,0.5,1.1,1.3l-0.1,0.3c-0.1,0.5-0.5,1.2-1.3,1.2h-2.2l-0.2,0.9L-758.3,636.8L-758.3,636.8z" fill="rgb(35, 31, 32)"></path>
	<polygon class="st5 can-change" points="-753.4,636.8 -752.8,633.1 -748.7,633.1 -748.9,633.9 -751.8,633.9 -751.9,634.6 -749.1,634.6    -749.3,635.3 -752,635.3 -752.1,635.9 -749.1,635.9 -749.3,636.8  " fill="rgb(35, 31, 32)"></polygon>
	<polygon class="st5 can-change" points="-748.9,636.8 -748.2,633.1 -744.1,633.1 -744.3,633.9 -747.2,633.9 -747.3,634.6 -744.5,634.6    -744.7,635.3 -747.5,635.3 -747.6,635.9 -744.6,635.9 -744.7,636.8  " fill="rgb(35, 31, 32)"></polygon>
	<path class="st5 can-change" d="M-742.6,634l-0.3,1.8h2c0.5,0,0.7-0.1,0.8-0.7l0.1-0.5c0.1-0.5-0.1-0.7-0.6-0.7h-2V634z M-744.2,636.8l0.7-3.7   h3.4c1.1,0,1.5,0.4,1.3,1.3l-0.2,1.1c-0.2,0.9-0.6,1.3-1.8,1.3L-744.2,636.8L-744.2,636.8z" fill="rgb(35, 31, 32)"></path>
	<path class="st5 can-change" d="M-737.1,632.4c-0.5,0-0.9,0.4-0.9,1c0,0.6,0.4,1,1,1c0.5,0,0.9-0.4,0.9-1   C-736.2,632.8-736.6,632.4-737.1,632.4 M-737.1,632.1c0.7,0,1.2,0.6,1.2,1.2c0,0.7-0.6,1.2-1.2,1.2c-0.7,0-1.2-0.6-1.2-1.2   C-738.4,632.7-737.8,632.1-737.1,632.1 M-737.3,633v0.4h0.1c0.2,0,0.3-0.1,0.3-0.2C-736.9,633.1-737,633-737.3,633   C-737.2,633-737.3,633-737.3,633 M-737.3,633.5v0.5h-0.2v-1.2c0.1,0,0.2,0,0.4,0c0.2,0,0.3,0,0.4,0.1c0.1,0,0.1,0.1,0.1,0.3   c0,0.1-0.1,0.2-0.3,0.3l0,0c0.1,0,0.2,0.1,0.2,0.3c0,0.2,0.1,0.3,0.1,0.3h-0.3c-0.1-0.1-0.1-0.1-0.1-0.3   C-737,633.7-737.1,633.6-737.3,633.5L-737.3,633.5L-737.3,633.5z" fill="rgb(35, 31, 32)"></path>
	<rect x="-792.6" y="632.1" class="st6" width="56.7" height="5.2" fill="none"></rect>
	<path class="st5 can-change" d="M-758.4,638.1h0.3l-0.2,1.1h-0.3L-758.4,638.1z" fill="rgb(35, 31, 32)"></path>
	<path class="st5 can-change" d="M-757.4,638.1h0.5l0.5,0.8l0.2-0.8h0.3l-0.2,1.1h-0.5l-0.5-0.8l-0.2,0.8h-0.3L-757.4,638.1z" fill="rgb(35, 31, 32)"></path>
	<path class="st5 can-change" d="M-754.8,638.4h-0.5l0.1-0.3h1.2l-0.1,0.3h-0.5l-0.2,0.8h-0.2L-754.8,638.4z" fill="rgb(35, 31, 32)"></path>
	<path class="st5 can-change" d="M-752.1,638.1l-0.1,0.2h-0.8v0.2h0.8v0.2h-0.8v0.2h0.9l-0.1,0.2h-1.2l0.2-1.1L-752.1,638.1L-752.1,638.1z" fill="rgb(35, 31, 32)"></path>
	<path class="st5 can-change" d="M-751.4,638.1h0.3l-0.2,0.8h0.7l-0.1,0.3h-1.1L-751.4,638.1z" fill="rgb(35, 31, 32)"></path>
	<path class="st5 can-change" d="M-749.7,638.1h0.3l-0.2,0.8h0.7l-0.1,0.3h-1.1L-749.7,638.1z" fill="rgb(35, 31, 32)"></path>
	<path class="st5 can-change" d="M-748,638.1h0.3l-0.2,1.1h-0.3L-748,638.1z" fill="rgb(35, 31, 32)"></path>
	<path class="st5 can-change" d="M-745.9,638.5L-745.9,638.5C-745.9,638.4-745.9,638.4-745.9,638.5C-745.9,638.4-745.9,638.4-745.9,638.5   l-0.2-0.1h-0.2c-0.1,0-0.2,0-0.2,0.1s-0.1,0.3-0.1,0.3c0,0.1,0.1,0.1,0.2,0.1c0,0,0.1,0,0.3,0c0.2,0,0.2,0,0.2-0.1c0,0,0,0,0-0.1   h-0.4v-0.2h0.7v0.1c0,0.2,0,0.2-0.1,0.3c-0.1,0.1-0.2,0.2-0.3,0.2c0,0-0.2,0-0.4,0c-0.3,0-0.4,0-0.5-0.1c-0.1,0-0.1-0.1-0.1-0.2   c0-0.1,0-0.2,0.1-0.4c0.1-0.3,0.1-0.4,0.3-0.4c0.1,0,0.2,0,0.5,0c0.4,0,0.5,0,0.5,0.1c0.1,0,0.1,0.1,0.1,0.2c0,0,0,0.1,0,0.2   H-745.9z" fill="rgb(35, 31, 32)"></path>
	<path class="st5 can-change" d="M-743.6,638.1l-0.1,0.2h-0.9v0.2h0.8v0.2h-0.8v0.2h0.9l-0.1,0.2h-1.2l0.2-1.1L-743.6,638.1L-743.6,638.1z" fill="rgb(35, 31, 32)"></path>
	<path class="st5 can-change" d="M-742.9,638.1h0.5l0.5,0.8l0.2-0.8h0.3l-0.2,1.1h-0.5l-0.5-0.8l-0.2,0.8h-0.3L-742.9,638.1z" fill="rgb(35, 31, 32)"></path>
	<path class="st5 can-change" d="M-740.3,638.4h-0.5l0.1-0.3h1.3l-0.1,0.3h-0.5l-0.2,0.8h-0.3L-740.3,638.4z" fill="rgb(35, 31, 32)"></path>
	<g>
		<polygon class="st7 can-change" points="-763.8,638.8 -763.9,639.2 -762.7,639.2 -762.7,638.8   " fill="rgb(236, 28, 36)"></polygon>
		<polygon class="st7 can-change" points="-759,638.5 -758.9,638.1 -762.2,638.1 -762.2,638.5   " fill="rgb(236, 28, 36)"></polygon>
		<polygon class="st7 can-change" points="-762.5,638.1 -763.7,638.1 -763.8,638.5 -762.6,638.5   " fill="rgb(236, 28, 36)"></polygon>
		<polygon class="st7 can-change" points="-762.4,639.2 -759.2,639.2 -759.1,638.8 -762.3,638.8   " fill="rgb(236, 28, 36)"></polygon>
		<polygon class="st1 can-change" points="-762.2,638.5 -762.2,638.1 -762.5,638.1 -762.6,638.5 -763.8,638.5 -763.8,638.8 -762.7,638.8     -762.7,639.2 -762.4,639.2 -762.3,638.8 -759.1,638.8 -759,638.5   " fill="rgb(255, 255, 255)"></polygon>
	</g>
</g>
<g class="human-logo">
	<path class="st5 can-change" d="M-690.5,637.3l0.8-4.6h2.1l-0.2,1.3h1.5l0.2-1.3h3.7l-0.5,2.7v0.1h0.1h1.1c0.1,0,0.1,0,0.2,0   c0.1-0.1,0.1-0.2,0.1-0.2l0.4-2.5h4.1l0.7,1.9l1.3-1.9h2.5l-0.5,2.6l1.8-2.6h2.1l1,2.7l0.5-2.7h2.4l1.2,1.9l0.3-1.9h2.1l-0.8,4.6   h-2.4l-1.2-1.9l-0.3,1.9h-3.3l-0.2-0.7h-1.7l-0.5,0.7h-3.3l0.2-1.3l-0.9,1.3h-1.4l-0.5-1.4l-0.3,1.4h-2l0.1-0.5c0,0-0.1,0-0.1,0.1   c-0.4,0.3-1,0.4-1.5,0.4h-1.6c-0.4,0-0.9-0.1-1.3-0.3c-0.1-0.1-0.2-0.2-0.3-0.3l-0.1,0.6h-2.1l0.2-1.4h-1.5l-0.2,1.4h-2V637.3z" fill="rgb(35, 31, 32)"></path>
	<polygon class="st1 can-change" points="-690,636.8 -689.3,633.1 -688.2,633.1 -688.4,634.4 -686,634.4 -685.8,633.1 -684.6,633.1    -685.3,636.8 -686.4,636.8 -686.2,635.4 -688.6,635.4 -688.8,636.8  " fill="rgb(255, 255, 255)"></polygon>
	<path class="st1 can-change" d="M-684.5,635.5l0.4-2.4h1.1l-0.4,2.1c-0.1,0.5,0.1,0.7,0.5,0.7h1.1c0.5,0,0.7-0.2,0.8-0.7l0.4-2.1h1.1l-0.4,2.4   c-0.2,0.9-0.7,1.4-1.8,1.4h-1.6C-684.3,636.9-684.7,636.4-684.5,635.5" fill="rgb(255, 255, 255)"></path>
	<polygon class="st1 can-change" points="-679.6,636.8 -678.9,633.1 -677.1,633.1 -676.3,635.5 -674.6,633.1 -672.8,633.1 -673.5,636.8    -674.6,636.8 -674.1,634.1 -674.1,634.1 -676.1,636.8 -676.9,636.8 -678,634.1 -678,634.1 -678.4,636.8  " fill="rgb(255, 255, 255)"></polygon>
	<path class="st1 can-change" d="M-670.1,633.9l-1,1.4h1.5L-670.1,633.9z M-673.3,636.8l2.7-3.7h1.5l1.4,3.7h-1.3l-0.2-0.7h-2.3l-0.5,0.7   H-673.3z" fill="rgb(255, 255, 255)"></path>
	<polygon class="st1 can-change" points="-667.6,636.8 -667,633.1 -665.2,633.1 -663.5,635.8 -663.5,635.8 -663,633.1 -661.9,633.1    -662.5,636.8 -664.3,636.8 -666,634.1 -666,634.1 -666.5,636.8  " fill="rgb(255, 255, 255)"></polygon>
	<path class="st5 can-change" d="M-661.2,635.8v-0.2h1.1c-0.1,0.4,0.1,0.4,0.4,0.4h1.4c0.2,0,0.5,0,0.6-0.3c0.1-0.3-0.1-0.3-1.5-0.3   c-1.7,0-1.9-0.2-1.7-1.1c0.1-0.7,0.3-1.2,1.7-1.2h1.6c1.3,0,1.4,0.4,1.2,1.1v0.1h-1.1c0-0.3,0-0.4-0.5-0.4h-1.3   c-0.2,0-0.4,0.1-0.5,0.3c-0.1,0.3,0.1,0.3,1.3,0.3c1.8,0,2.2,0.1,2,1.2c-0.2,1-0.6,1.2-2.1,1.2h-1.4   C-660.9,636.9-661.3,636.7-661.2,635.8" fill="rgb(35, 31, 32)"></path>
	<path class="st5 can-change" d="M-654.6,634l-0.2,0.9h1.8c0.3,0,0.4-0.2,0.4-0.4v-0.1c0-0.3-0.1-0.4-0.4-0.4H-654.6z M-656.2,636.8l0.7-3.7   h3.1c1.1,0,1.3,0.5,1.1,1.3l-0.1,0.3c-0.1,0.5-0.5,1.2-1.3,1.2h-2.3l-0.2,0.9L-656.2,636.8L-656.2,636.8z" fill="rgb(35, 31, 32)"></path>
	<polygon class="st5 can-change" points="-651.4,636.8 -650.7,633.1 -646.7,633.1 -646.8,633.9 -649.7,633.9 -649.8,634.6 -647.1,634.6    -647.2,635.3 -650,635.3 -650.1,635.9 -647.1,635.9 -647.2,636.8  " fill="rgb(35, 31, 32)"></polygon>
	<polygon class="st5 can-change" points="-646.8,636.8 -646.2,633.1 -642.1,633.1 -642.2,633.9 -645.2,633.9 -645.3,634.6 -642.5,634.6    -642.6,635.3 -645.4,635.3 -645.5,635.9 -642.5,635.9 -642.7,636.8  " fill="rgb(35, 31, 32)"></polygon>
	<path class="st5 can-change" d="M-640.6,634l-0.3,1.8h2c0.5,0,0.7-0.1,0.8-0.7l0.1-0.5c0.1-0.5-0.1-0.7-0.6-0.7h-2V634z M-642.2,636.8l0.7-3.7   h3.4c1.1,0,1.5,0.4,1.3,1.3l-0.2,1.1c-0.2,0.9-0.6,1.3-1.8,1.3L-642.2,636.8L-642.2,636.8z" fill="rgb(35, 31, 32)"></path>
	<path class="st5 can-change" d="M-635.1,632.4c-0.5,0-0.9,0.4-0.9,1c0,0.6,0.4,1,1,1c0.5,0,0.9-0.4,0.9-1   C-634.1,632.8-634.5,632.4-635.1,632.4 M-635.1,632.1c0.7,0,1.2,0.6,1.2,1.2c0,0.7-0.6,1.2-1.2,1.2c-0.7,0-1.2-0.6-1.2-1.2   C-636.3,632.7-635.8,632.1-635.1,632.1 M-635.3,633v0.4h0.1c0.2,0,0.3-0.1,0.3-0.2C-634.9,633.1-635,633-635.3,633   C-635.2,633-635.2,633-635.3,633 M-635.3,633.5v0.5h-0.2v-1.2c0.1,0,0.2,0,0.4,0c0.2,0,0.3,0,0.4,0.1c0.1,0,0.1,0.1,0.1,0.3   c0,0.1-0.1,0.2-0.3,0.3l0,0c0.1,0,0.2,0.1,0.2,0.3c0,0.2,0.1,0.3,0.1,0.3h-0.3c-0.1-0.1-0.1-0.1-0.1-0.3   C-635,633.7-635.1,633.6-635.3,633.5L-635.3,633.5L-635.3,633.5z" fill="rgb(35, 31, 32)"></path>
	<rect x="-690.5" y="632.1" class="st6" width="56.7" height="5.2" fill="none"></rect>
	<path class="st5 can-change" d="M-656.4,638.1h0.3l-0.2,1.1h-0.3L-656.4,638.1z" fill="rgb(35, 31, 32)"></path>
	<path class="st5 can-change" d="M-655.3,638.1h0.5l0.5,0.8l0.2-0.8h0.3l-0.2,1.1h-0.5l-0.5-0.8l-0.2,0.8h-0.3L-655.3,638.1z" fill="rgb(35, 31, 32)"></path>
	<path class="st5 can-change" d="M-652.8,638.4h-0.5l0.1-0.3h1.3l-0.1,0.3h-0.5l-0.2,0.8h-0.3L-652.8,638.4z" fill="rgb(35, 31, 32)"></path>
	<path class="st5 can-change" d="M-650.1,638.1l-0.1,0.2h-0.8v0.2h0.8v0.2h-0.8v0.2h0.9l-0.1,0.2h-1.2l0.2-1.1L-650.1,638.1L-650.1,638.1z" fill="rgb(35, 31, 32)"></path>
	<path class="st5 can-change" d="M-649.3,638.1h0.3l-0.2,0.8h0.7l-0.1,0.3h-1.1L-649.3,638.1z" fill="rgb(35, 31, 32)"></path>
	<path class="st5 can-change" d="M-647.6,638.1h0.3l-0.2,0.8h0.7l-0.1,0.3h-1.1L-647.6,638.1z" fill="rgb(35, 31, 32)"></path>
	<path class="st5 can-change" d="M-645.9,638.1h0.3l-0.2,1.1h-0.3L-645.9,638.1z" fill="rgb(35, 31, 32)"></path>
	<path class="st5 can-change" d="M-643.9,638.5L-643.9,638.5C-643.9,638.4-643.9,638.4-643.9,638.5C-643.9,638.4-643.9,638.4-643.9,638.5   l-0.2-0.1h-0.2c-0.1,0-0.2,0-0.2,0.1s-0.1,0.3-0.1,0.3c0,0.1,0.1,0.1,0.2,0.1c0,0,0.1,0,0.3,0c0.2,0,0.2,0,0.2-0.1c0,0,0,0,0-0.1   h-0.4v-0.2h0.7v0.1c0,0.2,0,0.2-0.1,0.3c-0.1,0.1-0.2,0.2-0.3,0.2c0,0-0.2,0-0.4,0c-0.3,0-0.4,0-0.5-0.1c-0.1,0-0.1-0.1-0.1-0.2   c0-0.1,0-0.2,0.1-0.4c0.1-0.3,0.1-0.4,0.3-0.4c0.1,0,0.2,0,0.5,0c0.4,0,0.5,0,0.5,0.1c0.1,0,0.1,0.1,0.1,0.2c0,0,0,0.1,0,0.2   H-643.9z" fill="rgb(35, 31, 32)"></path>
	<path class="st5 can-change" d="M-641.5,638.1l-0.1,0.2h-0.9v0.2h0.8v0.2h-0.8v0.2h0.9l-0.1,0.2h-1.3l0.2-1.1L-641.5,638.1L-641.5,638.1z" fill="rgb(35, 31, 32)"></path>
	<path class="st5 can-change" d="M-640.8,638.1h0.5l0.5,0.8l0.2-0.8h0.3l-0.2,1.1h-0.5l-0.5-0.8l-0.2,0.8h-0.3L-640.8,638.1z" fill="rgb(35, 31, 32)"></path>
	<path class="st5 can-change" d="M-638.3,638.4h-0.5l0.1-0.3h1.3l-0.1,0.3h-0.5l-0.2,0.8h-0.3L-638.3,638.4z" fill="rgb(35, 31, 32)"></path>
	<g>
		<polygon class="st7 can-change" points="-661.8,638.8 -661.9,639.2 -660.7,639.2 -660.6,638.8   " fill="rgb(236, 28, 36)"></polygon>
		<polygon class="st7 can-change" points="-657,638.5 -656.9,638.1 -660.1,638.1 -660.2,638.5   " fill="rgb(236, 28, 36)"></polygon>
		<polygon class="st7 can-change" points="-660.5,638.1 -661.6,638.1 -661.7,638.5 -660.5,638.5   " fill="rgb(236, 28, 36)"></polygon>
		<polygon class="st7 can-change" points="-660.3,639.2 -657.1,639.2 -657,638.8 -660.3,638.8   " fill="rgb(236, 28, 36)"></polygon>
		<polygon class="st1 can-change" points="-660.2,638.5 -660.1,638.1 -660.5,638.1 -660.5,638.5 -661.7,638.5 -661.8,638.8 -660.6,638.8     -660.7,639.2 -660.3,639.2 -660.3,638.8 -657,638.8 -657,638.5   " fill="rgb(255, 255, 255)"></polygon>
	</g>
</g>
</svg>