<svg xmlns="http://www.w3.org/2000/svg" xmlns:xlink="http://www.w3.org/1999/xlink" version="1.1" id="Layer_1" x="0px" y="0px" viewBox="-759 240.4 287.8 411.6" style="enable-background:new -759 240.4 287.8 411.6;" xml:space="preserve" data-product="2017505" data-design="4" data-size="m">
<style type="text/css">
	.st0{fill:#FFFFFF;stroke:#6D6E71;stroke-width:0.34;stroke-linecap:round;stroke-linejoin:round;stroke-miterlimit:10;}
	.st1{fill:#FFFFFF;}
	.st2{clip-path:url(#SVGID_8_);}
	.st3{fill:none;stroke:#6D6E71;stroke-width:0.34;stroke-linecap:round;stroke-linejoin:round;stroke-miterlimit:10;}
	.st4{clip-path:url(#SVGID_10_);}
	.st5{clip-path:url(#SVGID_12_);}
	.st6{fill:#EDEDED;stroke:#6D6E71;stroke-width:0.34;stroke-linecap:round;stroke-linejoin:round;stroke-miterlimit:10;}
	.st7{fill:none;}
	.st8{fill:#ED1C24;}
</style>
<path class="st0 can-change" d="M-746.2,349.8c1.2-8.9,3.3-20.8,6.9-36c2-9.3,4.5-17.3,6.9-23.2c4.3-10.4,8.2-14.9,8.3-15  c3.7-3.9,23-13.7,45.2-22.2c7.8-3,15.7-7.3,23.9-10.9c4.8,3,3.8,2.6,8.5,5.1c-15.1,8.1-10.5,69.4-17.4,79.8  c-11.4,15.7-26,9-25.9,9.4c0,0.1-6.8,13.4-8,17c-1.4,4.4-11.3,20.4-13.4,24.7c-2.1,6-5.2,50.6-5.5,55.6c-0.3,5-7.3,56.5-7.4,57  c-13.1,7.7-34.5-3.4-34.7-3.5c0.1-0.8,6.7-81.9,7.1-98.4C-751.5,375.5-747.5,355.9-746.2,349.8z" fill="rgb(255, 255, 255)" data-fill-id="5"/>
<path class="st0 can-change" d="M-485,349.8c1.3,6.1,5.3,25.7,5.6,39.5c0.3,16.4,7,97.5,7,98.4c-0.2,0.1-21.6,11.2-34.7,3.5  c-0.1-0.5-7.1-51.9-7.4-57c-0.3-5-3.4-49.7-5.5-55.6c-2-4.3-12-20.3-13.4-24.7c-1.2-3.6-8-17-8-17c0.1-0.4-14.5,6.4-25.9-9.4  c-6.9-10.3-2.4-71.7-17.4-79.8c4.7-2.5,3.7-2.1,8.5-5.1c8.2,3.6,16.1,7.9,23.9,10.9c22.1,8.4,41.5,18.2,45.2,22.2  c0.1,0,4,4.5,8.3,15c2.4,5.9,5,13.9,6.9,23.2C-488.3,328.9-486.2,340.9-485,349.8z" fill="rgb(255, 255, 255)" data-fill-id="7"/>
<g>
	<g>
		<path id="SVGID_1_" class="st1 can-change" d="M-576.1,242.5c0.2,0,18.9,8.2,27.6,12.1c-3.8,19.8-6,34.1-4.1,58.7    c1.1,14.5,9.7,24.2,17.6,29.8c-1.4,4.9-5,29.2-5.5,38.7c-1.2,14.7-3.6,25-2.6,66c-22.4,8.3-49.2,10.9-73,10.9    c-23.8,0-52.2-2.5-74.6-10.8c1-41.1-2.3-50.4-2-64.7c-0.5-9.5-4.1-33.8-5.5-38.7c8-5.6,18.5-16.8,19.6-31.3    c1.9-24.7-0.3-39-4.1-58.7c8.7-3.9,27.4-12.1,27.6-12.1c12.5,11,33.9,10.2,37.6,10.3h0.8l0.6,0v0    C-607.9,252.7-586.9,252-576.1,242.5z" fill="rgb(255, 255, 255)" data-fill-id="11"/>
	</g>
	<g>
		<defs>
			<path id="SVGID_7_" d="M-576.1,242.5c0.2,0,18.9,8.2,27.6,12.1c-3.8,19.8-6,34.1-4.1,58.7c1.1,14.5,9.7,24.2,17.6,29.8     c-1.4,4.9-5,29.2-5.5,38.7c-1.2,14.7-3.6,25-2.6,66c-22.4,8.3-49.2,10.9-73,10.9c-23.8,0-52.2-2.5-74.6-10.8     c1-41.1-2.3-50.4-2-64.7c-0.5-9.5-4.1-33.8-5.5-38.7c8-5.6,18.5-16.8,19.6-31.3c1.9-24.7-0.3-39-4.1-58.7     c8.7-3.9,27.4-12.1,27.6-12.1c12.5,11,33.9,10.2,37.6,10.3h0.8l0.6,0v0C-607.9,252.7-586.9,252-576.1,242.5z"/>
		</defs>
		<clipPath id="SVGID_8_">
			<use xlink:href="#SVGID_7_" style="overflow:visible;"/>
		</clipPath>
		<g class="st2 can-change" fill="rgb(0, 0, 0)">
			<g>
				<path class="st0 can-change" d="M-611.6,339h8.1v329.3h-8.1V339z" fill="rgb(255, 255, 255)"/>
				<path class="st0 can-change" d="M-619.7,339h8.1v329.3h-8.1V339z" fill="rgb(255, 255, 255)"/>
				<path class="st0 can-change" d="M-627.8,339h8.1v329.3h-8.1V339z" fill="rgb(255, 255, 255)"/>
			</g>
		</g>
	</g>
	<g>
		<path id="SVGID_2_" class="st3" d="M-576.1,242.5c0.2,0,18.9,8.2,27.6,12.1c-3.8,19.8-6,34.1-4.1,58.7    c1.1,14.5,9.7,24.2,17.6,29.8c-1.4,4.9-5,29.2-5.5,38.7c-1.2,14.7-3.6,25-2.6,66c-22.4,8.3-49.2,10.9-73,10.9    c-23.8,0-52.2-2.5-74.6-10.8c1-41.1-2.3-50.4-2-64.7c-0.5-9.5-4.1-33.8-5.5-38.7c8-5.6,18.5-16.8,19.6-31.3    c1.9-24.7-0.3-39-4.1-58.7c8.7-3.9,27.4-12.1,27.6-12.1c12.5,11,33.9,10.2,37.6,10.3h0.8l0.6,0v0    C-607.9,252.7-586.9,252-576.1,242.5z" fill="none"/>
	</g>
</g>
<g>
	<g>
		<path id="SVGID_3_" class="st1 can-change" d="M-572.9,454.1c-0.2-4.5-0.7-17.9-1.6-46.5c-1.1-36.7,22.8-56.1,27.2-60    c2.7-2.3,4.6-7.1,5.6-10.5c2.1,2.1,4.3,4,6.7,6c-1.4,4.9-5.3,29.2-5.8,38.7c0.3,14.2-3.4,25-2.3,66c0.7,2.9,1.6,6.3,2.4,10.1    c3.1,14.6,3.3,17.9,5.5,27.4c2.1,9.4,7.4,42.8,6.1,83.9c0,0.1,0.3,8.5-0.7,19.6c-0.8,10.1-2.8,25-3.7,28.5    c-0.9,5.4-1.9,12-2.6,17.3c-0.1,0.1-6.1,5.8-19.7,7.5l-0.2,0c-10.8,1.3-26.5,0-47.8-8.8l-2-17.1c0-0.2-1.7-22.2-3.8-27.3    c-2.2-5.2-3.3-25.6-3.3-25.8l0.5-15.6c0,0-2.3,1.1-3.5,1.2c-1.2,0-3.5-1.2-3.5-1.2l0.4,15.6c0,0.2-1.1,20.6-3.3,25.8    c-2.1,5.1-3.8,27.1-3.8,27.3l-1.9,17.1c-22.9,9.5-39.4,10.3-50.3,8.5c-11.9-2-17.3-7.1-17.4-7.2c-0.8-5.4-1.8-12-2.6-17.3    c-0.9-3.5-2.8-18.3-3.6-28.5c-0.9-11.1-0.7-19.5-0.7-19.6c-0.7-22.7-0.4-42.4,0.5-57.4c0.6-11.1,1.6-19,2.5-23.1    c2.1-9.5,3.2-16.2,6.4-30.8c0.8-3.9,1.7-7.3,2.4-10.3c1-40.8-2.3-50.1-2-64.3c-0.5-9.5-4.1-33.8-5.5-38.7c2.4-2.1,6.2-5.4,8.2-7.5    c1,3.4,2.9,8.2,5.6,10.5c4.5,3.9,28.3,23.3,27.2,60c-0.8,28.5-1.4,41.9-1.6,46.4c11.9,1.7,26.6,3,43,3    C-599.1,457.1-584.6,455.8-572.9,454.1z" fill="rgb(255, 255, 255)" data-fill-id="1"/>
	</g>
	<g>
		<defs>
			<path id="SVGID_9_" d="M-572.9,454.1c-0.2-4.5-0.7-17.9-1.6-46.5c-1.1-36.7,22.8-56.1,27.2-60c2.7-2.3,4.6-7.1,5.6-10.5     c2.1,2.1,4.3,4,6.7,6c-1.4,4.9-5.3,29.2-5.8,38.7c0.3,14.2-3.4,25-2.3,66c0.7,2.9,1.6,6.3,2.4,10.1c3.1,14.6,3.3,17.9,5.5,27.4     c2.1,9.4,7.4,42.8,6.1,83.9c0,0.1,0.3,8.5-0.7,19.6c-0.8,10.1-2.8,25-3.7,28.5c-0.9,5.4-1.9,12-2.6,17.3     c-0.1,0.1-6.1,5.8-19.7,7.5l-0.2,0c-10.8,1.3-26.5,0-47.8-8.8l-2-17.1c0-0.2-1.7-22.2-3.8-27.3c-2.2-5.2-3.3-25.6-3.3-25.8     l0.5-15.6c0,0-2.3,1.1-3.5,1.2c-1.2,0-3.5-1.2-3.5-1.2l0.4,15.6c0,0.2-1.1,20.6-3.3,25.8c-2.1,5.1-3.8,27.1-3.8,27.3l-1.9,17.1     c-22.9,9.5-39.4,10.3-50.3,8.5c-11.9-2-17.3-7.1-17.4-7.2c-0.8-5.4-1.8-12-2.6-17.3c-0.9-3.5-2.8-18.3-3.6-28.5     c-0.9-11.1-0.7-19.5-0.7-19.6c-0.7-22.7-0.4-42.4,0.5-57.4c0.6-11.1,1.6-19,2.5-23.1c2.1-9.5,3.2-16.2,6.4-30.8     c0.8-3.9,1.7-7.3,2.4-10.3c1-40.8-2.3-50.1-2-64.3c-0.5-9.5-4.1-33.8-5.5-38.7c2.4-2.1,6.2-5.4,8.2-7.5c1,3.4,2.9,8.2,5.6,10.5     c4.5,3.9,28.3,23.3,27.2,60c-0.8,28.5-1.4,41.9-1.6,46.4c11.9,1.7,26.6,3,43,3C-599.1,457.1-584.6,455.8-572.9,454.1z"/>
		</defs>
		<clipPath id="SVGID_10_">
			<use xlink:href="#SVGID_9_" style="overflow:visible;"/>
		</clipPath>
		<g class="st4 can-change" fill="rgb(0, 0, 0)">
			<g>
				<path class="st0 can-change" d="M-712.8,599.3l14.1,11.8c0,0,22,18.6,71.7-0.1l8.8-3.6l-0.6,21.3c0,0-60.9,21.4-86.8,0L-712.8,599.3z" fill="rgb(255, 255, 255)" data-fill-id="3"/>
				<path class="st0 can-change" d="M-713,610.6l14.1,11.8c0,0,22,18.6,71.7-0.1l8.8-3.7l-0.6,21.3c0,0-60.9,21.4-86.8,0L-713,610.6z" fill="rgb(255, 255, 255)" data-fill-id="4"/>
			</g>
		</g>
	</g>
	<g>
		<path id="SVGID_4_" class="st3" d="M-572.9,454.1c-0.2-4.5-0.7-17.9-1.6-46.5c-1.1-36.7,22.8-56.1,27.2-60    c2.7-2.3,4.6-7.1,5.6-10.5c2.1,2.1,4.3,4,6.7,6c-1.4,4.9-5.3,29.2-5.8,38.7c0.3,14.2-3.4,25-2.3,66c0.7,2.9,1.6,6.3,2.4,10.1    c3.1,14.6,3.3,17.9,5.5,27.4c2.1,9.4,7.4,42.8,6.1,83.9c0,0.1,0.3,8.5-0.7,19.6c-0.8,10.1-2.8,25-3.7,28.5    c-0.9,5.4-1.9,12-2.6,17.3c-0.1,0.1-6.1,5.8-19.7,7.5l-0.2,0c-10.8,1.3-26.5,0-47.8-8.8l-2-17.1c0-0.2-1.7-22.2-3.8-27.3    c-2.2-5.2-3.3-25.6-3.3-25.8l0.5-15.6c0,0-2.3,1.1-3.5,1.2c-1.2,0-3.5-1.2-3.5-1.2l0.4,15.6c0,0.2-1.1,20.6-3.3,25.8    c-2.1,5.1-3.8,27.1-3.8,27.3l-1.9,17.1c-22.9,9.5-39.4,10.3-50.3,8.5c-11.9-2-17.3-7.1-17.4-7.2c-0.8-5.4-1.8-12-2.6-17.3    c-0.9-3.5-2.8-18.3-3.6-28.5c-0.9-11.1-0.7-19.5-0.7-19.6c-0.7-22.7-0.4-42.4,0.5-57.4c0.6-11.1,1.6-19,2.5-23.1    c2.1-9.5,3.2-16.2,6.4-30.8c0.8-3.9,1.7-7.3,2.4-10.3c1-40.8-2.3-50.1-2-64.3c-0.5-9.5-4.1-33.8-5.5-38.7c2.4-2.1,6.2-5.4,8.2-7.5    c1,3.4,2.9,8.2,5.6,10.5c4.5,3.9,28.3,23.3,27.2,60c-0.8,28.5-1.4,41.9-1.6,46.4c11.9,1.7,26.6,3,43,3    C-599.1,457.1-584.6,455.8-572.9,454.1z" fill="none"/>
	</g>
</g>
<path class="st0 can-change" d="M-588.4,240.6c0-0.2,12.3,1.9,12.3,1.9c-45.7,27-78.9,0-78.9,0l9.6-1.8C-615.9,255.9-588.4,240.6-588.4,240.6z" fill="rgb(255, 255, 255)" data-fill-id="10"/>
<path class="st0 can-change" d="M-757.6,472.7c6.4,1.5,16.8,9.4,35.3,5.1c-1,7.6-1.8,13.1-1.8,13.3c-13.1,7.7-34.5-3.4-34.7-3.5  C-758.8,487.4-758.3,481.5-757.6,472.7z" fill="rgb(255, 255, 255)" data-fill-id="6"/>
<g>
	<g>
		<path id="SVGID_5_" class="st1 can-change" d="M-473.6,472.7c0.7,8.8,1.2,14.7,1.2,15c-0.2,0.1-21.6,11.2-34.7,3.5c0-0.2-0.8-5.7-1.8-13.3    C-490.4,482-479.9,474.2-473.6,472.7z" fill="rgb(255, 255, 255)" data-fill-id="8"/>
	</g>
	<g>
		<defs>
			<path id="SVGID_11_" d="M-473.6,472.7c0.7,8.8,1.2,14.7,1.2,15c-0.2,0.1-21.6,11.2-34.7,3.5c0-0.2-0.8-5.7-1.8-13.3     C-490.4,482-479.9,474.2-473.6,472.7z"/>
		</defs>
		<clipPath id="SVGID_12_">
			<use xlink:href="#SVGID_11_" style="overflow:visible;"/>
		</clipPath>
		<g class="st5 can-change" fill="rgb(0, 0, 0)">
			<path class="st0 can-change" d="M-472.6,479.5c0.7,8.9,1.2,14.8,1.2,15c-0.2,0.1-21.6,11.2-34.7,3.5c0-0.2-0.8-5.7-1.8-13.3     C-489.4,488.9-478.9,481.1-472.6,479.5z" fill="rgb(255, 255, 255)" data-fill-id="9"/>
		</g>
	</g>
	<g>
		<path id="SVGID_6_" class="st3" d="M-473.6,472.7c0.7,8.8,1.2,14.7,1.2,15c-0.2,0.1-21.6,11.2-34.7,3.5c0-0.2-0.8-5.7-1.8-13.3    C-490.4,482-479.9,474.2-473.6,472.7z" fill="none"/>
	</g>
</g>
<path class="st0 can-change" d="M-615.8,548.7l0.1-89.9" fill="rgb(255, 255, 255)"/>
<g class="cannot-edit"><path class="st6 cannot-edit can-change" d="M-615.7,457.1l0.2,91.6l-0.3,0c-1.2,0-3.5-1.2-3.5-1.2l0.4,15.6c0,0.1-0.6,11-1.8,19  c-48.8-19.6-38.1-126.9-38-128C-646.8,455.7-632.1,457.1-615.7,457.1z" style="fill: rgb(0, 0, 0);"/><path class="st6 cannot-edit can-change" d="M-615.9,457.1c16.4,0,31.1-1.3,43-3c0.1,1.1,10.8,108.4-38,128c-1.2-7.9-1.8-18.8-1.8-19l0.5-15.6  c0,0-2.3,1.1-3.5,1.2l-0.3,0L-615.9,457.1z" style="fill: rgb(0, 0, 0);"/></g>

<path class="st3" d="M-619.9,563.1c0,0-51.2-54.7-16.6-68.1c4.8-1.9,12.9,5,21.5,5c9.4,0,14.8-6.6,19.8-4.4  c32.2,14.4-16.1,67.6-16.1,67.6" fill="none"/>
<g class="human-logo">
	<path d="M-644.9,433.1l0.8-4.6h2.1l-0.2,1.3h1.5l0.2-1.3h3.7l-0.5,2.7c0,0,0,0.1,0,0.1h0.1h1.1c0.1,0,0.1,0,0.2,0   c0.1-0.1,0.1-0.2,0.1-0.2l0.4-2.5h4.1l0.7,1.9l1.3-1.9h2.5l-0.5,2.6l1.8-2.6h2.1l1,2.7l0.5-2.7h2.4l1.2,1.9l0.3-1.9h2.1l-0.8,4.6   h-2.4l-1.2-1.9l-0.3,1.9h-3.3l-0.2-0.7h-1.7l-0.5,0.7h-3.3l0.2-1.3l-0.9,1.3h-1.4l-0.5-1.4l-0.3,1.4h-2l0.1-0.5c0,0-0.1,0-0.1,0.1   c-0.4,0.3-1,0.4-1.5,0.4h-1.6c-0.4,0-0.9-0.1-1.3-0.3c-0.1-0.1-0.2-0.2-0.3-0.3l-0.1,0.6h-2.1l0.2-1.4h-1.5l-0.2,1.4H-644.9   L-644.9,433.1z"/>
	<polygon class="st1 can-change" points="-644.4,432.6 -643.7,428.9 -642.6,428.9 -642.8,430.2 -640.4,430.2 -640.2,428.9 -639,428.9    -639.7,432.6 -640.8,432.6 -640.6,431.2 -643,431.2 -643.2,432.6  " fill="rgb(255, 255, 255)"/>
	<path class="st1 can-change" d="M-639,431.3l0.4-2.4h1.1l-0.4,2.1c-0.1,0.5,0.1,0.7,0.5,0.7h1.1c0.5,0,0.7-0.2,0.8-0.7l0.4-2.1h1.1l-0.4,2.4   c-0.2,0.9-0.7,1.4-1.8,1.4h-1.6C-638.7,432.6-639.1,432.2-639,431.3" fill="rgb(255, 255, 255)"/>
	<polygon class="st1 can-change" points="-634,432.6 -633.3,428.9 -631.6,428.9 -630.7,431.3 -629,428.9 -627.2,428.9 -627.9,432.6 -629,432.6    -628.5,429.9 -628.5,429.9 -630.5,432.6 -631.4,432.6 -632.4,429.9 -632.4,429.9 -632.9,432.6  " fill="rgb(255, 255, 255)"/>
	<path class="st1 can-change" d="M-624.5,429.7l-1,1.4h1.5L-624.5,429.7z M-627.7,432.6l2.7-3.7h1.5l1.4,3.7h-1.3l-0.2-0.7h-2.3l-0.5,0.7   H-627.7z" fill="rgb(255, 255, 255)"/>
	<polygon class="st1 can-change" points="-622,432.6 -621.4,428.9 -619.6,428.9 -617.9,431.6 -617.9,431.6 -617.5,428.9 -616.3,428.9    -617,432.6 -618.7,432.6 -620.4,429.9 -620.4,429.9 -620.9,432.6  " fill="rgb(255, 255, 255)"/>
	<path d="M-615.6,431.6l0-0.2h1.1c-0.1,0.4,0.1,0.4,0.4,0.4h1.4c0.2,0,0.5,0,0.6-0.3c0.1-0.3-0.1-0.3-1.5-0.3   c-1.7,0-1.9-0.2-1.7-1.1c0.1-0.7,0.3-1.2,1.7-1.2h1.6c1.3,0,1.4,0.4,1.2,1.1l0,0.1h-1.1c0-0.3,0-0.4-0.5-0.4h-1.3   c-0.2,0-0.4,0.1-0.5,0.3c-0.1,0.3,0.1,0.3,1.3,0.3c1.8,0,2.2,0.1,2,1.2c-0.2,1-0.6,1.2-2.1,1.2h-1.4   C-615.4,432.6-615.7,432.4-615.6,431.6"/>
	<path d="M-609,429.8l-0.2,0.9h1.8c0.3,0,0.4-0.2,0.4-0.4l0-0.1c0-0.3-0.1-0.4-0.4-0.4L-609,429.8L-609,429.8z M-610.6,432.6   l0.7-3.7h3.1c1.1,0,1.3,0.5,1.1,1.3l-0.1,0.3c-0.1,0.5-0.5,1.2-1.3,1.2h-2.3l-0.2,0.9H-610.6z"/>
	<polygon points="-605.8,432.6 -605.1,428.9 -601.1,428.9 -601.2,429.7 -604.2,429.7 -604.3,430.3 -601.5,430.3 -601.6,431.1    -604.4,431.1 -604.5,431.7 -601.5,431.7 -601.7,432.6  "/>
	<polygon points="-601.2,432.6 -600.6,428.9 -596.5,428.9 -596.6,429.7 -599.6,429.7 -599.7,430.3 -596.9,430.3 -597,431.1    -599.8,431.1 -599.9,431.7 -596.9,431.7 -597.1,432.6  "/>
	<path d="M-595,429.8l-0.3,1.8h2c0.5,0,0.7-0.1,0.8-0.7l0.1-0.5c0.1-0.5-0.1-0.7-0.6-0.7H-595z M-596.6,432.6l0.7-3.7h3.4   c1.1,0,1.5,0.4,1.3,1.3l-0.2,1.1c-0.2,0.9-0.6,1.3-1.8,1.3L-596.6,432.6L-596.6,432.6z"/>
	<path d="M-589.5,428.2c-0.5,0-0.9,0.4-0.9,1c0,0.6,0.4,1,1,1c0.5,0,0.9-0.4,0.9-1C-588.5,428.6-589,428.2-589.5,428.2    M-589.5,427.9c0.7,0,1.2,0.6,1.2,1.2c0,0.7-0.6,1.2-1.2,1.2c-0.7,0-1.2-0.6-1.2-1.2C-590.7,428.5-590.2,427.9-589.5,427.9    M-589.7,428.7v0.4h0.1c0.2,0,0.3-0.1,0.3-0.2c0-0.1-0.1-0.2-0.3-0.2C-589.6,428.7-589.7,428.7-589.7,428.7 M-589.7,429.3v0.5h-0.2   v-1.2c0.1,0,0.2,0,0.4,0c0.2,0,0.3,0,0.4,0.1c0.1,0,0.1,0.1,0.1,0.3c0,0.1-0.1,0.2-0.3,0.3v0c0.1,0,0.2,0.1,0.2,0.3   c0,0.2,0.1,0.3,0.1,0.3h-0.3c-0.1-0.1-0.1-0.1-0.1-0.3c0-0.1-0.1-0.2-0.3-0.2L-589.7,429.3L-589.7,429.3z"/>
	<rect x="-644.9" y="427.9" class="st7" width="56.7" height="5.2" fill="none"/>
	<path d="M-610.8,433.9h0.3l-0.2,1.1h-0.3L-610.8,433.9z"/>
	<path d="M-609.7,433.9h0.5l0.5,0.8l0.2-0.8h0.3l-0.2,1.1h-0.5l-0.5-0.8l-0.2,0.8h-0.3L-609.7,433.9z"/>
	<path d="M-607.2,434.2h-0.5l0.1-0.3h1.3l-0.1,0.3h-0.5l-0.2,0.8h-0.3L-607.2,434.2z"/>
	<path d="M-604.5,433.9l-0.1,0.2h-0.9l0,0.2h0.8l0,0.2h-0.8l0,0.2h0.9l-0.1,0.2h-1.2l0.2-1.1L-604.5,433.9L-604.5,433.9z"/>
	<path d="M-603.8,433.9h0.3l-0.2,0.8h0.7l-0.1,0.3h-1.1L-603.8,433.9z"/>
	<path d="M-602,433.9h0.3l-0.2,0.8h0.7l-0.1,0.3h-1.1L-602,433.9z"/>
	<path d="M-600.3,433.9h0.3l-0.2,1.1h-0.3L-600.3,433.9z"/>
	<path d="M-598.3,434.3C-598.3,434.2-598.3,434.2-598.3,434.3c0-0.1,0-0.1,0-0.1c0,0,0,0-0.1,0l-0.1,0l-0.2,0c-0.1,0-0.2,0-0.2,0.1   c0,0.1-0.1,0.3-0.1,0.4c0,0.1,0.1,0.1,0.2,0.1c0,0,0.1,0,0.3,0c0.2,0,0.2,0,0.2-0.1c0,0,0,0,0-0.1h-0.4l0-0.2h0.7l0,0.1   c0,0.2,0,0.2-0.1,0.3c-0.1,0.1-0.2,0.2-0.3,0.2c0,0-0.2,0-0.4,0c-0.3,0-0.4,0-0.5-0.1c-0.1,0-0.1-0.1-0.1-0.2c0-0.1,0-0.2,0.1-0.4   c0.1-0.3,0.1-0.4,0.3-0.4c0.1,0,0.2,0,0.5,0c0.4,0,0.5,0,0.5,0.1c0.1,0,0.1,0.1,0.1,0.2c0,0,0,0.1,0,0.2L-598.3,434.3L-598.3,434.3   z"/>
	<path d="M-596,433.9l-0.1,0.2h-0.9l0,0.2h0.8l0,0.2h-0.8l0,0.2h0.9l-0.1,0.2h-1.2l0.2-1.1L-596,433.9L-596,433.9z"/>
	<path d="M-595.2,433.9h0.5l0.5,0.8l0.2-0.8h0.3l-0.2,1.1h-0.5l-0.5-0.8l-0.2,0.8h-0.3L-595.2,433.9z"/>
	<path d="M-592.7,434.2h-0.5l0.1-0.3h1.3l-0.1,0.3h-0.5l-0.2,0.8h-0.3L-592.7,434.2z"/>
	<g>
		<polygon class="st8 can-change" points="-616.2,434.6 -616.3,435 -615.1,435 -615,434.6   " fill="rgb(237, 28, 36)"/>
		<polygon class="st8 can-change" points="-611.4,434.3 -611.3,433.9 -614.5,433.9 -614.6,434.3   " fill="rgb(237, 28, 36)"/>
		<polygon class="st8 can-change" points="-614.9,433.9 -616.1,433.9 -616.1,434.3 -615,434.3   " fill="rgb(237, 28, 36)"/>
		<polygon class="st8 can-change" points="-614.8,435 -611.5,435 -611.5,434.6 -614.7,434.6   " fill="rgb(237, 28, 36)"/>
		<polygon class="st1 can-change" points="-614.6,434.3 -614.5,433.9 -614.9,433.9 -615,434.3 -616.1,434.3 -616.2,434.6 -615,434.6     -615.1,435 -614.8,435 -614.7,434.6 -611.5,434.6 -611.4,434.3   " fill="rgb(255, 255, 255)"/>
	</g>
</g>
<g id="Layer_1_2_">
</g>
</svg>