<svg xmlns="http://www.w3.org/2000/svg" xmlns:xlink="http://www.w3.org/1999/xlink" version="1.1" id="Layer_1" x="0px" y="0px" viewBox="0 0 295 414.424" style="enable-background:new 0 0 295 414.424;" xml:space="preserve" data-product="2017501" data-design="5" data-size="m">
<g>
	
		<path style="fill-rule:evenodd;clip-rule:evenodd;fill:#E6E7E8;stroke:#6D6E71;stroke-width:0.34;stroke-linecap:round;stroke-linejoin:round;stroke-miterlimit:10;" d="   M127.9,18.792c0,0,16.13-7.79,37.9-4.53c21.77,3.31,33.85,12.75,33.85,12.75s-8.79,8.62-33.85,8.62   C136.58,35.632,127.9,18.792,127.9,18.792z" class="cannot-edit can-change"/>
	
		<path style="fill-rule:evenodd;clip-rule:evenodd;fill:#FFFFFF;stroke:#6D6E71;stroke-width:0.34;stroke-linecap:round;stroke-linejoin:round;stroke-miterlimit:10;" d="   M122.69,35.942c3.68,4.17,5.64,4.91,10.4,7.32c-8.45,28.8-23.41,121.69-23.41,121.69c-1.99-2.64-5.84-15.08-5.36-23.81   c0.42-8.76,1.81-22.37,1.81-22.37C105.34,74.782,122.69,35.942,122.69,35.942z" data-fill-id="4" class="can-change"/>
	
		<path style="fill-rule:evenodd;clip-rule:evenodd;fill:#FFFFFF;stroke:#6D6E71;stroke-width:0.34;stroke-linecap:round;stroke-linejoin:round;stroke-miterlimit:10;" d="   M176.52,51.592c0,0,10.6,0.26,22.99-7.99c0,0,5.41,48.87-6.3,80.95c-11.7,32.12-31.55,53.49-36.31,85.84c0,0,5.41-33.74,7.37-41.36   c1.9-7.65,12.44-74.83,12.19-110.66L176.52,51.592z" data-fill-id="5" class="can-change"/>
	
		<path style="fill-rule:evenodd;clip-rule:evenodd;fill:#FFFFFF;stroke:#6D6E71;stroke-width:0.34;stroke-linecap:round;stroke-linejoin:round;stroke-miterlimit:10;" d="   M108.34,87.452l0.66,0.08c-1.45,10.12-2.56,20.81-2.87,31.24c-0.03,0.11-1.39,13.61-1.81,22.37c-0.48,8.73,3.37,21.17,5.36,23.81   c-0.68,12.75-0.66,63.75-0.66,64.26c0,0.57,2.44,59.13,3.8,89.32c1.48,30.07,0.03,74.55,0,75.03c-12.98-3.77-26.19-9.64-32.4-12.41   c-6.21-2.78-7.71-6.13-7.74-6.15c2.84-30.31,3.18-79.97,3.18-80.48c0-8.59-2.38-40.93-1.96-96.52   C74.41,142.502,108.03,87.992,108.34,87.452z" data-fill-id="1" class="can-change"/>
	
		<path style="overflow:visible;fill-rule:evenodd;clip-rule:evenodd;fill:#FFFFFF;" d="   M199.31,97.312c4.25,5.98,5.89,13.1,6.69,24.15c0.71,11.06-1.02,68.21-2.87,88.93c-1.92,20.72,1.39,69.62,1.39,76.73   c0,7.09,6.04,43.4,6.95,51.02c1.02,7.52,10.2,61.43,10.54,64.32c0.34,2.95-0.59,2.95-0.59,2.95c-16.27,7.71-38.89,3.86-61.74-0.4   c-0.09-1.1-6.24-111.91-6.72-138.1c-0.51-26.11,3.91-56.18,3.94-56.52c0.45-3.77,1.33-8.37,2.04-12.14   c-1.1,6.72-1.95,12-2.04,12.14c4.76-32.35,24.61-53.72,36.31-85.84C196.25,116.312,197.83,106.812,199.31,97.312z" data-fill-id="14" class="can-change"/>
	
		<path style="fill-rule:evenodd;clip-rule:evenodd;fill:#FFFFFF;stroke:#6D6E71;stroke-width:0.34;stroke-linecap:round;stroke-linejoin:round;stroke-miterlimit:10;" d="   M158.89,391.322l-3.86-73.75c18.17,0.85,49.55-3.75,51.93-4.26c2.41-0.54,2.55,0.51,2.55,0.51s11.09,71.29,11.4,72.71   c0.25,1.42-1,1.82-1,1.82C181.79,395.402,158.89,391.322,158.89,391.322z" data-fill-id="15" class="can-change"/>
	
		<path style="fill-rule:evenodd;clip-rule:evenodd;fill:none;stroke:#6D6E71;stroke-width:0.34;stroke-linecap:round;stroke-linejoin:round;stroke-miterlimit:10;" d="   M155.43,319.442c0,0,16.78,1.98,54-4.65"/>
	
		<path style="fill-rule:evenodd;clip-rule:evenodd;fill:none;stroke:#6D6E71;stroke-width:0.34;stroke-linecap:round;stroke-linejoin:round;stroke-miterlimit:10;" d="   M155.43,321.312c0,0,16.78,1.98,54-4.65"/>
	
		<path style="fill-rule:evenodd;clip-rule:evenodd;fill:#FFFFFF;stroke:#6D6E71;stroke-width:0.34;stroke-linecap:round;stroke-linejoin:round;stroke-miterlimit:10;" d="   M109.68,164.952l20.46,29.25l2.75,28.63c14.4-5.53,23.87-12.33,24.01-12.44c4.82,17.57,6.27,34.69,9.61,55.19   c9.52,58.08,16.21,122.85,17.26,143.46c-31.77-4.14-70.78-15.42-70.95-15.48c-12.53-3.8-27.95-10.17-28.12-10.23   C92.19,249.992,109.51,165.802,109.68,164.952z" data-fill-id="2" class="can-change"/>
	
		<path style="fill-rule:evenodd;clip-rule:evenodd;fill:#FFFFFF;stroke:#6D6E71;stroke-width:0.34;stroke-linecap:round;stroke-linejoin:round;stroke-miterlimit:10;" d="   M133.09,43.262c0,0,14.91,11.48,43.43,8.33c0,0,0.88,53.12-13.61,124.21l-2.35,14.63c0,0-2.7,11.94-3.66,19.96   c0,0-21.49,18.17-57.37,17.49c0,0,1.47-10.66,3.48-23.47c2.33-14.69,5.33-32.18,6.67-39.46c3.11-20.78,7.34-41.5,10.71-62.17   C124.3,79.092,128.16,61.452,133.09,43.262z" data-fill-id="3" class="can-change"/>
	
		<path style="fill-rule:evenodd;clip-rule:evenodd;fill:none;stroke:#000000;stroke-width:2.83;stroke-linecap:round;stroke-linejoin:round;stroke-miterlimit:10;" d="   M72.68,375.002c0,0,4.91,5.83,12.02,8.33c6.44,2.27,56.24,21.23,99.1,25.51"/>
	
		<path style="fill-rule:evenodd;clip-rule:evenodd;fill:none;stroke:#6D6E71;stroke-width:0.34;stroke-linecap:round;stroke-linejoin:round;stroke-miterlimit:10;" d="   M183.8,402.692c0,0,20.16,2.27,37.08-3.06"/>
	
		<path style="fill-rule:evenodd;clip-rule:evenodd;fill:none;stroke:#6D6E71;stroke-width:0.34;stroke-linecap:round;stroke-linejoin:round;stroke-miterlimit:10;" d="   M183.8,402.692c0,0,20.16,2.27,37.08-3.06"/>
	
		<path style="fill-rule:evenodd;clip-rule:evenodd;fill:none;stroke:#6D6E71;stroke-width:0.34;stroke-linecap:round;stroke-linejoin:round;stroke-miterlimit:10;" d="   M183.8,400.902c0,0,20.16,2.27,37.08-3.06"/>
	<g>
		<defs>
			<path id="SVGID_1_" d="M122.54,36.542l5.36-17.75c0,0,30.76,22.11,71.75,8.22v17.21c0,0-32.83,22.14-73.08-3.8L122.54,36.542z"/>
		</defs>
		<use xlink:href="#SVGID_1_" style="overflow:visible;fill-rule:evenodd;clip-rule:evenodd;fill:#FFFFFF;" data-fill-id="6" class="can-change"/>
		<clipPath id="SVGID_2_">
			<use xlink:href="#SVGID_1_" style="overflow:visible;"/>
		</clipPath>
		<g style="clip-path:url(#SVGID_2_);">
			<g>
				
					<path style="fill-rule:evenodd;clip-rule:evenodd;fill:#FFFFFF;stroke:#6D6E71;stroke-width:0.34;stroke-linecap:round;stroke-linejoin:round;stroke-miterlimit:10;" d="      M123.06,31.212l5.55-17.75c0,0,31.92,22.11,74.44,8.22v17.21c0,0-34.05,22.14-75.83-3.8L123.06,31.212z" data-fill-id="7" class="can-change"/>
				
					<path style="fill-rule:evenodd;clip-rule:evenodd;fill:#FFFFFF;stroke:#6D6E71;stroke-width:0.34;stroke-linecap:round;stroke-linejoin:round;stroke-miterlimit:10;" d="      M123.06,25.882l5.55-17.74c0,0,31.92,22.11,74.44,8.22v17.2c0,0-34.05,22.14-75.83-3.8L123.06,25.882z" data-fill-id="8" class="can-change"/>
				
					<path style="fill-rule:evenodd;clip-rule:evenodd;fill:#FFFFFF;stroke:#6D6E71;stroke-width:0.34;stroke-linecap:round;stroke-linejoin:round;stroke-miterlimit:10;" d="      M123.06,20.552l5.55-17.74c0,0,31.92,22.11,74.44,8.22v17.2c0,0-34.05,22.14-75.83-3.8L123.06,20.552z" data-fill-id="9" class="can-change"/>
			</g>
		</g>
		
			<use xlink:href="#SVGID_1_" style="overflow:visible;fill-rule:evenodd;clip-rule:evenodd;fill:none;stroke:#6D6E71;stroke-width:0.34;stroke-linecap:round;stroke-linejoin:round;stroke-miterlimit:10;"/>
	</g>
</g>
</svg>