<svg xmlns="http://www.w3.org/2000/svg" xmlns:xlink="http://www.w3.org/1999/xlink" version="1.1" id="Layer_1" x="0px" y="0px" viewBox="-798 214 211 464" style="enable-background:new -798 214 211 464;" xml:space="preserve" data-product="2017503" data-design="1" data-size="m">
<style type="text/css">
	.st0{fill:#EDEDED;stroke:#6D6E71;stroke-width:0.34;stroke-linecap:round;stroke-linejoin:round;stroke-miterlimit:10;}
	.st1{fill:#FFFFFF;stroke:#6D6E71;stroke-width:0.34;stroke-linecap:round;stroke-linejoin:round;stroke-miterlimit:10;}
	.st2{fill:#FFFFFF;}
	.st3{clip-path:url(#SVGID_2_);}
	.st4{fill:none;stroke:#6D6E71;stroke-width:0.34;stroke-linecap:round;stroke-linejoin:round;stroke-miterlimit:10;}
	.st5{clip-path:url(#SVGID_4_);}
</style>
<path class="st0 cannot-edit can-change" d="M-687.6,599c-1.1-7.8-1.6-17-1.6-17.2l0.5-16.1c-0.5,0.2-2.6,1.1-3.8,1.1h-0.2c-1.1,0-3.3-0.9-3.8-1.1l0.5,16.1  c0,0.1-0.6,9.7-1.7,17.6c0-0.1,0-0.3,0-0.4c-72.3-19.4-49-160.4-44.6-184.1c20.1-0.7,49.1-1.1,99,0.3  C-638.5,439.9-615.7,579.6-687.6,599z" style="fill: rgb(0, 0, 0);"/>
<path class="st1 can-change" d="M-596.8,588.2c0,0.1,0.3,8.8-0.7,20.3c-0.7,8-2.2,19-3.2,25.3c-0.1,0.4-0.1,0.8-0.2,1.2c0,0.3-0.1,0.7-0.1,1  c0,0.3-0.1,0.7-0.2,1c0,0.1,0,0.2,0,0.3c-0.1,0.5-0.1,0.9-0.2,1.4c0,0.2-0.1,0.5-0.1,0.8c0,0.3-0.1,0.6-0.1,0.9  c0,0.2-0.1,0.4-0.1,0.6c-0.3,2.1-0.6,4.4-1,6.7c-0.6,4-1.2,8.1-1.7,11.6c-0.2,0.2-21.7,19.6-74.8-1.3l-2-21.3c0-0.2-1.9-23-4.3-28.3  c-0.8-1.8-1.5-5.5-2-9.5c71.9-19.4,49.1-159.1,44.5-183.7c-49.9-1.4-78.9-1-99-0.3c-4.4,23.7-27.8,164.7,44.6,184.1  c0,0.1,0,0.3,0,0.4c0,0.2-0.1,0.4-0.1,0.7c0,0.3-0.1,0.6-0.1,1c0,0,0,0,0,0.1c-0.1,0.9-0.3,1.7-0.4,2.5c-0.2,1.1-0.4,2.1-0.7,3  c0,0.1-0.1,0.2-0.1,0.4c-0.2,0.6-0.3,1.1-0.5,1.5c-2.4,5.3-4.2,28.1-4.3,28.3l-2.1,21.3c-53.1,20.9-74.5,1.5-74.8,1.3  c-1.7-11.5-4.2-28.2-4.2-28.4l0.1,0c-1-6.4-2.1-15.6-2.7-22.6c-1-11.5-0.7-20.2-0.7-20.3c-1.4-42.6,9.1-87,11.5-96.8  c2.4-9.8,8.4-60.2,11.9-75.3v0c0.2-0.2,0.5-0.3,0.7-0.5c0.7-0.4,1.4-0.8,2-1.3c1.4-0.9,2.9-2,4.4-3.1c0.5-0.4,1-0.7,1.5-1.1  c0,0,0,0,0,0c0.4-0.3,0.9-0.7,1.3-1c0.6-0.5,1.2-0.9,1.8-1.4c0.5-0.4,1-0.8,1.6-1.3c0,0,0,0,0.1-0.1c1.1-0.9,2.1-1.8,3.2-2.8  c1.1-1,2.2-2,3.4-3c2.5-2.3,5-4.8,7.6-7.5c8.8-9.1,18.2-20.6,27.8-34.9l31.8,0.1c7,14.5,18.5,27.7,30.2,38  c6.6,5.8,13.2,10.7,19,14.4c1.7,1.1,3.3,2,4.8,2.9c0.3,0.2,0.6,0.3,0.9,0.5c0,0.2,0.1,0.4,0.2,0.7c0.1,0.4,0.2,0.8,0.3,1.3  c3.2,14.7,9.4,52.3,12.6,68.9c0,0,0,0.1,0,0.2c0.5,2.8,1,5,1.3,6.4C-606,501.1-595.4,545.5-596.8,588.2z" style="fill: rgb(255, 255, 255);"/>
<g>
	<g>
		<path class="st2 can-change" d="M-597,588.1c0,0.1,0.3,8.8-0.7,20.3c-0.6,7-1.8,16.2-2.7,22.6l0.1,0c0,0-0.2,1.6-0.6,4c0,0.3-0.1,0.7-0.1,1    c0,0.3-0.1,0.7-0.2,1c0,0.1,0,0.2,0,0.3c-0.1,0.5-0.1,0.9-0.2,1.4c0,0.2-0.1,0.5-0.1,0.8c0,0.3-0.1,0.6-0.1,0.9    c0,0.2-0.1,0.4-0.1,0.6c-0.3,2.1-0.7,4.4-1,6.7c-0.6,4-1.2,8.1-1.7,11.6c-0.2,0.2-21.7,19.6-74.8-1.3l-2.2-21.3    c0-0.2-1.9-23-4.2-28.3c-0.5-1.2-1-3.1-1.4-5.4c-0.2-1.2-0.4-2.6-0.6-4c0,0,0.1,0,0.1,0c71.9-19.4,49.1-159.1,44.5-183.7    c-0.4-2.3-0.7-3.5-0.7-3.7l-3.5-15.4l-0.7-2.9l-0.1-0.3c4.8,5.1,9.5,9.4,13.9,13c0.1,0,0.1,0.1,0.2,0.1c1.9,1.6,3.8,3.1,5.6,4.4    c2,1.5,4,2.9,5.8,4.1c0.7,0.5,1.4,0.9,2.1,1.3c3,12.9,7.9,51.8,10.7,68.8c0,0,0,0.1,0,0.2c0.5,2.8,0.9,5,1.2,6.3    C-606.1,501.1-595.6,545.5-597,588.1z" style="fill: rgb(255, 255, 255);" data-fill-id="6"/>
	</g>
	<g>
		<defs>
			<path id="SVGID_1_" d="M-643.8,411.6L-648,393c10.3,10.8,19.8,18.2,27.7,23c3.5,15.1,9.6,65.6,11.9,75.3     c2.3,9.8,12.8,54.2,11.5,96.8c0,0.1,0.3,8.8-0.7,20.3c-0.6,7-1.8,16.2-2.7,22.6l0.1,0c0,0.2-2.5,17-4.2,28.4     c-0.2,0.2-21.7,19.6-74.8-1.3l-2.2-21.3c0-0.2-1.9-23-4.2-28.3c-0.5-1.2-1-3.1-1.4-5.4c-0.2-1.2-0.4-2.6-0.6-4     C-609.1,578-643.5,413.3-643.8,411.6z"/>
		</defs>
		<clipPath id="SVGID_2_">
			<use xlink:href="#SVGID_1_" style="overflow:visible;"/>
		</clipPath>
		<g class="st3 can-change" style="fill: rgb(0, 0, 0);">
			<g>
				<path class="st1 can-change" d="M-587.8,622.2l-7.7,31.6c-27.9,23.1-93.5,0-93.5,0l-0.6-22.9l9.4,3.9c53.4,20.2,77.2,0.1,77.2,0.1      L-587.8,622.2z" style="fill: rgb(255, 255, 255);" data-fill-id="7"/>
				<path class="st1 can-change" d="M-587.7,628.2l-7.7,31.6c-27.9,23.1-93.5,0-93.5,0l-0.6-22.9l9.4,3.9c53.4,20.1,77.2,0.1,77.2,0.1      L-587.7,628.2z" style="fill: rgb(255, 255, 255);" data-fill-id="8"/>
				<path class="st1 can-change" d="M-587.5,634.3l-7.7,31.6c-27.9,23.1-93.5,0-93.5,0l-0.7-22.9l9.4,3.9c53.4,20.1,77.2,0.1,77.2,0.1      L-587.5,634.3z" style="fill: rgb(255, 255, 255);" data-fill-id="9"/>
				<path class="st1 can-change" d="M-587.4,640.4l-7.7,31.6c-27.9,23.1-93.5,0-93.5,0l-0.7-22.9l9.4,3.9c53.4,20.2,77.2,0.1,77.2,0.1      L-587.4,640.4z" style="fill: rgb(255, 255, 255);" data-fill-id="10"/>
			</g>
		</g>
	</g>
	<g>
		<path class="st4" d="M-597,588.1c0,0.1,0.3,8.8-0.7,20.3c-0.6,7-1.8,16.2-2.7,22.6l0.1,0c0,0-0.2,1.6-0.6,4c0,0.3-0.1,0.7-0.1,1    c0,0.3-0.1,0.7-0.2,1c0,0.1,0,0.2,0,0.3c-0.1,0.5-0.1,0.9-0.2,1.4c0,0.2-0.1,0.5-0.1,0.8c0,0.3-0.1,0.6-0.1,0.9    c0,0.2-0.1,0.4-0.1,0.6c-0.3,2.1-0.7,4.4-1,6.7c-0.6,4-1.2,8.1-1.7,11.6c-0.2,0.2-21.7,19.6-74.8-1.3l-2.2-21.3    c0-0.2-1.9-23-4.2-28.3c-0.5-1.2-1-3.1-1.4-5.4c-0.2-1.2-0.4-2.6-0.6-4c0,0,0.1,0,0.1,0c71.9-19.4,49.1-159.1,44.5-183.7    c-0.4-2.3-0.7-3.5-0.7-3.7l-3.5-15.4l-0.7-2.9l-0.1-0.3c4.8,5.1,9.5,9.4,13.9,13c0.1,0,0.1,0.1,0.2,0.1c1.9,1.6,3.8,3.1,5.6,4.4    c2,1.5,4,2.9,5.8,4.1c0.7,0.5,1.4,0.9,2.1,1.3c3,12.9,7.9,51.8,10.7,68.8c0,0,0,0.1,0,0.2c0.5,2.8,0.9,5,1.2,6.3    C-606.1,501.1-595.6,545.5-597,588.1z" style="fill: none;"/>
	</g>
</g>
<g>
	<g>
		<path class="st2 can-change" d="M-697.5,599.1c0,0.1,0,0.3,0,0.4c0,0.2-0.1,0.4-0.1,0.7c0,0.3-0.1,0.6-0.1,1c0,0,0,0,0,0.1    c-0.1,0.7-0.2,1.3-0.3,2c0,0.2-0.1,0.3-0.1,0.5c-0.2,1.1-0.4,2.1-0.7,3c0,0.1-0.1,0.2-0.1,0.4c-0.2,0.6-0.3,1.1-0.5,1.5    c-2.4,5.3-4.2,28.1-4.3,28.3l-2.1,21.3c-53.1,20.9-74.5,1.5-74.8,1.3c-1.7-11.5-4.2-28.2-4.2-28.4l0.1,0c-1-6.4-2.1-15.6-2.7-22.6    c-1-11.5-0.7-20.2-0.7-20.3c-1.4-42.6,9.1-87,11.5-96.8c2.4-9.8,8.4-60.2,11.9-75.3v0c0.2-0.2,0.5-0.3,0.7-0.5    c0.7-0.4,1.3-0.8,2-1.3c1.4-0.9,2.9-2,4.4-3.1c0.5-0.4,1-0.7,1.5-1.1c0,0,0,0,0,0c0.4-0.3,0.9-0.7,1.3-1c0.6-0.5,1.2-0.9,1.8-1.4    c0.5-0.4,1-0.8,1.6-1.3c0,0,0,0,0.1-0.1c1.1-0.9,2.1-1.8,3.2-2.8c1.1-1,2.2-2,3.4-3c2.5-2.3,5-4.8,7.6-7.5l-4.2,18.6    c0,0.1-0.3,1.3-0.7,3.4C-746.5,438.7-769.8,579.7-697.5,599.1z" style="fill: rgb(255, 255, 255);" data-fill-id="1"/>
	</g>
	<g>
		<defs>
			<path id="SVGID_3_" d="M-741.4,411.6c-0.3,1.7-34.7,166.4,43.9,187.4c-0.2,1.4-0.4,2.8-0.6,4c-0.4,2.3-0.9,4.2-1.4,5.4     c-2.4,5.3-4.2,28.1-4.3,28.3l-2.2,21.3c-53.1,21-74.5,1.5-74.8,1.3c-1.7-11.5-4.2-28.2-4.2-28.4l0.1,0c-1-6.4-2.1-15.6-2.7-22.6     c-1-11.5-0.7-20.2-0.7-20.3c-1.4-42.6,9.1-87,11.4-96.8c2.4-9.8,8.4-60.2,11.9-75.3c7.9-4.8,17.3-12.2,27.7-23L-741.4,411.6z"/>
		</defs>
		<clipPath id="SVGID_4_">
			<use xlink:href="#SVGID_3_" style="overflow:visible;"/>
		</clipPath>
		<g class="st5 can-change" style="fill: rgb(0, 0, 0);">
			<g>
				<path class="st1 can-change" d="M-798.3,622.2l15.2,12.7c0,0,23.7,20.1,77.2-0.1l9.4-3.9l-0.7,22.9c0,0-65.5,23.1-93.5,0L-798.3,622.2z" style="fill: rgb(255, 255, 255);" data-fill-id="2"/>
				<path class="st1 can-change" d="M-798.4,628.2l15.2,12.7c0,0,23.7,20.1,77.2-0.1l9.4-3.9l-0.7,22.9c0,0-65.5,23.1-93.5,0L-798.4,628.2z" style="fill: rgb(255, 255, 255);" data-fill-id="3"/>
				<path class="st1 can-change" d="M-798.6,634.3l15.2,12.7c0,0,23.7,20.1,77.2-0.1l9.4-3.9l-0.7,22.9c0,0-65.5,23.1-93.5,0L-798.6,634.3z" style="fill: rgb(255, 255, 255);" data-fill-id="4"/>
				<path class="st1 can-change" d="M-798.7,640.4l15.2,12.7c0,0,23.7,20.1,77.2-0.1l9.4-3.9l-0.6,22.9c0,0-65.5,23.1-93.5,0L-798.7,640.4z" style="fill: rgb(255, 255, 255);" data-fill-id="5"/>
			</g>
		</g>
	</g>
	<g>
		<path class="st4" d="M-697.5,599.1c0,0.1,0,0.3,0,0.4c0,0.2-0.1,0.4-0.1,0.7c0,0.3-0.1,0.6-0.1,1c0,0,0,0,0,0.1    c-0.1,0.7-0.2,1.3-0.3,2c0,0.2-0.1,0.3-0.1,0.5c-0.2,1.1-0.4,2.1-0.7,3c0,0.1-0.1,0.2-0.1,0.4c-0.2,0.6-0.3,1.1-0.5,1.5    c-2.4,5.3-4.2,28.1-4.3,28.3l-2.1,21.3c-53.1,20.9-74.5,1.5-74.8,1.3c-1.7-11.5-4.2-28.2-4.2-28.4l0.1,0c-1-6.4-2.1-15.6-2.7-22.6    c-1-11.5-0.7-20.2-0.7-20.3c-1.4-42.6,9.1-87,11.5-96.8c2.4-9.8,8.4-60.2,11.9-75.3v0c0.2-0.2,0.5-0.3,0.7-0.5    c0.7-0.4,1.3-0.8,2-1.3c1.4-0.9,2.9-2,4.4-3.1c0.5-0.4,1-0.7,1.5-1.1c0,0,0,0,0,0c0.4-0.3,0.9-0.7,1.3-1c0.6-0.5,1.2-0.9,1.8-1.4    c0.5-0.4,1-0.8,1.6-1.3c0,0,0,0,0.1-0.1c1.1-0.9,2.1-1.8,3.2-2.8c1.1-1,2.2-2,3.4-3c2.5-2.3,5-4.8,7.6-7.5l-4.2,18.6    c0,0.1-0.3,1.3-0.7,3.4C-746.5,438.7-769.8,579.7-697.5,599.1z" style="fill: none;"/>
	</g>
</g>
<path class="st0 cannot-edit can-change" d="M-632.7,230.6c0,0-15.2,60.1,3.3,181l-24.9-12.6c0,0-10.5-135.7,5.1-174.8L-632.7,230.6z" style="fill: rgb(0, 0, 0);"/>
<path class="st0 cannot-edit can-change" d="M-752.3,230.6l16.6-6.5c15.5,39.2,5.1,174.8,5.1,174.8l-24.9,12.6C-737.1,290.7-752.3,230.6-752.3,230.6z" style="fill: rgb(0, 0, 0);"/>
<path class="st1 can-change" d="M-692.4,566.9l-1.3-208.8" style="fill: rgb(255, 255, 255);"/>
<path class="st4" d="M-697.4,581.1c0,0-65.5-51.5-8.3-70.3c3.3-1,8.7-2.2,12.8-2.2" style="fill: none;"/>
<path class="st4" d="M-687.2,581.1c0,0,66.5-52.4,6.9-70.7c-3-0.9-8.2-1.9-12.7-1.8" style="fill: none;"/>
<path class="st0 cannot-edit can-change" d="M-677.5,358.1h-31.8c0.1-0.7,5.4-69.1-43-127.5l16.6-6.5c0.4,0.6,38.7,40.5,41.6,88.3  c3.1-47.8,43.5-87.7,43.9-88.3l17.5,6.5C-683.7,289-677.5,357.4-677.5,358.1z" style="fill: rgb(0, 0, 0);"/>
<path class="st0 cannot-edit can-change" d="M-620.4,416c-0.6,0-1.2,0-1.8-0.1c-7.3-0.2-14.3-0.5-20.8-0.6c-49.9-1.4-78.9-1-99-0.3c-9,0.3-16.2,0.7-22.8,1  v0c0.2-0.2,0.5-0.3,0.7-0.5c14.6-9.2,39.3-34.9,54.8-69.5l31.8,0.1c3.9,16.2,16.5,33.7,29.5,47.1c4.7,4.8,9.4,9.2,13.8,12.7  c0.1,0,0.1,0.1,0.2,0.1c3.8,3,7.4,5.5,10.4,7.3c0.3,0.2,0.6,0.3,0.9,0.5C-622.5,414.6-620.6,415.2-620.4,416z" style="fill: rgb(0, 0, 0);"/>
<path class="st0 cannot-edit can-change" d="M-706.4,376h25.4v38.4h-25.4V376z" style="fill: rgb(0, 0, 0);"/>
<path class="st0 cannot-edit can-change" d="M-706.4,376h25.4v6.9h-25.4V376z" style="fill: rgb(0, 0, 0);"/>
<path class="st0 cannot-edit can-change" d="M-706.4,376h25.4v4.9h-25.4V376z" style="fill: rgb(0, 0, 0);"/>
</svg>