<svg xmlns="http://www.w3.org/2000/svg" xmlns:xlink="http://www.w3.org/1999/xlink" version="1.1" id="Layer_1" x="0px" y="0px" viewBox="-765 229.8 275.5 432.2" style="enable-background:new -765 229.8 275.5 432.2;" xml:space="preserve" data-product="2017513" data-design="4" data-size="m">
<style type="text/css">
	.st0{fill:#FFFFFF;stroke:#6D6E71;stroke-width:0.34;stroke-linecap:round;stroke-linejoin:round;stroke-miterlimit:10;}
	.st1{fill:#FFFFFF;}
	.st2{clip-path:url(#SVGID_8_);}
	.st3{fill:#FFFFFF;stroke:#6D6E71;stroke-width:0.28;stroke-linecap:round;stroke-linejoin:round;stroke-miterlimit:10;}
	.st4{fill:none;stroke:#6D6E71;stroke-width:0.34;stroke-linecap:round;stroke-linejoin:round;stroke-miterlimit:10;}
	.st5{clip-path:url(#SVGID_10_);}
	.st6{fill:#EDEDED;stroke:#6D6E71;stroke-width:0.34;stroke-linecap:round;stroke-linejoin:round;stroke-miterlimit:10;}
	.st7{clip-path:url(#SVGID_12_);}
	.st8{fill:none;}
	.st9{fill:#ED1C24;}
</style>
<path class="st0 can-change" d="M-667.9,231.9c4.9,3.1,3.9,2.6,8.6,5.2c-15.3,8.2-10.7,70.6-17.7,81.1c-11.7,16-26.4,9.1-26.3,9.5  c0,0.1-6.9,13.6-8.1,17.3c-1.4,4.5-12.6,25.2-14.7,29.6c-20,7.2-34.4-7.3-36.6-10.9c0-0.3-0.1-19.7,9.2-59.3c2-9.4,4.6-17.6,7-23.6  c4.3-10.6,8.3-15.2,8.4-15.2c3.8-4,23.4-13.9,45.9-22.5C-684.3,240-676.3,235.6-667.9,231.9z" fill="rgb(255, 255, 255)" data-fill-id="5"></path>
<path class="st0 can-change" d="M-587.8,231.9c8.3,3.7,16.3,8.1,24.3,11.1c22.5,8.6,42.1,18.5,45.9,22.5c0.1,0,4.1,4.6,8.4,15.2  c2.4,6,5.1,14.2,7.1,23.6c9.3,39.6,8.7,57.5,8.7,57.7c-2.1,3.6-17.1,15.2-37.2,8.1c-2.1-4.4-12.2-20.6-13.6-25.1  c-1.2-3.7-8.1-17.2-8.1-17.3c0.1-0.4-14.7,6.5-26.3-9.5c-7-10.5-2.4-72.8-17.7-81.1C-591.7,234.5-592.7,235-587.8,231.9z" fill="rgb(255, 255, 255)" data-fill-id="7"></path>
<g>
	<g>
		<path id="SVGID_1_" class="st1 can-change" d="M-587.8,231.9c0.2,0,19.2,8.3,28.1,12.3c-3.9,20.1-6.1,34.6-4.1,59.7    c1.1,14.7,9.8,24.6,17.9,30.3c-1.5,5-5.1,29.7-5.6,39.3c-1.2,14.9-3.7,25.4-2.6,67c-22.8,8.4-50,11.1-74.1,11.1    c-24.2,0-53-2.5-75.8-11c1-41.7-2.3-51.2-2.1-65.7c-0.4-9.7-4.1-34.4-5.6-39.3c8.1-5.7,18.8-17.1,19.9-31.8    c1.9-25.1-0.3-39.6-4.1-59.7c8.8-4,27.9-12.3,28.1-12.3c12.7,11.2,34.4,10.4,38.2,10.5h0.8h0.7    C-620.1,242.3-598.8,241.5-587.8,231.9z" fill="rgb(255, 255, 255)" data-fill-id="11"></path>
	</g>
	<g>
		<defs>
			<path id="SVGID_7_" d="M-587.8,231.9c0.2,0,19.2,8.3,28.1,12.3c-3.9,20.1-6.1,34.6-4.1,59.7c1.1,14.7,9.8,24.6,17.9,30.3     c-1.5,5-5.1,29.7-5.6,39.3c-1.2,14.9-3.7,25.4-2.6,67c-22.8,8.4-50,11.1-74.1,11.1c-24.2,0-53-2.5-75.8-11     c1-41.7-2.3-51.2-2.1-65.7c-0.4-9.7-4.1-34.4-5.6-39.3c8.1-5.7,18.8-17.1,19.9-31.8c1.9-25.1-0.3-39.6-4.1-59.7     c8.8-4,27.9-12.3,28.1-12.3c12.7,11.2,34.4,10.4,38.2,10.5h0.8h0.7C-620.1,242.3-598.8,241.5-587.8,231.9z"></path>
		</defs>
		<clipPath id="SVGID_8_">
			<use xlink:href="#SVGID_7_" style="overflow:visible;"></use>
		</clipPath>
		<g class="st2 can-change" fill="rgb(0, 0, 0)">
			<g>
				<path class="st3 can-change" d="M-623.9,332.6h8.1v329.3h-8.1V332.6z" fill="rgb(255, 255, 255)"></path>
				<path class="st3 can-change" d="M-632,332.6h8.1v329.3h-8.1V332.6z" fill="rgb(255, 255, 255)"></path>
				<path class="st3 can-change" d="M-640.1,332.6h8.1v329.3h-8.1V332.6z" fill="rgb(255, 255, 255)"></path>
			</g>
		</g>
	</g>
	<g>
		<path id="SVGID_2_" class="st4" d="M-587.8,231.9c0.2,0,19.2,8.3,28.1,12.3c-3.9,20.1-6.1,34.6-4.1,59.7    c1.1,14.7,9.8,24.6,17.9,30.3c-1.5,5-5.1,29.7-5.6,39.3c-1.2,14.9-3.7,25.4-2.6,67c-22.8,8.4-50,11.1-74.1,11.1    c-24.2,0-53-2.5-75.8-11c1-41.7-2.3-51.2-2.1-65.7c-0.4-9.7-4.1-34.4-5.6-39.3c8.1-5.7,18.8-17.1,19.9-31.8    c1.9-25.1-0.3-39.6-4.1-59.7c8.8-4,27.9-12.3,28.1-12.3c12.7,11.2,34.4,10.4,38.2,10.5h0.8h0.7    C-620.1,242.3-598.8,241.5-587.8,231.9z" fill="none"></path>
	</g>
</g>
<g>
	<g>
		<path id="SVGID_3_" class="st1 can-change" d="M-584.5,446.9c-0.2-4.6-0.7-18.1-1.6-47.2c-1.1-37.2,23.2-57,27.7-61c2.7-2.4,4.6-7.2,5.7-10.7    c2.1,2.1,4.4,4,6.8,6.1c-1.5,5-5.5,29.6-5.9,39.3c0.3,14.4-3.4,25.4-2.3,67.1c0.7,3,1.6,6.4,2.4,10.3c3.2,14.8,3.4,18.2,5.6,27.8    c2.1,9.6,7.5,43.4,6.2,85.3c0,0.1,0.3,8.6-0.7,19.9c-0.8,10.3-2.8,25.4-3.7,28.9c-0.8,5.4-1.9,12.2-2.7,17.6    c-0.1,0.1-6.2,5.9-20,7.6l-0.1,0c-11,1.3-27,0-48.6-9l-2-17.3c0-0.2-1.7-22.6-3.9-27.8c-2.2-5.2-3.4-26-3.4-26.2l0.5-15.9    c0,0-2.4,1.2-3.6,1.2c-1.3,0-3.6-1.2-3.6-1.2l0.5,15.9c0,0.2-1.1,21-3.4,26.2c-2.1,5.2-3.8,27.6-3.9,27.8l-1.9,17.3    c-23.3,9.7-40,10.5-51.1,8.6c-12.1-2-17.5-7.2-17.6-7.3c-0.8-5.4-1.8-12.2-2.7-17.6c-0.9-3.5-2.8-18.6-3.7-28.9    c-1-11.3-0.7-19.8-0.7-19.9c-0.7-23.1-0.4-43.1,0.6-58.4c0.6-11.2,1.6-19.3,2.5-23.5c2.2-9.6,3.3-16.5,6.5-31.3    c0.8-3.9,1.7-7.4,2.4-10.4c1-41.4-2.4-50.9-2.1-65.4c-0.4-9.7-4.1-34.4-5.6-39.3c2.4-2.1,6.3-5.5,8.4-7.7c1,3.5,3,8.3,5.7,10.7    c4.5,4,28.8,23.7,27.7,61c-0.9,29-1.4,42.5-1.6,47.2c12.1,1.7,27,3.1,43.7,3.1C-611.1,449.9-596.4,448.6-584.5,446.9z" fill="rgb(255, 255, 255)" data-fill-id="1"></path>
	</g>
	<g>
		<defs>
			<path id="SVGID_9_" d="M-584.5,446.9c-0.2-4.6-0.7-18.1-1.6-47.2c-1.1-37.2,23.2-57,27.7-61c2.7-2.4,4.6-7.2,5.7-10.7     c2.1,2.1,4.4,4,6.8,6.1c-1.5,5-5.5,29.6-5.9,39.3c0.3,14.4-3.4,25.4-2.3,67.1c0.7,3,1.6,6.4,2.4,10.3c3.2,14.8,3.4,18.2,5.6,27.8     c2.1,9.6,7.5,43.4,6.2,85.3c0,0.1,0.3,8.6-0.7,19.9c-0.8,10.3-2.8,25.4-3.7,28.9c-0.8,5.4-1.9,12.2-2.7,17.6     c-0.1,0.1-6.2,5.9-20,7.6l-0.1,0c-11,1.3-27,0-48.6-9l-2-17.3c0-0.2-1.7-22.6-3.9-27.8c-2.2-5.2-3.4-26-3.4-26.2l0.5-15.9     c0,0-2.4,1.2-3.6,1.2c-1.3,0-3.6-1.2-3.6-1.2l0.5,15.9c0,0.2-1.1,21-3.4,26.2c-2.1,5.2-3.8,27.6-3.9,27.8l-1.9,17.3     c-23.3,9.7-40,10.5-51.1,8.6c-12.1-2-17.5-7.2-17.6-7.3c-0.8-5.4-1.8-12.2-2.7-17.6c-0.9-3.5-2.8-18.6-3.7-28.9     c-1-11.3-0.7-19.8-0.7-19.9c-0.7-23.1-0.4-43.1,0.6-58.4c0.6-11.2,1.6-19.3,2.5-23.5c2.2-9.6,3.3-16.5,6.5-31.3     c0.8-3.9,1.7-7.4,2.4-10.4c1-41.4-2.4-50.9-2.1-65.4c-0.4-9.7-4.1-34.4-5.6-39.3c2.4-2.1,6.3-5.5,8.4-7.7c1,3.5,3,8.3,5.7,10.7     c4.5,4,28.8,23.7,27.7,61c-0.9,29-1.4,42.5-1.6,47.2c12.1,1.7,27,3.1,43.7,3.1C-611.1,449.9-596.4,448.6-584.5,446.9z"></path>
		</defs>
		<clipPath id="SVGID_10_">
			<use xlink:href="#SVGID_9_" style="overflow:visible;"></use>
		</clipPath>
		<g class="st5 can-change" fill="rgb(0, 0, 0)">
			<g>
				<path class="st0 can-change" d="M-726.3,594.3l14.4,12c0,0,22.4,18.9,72.8-0.1l8.9-3.7l-0.6,21.6c0,0-61.8,21.8-88.2,0L-726.3,594.3z" fill="rgb(255, 255, 255)" data-fill-id="2"></path>
				<path class="st0 can-change" d="M-726.5,605.8l14.4,12c0,0,22.4,18.9,72.8-0.1l8.9-3.7l-0.6,21.6c0,0-61.8,21.7-88.2,0L-726.5,605.8z" fill="rgb(255, 255, 255)" data-fill-id="3"></path>
			</g>
		</g>
	</g>
	<g>
		<path id="SVGID_4_" class="st4" d="M-584.5,446.9c-0.2-4.6-0.7-18.1-1.6-47.2c-1.1-37.2,23.2-57,27.7-61c2.7-2.4,4.6-7.2,5.7-10.7    c2.1,2.1,4.4,4,6.8,6.1c-1.5,5-5.5,29.6-5.9,39.3c0.3,14.4-3.4,25.4-2.3,67.1c0.7,3,1.6,6.4,2.4,10.3c3.2,14.8,3.4,18.2,5.6,27.8    c2.1,9.6,7.5,43.4,6.2,85.3c0,0.1,0.3,8.6-0.7,19.9c-0.8,10.3-2.8,25.4-3.7,28.9c-0.8,5.4-1.9,12.2-2.7,17.6    c-0.1,0.1-6.2,5.9-20,7.6l-0.1,0c-11,1.3-27,0-48.6-9l-2-17.3c0-0.2-1.7-22.6-3.9-27.8c-2.2-5.2-3.4-26-3.4-26.2l0.5-15.9    c0,0-2.4,1.2-3.6,1.2c-1.3,0-3.6-1.2-3.6-1.2l0.5,15.9c0,0.2-1.1,21-3.4,26.2c-2.1,5.2-3.8,27.6-3.9,27.8l-1.9,17.3    c-23.3,9.7-40,10.5-51.1,8.6c-12.1-2-17.5-7.2-17.6-7.3c-0.8-5.4-1.8-12.2-2.7-17.6c-0.9-3.5-2.8-18.6-3.7-28.9    c-1-11.3-0.7-19.8-0.7-19.9c-0.7-23.1-0.4-43.1,0.6-58.4c0.6-11.2,1.6-19.3,2.5-23.5c2.2-9.6,3.3-16.5,6.5-31.3    c0.8-3.9,1.7-7.4,2.4-10.4c1-41.4-2.4-50.9-2.1-65.4c-0.4-9.7-4.1-34.4-5.6-39.3c2.4-2.1,6.3-5.5,8.4-7.7c1,3.5,3,8.3,5.7,10.7    c4.5,4,28.8,23.7,27.7,61c-0.9,29-1.4,42.5-1.6,47.2c12.1,1.7,27,3.1,43.7,3.1C-611.1,449.9-596.4,448.6-584.5,446.9z" fill="none"></path>
	</g>
</g>
<path class="st0 can-change" d="M-670.2,402.7c4.7-1.1,40.1-8.9,84.1-0.4c0.9,24.3,2.5,42,2.7,44.6h-1.1c-11.9,1.6-26.6,3-43.5,3  c-16.7,0-32.7-1.3-44.8-3C-672.6,444.3-671,426.7-670.2,402.7z" fill="rgb(255, 255, 255)" data-fill-id="13"></path>
<path class="st0 can-change" d="M-585.9,404.8c-38.6-8.3-73.6-1.9-84.3,0.5c0.1-1.1,0.1-2.1,0.1-3.3c4.7-1.4,40.1-10.7,84.1-0.5  C-586,402.7-586,403.8-585.9,404.8z" fill="rgb(255, 255, 255)" data-fill-id="12"></path>
<path class="st0 can-change" d="M-600.3,229.9c0-0.2,12.5,2,12.5,2c-46.4,27.4-80.2,0-80.2,0l9.8-1.8C-628.1,245.5-600.3,229.9-600.3,229.9z" fill="rgb(255, 255, 255)" data-fill-id="14"></path>
<path class="st0 can-change" d="M-628.1,543l0.1-140.4" fill="rgb(255, 255, 255)"></path>
<g class="cannot-edit"><path class="st6 cannot-edit can-change" d="M-628,449.9l0.2,93.1l-0.3,0c-1.3,0-3.6-1.2-3.6-1.2l0.5,15.9c0,0.1-0.6,11.2-1.8,19.3  c-49.5-20-38.8-128.9-38.6-130.1C-659.6,448.5-644.7,449.9-628,449.9z" style="fill: rgb(0, 0, 0);"></path><path class="st6 cannot-edit can-change" d="M-628.2,450c16.7,0,31.6-1.4,43.7-3.1c0.1,1.1,10.9,110.1-38.6,130.1c-1.2-8-1.8-19.1-1.8-19.3l0.5-15.9  c0,0-2.4,1.1-3.6,1.2l-0.4,0L-628.2,450z" style="fill: rgb(0, 0, 0);"></path></g>

<path class="st4 cannot-edit" d="M-631.2,557.7c0,0-37.3-33.1-12.1-41.2c3.5-1.1,9.4,3,15.6,3c6.8,0,10.8-4,14.4-2.7  c23.5,8.7-11.7,40.9-11.7,40.9" fill="none"></path>
<path class="st0 can-change" d="M-763,363l1.7,2.6c16.9,16.5,35.1,9,35.1,9l-5.2,15.5c-21.1,5.3-33.4-10.1-33.4-10.1L-763,363z" fill="rgb(255, 255, 255)" data-fill-id="6"></path>
<g>
	<g>
		<path id="SVGID_5_" class="st1 can-change" d="M-493.5,358.5l1.9,17c0,0-12.4,15.4-33.9,10.1l-5.2-15.5c0,0,18.4,7.4,35.5-9.1L-493.5,358.5z" fill="rgb(255, 255, 255)" data-fill-id="8"></path>
	</g>
	<g>
		<defs>
			<path id="SVGID_11_" d="M-493.5,358.5l1.9,17c0,0-12.4,15.4-33.9,10.1l-5.2-15.5c0,0,18.4,7.4,35.5-9.1L-493.5,358.5z"></path>
		</defs>
		<clipPath id="SVGID_12_">
			<use xlink:href="#SVGID_11_" style="overflow:visible;"></use>
		</clipPath>
		<g class="st7 can-change" fill="rgb(0, 0, 0)">
			<path class="st0 can-change" d="M-491.5,365.8l1.9,16.9c0,0-12.4,15.4-33.9,10.1l-5.2-15.5c0,0,18.4,7.4,35.5-9.1L-491.5,365.8z" fill="rgb(255, 255, 255)" data-fill-id="9"></path>
		</g>
	</g>
	<g>
		<path id="SVGID_6_" class="st4" d="M-493.5,358.5l1.9,17c0,0-12.4,15.4-33.9,10.1l-5.2-15.5c0,0,18.4,7.4,35.5-9.1L-493.5,358.5z" fill="none"></path>
	</g>
</g>
<g class="human-logo">
	<path d="M-656.4,425.8l0.8-4.6h2.1l-0.2,1.3h1.5l0.2-1.3h3.7l-0.5,2.7c0,0,0,0.1,0,0.1h0.1h1.1c0.1,0,0.1,0,0.2,0   c0.1-0.1,0.1-0.2,0.1-0.2l0.4-2.5h4.1l0.7,1.9l1.3-1.9h2.5l-0.5,2.6l1.8-2.6h2.1l1,2.7l0.5-2.7h2.4l1.2,1.9l0.3-1.9h2.1l-0.8,4.6   h-2.4l-1.2-1.9l-0.3,1.9h-3.3l-0.2-0.7h-1.7l-0.5,0.7h-3.3l0.2-1.3l-0.9,1.3h-1.4l-0.5-1.4l-0.3,1.4h-2l0.1-0.5c0,0-0.1,0-0.1,0.1   c-0.4,0.3-1,0.4-1.5,0.4h-1.6c-0.4,0-0.9-0.1-1.3-0.3c-0.1-0.1-0.2-0.2-0.3-0.3l-0.1,0.6h-2.1l0.2-1.4h-1.5l-0.2,1.4H-656.4   L-656.4,425.8z"></path>
	<polygon class="st1 can-change" points="-655.8,425.3 -655.2,421.6 -654,421.6 -654.3,422.9 -651.8,422.9 -651.6,421.6 -650.5,421.6    -651.1,425.3 -652.3,425.3 -652,423.9 -654.4,423.9 -654.7,425.3  " fill="rgb(255, 255, 255)"></polygon>
	<path class="st1 can-change" d="M-650.4,424l0.4-2.4h1.1l-0.4,2.1c-0.1,0.5,0.1,0.7,0.5,0.7h1.1c0.5,0,0.7-0.2,0.8-0.7l0.4-2.1h1.1l-0.4,2.4   c-0.2,0.9-0.7,1.4-1.8,1.4h-1.6C-650.1,425.3-650.5,424.9-650.4,424" fill="rgb(255, 255, 255)"></path>
	<polygon class="st1 can-change" points="-645.4,425.3 -644.7,421.6 -643,421.6 -642.1,424 -640.4,421.6 -638.7,421.6 -639.3,425.3    -640.4,425.3 -640,422.6 -640,422.6 -641.9,425.3 -642.8,425.3 -643.8,422.6 -643.8,422.6 -644.3,425.3  " fill="rgb(255, 255, 255)"></polygon>
	<path class="st1 can-change" d="M-635.9,422.4l-1,1.4h1.5L-635.9,422.4z M-639.2,425.3l2.7-3.7h1.5l1.4,3.7h-1.3l-0.2-0.7h-2.3l-0.5,0.7   H-639.2z" fill="rgb(255, 255, 255)"></path>
	<polygon class="st1 can-change" points="-633.5,425.3 -632.8,421.6 -631,421.6 -629.4,424.3 -629.4,424.3 -628.9,421.6 -627.7,421.6    -628.4,425.3 -630.2,425.3 -631.8,422.6 -631.8,422.6 -632.3,425.3  " fill="rgb(255, 255, 255)"></polygon>
	<path d="M-627,424.3l0-0.2h1.1c-0.1,0.4,0.1,0.4,0.4,0.4h1.4c0.2,0,0.5,0,0.5-0.3c0.1-0.3-0.1-0.3-1.5-0.3c-1.7,0-1.9-0.2-1.7-1.1   c0.1-0.7,0.3-1.2,1.7-1.2h1.6c1.3,0,1.4,0.4,1.2,1.1l0,0.1h-1.1c0-0.3,0-0.4-0.5-0.4h-1.3c-0.2,0-0.4,0.1-0.5,0.3   c-0.1,0.3,0.1,0.3,1.3,0.3c1.8,0,2.2,0.1,2,1.2c-0.2,1-0.6,1.2-2.1,1.2h-1.4C-626.8,425.3-627.2,425.1-627,424.3"></path>
	<path d="M-620.4,422.5l-0.2,0.9h1.8c0.3,0,0.4-0.2,0.4-0.4l0-0.1c0-0.3-0.1-0.4-0.4-0.4L-620.4,422.5L-620.4,422.5z M-622.1,425.3   l0.7-3.7h3.1c1.1,0,1.3,0.5,1.1,1.3l-0.1,0.3c-0.1,0.6-0.5,1.2-1.3,1.2h-2.3l-0.2,0.9H-622.1z"></path>
	<polygon points="-617.2,425.3 -616.6,421.6 -612.5,421.6 -612.7,422.4 -615.6,422.4 -615.7,423 -612.9,423 -613.1,423.8    -615.8,423.8 -615.9,424.4 -612.9,424.4 -613.1,425.3  "></polygon>
	<polygon points="-612.7,425.3 -612,421.6 -607.9,421.6 -608.1,422.4 -611,422.4 -611.1,423 -608.3,423 -608.5,423.8 -611.2,423.8    -611.4,424.4 -608.4,424.4 -608.5,425.3  "></polygon>
	<path d="M-606.4,422.5l-0.3,1.8h2c0.5,0,0.7-0.1,0.8-0.7l0.1-0.5c0.1-0.5-0.1-0.7-0.6-0.7H-606.4z M-608,425.3l0.7-3.7h3.4   c1.1,0,1.5,0.4,1.3,1.3l-0.2,1.1c-0.2,0.9-0.6,1.3-1.8,1.3L-608,425.3L-608,425.3z"></path>
	<path d="M-600.9,420.9c-0.5,0-0.9,0.4-0.9,1c0,0.6,0.4,1,1,1c0.5,0,0.9-0.4,0.9-1C-600,421.3-600.4,420.9-600.9,420.9    M-600.9,420.6c0.7,0,1.2,0.6,1.2,1.2c0,0.7-0.5,1.2-1.2,1.2s-1.2-0.6-1.2-1.2C-602.2,421.2-601.6,420.6-600.9,420.6 M-601.1,421.4   v0.4h0.1c0.2,0,0.3-0.1,0.3-0.2c0-0.1-0.1-0.2-0.3-0.2C-601,421.4-601.1,421.4-601.1,421.4 M-601.1,422v0.5h-0.2v-1.2   c0.1,0,0.2,0,0.4,0c0.2,0,0.3,0,0.4,0.1c0.1,0,0.1,0.1,0.1,0.3c0,0.1-0.1,0.2-0.3,0.3v0c0.1,0,0.2,0.1,0.2,0.3   c0,0.2,0.1,0.3,0.1,0.3h-0.3c-0.1-0.1-0.1-0.1-0.1-0.3c0-0.1-0.1-0.2-0.3-0.2L-601.1,422L-601.1,422z"></path>
	<rect x="-656.4" y="420.6" class="st8" width="56.7" height="5.2" fill="none"></rect>
	<path d="M-622.2,426.6h0.3l-0.2,1.1h-0.3L-622.2,426.6z"></path>
	<path d="M-621.2,426.6h0.5l0.5,0.8l0.2-0.8h0.3l-0.2,1.1h-0.5l-0.5-0.8l-0.2,0.8h-0.3L-621.2,426.6z"></path>
	<path d="M-618.6,426.9h-0.5l0.1-0.3h1.3l-0.1,0.3h-0.5l-0.2,0.8h-0.3L-618.6,426.9z"></path>
	<path d="M-615.9,426.6l-0.1,0.2h-0.9l0,0.2h0.8l0,0.2h-0.8l0,0.2h0.9l-0.1,0.2h-1.2l0.2-1.1L-615.9,426.6L-615.9,426.6z"></path>
	<path d="M-615.2,426.6h0.3l-0.2,0.8h0.7l-0.1,0.3h-1.1L-615.2,426.6z"></path>
	<path d="M-613.5,426.6h0.3l-0.2,0.8h0.7l-0.1,0.3h-1.1L-613.5,426.6z"></path>
	<path d="M-611.8,426.6h0.3l-0.2,1.1h-0.3L-611.8,426.6z"></path>
	<path d="M-609.7,427C-609.7,427-609.7,426.9-609.7,427c0-0.1,0-0.1,0-0.1c0,0,0,0-0.1,0l-0.1,0l-0.2,0c-0.1,0-0.2,0-0.2,0.1   c0,0.1-0.1,0.3-0.1,0.4c0,0.1,0.1,0.1,0.2,0.1c0,0,0.1,0,0.3,0c0.2,0,0.2,0,0.2-0.1c0,0,0,0,0-0.1h-0.4l0-0.2h0.7l0,0.1   c0,0.2,0,0.2-0.1,0.3c-0.1,0.1-0.2,0.2-0.3,0.2c0,0-0.2,0-0.4,0c-0.3,0-0.4,0-0.5-0.1c-0.1,0-0.1-0.1-0.1-0.2c0-0.1,0-0.2,0.1-0.4   c0.1-0.3,0.1-0.4,0.3-0.4c0.1,0,0.2,0,0.5,0c0.4,0,0.5,0,0.5,0.1c0.1,0,0.1,0.1,0.1,0.2c0,0,0,0.1,0,0.2L-609.7,427L-609.7,427z"></path>
	<path d="M-607.4,426.6l-0.1,0.2h-0.9l0,0.2h0.8l0,0.2h-0.8l0,0.2h0.9l-0.1,0.2h-1.2l0.2-1.1L-607.4,426.6L-607.4,426.6z"></path>
	<path d="M-606.7,426.6h0.5l0.5,0.8l0.2-0.8h0.3l-0.2,1.1h-0.5l-0.5-0.8l-0.2,0.8h-0.3L-606.7,426.6z"></path>
	<path d="M-604.1,426.9h-0.5l0.1-0.3h1.3l-0.1,0.3h-0.5l-0.2,0.8h-0.3L-604.1,426.9z"></path>
	<g>
		<polygon class="st9 can-change" points="-627.6,427.3 -627.7,427.7 -626.5,427.7 -626.5,427.3   " fill="rgb(237, 28, 36)"></polygon>
		<polygon class="st9 can-change" points="-622.8,427 -622.7,426.6 -626,426.6 -626,427   " fill="rgb(237, 28, 36)"></polygon>
		<polygon class="st9 can-change" points="-626.3,426.6 -627.5,426.6 -627.6,427 -626.4,427   " fill="rgb(237, 28, 36)"></polygon>
		<polygon class="st9 can-change" points="-626.2,427.7 -623,427.7 -622.9,427.3 -626.1,427.3   " fill="rgb(237, 28, 36)"></polygon>
		<polygon class="st1 can-change" points="-626,427 -626,426.6 -626.3,426.6 -626.4,427 -627.6,427 -627.6,427.3 -626.5,427.3 -626.5,427.7     -626.2,427.7 -626.1,427.3 -622.9,427.3 -622.8,427   " fill="rgb(255, 255, 255)"></polygon>
	</g>
</g>
<g id="Layer_1_1_">
</g>
</svg>