<svg xmlns="http://www.w3.org/2000/svg" xmlns:xlink="http://www.w3.org/1999/xlink" version="1.1" id="Layer_1" x="0px" y="0px" viewBox="-833 240.8 139.2 410.2" style="enable-background:new -833 240.8 139.2 410.2;" xml:space="preserve" data-product="2017513" data-design="4" data-size="m">
<style type="text/css">
	.st0{fill:#EDEDED;stroke:#6D6E71;stroke-width:0.34;stroke-linecap:round;stroke-linejoin:round;stroke-miterlimit:10;}
	.st1{fill:#FFFFFF;stroke:#6D6E71;stroke-width:0.34;stroke-linecap:round;stroke-linejoin:round;stroke-miterlimit:10;}
	.st2{fill:#FFFFFF;}
	.st3{clip-path:url(#SVGID_4_);}
	.st4{fill:none;stroke:#6D6E71;stroke-width:0.34;stroke-linecap:round;stroke-linejoin:round;stroke-miterlimit:10;}
</style>
<path class="st0 cannot-edit can-change" d="M-709,442.7c0.1,0.2,4.4,15.4,4.5,15.6c1.2,1.9,2.5,4.1,3.7,6.6c0.6,1.3,1.2,2.7,1.7,4.4  c2.2,6.4,3.6,10.6,2.6,21.8h0c-1.7,18.4-9.9,36-15.2,43.1c-6.7,8.8-11.7,81.8-11.4,87.5c0.2,5.8,0.2,15,0.2,15  c-19.7,7.1-53.4,5.8-64.7,3.8c-11.5-2-10.6-3.7-10.6-3.8c0-3.1-2.5-22.8-2.5-23c-17.2-80.6-1.6-75.4-10-94.4  c-8.2-18.8-5.8-54.3-5.7-56c0.6,0,68.1-19.8,84.8-18C-716.3,444.5-709.3,442.7-709,442.7z" style="fill: rgb(0, 0, 0);"></path>
<path class="st1 can-change" d="M-740.4,317.5c-0.1,0.9-11.4,83-5.9,140.4c-43.7,1.3-49.2,3.9-70.1,5.4l0.5-11.5c0.3-10.6,1.6-42.5,1.6-42.7  c0-6.7-1.9-31.9-1.5-75.3c0.4-43.3,23.6-70.8,25.4-72.6c8-9.1,16.6-15.1,18.9-16.5c2.9-1.8,12.1-3.9,15.5-3.8  c7.5,0.1,14.9,1.9,21.5,5.5L-740.4,317.5z" fill="rgb(255, 255, 255)" data-fill-id="4"></path>
<path class="st1 can-change" d="M-775.1,319.8l16.5-54.3l-1.7-5.6l0.8-3.6l17.7-0.6l7.1-9.3c3.5,2.1,7.3,5.1,11.4,9.5  c3.3,4.7,9.6,14.1,10.2,25.5c0.6,8.6-0.8,46.1-2.2,62.2c-1.5,16.1,1.1,54.3,1.1,59.8c0,5.5,4.3,33.4,5.1,39.3l-21.5,2.9  C-750.4,407.5-776.7,331.1-775.1,319.8z" fill="rgb(255, 255, 255)" data-fill-id="11"></path>
<path class="st1 can-change" d="M-732.2,402.2c1.8-0.5,8.2-2.2,18-3.5c0.1,2.3,0.1,3.9,0.1,4.7c0,4.7,3.5,28.5,5.1,39.3l-22.8,2.7  C-731.8,442.4-733,430.1-732.2,402.2z" fill="rgb(255, 255, 255)" data-fill-id="13"></path>
<path class="st1 cannot-edit can-change" d="M-750.7,241.1c23.7,1.6,36.3,19.2,32.6,47.7c-3.6,28.1-21,51.7-44.2,50.8c-0.3,0-0.6,0-0.9-0.1  c-17.1-6.3-31.6-30.5-27.9-59C-787.4,252.1-774.4,239.5-750.7,241.1z" fill="rgb(255, 255, 255)"></path>
<path class="st1 can-change" d="M-714.1,402.3c-8.2,1-12.8,1.8-16.3,2.7c0-1-0.5-2.1-0.5-3.2c1.7-0.5,6.9-1.8,16.7-3.1  C-714.2,400.2-714.2,401.4-714.1,402.3z" fill="rgb(255, 255, 255)" data-fill-id="12"></path>
<g>
	<g>
		<path id="SVGID_1_" class="st2 logo-area can-change" d="M-781.1,324.7c9,15.7,16.4,12.9,21.5,15c3.5,7.9,5,9,14.9,24.8c15.7,22.1,16.1,57.9,16.1,58.3    c0,0.3-0.3,9.8-0.6,22.5v0.2c-0.4,14.8-0.7,33.6-0.9,46.9c0.5,22.9,2.9,53.1,10.6,82.6c-2.3,21.4-3.7,43.7-3.5,46.8    c0.3,5.7,0.3,14.9,0.3,15.1c-1.1,0.4-2.3,0.7-3.5,1.1c-27.1,6.3-55.7,4.7-69.4,0.7c-2.9-1.1-2.5-1.8-2.5-1.8    c0-3.2-2.4-22.9-2.4-23.1c-2.9-13.5-4.9-24.5-6.1-33.7c5.6-11.3,9.9-23.1,12.4-36.8c1.4-7.5,2.3-15.2,3.1-23    c0.2-15.6,0.4-27.5,0.4-27.8c0-0.6,2.2-57.5,2.2-90.1C-788.6,380.4-785,334.9-781.1,324.7z" fill="rgb(255, 255, 255)" data-fill-id="1"></path>
	</g>
	<g>
		<defs>
			<path id="SVGID_3_" d="M-781.1,324.7c9,15.7,16.4,12.9,21.5,15c3.5,7.9,5,9,14.9,24.8c15.7,22.1,16.1,57.9,16.1,58.3     c0,0.3-0.3,9.8-0.6,22.5v0.2c-0.4,14.8-0.7,33.6-0.9,46.9c0.5,22.9,2.9,53.1,10.6,82.6c-2.3,21.4-3.7,43.7-3.5,46.8     c0.3,5.7,0.3,14.9,0.3,15.1c-1.1,0.4-2.3,0.7-3.5,1.1c-27.1,6.3-55.7,4.7-69.4,0.7c-2.9-1.1-2.5-1.8-2.5-1.8     c0-3.2-2.4-22.9-2.4-23.1c-2.9-13.5-4.9-24.5-6.1-33.7c5.6-11.3,9.9-23.1,12.4-36.8c1.4-7.5,2.3-15.2,3.1-23     c0.2-15.6,0.4-27.5,0.4-27.8c0-0.6,2.2-57.5,2.2-90.1C-788.6,380.4-785,334.9-781.1,324.7z"></path>
		</defs>
		<clipPath id="SVGID_4_">
			<use xlink:href="#SVGID_3_" style="overflow:visible;"></use>
		</clipPath>
		<g class="st3 can-change" fill="rgb(0, 0, 0)">
			<g>
				<path class="st1 can-change" d="M-694.3,596.2l-10.5,32c-38,23.4-127.1,0-127.1,0l-0.9-23.2l12.8,4c72.7,20.4,105,0.1,105,0.1L-694.3,596.2      z" fill="rgb(255, 255, 255)" data-fill-id="2"></path>
				<path class="st1 can-change" d="M-694,608.5l-10.5,32c-38,23.4-127.2,0-127.2,0l-0.8-23.2l12.8,4c72.7,20.4,104.9,0.1,104.9,0.1L-694,608.5      z" fill="rgb(255, 255, 255)" data-fill-id="3"></path>
			</g>
		</g>
	</g>
	<g>
		<path id="SVGID_2_" class="st4" d="M-781.1,324.7c9,15.7,16.4,12.9,21.5,15c3.5,7.9,5,9,14.9,24.8c15.7,22.1,16.1,57.9,16.1,58.3    c0,0.3-0.3,9.8-0.6,22.5v0.2c-0.4,14.8-0.7,33.6-0.9,46.9c0.5,22.9,2.9,53.1,10.6,82.6c-2.3,21.4-3.7,43.7-3.5,46.8    c0.3,5.7,0.3,14.9,0.3,15.1c-1.1,0.4-2.3,0.7-3.5,1.1c-27.1,6.3-55.7,4.7-69.4,0.7c-2.9-1.1-2.5-1.8-2.5-1.8    c0-3.2-2.4-22.9-2.4-23.1c-2.9-13.5-4.9-24.5-6.1-33.7c5.6-11.3,9.9-23.1,12.4-36.8c1.4-7.5,2.3-15.2,3.1-23    c0.2-15.6,0.4-27.5,0.4-27.8c0-0.6,2.2-57.5,2.2-90.1C-788.6,380.4-785,334.9-781.1,324.7z" fill="none"></path>
	</g>
</g>
<g id="Layer_1_2_">
</g>
</svg>