<svg xmlns="http://www.w3.org/2000/svg" xmlns:xlink="http://www.w3.org/1999/xlink" version="1.1" id="Layer_1" x="0px" y="0px" viewBox="0 0 292 363" enable-background="new 0 0 292 363" xml:space="preserve" data-product="2017501" data-design="3" data-size="m">
<g>
	<g>
		<defs>
			<path id="SVGID_1_" d="M145.9,357.2c-1.5,0.1-50.5,2.3-77.1-21.5l-3.3-3.7c7.6-75.1,7.6-132,0.2-166.2     c-7.4-34.2-14.4-36.1-14.5-36.2c-5.2-32.3-0.5-47.1,6-63.3c1.4-2,17.1-23.6,25.6-31.7c8.2-8.8,32.9-24.1,39.7-28.2     c12.4-0.4,21.1-1.2,44.8-0.4c7.1,4.6,28.1,16.9,40.1,29.6c8.4,8.1,26.3,24.3,27.8,26.3c4.3,4.6,13.3,30.2,5.5,67.6     c-0.1,0.1-7,3.4-14.5,36.2c-7.4,34.2-7.4,91.1,0.2,166.2l-3.5,3.7C196.4,359.6,147.4,357.3,145.9,357.2z"/>
		</defs>
		<use xlink:href="#SVGID_1_" overflow="visible" fill-rule="evenodd" clip-rule="evenodd" fill="#FFFFFF" data-fill-id="10" class="can-change"/>
		<clipPath id="SVGID_2_">
			<use xlink:href="#SVGID_1_" overflow="visible"/>
		</clipPath>
		<g clip-path="url(#SVGID_2_)">

				<path fill-rule="evenodd" clip-rule="evenodd" fill="#FFFFFF" stroke="#6D6E70" stroke-width="0.45" stroke-linecap="round" stroke-linejoin="round" stroke-miterlimit="10" d="     M57.7,50.5l-63-186.3l149.1-37.2c0,0,199.6,39,213.8,40.8c14.2,1.8-103.4,182.8-103.4,182.8C141.5,30.9,57.7,50.5,57.7,50.5z" class="can-change"/>
		</g>

			<use xlink:href="#SVGID_1_" overflow="visible" fill-rule="evenodd" clip-rule="evenodd" fill="none" stroke="#6D6E70" stroke-width="0.34" stroke-linecap="round" stroke-linejoin="round" stroke-miterlimit="10"/>
	</g>

		<path fill-rule="evenodd" clip-rule="evenodd" fill="#FFFFFF" stroke="#6D6E70" stroke-width="0.34" stroke-linecap="round" stroke-linejoin="round" stroke-miterlimit="10" d="   M145,239.6h2.2v0l20.9,0.2c0.1,0,10.3,0.2,15.6,1.4c5.4,1.2,36.7,8.9,37,9c0,0.3,0.7,32.9,4.1,67c-0.2,0.2-19.8,21.7-77.6,22.1H145   c-57.9-0.3-77.4-21.9-77.6-22.1c3.5-34.1,4.1-66.7,4.1-67c0.3-0.1,31.6-7.7,37-9c5.4-1.2,15.5-1.4,15.7-1.4L145,239.6L145,239.6z" data-fill-id="11" class="can-change"/>

		<path fill-rule="evenodd" clip-rule="evenodd" fill="none" stroke="#6D6E70" stroke-width="0.34" stroke-linecap="round" stroke-linejoin="round" stroke-miterlimit="10" d="   M145.2,242.9l0.1,94"/>

		<path fill-rule="evenodd" clip-rule="evenodd" fill="none" stroke="#6D6E70" stroke-width="0.34" stroke-linecap="round" stroke-linejoin="round" stroke-miterlimit="10" d="   M147.1,242.9l0.1,94"/>

		<path fill-rule="evenodd" clip-rule="evenodd" fill="none" stroke="#6D6E70" stroke-width="0.34" stroke-linecap="round" stroke-linejoin="round" stroke-miterlimit="10" d="   M71.1,252.9c0.3-0.1,33.7-9.2,45.8-10.1c0.1,0,5.2-0.2,8.1-0.2c2.3,0,15.3-0.2,21-0.2l2.7,0h-5.4l2.7,0c5.7,0,18.7,0.2,21,0.2   c2.9,0,8.1,0.2,8.1,0.2c12.1,0.9,45.4,10,45.8,10.1"/>

		<path fill-rule="evenodd" clip-rule="evenodd" fill="none" stroke="#6D6E70" stroke-width="0.34" stroke-linecap="round" stroke-linejoin="round" stroke-miterlimit="10" d="   M71.1,254.6c0.3-0.1,33.7-9.1,45.8-10.1c0.1,0,5.2-0.2,8.1-0.2c2.3,0,15.3-0.2,21-0.2l2.7,0h-5.4l2.7,0c5.7,0,18.7,0.2,21,0.2   c2.9,0.1,8.1,0.2,8.1,0.2c12.1,0.9,45.4,10,45.8,10.1"/>

			<path fill-rule="evenodd" clip-rule="evenodd" fill="none" stroke="#6D6E70" stroke-width="0.34" stroke-linecap="round" stroke-linejoin="round" stroke-miterlimit="10" d="    M144.1,246.8l4-3.5"/>

			<path fill-rule="evenodd" clip-rule="evenodd" fill="none" stroke="#6D6E70" stroke-width="0.34" stroke-linecap="round" stroke-linejoin="round" stroke-miterlimit="10" d="    M144.1,248.5l4-3.5"/>

			<path fill-rule="evenodd" clip-rule="evenodd" fill="none" stroke="#6D6E70" stroke-width="0.34" stroke-linecap="round" stroke-linejoin="round" stroke-miterlimit="10" d="    M144.1,250.3l4-3.5"/>

			<path fill-rule="evenodd" clip-rule="evenodd" fill="none" stroke="#6D6E70" stroke-width="0.34" stroke-linecap="round" stroke-linejoin="round" stroke-miterlimit="10" d="    M144.1,252l4-3.5"/>

			<path fill-rule="evenodd" clip-rule="evenodd" fill="none" stroke="#6D6E70" stroke-width="0.34" stroke-linecap="round" stroke-linejoin="round" stroke-miterlimit="10" d="    M144.1,253.8l4-3.5"/>

			<path fill-rule="evenodd" clip-rule="evenodd" fill="none" stroke="#6D6E70" stroke-width="0.34" stroke-linecap="round" stroke-linejoin="round" stroke-miterlimit="10" d="    M144.1,243.3l4,3.5"/>

			<path fill-rule="evenodd" clip-rule="evenodd" fill="none" stroke="#6D6E70" stroke-width="0.34" stroke-linecap="round" stroke-linejoin="round" stroke-miterlimit="10" d="    M144.1,245l4,3.5"/>

			<path fill-rule="evenodd" clip-rule="evenodd" fill="none" stroke="#6D6E70" stroke-width="0.34" stroke-linecap="round" stroke-linejoin="round" stroke-miterlimit="10" d="    M144.1,246.8l4,3.5"/>

			<path fill-rule="evenodd" clip-rule="evenodd" fill="none" stroke="#6D6E70" stroke-width="0.34" stroke-linecap="round" stroke-linejoin="round" stroke-miterlimit="10" d="    M144.1,248.5l4,3.5"/>

			<path fill-rule="evenodd" clip-rule="evenodd" fill="none" stroke="#6D6E70" stroke-width="0.34" stroke-linecap="round" stroke-linejoin="round" stroke-miterlimit="10" d="    M144.1,250.3l4,3.5"/>

		<path fill-rule="evenodd" clip-rule="evenodd" fill="#FFFFFF" stroke="#6D6E70" stroke-width="0.34" stroke-linecap="round" stroke-linejoin="round" stroke-miterlimit="10" d="   M229.5,152.2l5.6,6.2c-5,35.5-6.2,78.3-4.4,97.1c2.1,22.6,4.4,59.8,4.4,60.2c-1.1,9.2-8.3,17.4-14.9,22.7   c-5.2,4.2-10.2,6.5-10.2,6.5C198,249.1,222.1,173.3,229.5,152.2z" data-fill-id="6" class="can-change" style="fill: rgb(237, 28, 36);"/>

		<path xmlns="http://www.w3.org/2000/svg" fill-rule="evenodd" clip-rule="evenodd" fill="#FFFFFF" stroke="#6D6E70" stroke-width="0.34" stroke-linecap="round" stroke-linejoin="round" stroke-miterlimit="10" d="   M190.4,7c0,0,20.4,11.5,31.7,15.8c11.3,4.3,31.8,13.1,31.8,13.1s12.1,5.2,17.6,18.8c5.5,13.5,11.6,34.9,12.8,59.8   c1.2,24.9,3.9,29.4,3.8,36.8c-9.2,6.8-22.2,8.7-35.4,11.4l-11.9-33.1c0,0,10.4-46.3-10.2-71.6c0,0-18.1-18-23-22.3   c-4.9-4.3-33.7-26.5-40.1-29.6C167.3,6.1,181.3,6.6,190.4,7z" class="can-change" data-fill-id="100" style="fill: rgb(0, 102, 179);"/>

		<path fill-rule="evenodd" clip-rule="evenodd" fill="#FFFFFF" stroke="#6D6E70" stroke-width="0.34" stroke-linecap="round" stroke-linejoin="round" stroke-miterlimit="10" d="   M101.6,7c9-0.4,22.9-0.7,22.9-0.7C118,9.5,90.2,29.1,85.3,33.5c-4.9,4.3-22,24.9-22,24.9c-20.6,25.3-12.1,71.3-12.1,71.3l-11.9,33   c-11-2-27.6-4.8-35.5-10.8c-0.1-7.4,2.6-12.4,3.8-37.4C8.9,89.6,15,68.2,20.5,54.7C26,41.1,38.1,35.9,38.1,35.9s20.5-8.8,31.8-13.1   C81.2,18.5,101.6,7,101.6,7z" data-fill-id="4" class="can-change" style="fill: rgb(0, 102, 179);"/>

		<path fill-rule="evenodd" clip-rule="evenodd" fill="#FFFFFF" stroke="#6D6E70" stroke-width="0.34" stroke-linecap="round" stroke-linejoin="round" stroke-miterlimit="10" d="   M62.5,152.2c7.3,21,31.5,96.9,19.6,192.6c0,0-5-2.3-10.2-6.5c-6.6-5.3-13.8-13.6-14.9-22.7c0-0.4,2.2-37.6,4.4-60.2   c1.8-18.8,0.6-61.6-4.4-97.1L62.5,152.2z" data-fill-id="2" class="can-change" style="fill: rgb(237, 28, 36);"/>

		<path fill-rule="evenodd" clip-rule="evenodd" fill="#FFFFFF" stroke="#6D6E70" stroke-width="0.34" stroke-linecap="round" stroke-linejoin="round" stroke-miterlimit="10" d="   M56.9,158.4c-0.9-5.4-2-10.8-3.4-16L49.3,163c0-0.1-4,0.2-9.1-0.4l-0.8,0l11.9-33.1c0.1,0.1,5.6,2.8,11.2,22.7L56.9,158.4z" data-fill-id="3" class="can-change" style="fill: rgb(0, 102, 179);"/>

		<path fill-rule="evenodd" clip-rule="evenodd" fill="#FFFFFF" stroke="#6D6E70" stroke-width="0.34" stroke-linecap="round" stroke-linejoin="round" stroke-miterlimit="10" d="   M235.1,158.5l-5.6-6.2c5.7-19.9,11.2-22.6,11.2-22.7l11.9,33.1l-0.8,0c-5.1,0.6-9.1,0.3-9.1,0.4l-4.3-20.7   C237.1,147.7,235.9,153.1,235.1,158.5z" data-fill-id="7" class="can-change" style="fill: rgb(0, 102, 179);"/>

		<path fill-rule="evenodd" clip-rule="evenodd" fill="none" stroke="#000000" stroke-width="2.83" stroke-linecap="round" stroke-linejoin="round" stroke-miterlimit="10" d="   M101.6,7c0,0,48.4-2.8,88.8,0"/>

		<path fill-rule="evenodd" clip-rule="evenodd" fill="none" stroke="#000000" stroke-width="2.83" stroke-linecap="round" stroke-linejoin="round" stroke-miterlimit="10" d="   M57,315.7c0,0,0.7,17,25.1,29.2"/>

		<path fill-rule="evenodd" clip-rule="evenodd" fill="none" stroke="#000000" stroke-width="2.83" stroke-linecap="round" stroke-linejoin="round" stroke-miterlimit="10" d="   M235.5,315.7c0,0-0.7,17-25.1,29.2"/>

		<path fill-rule="evenodd" clip-rule="evenodd" fill="#FFFFFF" stroke="#6D6E70" stroke-width="0.34" stroke-linecap="round" stroke-linejoin="round" stroke-miterlimit="10" d="   M3.9,151.8c1.3,0.2,16.6,9.9,45.4,11.2l-3.3,16.8c0,0-23.2,3-44.9-11.4L3.9,151.8z" data-fill-id="5" class="can-change"/>

		<path fill-rule="evenodd" clip-rule="evenodd" fill="#FFFFFF" stroke="#6D6E70" stroke-width="0.34" stroke-linecap="round" stroke-linejoin="round" stroke-miterlimit="10" d="   M288.1,152l2.9,16.6C269.2,183,246.1,180,246.1,180l-3.4-16.8C271.5,161.9,286.8,152.1,288.1,152z" data-fill-id="8" class="can-change"/>
	<g class="human-logo">
		<path fill-rule="evenodd" clip-rule="evenodd" fill="#231F20" d="M116.1,320.9l0.9-4.9h2.2l-0.2,1.4h1.5l0.3-1.4h3.9l-0.5,2.8    c0,0,0,0.1,0,0.1h0.1h1.2c0.1,0,0.2,0,0.2,0c0.1-0.1,0.1-0.2,0.1-0.3l0.5-2.7h4.3l0.7,2l1.4-2h2.7l-0.5,2.7l1.9-2.7h2.2l1.1,2.9    l0.5-2.9h2.5l1.2,2l0.4-2h2.2l-0.9,4.9h-2.5l-1.2-2l-0.4,2h-3.5l-0.3-0.7h-1.8l-0.5,0.7h-3.5l0.2-1.4l-1,1.4H130l-0.6-1.5    l-0.3,1.5H127l0.1-0.5c0,0-0.1,0-0.1,0.1c-0.4,0.3-1,0.5-1.6,0.5h-1.7c-0.5,0-1-0.1-1.3-0.4c-0.1-0.1-0.2-0.2-0.3-0.3l-0.1,0.6    h-2.2l0.3-1.5h-1.5l-0.3,1.5H116.1z" class="can-change"/>
		<polygon fill-rule="evenodd" clip-rule="evenodd" fill="#FFFFFF" points="116.6,320.4 117.3,316.4 118.5,316.4 118.3,317.8    120.8,317.8 121.1,316.4 122.3,316.4 121.6,320.4 120.4,320.4 120.7,318.9 118.1,318.9 117.9,320.4   " class="can-change"/>
		<path fill-rule="evenodd" clip-rule="evenodd" fill="#FFFFFF" d="M122.4,319l0.4-2.5h1.2l-0.4,2.3c-0.1,0.5,0.1,0.7,0.5,0.7h1.2    c0.5,0,0.7-0.2,0.8-0.7l0.4-2.3h1.2l-0.5,2.5c-0.2,1-0.8,1.4-1.9,1.4h-1.7C122.6,320.4,122.2,319.9,122.4,319" class="can-change"/>
		<polygon fill-rule="evenodd" clip-rule="evenodd" fill="#FFFFFF" points="127.6,320.4 128.3,316.4 130.2,316.4 131.1,319    132.9,316.4 134.7,316.4 134,320.4 132.9,320.4 133.4,317.5 133.4,317.5 131.3,320.4 130.4,320.4 129.3,317.5 129.3,317.5    128.8,320.4   " class="can-change"/>
		<path fill-rule="evenodd" clip-rule="evenodd" fill="#FFFFFF" d="M137.6,317.3l-1,1.5h1.5L137.6,317.3z M134.2,320.4l2.8-3.9h1.6    l1.5,3.9h-1.3l-0.2-0.7H136l-0.5,0.7H134.2z" class="can-change"/>
		<polygon fill-rule="evenodd" clip-rule="evenodd" fill="#FFFFFF" points="140.2,320.4 140.9,316.4 142.8,316.4 144.5,319.3    144.5,319.3 145,316.4 146.2,316.4 145.6,320.4 143.7,320.4 141.9,317.5 141.9,317.5 141.4,320.4   " class="can-change"/>
		<path fill-rule="evenodd" clip-rule="evenodd" fill="#231F20" d="M147,319.3l0-0.3h1.2c-0.1,0.4,0.1,0.4,0.4,0.4h1.5    c0.3,0,0.5,0,0.6-0.3c0.1-0.3-0.1-0.4-1.6-0.4c-1.8,0-2-0.2-1.8-1.2c0.1-0.7,0.3-1.3,1.8-1.3h1.7c1.4,0,1.4,0.5,1.3,1.2l0,0.1    h-1.2c0-0.3,0-0.4-0.5-0.4H149c-0.3,0-0.5,0.1-0.5,0.3c-0.1,0.3,0.1,0.4,1.4,0.4c1.9,0,2.3,0.1,2.1,1.2c-0.2,1.1-0.6,1.2-2.2,1.2    h-1.5C147.2,320.4,146.8,320.2,147,319.3" class="can-change"/>
		<path fill-rule="evenodd" clip-rule="evenodd" fill="#231F20" d="M154,317.4l-0.2,1h1.9c0.3,0,0.4-0.2,0.5-0.4l0-0.1    c0-0.3-0.1-0.4-0.4-0.4H154z M152.2,320.4l0.7-3.9h3.3c1.1,0,1.3,0.6,1.2,1.3l-0.1,0.3c-0.1,0.6-0.5,1.3-1.3,1.3h-2.4l-0.2,1    H152.2z" class="can-change"/>
		<polygon fill-rule="evenodd" clip-rule="evenodd" fill="#231F20" points="157.3,320.4 158,316.4 162.3,316.4 162.1,317.3    159,317.3 158.9,318 161.9,318 161.7,318.8 158.8,318.8 158.7,319.4 161.8,319.4 161.7,320.4   " class="can-change"/>
		<polygon fill-rule="evenodd" clip-rule="evenodd" fill="#231F20" points="162.1,320.4 162.8,316.4 167.1,316.4 167,317.3    163.9,317.3 163.8,318 166.7,318 166.5,318.8 163.6,318.8 163.5,319.4 166.7,319.4 166.5,320.4   " class="can-change"/>
		<path fill-rule="evenodd" clip-rule="evenodd" fill="#231F20" d="M168.7,317.4l-0.3,1.9h2.1c0.5,0,0.7-0.1,0.8-0.7l0.1-0.5    c0.1-0.6-0.1-0.7-0.6-0.7H168.7z M167,320.4l0.7-3.9h3.6c1.2,0,1.6,0.4,1.4,1.4l-0.2,1.2c-0.2,1-0.7,1.4-1.9,1.4H167z" class="can-change"/>
		<path fill-rule="evenodd" clip-rule="evenodd" fill="#231F20" d="M174.5,315.7c-0.6,0-1,0.5-1,1c0,0.6,0.4,1,1,1c0.5,0,1-0.4,1-1    C175.5,316.2,175.1,315.7,174.5,315.7 M174.5,315.4c0.7,0,1.3,0.6,1.3,1.3c0,0.7-0.6,1.3-1.3,1.3c-0.7,0-1.3-0.6-1.3-1.3    C173.2,316,173.8,315.4,174.5,315.4 M174.3,316.3v0.4h0.1c0.2,0,0.3-0.1,0.3-0.2c0-0.1-0.1-0.2-0.3-0.2    C174.4,316.3,174.3,316.3,174.3,316.3 M174.3,316.9v0.5H174v-1.3c0.1,0,0.3,0,0.5,0c0.2,0,0.4,0,0.4,0.1c0.1,0,0.1,0.1,0.1,0.3    c0,0.1-0.1,0.2-0.3,0.3v0c0.1,0,0.2,0.1,0.2,0.3c0,0.2,0.1,0.3,0.1,0.3h-0.3c-0.1-0.1-0.1-0.1-0.1-0.3c0-0.1-0.1-0.2-0.3-0.2    H174.3z" class="can-change"/>
		<rect x="116.1" y="315.4" fill="none" width="59.7" height="5.5"/>
		<path fill="#231F20" d="M152,321.7h0.3l-0.2,1.1h-0.3L152,321.7z" class="can-change"/>
		<path fill="#231F20" d="M153.2,321.7h0.5l0.5,0.9l0.2-0.9h0.3l-0.2,1.1h-0.6l-0.5-0.8l-0.2,0.8h-0.3L153.2,321.7z" class="can-change"/>
		<path fill="#231F20" d="M155.9,322h-0.5l0.1-0.3h1.3l-0.1,0.3h-0.5l-0.2,0.8h-0.3L155.9,322z" class="can-change"/>
		<path fill="#231F20" d="M158.7,321.7l-0.1,0.3h-0.9l0,0.2h0.9l0,0.2h-0.9l0,0.2h0.9l-0.1,0.3h-1.3l0.2-1.1H158.7z" class="can-change"/>
		<path fill="#231F20" d="M159.5,321.7h0.3l-0.2,0.8h0.8l-0.1,0.3h-1.1L159.5,321.7z" class="can-change"/>
		<path fill="#231F20" d="M161.3,321.7h0.3l-0.2,0.8h0.8l-0.1,0.3H161L161.3,321.7z" class="can-change"/>
		<path fill="#231F20" d="M163.1,321.7h0.3l-0.2,1.1h-0.3L163.1,321.7z" class="can-change"/>
		<path fill="#231F20" d="M165.2,322.1C165.2,322.1,165.3,322.1,165.2,322.1c0-0.1,0-0.1-0.1-0.1c0,0,0,0-0.1,0l-0.2,0l-0.2,0    c-0.2,0-0.2,0-0.2,0.1c0,0.1-0.1,0.3-0.1,0.4c0,0.1,0.1,0.1,0.2,0.1c0,0,0.1,0,0.3,0c0.2,0,0.2,0,0.2-0.1c0,0,0,0,0-0.1h-0.4    l0-0.2h0.8l0,0.2c0,0.2,0,0.2-0.1,0.3c-0.1,0.1-0.2,0.2-0.4,0.2c0,0-0.2,0-0.4,0c-0.4,0-0.4,0-0.5-0.1c-0.1,0-0.1-0.1-0.1-0.2    c0-0.1,0-0.2,0.1-0.4c0.1-0.3,0.2-0.4,0.3-0.4c0.1,0,0.2,0,0.5,0c0.4,0,0.5,0,0.6,0.1c0.1,0,0.1,0.1,0.1,0.2c0,0,0,0.1,0,0.2    H165.2z" class="can-change"/>
		<path fill="#231F20" d="M167.7,321.7l-0.1,0.3h-0.9l0,0.2h0.9l0,0.2h-0.9l0,0.2h0.9l-0.1,0.3h-1.3l0.2-1.1H167.7z" class="can-change"/>
		<path fill="#231F20" d="M168.5,321.7h0.5l0.5,0.9l0.2-0.9h0.3l-0.2,1.1h-0.6l-0.5-0.8l-0.2,0.8h-0.3L168.5,321.7z" class="can-change"/>
		<path fill="#231F20" d="M171.1,322h-0.5l0.1-0.3h1.3L172,322h-0.5l-0.2,0.8H171L171.1,322z" class="can-change"/>
		<g>
			<polygon fill="#EC1C24" points="146.3,322.5 146.3,322.9 147.5,322.9 147.6,322.5    " class="can-change"/>
			<polygon fill="#EC1C24" points="151.4,322.1 151.5,321.7 148.1,321.7 148,322.1    " class="can-change"/>
			<polygon fill="#EC1C24" points="147.8,321.7 146.5,321.7 146.4,322.1 147.7,322.1    " class="can-change"/>
			<polygon fill="#EC1C24" points="147.9,322.9 151.3,322.9 151.4,322.5 148,322.5    " class="can-change"/>
			<polygon fill="#FFFFFF" points="148,322.1 148.1,321.7 147.8,321.7 147.7,322.1 146.4,322.1 146.3,322.5 147.6,322.5     147.5,322.9 147.9,322.9 148,322.5 151.4,322.5 151.4,322.1    " class="can-change"/>
		</g>
	</g>
</g>
<wappalyzerdata id="wappalyzerData" style="display: none"/><script id="wappalyzerEnvDetection" src="chrome-extension://gppongmhjkpfnbhagpmjfkannfbllamg/js/inject.js"/></svg>