<svg xmlns="http://www.w3.org/2000/svg" xmlns:xlink="http://www.w3.org/1999/xlink" version="1.1" id="Layer_1" x="0px" y="0px" viewBox="-802 225 203 442" style="enable-background:new -802 225 203 442;" xml:space="preserve" data-product="2017507" data-design="1" data-size="m">
<style type="text/css">
	.st0{fill:#EDEDED;stroke:#6D6E71;stroke-width:0.34;stroke-linecap:round;stroke-linejoin:round;stroke-miterlimit:10;}
	.st1{fill:#FFFFFF;}
	.st2{clip-path:url(#SVGID_6_);}
	.st3{fill:#FFFFFF;stroke:#6D6E71;stroke-width:0.34;stroke-linecap:round;stroke-linejoin:round;stroke-miterlimit:10;}
	.st4{fill:none;stroke:#6D6E71;stroke-width:0.34;stroke-linecap:round;stroke-linejoin:round;stroke-miterlimit:10;}
	.st5{clip-path:url(#SVGID_8_);}
</style>
<path class="st0 cannot-edit can-change" d="M-651.5,447.2c0.1,0.2,4.6,15.8,4.6,16.1c1.3,2,2.6,4.2,3.8,6.8c0.6,1.3,1.2,2.8,1.7,4.5  c2.4,6.6,3.8,10.9,2.7,22.5h0c-1.8,19-10.2,37.1-15.6,44.4c-6.9,9.1-12.1,84.2-11.8,90.2c0.2,6,0.2,15.4,0.2,15.5  c-20.3,7.4-55,6-66.7,3.9c-11.8-2-10.9-3.8-10.9-3.9c0-3.2-2.5-23.5-2.5-23.7c-17.8-83-1.6-77.8-10.3-97.3  c-8.5-19.4-5.9-56-5.9-57.8c0.6,0,70.2-20.5,87.4-18.6C-659.1,449-651.8,447.2-651.5,447.2z" style="fill: rgb(0, 0, 0);"/>
<g>
	<g>
		<path id="SVGID_1_" class="st1 can-change" d="M-683.9,318c-0.1,0.9-11.8,85.6-6.1,144.8c-45,1.4-50.7,4-72.3,5.6l0.5-11.8    c0.3-11,1.6-43.9,1.6-44c0-6.9-1.9-32.9-1.5-77.6c0.4-44.6,24.3-73,26.2-74.9c8.2-9.3,17.2-15.6,19.5-17c3-1.9,12.4-4,16-3.9    c7.7,0.1,15.4,2,22.2,5.6L-683.9,318z" fill="rgb(255, 255, 255)" data-fill-id="2"/>
	</g>
	<g>
		<defs>
			<path id="SVGID_5_" d="M-683.9,318c-0.1,0.9-11.8,85.6-6.1,144.8c-45,1.4-50.7,4-72.3,5.6l0.5-11.8c0.3-11,1.6-43.9,1.6-44     c0-6.9-1.9-32.9-1.5-77.6c0.4-44.6,24.3-73,26.2-74.9c8.2-9.3,17.2-15.6,19.5-17c3-1.9,12.4-4,16-3.9c7.7,0.1,15.4,2,22.2,5.6     L-683.9,318z"/>
		</defs>
		<clipPath id="SVGID_6_">
			<use xlink:href="#SVGID_5_" style="overflow:visible;"/>
		</clipPath>
		<g class="st2 can-change" fill="rgb(0, 0, 0)">
			<g>
				<path class="st3 can-change" d="M-896.7,386.4v-11.1h206.6v11.1H-896.7z" fill="rgb(255, 255, 255)" data-fill-id="11"/>
				<path class="st3 can-change" d="M-896.7,353.1V342h206.6v11.1H-896.7z" fill="rgb(255, 255, 255)" data-fill-id="13"/>
				<path class="st3 can-change" d="M-896.7,364.2v-11.1h206.6v11.1H-896.7z" fill="rgb(255, 255, 255)" data-fill-id="12"/>
			</g>
		</g>
	</g>
	<g>
		<path id="SVGID_2_" class="st4" d="M-683.9,318c-0.1,0.9-11.8,85.6-6.1,144.8c-45,1.4-50.7,4-72.3,5.6l0.5-11.8    c0.3-11,1.6-43.9,1.6-44c0-6.9-1.9-32.9-1.5-77.6c0.4-44.6,24.3-73,26.2-74.9c8.2-9.3,17.2-15.6,19.5-17c3-1.9,12.4-4,16-3.9    c7.7,0.1,15.4,2,22.2,5.6L-683.9,318z" fill="none"/>
	</g>
</g>
<path class="st3 can-change" d="M-719.7,320.4l17.1-55.9l-1.8-5.8l0.8-3.7l18.2-0.6l7.3-9.6c3.6,2.2,7.5,5.3,11.8,9.8  c3.4,4.8,9.9,14.5,10.5,26.3c0.6,8.9-0.8,47.5-2.3,64.1c-1.5,16.6,1.2,56,1.2,61.7c0,5.6,4.5,34.4,5.2,40.5l-22.1,2.9  C-694.2,410.9-721.3,332.1-719.7,320.4z" fill="rgb(255, 255, 255)" data-fill-id="16"/>
<path class="st3 can-change" d="M-675.4,405.4c1.8-0.5,8.4-2.3,18.5-3.6c0.1,2.3,0.2,4,0.2,4.9c0,4.8,3.6,29.3,5.2,40.5l-23.5,2.8  C-675,446.8-676.3,434.1-675.4,405.4z" fill="rgb(255, 255, 255)" data-fill-id="14"/>
<path class="st3 cannot-edit can-change" d="M-694.5,239.3c24.4,1.7,37.4,19.8,33.6,49.2c-3.7,29-21.6,53.4-45.5,52.3c-0.3,0-0.6,0-0.9-0.1  c-17.6-6.5-32.5-31.4-28.8-60.8C-732.3,250.6-718.9,237.7-694.5,239.3z" fill="rgb(255, 255, 255)"/>
<path class="st3 can-change" d="M-656.8,405.5c-8.5,1.1-13.2,1.9-16.8,2.8c0-1.1-0.5-2.1-0.5-3.3c1.8-0.6,7.1-1.9,17.2-3.3  C-656.9,403.4-656.8,404.6-656.8,405.5z" fill="rgb(255, 255, 255)" data-fill-id="15"/>
<g>
	<g>
		<path id="SVGID_3_" class="st1 logo-area can-change" d="M-725.9,325.5c9.3,16.2,17,13.4,22.2,15.4c3.6,8.2,5.1,9.3,15.3,25.5    c16.2,22.8,16.6,59.7,16.6,60.1c0,0.2-0.3,10.1-0.6,23.2v0.2c-0.4,15.2-0.8,34.6-0.9,48.4c0.5,23.6,3,54.7,10.9,85.2    c-2.3,22.1-3.8,45.1-3.7,48.3c0.3,5.9,0.3,15.4,0.3,15.5c-1.2,0.4-2.3,0.8-3.6,1.1c-27.9,6.5-57.4,4.8-71.5,0.8    c-3-1.1-2.6-1.9-2.6-1.9c0-3.3-2.5-23.6-2.5-23.8c-3-13.9-5-25.3-6.3-34.7c5.8-11.7,10.2-23.9,12.8-38c1.4-7.7,2.4-15.7,3.3-23.8    c0.2-16.1,0.4-28.3,0.4-28.6c0-0.6,2.3-59.2,2.3-92.9C-733.5,382.9-729.9,336.1-725.9,325.5z" fill="rgb(255, 255, 255)" data-fill-id="1"/>
	</g>
	<g>
		<defs>
			<path id="SVGID_7_" d="M-725.9,325.5c9.3,16.2,17,13.4,22.2,15.4c3.6,8.2,5.1,9.3,15.3,25.5c16.2,22.8,16.6,59.7,16.6,60.1     c0,0.2-0.3,10.1-0.6,23.2v0.2c-0.4,15.2-0.8,34.6-0.9,48.4c0.5,23.6,3,54.7,10.9,85.2c-2.3,22.1-3.8,45.1-3.7,48.3     c0.3,5.9,0.3,15.4,0.3,15.5c-1.2,0.4-2.3,0.8-3.6,1.1c-27.9,6.5-57.4,4.8-71.5,0.8c-3-1.1-2.6-1.9-2.6-1.9     c0-3.3-2.5-23.6-2.5-23.8c-3-13.9-5-25.3-6.3-34.7c5.8-11.7,10.2-23.9,12.8-38c1.4-7.7,2.4-15.7,3.3-23.8     c0.2-16.1,0.4-28.3,0.4-28.6c0-0.6,2.3-59.2,2.3-92.9C-733.5,382.9-729.9,336.1-725.9,325.5z"/>
		</defs>
		<clipPath id="SVGID_8_">
			<use xlink:href="#SVGID_7_" style="overflow:visible;"/>
		</clipPath>
		<g class="st5 can-change" fill="rgb(0, 0, 0)">
			<g>
				<path class="st3 can-change" d="M-636.6,605.4l-10.8,32.8c-39,24-130.5,0-130.5,0l-0.9-23.8l13.2,4.1c74.6,21,107.7,0.1,107.7,0.1      L-636.6,605.4z" fill="rgb(255, 255, 255)" data-fill-id="3"/>
				<path class="st3 can-change" d="M-636.5,611.7l-10.7,32.8c-39,24-130.6,0-130.6,0l-0.9-23.8l13.2,4.1c74.6,21,107.7,0.1,107.7,0.1      L-636.5,611.7z" fill="rgb(255, 255, 255)" data-fill-id="4"/>
				<path class="st3 can-change" d="M-636.2,618l-10.8,32.8c-39,24-130.5,0-130.5,0l-0.9-23.8l13.2,4.1c74.6,21,107.7,0.1,107.7,0.1L-636.2,618      z" fill="rgb(255, 255, 255)" data-fill-id="5"/>
				<path class="st3 can-change" d="M-636,624.3l-10.8,32.8c-39,24-130.5,0-130.5,0l-0.9-23.8l13.2,4.1c74.7,21,107.8,0.1,107.8,0.1L-636,624.3      z" fill="rgb(255, 255, 255)" data-fill-id="6"/>
			</g>
		</g>
	</g>
	<g>
		<path id="SVGID_4_" class="st4" d="M-725.9,325.5c9.3,16.2,17,13.4,22.2,15.4c3.6,8.2,5.1,9.3,15.3,25.5    c16.2,22.8,16.6,59.7,16.6,60.1c0,0.2-0.3,10.1-0.6,23.2v0.2c-0.4,15.2-0.8,34.6-0.9,48.4c0.5,23.6,3,54.7,10.9,85.2    c-2.3,22.1-3.8,45.1-3.7,48.3c0.3,5.9,0.3,15.4,0.3,15.5c-1.2,0.4-2.3,0.8-3.6,1.1c-27.9,6.5-57.4,4.8-71.5,0.8    c-3-1.1-2.6-1.9-2.6-1.9c0-3.3-2.5-23.6-2.5-23.8c-3-13.9-5-25.3-6.3-34.7c5.8-11.7,10.2-23.9,12.8-38c1.4-7.7,2.4-15.7,3.3-23.8    c0.2-16.1,0.4-28.3,0.4-28.6c0-0.6,2.3-59.2,2.3-92.9C-733.5,382.9-729.9,336.1-725.9,325.5z" fill="none"/>
	</g>
</g>
</svg>