<svg xmlns="http://www.w3.org/2000/svg" xmlns:xlink="http://www.w3.org/1999/xlink" version="1.1" x="0px" y="0px" viewBox="0 0 358.385 360.9" style="enable-background:new 0 0 358.385 360.9;" xml:space="preserve" data-product="2017501" data-design="2" data-size="m">
<g id="Layer_2">
	<g>
		<g>
			<defs>
				<path id="SVGID_1_" d="M203.87,7.995c0,0,22.67,12.69,34.01,16.98c11.31,4.28,31.83,13.09,31.83,13.09s12.11,5.22,17.58,18.8      c5.47,13.54,11.59,34.89,12.76,59.78c1.16,24.91,3.91,29.39,3.77,36.82c0,0-2.56-0.51-7.37,0.45c-4.82,1-26.31,6.24-28.63,6.58      l-11.31-28.69c0,0,2.15-42.54-18.51-67.86c0,0-15.4-14.37-20.3-18.71c-4.9-4.31-20.47-14.68-26.93-17.88      C190.77,27.355,203.89,7.395,203.87,7.995z"></path>
			</defs>
			<use xmlns:xlink="http://www.w3.org/1999/xlink" xlink:href="#SVGID_1_" style="overflow:visible;fill-rule:evenodd;clip-rule:evenodd;fill:#FFFFFF;" data-fill-id="4" class="can-change"></use>
			<clipPath id="SVGID_2_">
				<use xmlns:xlink="http://www.w3.org/1999/xlink" xlink:href="#SVGID_1_" style="overflow:visible;"></use>
			</clipPath>
			<g style="clip-path:url(#SVGID_2_);">
				<g>
					
						<path style="fill-rule:evenodd;clip-rule:evenodd;fill:#FFFFFF;stroke:#6D6E71;stroke-width:0.34;stroke-linecap:round;stroke-linejoin:round;stroke-miterlimit:10;" d="       M244.29,166.955c-0.77,0.34-1.65-0.03-1.99-0.79c-0.34-0.77,0.03-1.65,0.8-1.99c4.45-1.87,8.93-3.62,13.49-5.3       c12.16-3.91,24.55-7.05,37.08-9.52c12.73-1.67,25.48-2.61,38.27-2.78c5.98,0.2,11.9,0.54,17.83,1.08       c0.82,0.08,1.44,0.82,1.36,1.64c-0.09,0.82-0.83,1.45-1.65,1.36c-5.84-0.54-11.73-0.88-17.57-1.07       c-6.27,0.08-12.56,0.36-18.82,0.82c0.14,1.1,2.43,20.52,2.52,23.41c0.08,2.95-59.59,11.74-60.18,11.82l-1.73-22.48       C250.55,164.375,247.41,165.625,244.29,166.955z" data-fill-id="27" class="can-change"></path>
					
						<path style="fill-rule:evenodd;clip-rule:evenodd;fill:#FFFFFF;stroke:#6D6E71;stroke-width:0.34;stroke-linecap:round;stroke-linejoin:round;stroke-miterlimit:10;" d="       M243.07,162.505c-0.68,0.26-1.47-0.08-1.73-0.76c-0.25-0.68,0.09-1.48,0.77-1.73l0.14-0.06c0.11-0.03,0.22-0.08,0.34-0.14       c4.16-1.67,8.33-3.29,12.55-4.88c12.42-4.02,25.06-7.17,37.85-9.78c12.98-1.58,25.96-2.63,39.03-2.8       c5.9,0.22,11.76,0.56,17.63,1.02l0.82,0.06l0.34,0.02c0.74,0.06,1.31,0.68,1.25,1.42c-0.06,0.74-0.68,1.3-1.42,1.25l-0.34-0.03       l-0.85-0.06c-5.84-0.45-11.68-0.79-17.49-1.02c-12.87,0.17-25.76,1.22-38.55,2.78c-12.58,2.55-25.11,5.67-37.39,9.67       c-4.13,1.56-8.3,3.17-12.44,4.84c-0.11,0.03-0.23,0.09-0.37,0.15L243.07,162.505z" data-fill-id="26" class="can-change"></path>
					
						<path style="fill-rule:evenodd;clip-rule:evenodd;fill:#FFFFFF;stroke:#6D6E71;stroke-width:0.34;stroke-linecap:round;stroke-linejoin:round;stroke-miterlimit:10;" d="       M241.94,158.055c-0.6,0.26-1.28-0.03-1.54-0.62c-0.25-0.6,0.03-1.28,0.63-1.53l0.14-0.06c4.17-1.67,8.36-3.29,12.56-4.87       c12.64-4.11,25.57-7.26,38.61-9.93c13.2-1.7,26.44-2.72,39.77-2.89c5.89,0.26,11.76,0.63,17.6,1.05       c0.59,0.06,1.19,0.09,1.76,0.11l0.34,0.03c0.65-0.05,1.19,0.43,1.24,1.08c0.06,0.65-0.42,1.19-1.07,1.25h-0.15l-0.51-0.03       c-0.59-0.03-1.19-0.09-1.78-0.11c-5.84-0.43-11.68-0.8-17.49-1.05c-13.13,0.17-26.31,1.19-39.35,2.86       c-12.84,2.61-25.68,5.75-38.21,9.81c-4.14,1.59-8.3,3.17-12.41,4.85L241.94,158.055z" data-fill-id="25" class="can-change"></path>
					
						<path style="fill-rule:evenodd;clip-rule:evenodd;fill:#FFFFFF;stroke:#6D6E71;stroke-width:0.34;stroke-linecap:round;stroke-linejoin:round;stroke-miterlimit:10;" d="       M240.74,153.575c-0.51,0.2-1.07-0.03-1.27-0.54c-0.2-0.51,0.03-1.07,0.54-1.27l0.14-0.06c4.02-1.64,8.11-3.2,12.19-4.73       c12.9-4.17,26.05-7.43,39.32-10.09c13.43-1.73,26.95-2.78,40.5-2.98c6.27,0.28,12.5,0.68,18.74,1.13       c0.57,0.06,1.13,0.09,1.7,0.12l0.34,0.03c0.57-0.03,1.02,0.36,1.08,0.9c0.05,0.54-0.37,1.02-0.91,1.08H353l-0.51-0.03       c-0.6-0.03-1.17-0.08-1.73-0.11c-6.24-0.45-12.45-0.85-18.65-1.14c-13.41,0.2-26.82,1.25-40.11,2.95       c-13.16,2.67-26.23,5.87-39.01,10.01c-4.02,1.53-8.08,3.06-12.1,4.68L240.74,153.575z" data-fill-id="24" class="can-change"></path>
					
						<path style="fill-rule:evenodd;clip-rule:evenodd;fill:#FFFFFF;stroke:#6D6E71;stroke-width:0.34;stroke-linecap:round;stroke-linejoin:round;stroke-miterlimit:10;" d="       M239.64,149.045c-0.4,0.17-0.85-0.06-1.02-0.46c-0.17-0.39,0.06-0.85,0.45-1.02l0.14-0.05c0.15-0.06,0.26-0.12,0.4-0.14       c3.74-1.51,7.54-2.95,11.31-4.37c13.13-4.25,26.53-7.54,40.03-10.29c13.69-1.76,27.46-2.83,41.24-3       c7.29,0.34,14.54,0.76,21.77,1.38l0.31,0.03c0.43,0.06,0.77,0.46,0.71,0.88c-0.06,0.43-0.45,0.77-0.88,0.71l-0.31-0.03       c-7.2-0.62-14.4-1.05-21.63-1.39c-13.66,0.17-27.38,1.25-40.93,2.98c-13.41,2.75-26.76,6.01-39.77,10.23       c-3.77,1.42-7.51,2.84-11.28,4.34c-0.12,0.03-0.26,0.08-0.4,0.14L239.64,149.045z" data-fill-id="23" class="can-change"></path>
					
						<path style="fill-rule:evenodd;clip-rule:evenodd;fill:#FFFFFF;stroke:#6D6E71;stroke-width:0.34;stroke-linecap:round;stroke-linejoin:round;stroke-miterlimit:10;" d="       M238.53,144.535c-0.34,0.11-0.7-0.03-0.82-0.37c-0.11-0.34,0.03-0.71,0.37-0.82l0.14-0.06c0.14-0.02,0.29-0.08,0.4-0.14       c3.63-1.42,7.26-2.8,10.88-4.17c13.38-4.3,27.05-7.62,40.79-10.46c13.95-1.75,27.93-2.86,41.96-3.03       c7.65,0.34,15.28,0.82,22.87,1.48l0.2,0.02h0.11c0.34,0.03,0.6,0.34,0.57,0.68s-0.34,0.6-0.68,0.57h-0.08l-0.23-0.03       c-7.6-0.65-15.19-1.13-22.79-1.47c-13.92,0.17-27.89,1.25-41.73,3.03c-13.66,2.78-27.27,6.12-40.56,10.41       c-3.63,1.33-7.23,2.72-10.86,4.13c-0.11,0.06-0.25,0.12-0.39,0.15L238.53,144.535z" data-fill-id="22" class="can-change"></path>
					
						<path style="fill-rule:evenodd;clip-rule:evenodd;fill:#FFFFFF;stroke:#6D6E71;stroke-width:0.34;stroke-linecap:round;stroke-linejoin:round;stroke-miterlimit:10;" d="       M237.54,140.085c-0.23,0.11-0.48,0.03-0.59-0.2c-0.12-0.22-0.03-0.48,0.19-0.59c0.17-0.09,0.37-0.17,0.54-0.26       c3.46-1.39,6.95-2.66,10.41-3.97c13.6-4.45,27.49-7.85,41.5-10.68c14.17-1.85,28.43-2.92,42.71-3.09       c8.05,0.37,16.08,0.88,24.07,1.58l0.31,0.03c0.26,0.03,0.46,0.23,0.43,0.48c-0.03,0.26-0.23,0.46-0.48,0.43l-0.32-0.03       c-7.99-0.71-16.01-1.22-24.03-1.59c-14.21,0.17-28.44,1.25-42.55,3.09c-13.92,2.81-27.78,6.21-41.33,10.63       c-3.46,1.31-6.92,2.58-10.35,3.97C237.88,139.945,237.71,140.025,237.54,140.085z" data-fill-id="21" class="can-change"></path>
					
						<path style="fill-rule:evenodd;clip-rule:evenodd;fill:#FFFFFF;stroke:#6D6E71;stroke-width:0.34;stroke-linecap:round;stroke-linejoin:round;stroke-miterlimit:10;" d="       M236.44,135.545c-0.15,0.06-0.32,0-0.37-0.14c-0.06-0.14,0-0.31,0.14-0.37c3.49-1.36,6.94-2.69,10.46-3.99       c13.83-4.45,27.95-8.05,42.24-10.83c14.4-1.93,28.94-2.98,43.45-3.15c8.56,0.26,17.09,0.88,25.6,1.7       c0.17,0.03,0.28,0.15,0.25,0.32c-0.03,0.17-0.14,0.28-0.31,0.25c-8.5-0.82-17.01-1.45-25.54-1.7       c-14.48,0.17-29,1.22-43.37,3.15c-14.23,2.75-28.32,6.35-42.15,10.8C243.35,132.855,239.89,134.215,236.44,135.545z" data-fill-id="20" class="can-change"></path>
				</g>
			</g>
			
				<use xmlns:xlink="http://www.w3.org/1999/xlink" xlink:href="#SVGID_1_" style="overflow:visible;fill-rule:evenodd;clip-rule:evenodd;fill:none;stroke:#6D6E71;stroke-width:0.34;stroke-linecap:round;stroke-linejoin:round;stroke-miterlimit:10;"></use>
		</g>
		
			<path style="fill-rule:evenodd;clip-rule:evenodd;fill:#E6E7E8;stroke:#6D6E71;stroke-width:0.31;stroke-linecap:round;stroke-linejoin:round;stroke-miterlimit:10;" d="    M21.17,167.125c0,0-1.41-0.68,7.77,1.93c9.13,2.61,29,4.54,31.63,10.69c0,0-8.84,0.9-23.04-2.81    c-14.17-3.68-19.36-6.92-19.36-6.92L21.17,167.125z" class="cannot-edit can-change"></path>
		<g>
			<defs>
				<path id="SVGID_3_" d="M119.71,7.995c-0.03-0.6,13.09,19.21,13.09,19.21c-6.46,3.21-22.05,13.72-26.96,18.03      c-4.87,4.34-20.29,18.71-20.29,18.71c-20.64,25.32-18.51,67.86-18.51,67.86l-11.28,28.69c-2.36-0.34-23.82-5.58-28.66-6.58      c-4.82-0.96-7.37-0.45-7.37-0.45c-0.14-7.43,2.61-11.91,3.77-36.82c1.16-24.89,7.28-46.24,12.75-59.78      c5.47-13.58,17.61-18.8,17.61-18.8s20.49-8.81,31.83-13.09C97,20.685,119.71,7.995,119.71,7.995z"></path>
			</defs>
			<use xmlns:xlink="http://www.w3.org/1999/xlink" xlink:href="#SVGID_3_" style="overflow:visible;fill-rule:evenodd;clip-rule:evenodd;fill:#FFFFFF;" class="can-change"></use>
			<clipPath id="SVGID_4_">
				<use xmlns:xlink="http://www.w3.org/1999/xlink" xlink:href="#SVGID_3_" style="overflow:visible;"></use>
			</clipPath>
			<g style="clip-path:url(#SVGID_4_);">
				<g>
					
						<path style="fill-rule:evenodd;clip-rule:evenodd;fill:#FFFFFF;stroke:#6D6E71;stroke-width:0.34;stroke-linecap:round;stroke-linejoin:round;stroke-miterlimit:10;" d="       M78.32,166.955c-3.12-1.33-6.26-2.58-9.41-3.8l-1.73,22.48c-0.6-0.08-60.27-8.87-60.18-11.82c0.09-2.89,2.38-22.31,2.52-23.41       c-6.26-0.46-12.55-0.74-18.82-0.82c-5.84,0.19-11.73,0.53-17.57,1.07c-0.83,0.09-1.56-0.54-1.65-1.36       c-0.08-0.82,0.54-1.56,1.36-1.64c5.93-0.54,11.85-0.88,17.83-1.08c12.79,0.17,25.54,1.11,38.27,2.78       c12.53,2.47,24.92,5.61,37.08,9.52c4.56,1.68,9.04,3.43,13.49,5.3c0.77,0.34,1.13,1.22,0.79,1.99       C79.96,166.925,79.09,167.295,78.32,166.955z" data-fill-id="38" class="can-change"></path>
					
						<path style="fill-rule:evenodd;clip-rule:evenodd;fill:#FFFFFF;stroke:#6D6E71;stroke-width:0.34;stroke-linecap:round;stroke-linejoin:round;stroke-miterlimit:10;" d="       M79.54,162.505l-0.14-0.05c-0.14-0.06-0.26-0.12-0.37-0.15c-4.14-1.67-8.31-3.28-12.45-4.84c-12.27-4-24.8-7.12-37.38-9.67       c-12.79-1.56-25.69-2.61-38.56-2.78c-5.81,0.23-11.65,0.57-17.49,1.02l-0.85,0.06l-0.34,0.03c-0.73,0.05-1.36-0.51-1.41-1.25       c-0.06-0.74,0.51-1.36,1.24-1.42l0.34-0.02l0.83-0.06c5.86-0.46,11.73-0.8,17.63-1.02c13.07,0.17,26.05,1.22,39.03,2.8       c12.78,2.61,25.43,5.76,37.84,9.78c4.23,1.59,8.39,3.21,12.56,4.88c0.11,0.06,0.23,0.11,0.34,0.14l0.14,0.06       c0.68,0.25,1.02,1.05,0.77,1.73C81.01,162.425,80.22,162.765,79.54,162.505z" data-fill-id="37" class="can-change"></path>
					
						<path style="fill-rule:evenodd;clip-rule:evenodd;fill:#FFFFFF;stroke:#6D6E71;stroke-width:0.34;stroke-linecap:round;stroke-linejoin:round;stroke-miterlimit:10;" d="       M80.67,158.055l-0.14-0.05c-4.11-1.68-8.28-3.26-12.42-4.85c-12.52-4.06-25.37-7.2-38.21-9.81       c-13.04-1.67-26.22-2.69-39.34-2.86c-5.81,0.25-11.65,0.62-17.49,1.05c-0.6,0.02-1.19,0.08-1.79,0.11l-0.51,0.03h-0.14       c-0.65-0.06-1.13-0.6-1.08-1.25c0.06-0.65,0.6-1.13,1.25-1.08l0.34-0.03c0.57-0.02,1.16-0.05,1.76-0.11       c5.84-0.42,11.71-0.79,17.6-1.05c13.33,0.17,26.56,1.19,39.77,2.89c13.04,2.67,25.97,5.82,38.61,9.93       c4.2,1.58,8.39,3.2,12.56,4.87l0.14,0.06c0.59,0.25,0.88,0.93,0.62,1.53C81.95,158.025,81.27,158.315,80.67,158.055z" data-fill-id="36" class="can-change"></path>
					
						<path style="fill-rule:evenodd;clip-rule:evenodd;fill:#FFFFFF;stroke:#6D6E71;stroke-width:0.34;stroke-linecap:round;stroke-linejoin:round;stroke-miterlimit:10;" d="       M81.86,153.575l-0.14-0.05c-4.02-1.62-8.08-3.15-12.1-4.68c-12.79-4.14-25.85-7.34-39.01-10.01       c-13.29-1.7-26.7-2.75-40.11-2.95c-6.21,0.29-12.41,0.69-18.65,1.14c-0.57,0.03-1.13,0.08-1.73,0.11l-0.51,0.03h-0.11       c-0.54-0.06-0.97-0.54-0.91-1.08c0.06-0.54,0.51-0.93,1.08-0.9l0.34-0.03c0.56-0.03,1.13-0.06,1.7-0.12       c6.23-0.45,12.47-0.85,18.74-1.13c13.55,0.2,27.07,1.25,40.5,2.98c13.27,2.66,26.42,5.92,39.32,10.09       c4.08,1.53,8.16,3.09,12.19,4.73l0.14,0.06c0.51,0.2,0.74,0.76,0.54,1.27C82.94,153.545,82.37,153.775,81.86,153.575z" data-fill-id="35" class="can-change"></path>
					
						<path style="fill-rule:evenodd;clip-rule:evenodd;fill:#FFFFFF;stroke:#6D6E71;stroke-width:0.34;stroke-linecap:round;stroke-linejoin:round;stroke-miterlimit:10;" d="       M82.97,149.045l-0.14-0.06c-0.14-0.06-0.29-0.11-0.4-0.14c-3.77-1.5-7.51-2.92-11.28-4.34c-13.01-4.22-26.36-7.48-39.77-10.23       c-13.55-1.73-27.27-2.81-40.93-2.98c-7.23,0.34-14.43,0.77-21.63,1.39l-0.31,0.03c-0.43,0.06-0.83-0.28-0.88-0.71       c-0.06-0.42,0.28-0.82,0.71-0.88l0.31-0.03c7.23-0.62,14.48-1.04,21.77-1.38c13.77,0.17,27.55,1.24,41.24,3       c13.49,2.75,26.9,6.04,40.03,10.29c3.77,1.42,7.57,2.86,11.31,4.37c0.14,0.02,0.25,0.08,0.39,0.14l0.15,0.05       c0.39,0.17,0.62,0.63,0.45,1.02C83.82,148.985,83.37,149.215,82.97,149.045z" data-fill-id="34" class="can-change"></path>
					
						<path style="fill-rule:evenodd;clip-rule:evenodd;fill:#FFFFFF;stroke:#6D6E71;stroke-width:0.34;stroke-linecap:round;stroke-linejoin:round;stroke-miterlimit:10;" d="       M84.07,144.535l-0.14-0.08c-0.14-0.03-0.28-0.09-0.39-0.15c-3.63-1.41-7.23-2.8-10.86-4.13c-13.3-4.29-26.9-7.63-40.57-10.41       c-13.83-1.78-27.8-2.86-41.72-3.03c-7.6,0.34-15.19,0.82-22.79,1.47l-0.23,0.03h-0.08c-0.34,0.03-0.66-0.23-0.68-0.57       c-0.03-0.34,0.22-0.65,0.56-0.68h0.12l0.2-0.02c7.59-0.66,15.22-1.14,22.87-1.48c14.03,0.17,28.01,1.28,41.95,3.03       c13.75,2.84,27.41,6.16,40.79,10.46c3.63,1.37,7.26,2.75,10.89,4.17c0.11,0.06,0.25,0.12,0.4,0.14l0.14,0.06       c0.34,0.11,0.48,0.48,0.37,0.82C84.78,144.505,84.41,144.645,84.07,144.535z" data-fill-id="33" class="can-change"></path>
					
						<path style="fill-rule:evenodd;clip-rule:evenodd;fill:#FFFFFF;stroke:#6D6E71;stroke-width:0.34;stroke-linecap:round;stroke-linejoin:round;stroke-miterlimit:10;" d="       M85.07,140.085c-0.17-0.06-0.34-0.14-0.51-0.2c-3.43-1.39-6.89-2.66-10.35-3.97c-13.55-4.42-27.41-7.82-41.33-10.63       c-14.12-1.84-28.35-2.92-42.55-3.09c-8.02,0.37-16.04,0.88-24.04,1.59l-0.31,0.03c-0.25,0.03-0.45-0.17-0.48-0.43       c-0.03-0.25,0.17-0.45,0.43-0.48l0.31-0.03c7.99-0.7,16.01-1.21,24.06-1.58c14.29,0.17,28.55,1.24,42.72,3.09       c14.01,2.83,27.89,6.23,41.5,10.68c3.46,1.31,6.95,2.58,10.4,3.97c0.17,0.09,0.37,0.17,0.54,0.26c0.23,0.11,0.31,0.37,0.2,0.59       C85.55,140.115,85.29,140.195,85.07,140.085z" data-fill-id="32" class="can-change"></path>
					
						<path style="fill-rule:evenodd;clip-rule:evenodd;fill:#FFFFFF;stroke:#6D6E71;stroke-width:0.34;stroke-linecap:round;stroke-linejoin:round;stroke-miterlimit:10;" d="       M86.17,135.545c-3.46-1.33-6.91-2.69-10.4-3.96c-13.83-4.45-27.92-8.05-42.15-10.8c-14.37-1.93-28.89-2.98-43.37-3.15       c-8.54,0.25-17.04,0.88-25.54,1.7c-0.17,0.03-0.29-0.08-0.31-0.25c-0.03-0.17,0.08-0.29,0.25-0.32       c8.5-0.82,17.04-1.44,25.6-1.7c14.51,0.17,29.05,1.22,43.45,3.15c14.29,2.78,28.41,6.38,42.24,10.83       c3.51,1.3,6.97,2.63,10.46,3.99c0.14,0.06,0.2,0.23,0.14,0.37S86.31,135.605,86.17,135.545z" data-fill-id="31" class="can-change"></path>
				</g>
			</g>
			
				<use xmlns:xlink="http://www.w3.org/1999/xlink" xlink:href="#SVGID_3_" style="overflow:visible;fill-rule:evenodd;clip-rule:evenodd;fill:none;stroke:#6D6E71;stroke-width:0.34;stroke-linecap:round;stroke-linejoin:round;stroke-miterlimit:10;"></use>
		</g>
		
			<path style="fill-rule:evenodd;clip-rule:evenodd;fill:#E6E7E8;stroke:#6D6E71;stroke-width:0.34;stroke-linecap:round;stroke-linejoin:round;stroke-miterlimit:10;" d="    M161.89,359.375c-1.54,0.08-50.49,2.35-77.08-21.46c-0.11-0.14-11.65-13.07-12.05-20.1c0.03-0.03,2.19-4.62,13.33-5.33    c11.17-0.73,75.82-0.9,75.77-0.9c-0.09,0,64.65,0.17,75.8,0.9c11.16,0.71,13.32,5.3,13.35,5.33c-0.43,7.03-11.94,19.96-12.05,20.1    C212.37,361.725,163.42,359.455,161.89,359.375z" class="cannot-edit can-change"></path>
		<g>
			<defs>
				<path id="SVGID_5_" d="M132.8,27.205c7.49,8.14,17.07,12.93,28.97,12.7l0.09,271.68c-25.52,0.05-80.28,1.67-80.28,1.67      c7.65-75.23,7.31-110.98-0.09-145.25c-7.37-34.24-14.45-36.2-14.45-36.2c-2.35-39.06,14.23-63.21,18.51-67.86      c1.42-2.04,11.88-10.63,20.29-18.71C114.29,37.185,132.8,27.205,132.8,27.205z"></path>
			</defs>
			<use xmlns:xlink="http://www.w3.org/1999/xlink" xlink:href="#SVGID_5_" style="overflow: visible; fill-rule: evenodd; clip-rule: evenodd; fill: rgb(237, 28, 36);" class="can-change filled"></use>
			<clipPath id="SVGID_6_">
				<use xmlns:xlink="http://www.w3.org/1999/xlink" xlink:href="#SVGID_5_" style="overflow:visible;"></use>
			</clipPath>
			<g style="clip-path:url(#SVGID_6_);">
				<g>
					
						<path style="fill-rule: evenodd; clip-rule: evenodd; fill: rgb(0, 102, 179); stroke: rgb(109, 110, 113); stroke-width: 0.34; stroke-linecap: round; stroke-linejoin: round; stroke-miterlimit: 10;" d="       M165.46,134.645l-105.88-15.85c-0.71-0.11-1.22-0.79-1.1-1.5c0.11-0.71,0.79-1.22,1.5-1.11l105.87,15.85       c0.71,0.11,1.22,0.79,1.11,1.5C166.85,134.245,166.17,134.755,165.46,134.645z" class="can-change filled"></path>
					
						<path style="fill-rule: evenodd; clip-rule: evenodd; fill: rgb(0, 102, 179); stroke: rgb(109, 110, 113); stroke-width: 0.34; stroke-linecap: round; stroke-linejoin: round; stroke-miterlimit: 10;" d="       M165.49,130.105l-105.88-15.84c-0.65-0.09-1.08-0.68-0.99-1.34c0.08-0.65,0.68-1.07,1.33-0.99l105.88,15.85       c0.65,0.08,1.07,0.68,0.99,1.33C166.73,129.765,166.14,130.195,165.49,130.105z" class="can-change filled"></path>
					
						<path style="fill-rule: evenodd; clip-rule: evenodd; fill: rgb(0, 102, 179); stroke: rgb(109, 110, 113); stroke-width: 0.34; stroke-linecap: round; stroke-linejoin: round; stroke-miterlimit: 10;" d="       M165.51,125.545l-105.87-15.85c-0.54-0.08-0.94-0.59-0.85-1.13c0.08-0.54,0.59-0.94,1.13-0.85l105.88,15.84       c0.54,0.09,0.93,0.6,0.85,1.14C166.56,125.235,166.05,125.625,165.51,125.545z" class="can-change filled"></path>
					
						<path style="fill-rule: evenodd; clip-rule: evenodd; fill: rgb(0, 102, 179); stroke: rgb(109, 110, 113); stroke-width: 0.34; stroke-linecap: round; stroke-linejoin: round; stroke-miterlimit: 10;" d="       M165.54,120.955l-105.87-15.85c-0.43-0.06-0.74-0.48-0.68-0.91c0.05-0.42,0.48-0.73,0.9-0.68l105.88,15.85       c0.42,0.06,0.74,0.48,0.68,0.91C166.39,120.695,165.97,121.005,165.54,120.955z" class="can-change filled"></path>
					
						<path style="fill-rule: evenodd; clip-rule: evenodd; fill: rgb(0, 102, 179); stroke: rgb(109, 110, 113); stroke-width: 0.34; stroke-linecap: round; stroke-linejoin: round; stroke-miterlimit: 10;" d="       M165.57,116.385L59.7,100.545c-0.34-0.06-0.6-0.37-0.54-0.71c0.05-0.34,0.37-0.6,0.71-0.54l105.87,15.85       c0.34,0.05,0.6,0.36,0.54,0.7C166.22,116.185,165.91,116.445,165.57,116.385z" class="can-change filled"></path>
					
						<path style="fill-rule: evenodd; clip-rule: evenodd; fill: rgb(0, 102, 179); stroke: rgb(109, 110, 113); stroke-width: 0.34; stroke-linecap: round; stroke-linejoin: round; stroke-miterlimit: 10;" d="       M165.6,111.825L59.72,95.975c-0.25-0.03-0.42-0.25-0.39-0.51c0.03-0.25,0.25-0.42,0.51-0.39l105.87,15.84       c0.26,0.03,0.43,0.26,0.4,0.51C166.08,111.685,165.85,111.855,165.6,111.825z" class="can-change filled"></path>
					
						<path style="fill-rule: evenodd; clip-rule: evenodd; fill: rgb(0, 102, 179); stroke: rgb(109, 110, 113); stroke-width: 0.34; stroke-linecap: round; stroke-linejoin: round; stroke-miterlimit: 10;" d="       M165.63,107.265L59.75,91.415c-0.17-0.03-0.28-0.14-0.25-0.31s0.14-0.29,0.31-0.26l105.87,15.85c0.17,0.03,0.29,0.14,0.26,0.31       C165.91,107.175,165.8,107.285,165.63,107.265z" class="can-change selected filled"></path>
					
						<path style="fill-rule: evenodd; clip-rule: evenodd; fill: rgb(0, 102, 179); stroke: rgb(109, 110, 113); stroke-width: 0.34; stroke-linecap: round; stroke-linejoin: round; stroke-miterlimit: 10;" d="       M31.6,127.925v-1.13l0.17-5.05l133.12,20.64v6.01L31.6,127.925z" class="can-change filled"></path>
					
						<path style="fill-rule: evenodd; clip-rule: evenodd; fill: rgb(0, 102, 179); stroke: rgb(109, 110, 113); stroke-width: 0.34; stroke-linecap: round; stroke-linejoin: round; stroke-miterlimit: 10;" d="       M31.43,134.075v-1.13l0.15-5.02l133.31,20.47v6.03L31.43,134.075z" class="can-change filled"></path>
					
						<path style="fill-rule: evenodd; clip-rule: evenodd; fill: rgb(0, 102, 179); stroke: rgb(109, 110, 113); stroke-width: 0.34; stroke-linecap: round; stroke-linejoin: round; stroke-miterlimit: 10;" d="       M165.57,139.205l-0.65,6.21h-0.03v-3.03l-106.61-16.53l0.03-4.19c0.11-0.83,0.88-1.37,1.7-1.25l105.87,15.84       c0.82,0.12,1.36,0.88,1.25,1.7C167.02,138.725,166.34,139.265,165.57,139.205z" class="can-change filled"></path>
				</g>
			</g>
			
				<use xmlns:xlink="http://www.w3.org/1999/xlink" xlink:href="#SVGID_5_" style="overflow:visible;fill-rule:evenodd;clip-rule:evenodd;fill:none;stroke:#6D6E71;stroke-width:0.34;stroke-linecap:round;stroke-linejoin:round;stroke-miterlimit:10;"></use>
		</g>
		<g>
			<defs>
				<path id="SVGID_7_" d="M190.77,27.355c0,0,18.48,9.83,26.93,17.88c8.45,8.08,18.88,16.67,20.3,18.71      c4.3,4.65,20.86,28.8,18.51,67.86c0,0-6.21,4.4-14.46,36.2c-7.37,34.27-7.71,70.02-0.06,145.25c0,0-54.76-1.62-80.28-1.67      l0.06-271.68C168.86,39.855,179.74,39.205,190.77,27.355z"></path>
			</defs>
			<use xmlns:xlink="http://www.w3.org/1999/xlink" xlink:href="#SVGID_7_" style="fill-rule: evenodd; clip-rule: evenodd; fill: rgb(237, 28, 36); stroke: rgb(109, 110, 113); stroke-width: 0.34; stroke-linecap: round; stroke-linejoin: round; stroke-miterlimit: 10;" data-fill-id="1" class="can-change filled"></use>
			<clipPath id="SVGID_8_">
				<use xmlns:xlink="http://www.w3.org/1999/xlink" xlink:href="#SVGID_7_" style="overflow:visible;"></use>
			</clipPath>
			<g style="clip-path:url(#SVGID_8_);">
				<g>
					
						<path style="fill-rule: evenodd; clip-rule: evenodd; fill: rgb(0, 102, 179); stroke: rgb(109, 110, 113); stroke-width: 0.34; stroke-linecap: round; stroke-linejoin: round; stroke-miterlimit: 10;" d="       M158.06,134.645c-0.71,0.11-1.39-0.4-1.5-1.11c-0.12-0.71,0.39-1.39,1.1-1.5l105.88-15.85c0.7-0.11,1.38,0.4,1.5,1.11       c0.11,0.71-0.4,1.39-1.11,1.5L158.06,134.645z" class="can-change filled"></path>
					
						<path style="fill-rule: evenodd; clip-rule: evenodd; fill: rgb(0, 102, 179); stroke: rgb(109, 110, 113); stroke-width: 0.34; stroke-linecap: round; stroke-linejoin: round; stroke-miterlimit: 10;" d="       M158.03,130.105c-0.65,0.09-1.25-0.34-1.33-0.99c-0.09-0.65,0.34-1.25,0.99-1.33l105.87-15.85c0.66-0.08,1.25,0.34,1.34,0.99       c0.08,0.66-0.34,1.25-1,1.34L158.03,130.105z" class="can-change filled"></path>
					
						<path style="fill-rule: evenodd; clip-rule: evenodd; fill: rgb(0, 102, 179); stroke: rgb(109, 110, 113); stroke-width: 0.34; stroke-linecap: round; stroke-linejoin: round; stroke-miterlimit: 10;" d="       M158,125.545c-0.54,0.08-1.05-0.31-1.13-0.85c-0.09-0.54,0.31-1.05,0.85-1.14l105.87-15.84c0.54-0.09,1.05,0.31,1.14,0.85       c0.08,0.54-0.32,1.05-0.85,1.13L158,125.545z" class="can-change filled"></path>
					
						<path style="fill-rule: evenodd; clip-rule: evenodd; fill: rgb(0, 102, 179); stroke: rgb(109, 110, 113); stroke-width: 0.34; stroke-linecap: round; stroke-linejoin: round; stroke-miterlimit: 10;" d="       M157.97,120.955c-0.42,0.05-0.85-0.26-0.9-0.68c-0.06-0.43,0.25-0.85,0.68-0.91l105.87-15.85c0.43-0.05,0.85,0.26,0.91,0.68       c0.05,0.43-0.26,0.85-0.68,0.91L157.97,120.955z" class="can-change filled"></path>
					
						<path style="fill-rule: evenodd; clip-rule: evenodd; fill: rgb(0, 102, 179); stroke: rgb(109, 110, 113); stroke-width: 0.34; stroke-linecap: round; stroke-linejoin: round; stroke-miterlimit: 10;" d="       M157.94,116.385c-0.34,0.06-0.65-0.2-0.7-0.54c-0.06-0.34,0.19-0.65,0.53-0.7l105.88-15.85c0.34-0.06,0.65,0.2,0.71,0.54       c0.05,0.34-0.2,0.65-0.54,0.71L157.94,116.385z" class="can-change filled"></path>
					
						<path style="fill-rule: evenodd; clip-rule: evenodd; fill: rgb(0, 102, 179); stroke: rgb(109, 110, 113); stroke-width: 0.34; stroke-linecap: round; stroke-linejoin: round; stroke-miterlimit: 10;" d="       M157.92,111.825c-0.26,0.03-0.49-0.14-0.51-0.4c-0.03-0.25,0.14-0.48,0.39-0.51l105.88-15.84c0.25-0.03,0.48,0.14,0.51,0.39       c0.03,0.26-0.14,0.48-0.4,0.51L157.92,111.825z" class="can-change filled"></path>
					
						<path style="fill-rule: evenodd; clip-rule: evenodd; fill: rgb(0, 102, 179); stroke: rgb(109, 110, 113); stroke-width: 0.34; stroke-linecap: round; stroke-linejoin: round; stroke-miterlimit: 10;" d="       M157.89,107.265c-0.17,0.02-0.29-0.09-0.31-0.26c-0.03-0.17,0.08-0.28,0.25-0.31l105.88-15.85c0.17-0.03,0.28,0.09,0.31,0.26       s-0.09,0.28-0.26,0.31L157.89,107.265z" class="can-change filled"></path>
					
						<path style="fill-rule: evenodd; clip-rule: evenodd; fill: rgb(0, 102, 179); stroke: rgb(109, 110, 113); stroke-width: 0.34; stroke-linecap: round; stroke-linejoin: round; stroke-miterlimit: 10;" d="       M291.91,127.925l-133.28,20.47v-6.01l133.11-20.64l0.17,5.05V127.925z" class="can-change filled"></path>
					
						<path style="fill-rule: evenodd; clip-rule: evenodd; fill: rgb(0, 102, 179); stroke: rgb(109, 110, 113); stroke-width: 0.34; stroke-linecap: round; stroke-linejoin: round; stroke-miterlimit: 10;" d="       M292.08,134.075l-133.45,20.35v-6.03l133.31-20.47l0.14,5.02V134.075z" class="can-change filled"></path>
					
						<path style="fill-rule: evenodd; clip-rule: evenodd; fill: rgb(0, 102, 179); stroke: rgb(109, 110, 113); stroke-width: 0.34; stroke-linecap: round; stroke-linejoin: round; stroke-miterlimit: 10;" d="       M157.94,139.205c-0.76,0.06-1.44-0.48-1.55-1.25c-0.12-0.82,0.42-1.58,1.24-1.7l105.88-15.84c0.82-0.12,1.58,0.42,1.7,1.25       l0.03,4.19l-106.61,16.53v3.03h-0.03L157.94,139.205z" class="can-change filled"></path>
				</g>
			</g>
			
				<use xmlns:xlink="http://www.w3.org/1999/xlink" xlink:href="#SVGID_7_" style="overflow:visible;fill-rule:evenodd;clip-rule:evenodd;fill:none;stroke:#6D6E71;stroke-width:0.34;stroke-linecap:round;stroke-linejoin:round;stroke-miterlimit:10;"></use>
		</g>
		
			<path style="fill-rule:evenodd;clip-rule:evenodd;fill:none;stroke:#6D6E71;stroke-width:0.34;stroke-linecap:round;stroke-linejoin:round;stroke-miterlimit:10;" d="    M84.24,328.585c0-1.07,1.7-15.47,1.7-15.47"></path>
		
			<path style="fill-rule:evenodd;clip-rule:evenodd;fill:none;stroke:#6D6E71;stroke-width:0.34;stroke-linecap:round;stroke-linejoin:round;stroke-miterlimit:10;" d="    M239.13,328.585c0-1.07-1.7-15.47-1.7-15.47"></path>
		
			<path style="fill-rule:evenodd;clip-rule:evenodd;fill:none;stroke:#6D6E71;stroke-width:0.34;stroke-linecap:round;stroke-linejoin:round;stroke-miterlimit:10;" d="    M85.15,320.225c0,0,68.15,31.92,152.9-0.03"></path>
		
			<path style="fill-rule:evenodd;clip-rule:evenodd;fill:none;stroke:#6D6E71;stroke-width:0.34;stroke-linecap:round;stroke-linejoin:round;stroke-miterlimit:10;" d="    M129.91,332.215l-1.05-20.12"></path>
		
			<path style="fill-rule:evenodd;clip-rule:evenodd;fill:none;stroke:#6D6E71;stroke-width:0.34;stroke-linecap:round;stroke-linejoin:round;stroke-miterlimit:10;" d="    M131.24,312.265l1.11,20.15"></path>
		
			<path style="fill-rule:evenodd;clip-rule:evenodd;fill:none;stroke:#6D6E71;stroke-width:0.34;stroke-linecap:round;stroke-linejoin:round;stroke-miterlimit:10;" d="    M193.41,331.905l1.1-19.87"></path>
		
			<path style="fill-rule:evenodd;clip-rule:evenodd;fill:none;stroke:#6D6E71;stroke-width:0.34;stroke-linecap:round;stroke-linejoin:round;stroke-miterlimit:10;" d="    M192.07,311.975l-1.1,20.27"></path>
		
			<path style="fill-rule:evenodd;clip-rule:evenodd;fill:#FFFFFF;stroke:#6D6E71;stroke-width:0.34;stroke-linecap:round;stroke-linejoin:round;stroke-miterlimit:10;" d="    M80.73,167.355l0.68,0.28v-0.05c2.13,0.76,4.48,1.75,6.66,2.94l0.03,0.03c9.04,26.39,18.88,70.25,24.6,141.99    c-16.95,0.4-30.84,0.71-31.12,0.71c-0.06,0-5.24,0.08-8.82,4.56c0-0.37,3.94-40.82,4.99-65.7c0-18.37,0.68-51.28-4.31-86.83    l3.6,0.79L80.73,167.355z" data-fill-id="5" class="can-change"></path>
		
			<path style="fill-rule:evenodd;clip-rule:evenodd;fill:#FFFFFF;stroke:#6D6E71;stroke-width:0.34;stroke-linecap:round;stroke-linejoin:round;stroke-miterlimit:10;" d="    M243.04,167.385l3.46-1.11l3.63-0.88c-4.99,35.55-4.31,68.46-4.31,86.83c1.05,24.89,4.99,65.34,4.99,65.71    c-3.57-4.48-8.76-4.57-8.82-4.57c-0.28,0-14.17-0.45-31.12-0.85c5.72-71.74,15.56-115.45,24.6-141.84l0.03-0.03    c2.18-1.19,4.54-2.18,6.66-2.95v0.06C242.19,167.635,243.01,167.495,243.04,167.385z" data-fill-id="2" class="can-change"></path>
		
			<path style="fill-rule:evenodd;clip-rule:evenodd;fill:#FFFFFF;stroke:#6D6E71;stroke-width:0.34;stroke-linecap:round;stroke-linejoin:round;stroke-miterlimit:10;" d="    M73.44,165.285c-0.99-7.06-2.35-14.03-4.08-20.75l-4.28,20.67c-0.05-0.06-2.49-2.67-7.74-4.17l-1.58-0.54l11.31-28.8    c0.08,0.06,10.51,7.97,21,38.83C83.54,168.375,78.72,166.275,73.44,165.285z" data-fill-id="6" class="can-change"></path>
		
			<path style="fill-rule:evenodd;clip-rule:evenodd;fill:#FFFFFF;stroke:#6D6E71;stroke-width:0.34;stroke-linecap:round;stroke-linejoin:round;stroke-miterlimit:10;" d="    M250.13,165.395c-5.27,1-10.09,3.09-14.63,5.25c10.49-30.87,20.92-38.78,21.01-38.84l11.31,28.8l-1.59,0.54    c-5.25,1.5-7.68,4.11-7.74,4.17l-4.28-20.67C252.48,151.365,251.12,158.345,250.13,165.395z" data-fill-id="3" class="can-change"></path>
		
			<path style="fill-rule:evenodd;clip-rule:evenodd;fill:#D1D3D4;stroke:#000000;stroke-width:2.83;stroke-linecap:round;stroke-linejoin:round;stroke-miterlimit:10;" d="    M119.71,7.995c0,0,18.62-6.52,42.06-6.58c23.44-0.06,42.1,6.58,42.1,6.58l-13.1,19.36c-12.98,13.52-29,12.55-29,12.55    c-18.96,0-28.97-12.7-28.97-12.7L119.71,7.995z" class="cannot-edit can-change"></path>
		
			<path style="fill-rule:evenodd;clip-rule:evenodd;fill:none;stroke:#6D6E71;stroke-width:1.02;stroke-linecap:round;stroke-linejoin:round;stroke-miterlimit:10;" d="    M161.71,313.965l0.06-274.42"></path>
		
			<path style="fill-rule:evenodd;clip-rule:evenodd;fill:none;stroke:#6D6E71;stroke-width:0.34;stroke-linecap:round;stroke-linejoin:round;stroke-miterlimit:10;" d="    M163.9,313.965l0.05-274.42"></path>
		
			<path style="fill-rule:evenodd;clip-rule:evenodd;fill:none;stroke:#6D6E71;stroke-width:0.34;stroke-linecap:round;stroke-linejoin:round;stroke-miterlimit:10;" d="    M159.56,313.965l0.09-274.42"></path>
		<g>
			<path style="fill-rule:evenodd;clip-rule:evenodd;fill:#FFFFFF;" d="M161.8,43.315h0.79c0,0,0.15-0.23,0.17-0.68     c0.03-0.4,0.15-0.4,0.15-0.4s0.31-0.29,0.42-0.34c0.17-0.12,0.14-0.34,0.14-0.34s0-0.34,0-0.8c-0.03-0.45-0.14-0.51-0.14-0.51     l-1.02-1.04v-0.52l-0.54-0.02l-0.54,0.02v0.52l-1.02,1.04c0,0-0.11,0.06-0.14,0.51c0,0.46,0,0.8,0,0.8s-0.03,0.22,0.14,0.34     c0.14,0.05,0.46,0.34,0.46,0.34s0.08,0,0.11,0.4c0.06,0.45,0.17,0.68,0.17,0.68H161.8" class="can-change"></path>
			<path style="fill-rule:evenodd;clip-rule:evenodd;" d="M161.8,43.315h0.79c0,0,0.15-0.23,0.17-0.68c0-0.2,0.03-0.32,0.06-0.35     l0.09-0.05c0,0,0.31-0.29,0.42-0.34c0.11-0.09,0.14-0.26,0.14-0.31v-0.03c0,0,0-0.14,0-0.4c0-0.11,0-0.25,0-0.4     c-0.03-0.45-0.14-0.53-0.14-0.53l-1.02-1.02v-0.52l-0.54-0.02l-0.54,0.02v0.52l-1.02,1.04c0,0-0.11,0.06-0.14,0.51     c0,0.15,0,0.29,0,0.4c0,0.26,0,0.4,0,0.4v0.03c0,0.05,0.03,0.22,0.14,0.31c0.14,0.05,0.46,0.34,0.46,0.34l0.05,0.05     c0.03,0.03,0.06,0.15,0.06,0.35c0.06,0.45,0.17,0.68,0.17,0.68H161.8h-0.85c0,0-0.11-0.23-0.17-0.68c0-0.2-0.03-0.32-0.06-0.35     l-0.05-0.05c0,0-0.32-0.29-0.46-0.34c-0.11-0.09-0.14-0.26-0.14-0.31v-0.03c0,0,0-0.14,0-0.4c0-0.11,0-0.25,0-0.4     c0.03-0.45,0.14-0.53,0.14-0.53l1.02-1.02v-0.52l0.54-0.02l0.54,0.02v0.52l1.02,1.02c0,0,0.11,0.08,0.14,0.53     c0,0.15,0,0.29,0,0.4c0,0.26,0,0.4,0,0.4v0.03c0,0.05-0.03,0.22-0.14,0.31c-0.11,0.05-0.42,0.34-0.42,0.34l-0.09,0.05     c-0.03,0.03-0.06,0.15-0.06,0.35c-0.02,0.45-0.17,0.68-0.17,0.68H161.8z" class="can-change"></path>
			<path style="fill-rule:evenodd;clip-rule:evenodd;" d="M161.43,38.915h0.68v3.15h-0.68V38.915v3.15h0.68v-3.15H161.43z" class="can-change"></path>
			<path style="fill-rule:evenodd;clip-rule:evenodd;fill:#FFFFFF;" d="M161.74,43.845l1.36-0.02c0,0,0.03-2.36,0.12-2.61     c0.03-0.26-0.14-0.31-0.14-0.31h-1.34h-1.3c0,0-0.2,0.05-0.11,0.31c0.05,0.25,0.08,2.61,0.08,2.61L161.74,43.845" class="can-change"></path>
			<path style="fill-rule:evenodd;clip-rule:evenodd;" d="M161.77,43.825h1.33c0,0,0.03-2.36,0.12-2.61v-0.09     c0-0.2-0.14-0.22-0.14-0.22h-1.34h-1.3c0,0-0.11,0.02-0.11,0.22v0.09c0.05,0.25,0.08,2.61,0.08,2.61H161.77h-1.36     c0,0-0.03-2.36-0.08-2.61v-0.09c0-0.2,0.11-0.22,0.11-0.22h1.3h1.34c0,0,0.14,0.02,0.14,0.22v0.09     c-0.09,0.25-0.12,2.61-0.12,2.61H161.77z" class="can-change"></path>
			<path style="fill-rule:evenodd;clip-rule:evenodd;fill:#4F5053;" d="M162.4,47.615h-1.28c-0.57-0.11-0.54-0.96-0.54-0.96     l-0.17-2.83h2.69l-0.17,2.83C162.93,46.655,162.93,47.505,162.4,47.615z" class="can-change"></path>
			<path style="fill-rule:evenodd;clip-rule:evenodd;" d="M162.4,47.615c0.53-0.11,0.53-0.9,0.53-0.96l0.17-2.83h-2.69l0.17,2.83     c0,0.06,0,0.85,0.54,0.96H162.4h-1.28c-0.54-0.11-0.54-0.9-0.54-0.96l-0.17-2.83h2.69l-0.17,2.83     C162.93,46.715,162.93,47.505,162.4,47.615z" class="can-change"></path>
			<path style="fill-rule:evenodd;clip-rule:evenodd;" d="M162.2,43.625c0.08-0.63,0.28-1.02,0.62-1.48v-0.85h-2.13v0.85     c0.34,0.46,0.54,0.85,0.66,1.48H162.2h-0.85c-0.12-0.63-0.32-1.02-0.66-1.48v-0.85h2.13v0.85     C162.48,42.605,162.28,42.995,162.2,43.625z" class="can-change"></path>
			<path style="fill-rule:evenodd;clip-rule:evenodd;" d="M160.78,40.305h0.65v0.62h-0.65V40.305v0.62h0.65v-0.62H160.78z" class="can-change"></path>
			<path style="fill-rule:evenodd;clip-rule:evenodd;" d="M162.11,40.305h0.63v0.62h-0.63V40.305v0.62h0.63v-0.62H162.11z" class="can-change"></path>
			<path style="fill-rule:evenodd;clip-rule:evenodd;" d="M162.11,41.125h0.63v0.63h-0.63V41.125v0.63h0.63v-0.63H162.11z" class="can-change"></path>
			<path style="fill-rule:evenodd;clip-rule:evenodd;" d="M160.78,41.125h0.65v0.63h-0.65V41.125v0.63h0.65v-0.63H160.78z" class="can-change"></path>
		</g>
		
			<path style="fill-rule:evenodd;clip-rule:evenodd;fill:#FFFFFF;stroke:#6D6E71;stroke-width:0.34;stroke-linecap:round;stroke-linejoin:round;stroke-miterlimit:10;" d="    M165.14,37.525c0,0,1.65,0.54,1.22,1.82c-0.39,1.24-0.76,4.31-5.69,6.91c0,0-2.64,1.28-2.73-1.53c-0.11-2.78-0.14-5.27-0.08-5.52    c0.08-0.26-0.54-1.82,1.45-1.68C161.26,37.665,165.14,37.525,165.14,37.525z" class="can-change"></path>
		
			<path style="fill-rule:evenodd;clip-rule:evenodd;fill:none;stroke:#6D6E71;stroke-width:0.34;stroke-linecap:round;stroke-linejoin:round;stroke-miterlimit:10;" d="    M158.74,37.725c0,0,0,7.31,0.48,7.46c0.48,0.14,4.96-1.59,6.15-6.61"></path>
		
			<path style="fill-rule: evenodd;clip-rule: evenodd;fill: #E4E5E6;stroke: rgb(0, 0, 0);stroke-width: 2.83;stroke-linecap: round;stroke-linejoin: round;stroke-miterlimit: 10;" d="    M72.76,317.815c0,0,2.47-4.5,13.18-4.7c10.72-0.2,70.5-1.65,75.77-1.53c0,0,51.88,0.56,80.28,1.78c0,0,5.84,0.14,8.82,4.57    c0,0-7.29,41.55-85.24,41.55s-88.19-29.56-92.3-39.34L72.76,317.815z" class="cannot-edit can-change"></path>
		<g>
			<defs>
				<path id="SVGID_9_" d="M65.08,165.205l-4.51,14.65c0,0-2.72-2.07-7.39-3.54c-4.68-1.48-31.16-6.3-31.16-6.3s-2.24-0.31-3.85,0      l1.56-16.55c0,0,3.23-0.31,7.37,0.45c4.14,0.77,30.24,7.12,30.24,7.12s5.19,1.84,6.47,3L65.08,165.205z"></path>
			</defs>
			<use xmlns:xlink="http://www.w3.org/1999/xlink" xlink:href="#SVGID_9_" style="overflow:visible;fill-rule:evenodd;clip-rule:evenodd;fill:#FFFFFF;" data-fill-id="39" class="can-change"></use>
			<clipPath id="SVGID_10_">
				<use xmlns:xlink="http://www.w3.org/1999/xlink" xlink:href="#SVGID_9_" style="overflow:visible;"></use>
			</clipPath>
			<g style="clip-path:url(#SVGID_10_);">
				<g>
					
						<path style="fill-rule:evenodd;clip-rule:evenodd;fill:#FFFFFF;stroke:#6D6E71;stroke-width:0.34;stroke-linecap:round;stroke-linejoin:round;stroke-miterlimit:10;" d="       M12.92,166.275c0,0,2.56-2.46,12.19-0.54c9.64,1.93,25.43,4.91,25.43,4.91l3.06,0.79c0,0,6.66,1.05,10.23,5.36       c0,0-6.54,10.86-8.22,10.77c-1.67-0.08-36.36-2.72-36.79-2.81C18.37,184.675,12.92,166.275,12.92,166.275z" data-fill-id="40" class="can-change"></path>
					
						<path style="fill-rule:evenodd;clip-rule:evenodd;fill:#FFFFFF;stroke:#6D6E71;stroke-width:0.34;stroke-linecap:round;stroke-linejoin:round;stroke-miterlimit:10;" d="       M12.92,168.605c0,0,2.47-2.38,11.82-0.51c9.36,1.87,24.67,4.76,24.67,4.76l2.97,0.76c0,0,6.47,1.02,9.95,5.19       c0,0-6.38,10.55-7.99,10.46c-1.62-0.08-35.29-2.63-35.72-2.72C18.2,186.465,12.92,168.605,12.92,168.605z" data-fill-id="41" class="can-change"></path>
				</g>
			</g>
			
				<use xmlns:xlink="http://www.w3.org/1999/xlink" xlink:href="#SVGID_9_" style="overflow:visible;fill-rule:evenodd;clip-rule:evenodd;fill:none;stroke:#6D6E71;stroke-width:0.34;stroke-linecap:round;stroke-linejoin:round;stroke-miterlimit:10;"></use>
		</g>
		
			<path style="fill-rule:evenodd;clip-rule:evenodd;fill:#E6E7E8;stroke:#6D6E71;stroke-width:0.31;stroke-linecap:round;stroke-linejoin:round;stroke-miterlimit:10;" d="    M302.4,167.245l3,2.89c0,0-5.18,3.23-19.36,6.91c-14.2,3.72-23.04,2.81-23.04,2.81c2.63-6.15,22.5-8.08,31.63-10.69    C303.82,166.565,302.4,167.245,302.4,167.245z" class="cannot-edit can-change"></path>
		<g>
			<defs>
				<path id="SVGID_11_" d="M258.49,165.315l1.28-1.16c1.27-1.17,6.46-3.01,6.46-3.01s26.11-6.35,30.24-7.11      c4.14-0.77,7.37-0.46,7.37-0.46l1.56,16.56c-1.61-0.31-3.85,0-3.85,0s-26.48,4.82-31.15,6.29c-4.68,1.47-7.4,3.54-7.4,3.54      L258.49,165.315z"></path>
			</defs>
			<use xmlns:xlink="http://www.w3.org/1999/xlink" xlink:href="#SVGID_11_" style="overflow:visible;fill-rule:evenodd;clip-rule:evenodd;fill:#FFFFFF;" data-fill-id="28" class="can-change"></use>
			<clipPath id="SVGID_12_">
				<use xmlns:xlink="http://www.w3.org/1999/xlink" xlink:href="#SVGID_11_" style="overflow:visible;"></use>
			</clipPath>
			<g style="clip-path:url(#SVGID_12_);">
				<g>
					
						<path style="fill-rule:evenodd;clip-rule:evenodd;fill:#FFFFFF;stroke:#6D6E71;stroke-width:0.34;stroke-linecap:round;stroke-linejoin:round;stroke-miterlimit:10;" d="       M309.68,166.275c0,0-5.44,18.4-5.89,18.48c-0.43,0.09-35.12,2.73-36.8,2.81c-1.67,0.09-8.22-10.77-8.22-10.77       c3.57-4.31,10.24-5.36,10.24-5.36l3.06-0.79c0,0,15.79-2.98,25.42-4.91C307.13,163.815,309.68,166.275,309.68,166.275z" data-fill-id="29" class="can-change"></path>
					
						<path style="fill-rule:evenodd;clip-rule:evenodd;fill:#FFFFFF;stroke:#6D6E71;stroke-width:0.34;stroke-linecap:round;stroke-linejoin:round;stroke-miterlimit:10;" d="       M309.68,168.605c0,0-5.27,17.86-5.69,17.94c-0.43,0.09-34.1,2.64-35.72,2.72c-1.62,0.09-7.99-10.46-7.99-10.46       c3.48-4.17,9.95-5.19,9.95-5.19l2.97-0.76c0,0,15.31-2.89,24.66-4.76C307.22,166.225,309.68,168.605,309.68,168.605z" data-fill-id="30" class="can-change"></path>
				</g>
			</g>
			
				<use xmlns:xlink="http://www.w3.org/1999/xlink" xlink:href="#SVGID_11_" style="overflow:visible;fill-rule:evenodd;clip-rule:evenodd;fill:none;stroke:#6D6E71;stroke-width:0.34;stroke-linecap:round;stroke-linejoin:round;stroke-miterlimit:10;"></use>
		</g>
		<g>
			<path style="fill-rule:evenodd;clip-rule:evenodd;" d="M172.6,92.901l0.095-4.976l2.16-0.342l-0.023,1.419l1.523-0.241     l0.035-1.421l3.889-0.616l-0.046,2.881c-0.006,0.037-0.006,0.079-0.005,0.122l0.083-0.013l1.18-0.187     c0.071-0.011,0.153-0.024,0.219-0.071c0.042-0.079,0.045-0.177,0.049-0.262l0.048-2.712l4.29-0.68l1.017,1.841l1.089-2.175     l2.65-0.42l-0.057,2.731l1.486-2.958l2.136-0.338l1.498,2.66l0.054-2.906l2.508-0.397l1.535,1.783l0.035-2.032l2.172-0.344     l-0.095,4.976l-2.508,0.397l-1.535-1.783l-0.041,2.033l-3.411,0.54l-0.355-0.639l-1.818,0.288l-0.365,0.753l-3.47,0.55     l0.024-1.377l-0.768,1.495l-1.469,0.233l-0.802-1.397l-0.036,1.53l-2.125,0.336l0.008-0.485     c-0.019,0.033-0.046,0.055-0.071,0.084c-0.389,0.407-0.95,0.61-1.493,0.696l-1.705,0.27c-0.46,0.073-0.967,0.081-1.384-0.144     c-0.124-0.059-0.241-0.149-0.331-0.256l-0.01,0.624l-2.166,0.343l0.028-1.505l-1.528,0.242l-0.028,1.505L172.6,92.901z" class="can-change"></path>
			<polygon style="fill-rule:evenodd;clip-rule:evenodd;fill:#FFFFFF;" points="173.094,92.315 173.171,88.334 174.357,88.146      174.328,89.566 176.836,89.169 176.859,87.75 178.051,87.561 177.974,91.542 176.788,91.73 176.822,90.224 174.314,90.621      174.286,92.126    " class="can-change"></polygon>
			<path style="fill-rule:evenodd;clip-rule:evenodd;fill:#FFFFFF;" d="M178.541,90.043l0.041-2.566l1.192-0.189l-0.036,2.292     c-0.01,0.51,0.162,0.682,0.646,0.606l1.18-0.187c0.49-0.078,0.666-0.305,0.676-0.815l0.042-2.293l1.192-0.189l-0.053,2.567     c-0.014,0.982-0.524,1.541-1.61,1.713l-1.706,0.27C179.014,91.425,178.521,91.026,178.541,90.043" class="can-change"></path>
			<polygon style="fill-rule:evenodd;clip-rule:evenodd;fill:#FFFFFF;" points="183.941,90.597 184.012,86.617 185.835,86.328      187.134,88.682 188.526,85.902 190.35,85.613 190.279,89.593 189.122,89.776 189.171,86.913 189.159,86.915 187.552,90.025      186.661,90.166 185.158,87.549 185.146,87.551 185.097,90.414    " class="can-change"></polygon>
			<path style="fill-rule:evenodd;clip-rule:evenodd;fill:#FFFFFF;" d="M193.359,86.05l-0.771,1.622l1.517-0.24L193.359,86.05z      M190.432,89.569l2.172-4.312l1.552-0.246l2.053,3.643l-1.322,0.209l-0.349-0.64l-2.408,0.381l-0.371,0.754L190.432,89.569z" class="can-change"></path>
			<polygon style="fill-rule:evenodd;clip-rule:evenodd;fill:#FFFFFF;" points="196.375,88.627 196.446,84.648 198.282,84.357      200.461,86.891 200.473,86.889 200.524,84.002 201.716,83.813 201.651,87.792 199.809,88.083 197.623,85.544 197.611,85.546      197.561,88.439    " class="can-change"></polygon>
			<path style="fill-rule:evenodd;clip-rule:evenodd;" d="M202.896,86.566l0.006-0.267l1.192-0.189     c-0.007,0.419,0.159,0.429,0.507,0.373l1.452-0.23c0.26-0.041,0.515-0.112,0.521-0.415c-0.001-0.351-0.134-0.348-1.668-0.105     c-1.788,0.283-1.988,0.091-1.967-0.886c0.013-0.722,0.08-1.289,1.579-1.527l1.664-0.264c1.369-0.217,1.49,0.242,1.474,0.94     l0.002,0.127l-1.186,0.188c0.002-0.291-0.027-0.401-0.57-0.315l-1.322,0.209c-0.26,0.041-0.446,0.161-0.455,0.374     c-0.005,0.352,0.139,0.341,1.418,0.132c1.846-0.298,2.27-0.257,2.255,0.907c-0.023,1.074-0.386,1.307-1.956,1.556l-1.446,0.229     C203.316,87.576,202.888,87.432,202.896,86.566" class="can-change"></path>
			<path style="fill-rule:evenodd;clip-rule:evenodd;" d="M209.481,83.569l-0.017,1.001l1.853-0.294     c0.271-0.043,0.384-0.248,0.389-0.485l0.006-0.152c-0.001-0.272-0.124-0.404-0.484-0.347L209.481,83.569z M208.242,86.748     l0.072-3.98l3.234-0.512c1.133-0.179,1.4,0.359,1.379,1.143l-0.001,0.339c-0.016,0.589-0.276,1.314-1.114,1.447l-2.367,0.375     l-0.017,1.001L208.242,86.748z" class="can-change"></path>
			<polygon style="fill-rule:evenodd;clip-rule:evenodd;" points="213.259,85.953 213.33,81.973 217.567,81.302 217.555,82.218      214.504,82.701 214.497,83.343 217.383,82.886 217.368,83.711 214.482,84.168 214.469,84.812 217.591,84.317 217.567,85.271         " class="can-change"></polygon>
			<polygon style="fill-rule:evenodd;clip-rule:evenodd;" points="218.027,85.198 218.093,81.219 222.336,80.547 222.317,81.463      219.272,81.946 219.259,82.589 222.145,82.132 222.136,82.956 219.245,83.414 219.232,84.057 222.354,83.563 222.335,84.516         " class="can-change"></polygon>
			<path style="fill-rule:evenodd;clip-rule:evenodd;" d="M224.076,81.258l-0.034,1.965l2.101-0.333     c0.514-0.081,0.715-0.259,0.722-0.828l0.012-0.534c0.007-0.564-0.187-0.684-0.694-0.604L224.076,81.258z M222.837,84.436     l0.066-3.979l3.582-0.567c1.192-0.189,1.602,0.146,1.583,1.135l-0.02,1.207c-0.02,0.983-0.442,1.449-1.628,1.637L222.837,84.436z     " class="can-change"></path>
			<path style="fill-rule:evenodd;clip-rule:evenodd;" d="M229.509,78.667c-0.555,0.088-0.901,0.615-0.813,1.169     c0.092,0.578,0.581,0.955,1.153,0.864c0.544-0.08,0.898-0.596,0.807-1.168C230.567,78.971,230.07,78.578,229.509,78.667      M229.484,78.393c0.708-0.112,1.373,0.382,1.484,1.084c0.113,0.714-0.368,1.383-1.088,1.497c-0.72,0.114-1.39-0.373-1.503-1.087     C228.266,79.184,228.752,78.508,229.484,78.393 M229.408,79.288l0.059,0.372l0.148-0.023c0.159-0.025,0.28-0.105,0.261-0.223     c-0.021-0.13-0.103-0.195-0.304-0.164C229.5,79.261,229.436,79.277,229.408,79.288 M229.488,79.874l0.08,0.508l-0.26,0.041     l-0.206-1.298c0.099-0.028,0.244-0.063,0.445-0.095c0.242-0.038,0.352-0.032,0.448,0.038c0.078,0.036,0.159,0.126,0.18,0.256     c0.022,0.142-0.092,0.257-0.224,0.344l0.003,0.018c0.135,0.015,0.204,0.101,0.279,0.27c0.073,0.194,0.101,0.256,0.138,0.299     l-0.278,0.044c-0.062-0.045-0.1-0.135-0.156-0.296c-0.051-0.131-0.137-0.178-0.302-0.152L229.488,79.874z" class="can-change"></path>
			
				<rect x="171.811" y="82.829" transform="matrix(-0.9877 0.1564 -0.1564 -0.9877 414.2742 138.5339)" style="fill:none;" width="59.75" height="5.479" class="human-logo"></rect>
			<path d="M208.268,88.148l0.339-0.054l-0.061,1.151l-0.339,0.054L208.268,88.148z"></path>
			<path d="M209.398,87.969l0.539-0.085l0.628,0.768l0.036-0.874l0.321-0.051l-0.059,1.151l-0.544,0.086l-0.62-0.761l-0.036,0.865     l-0.326,0.052L209.398,87.969z"></path>
			<path d="M212.078,87.827l-0.496,0.079l0.015-0.285l1.331-0.211l-0.015,0.285l-0.496,0.079l-0.046,0.867l-0.339,0.054     L212.078,87.827z"></path>
			<path d="M214.835,87.108l-0.013,0.261l-0.898,0.142l-0.011,0.199l0.85-0.135l-0.012,0.228l-0.85,0.135l-0.011,0.204l0.912-0.144     l-0.013,0.261l-1.246,0.197l0.061-1.151L214.835,87.108z"></path>
			<path d="M215.6,86.987l0.339-0.054l-0.046,0.867l0.767-0.121l-0.015,0.285l-1.105,0.175L215.6,86.987z"></path>
			<path d="M217.385,86.704l0.339-0.054l-0.046,0.867l0.766-0.121l-0.015,0.285l-1.105,0.175L217.385,86.704z"></path>
			<path d="M219.169,86.421l0.339-0.054l-0.061,1.151l-0.339,0.054L219.169,86.421z"></path>
			<path d="M221.373,86.459c-0.001-0.015,0-0.031-0.002-0.042c-0.004-0.037-0.03-0.06-0.068-0.065     c-0.031-0.004-0.033-0.003-0.115,0.01l-0.154,0.023l-0.214,0.035c-0.15,0.024-0.199,0.061-0.217,0.163     c-0.018,0.104-0.026,0.311-0.016,0.376c0.014,0.087,0.072,0.11,0.218,0.089c0.037-0.004,0.112-0.016,0.308-0.047     c0.157-0.025,0.203-0.048,0.231-0.11c0.008-0.024,0.011-0.038,0.012-0.105l-0.429,0.068l0.012-0.214l0.76-0.12l-0.009,0.159     c-0.008,0.166-0.012,0.202-0.031,0.281c-0.035,0.146-0.143,0.235-0.322,0.268c-0.038,0.008-0.218,0.036-0.426,0.069     c-0.356,0.056-0.434,0.06-0.532,0.024c-0.071-0.026-0.116-0.095-0.133-0.2c-0.011-0.072-0.01-0.19,0.007-0.402     c0.021-0.289,0.087-0.411,0.265-0.487c0.091-0.038,0.22-0.067,0.511-0.113c0.406-0.064,0.472-0.068,0.566-0.028     c0.058,0.023,0.094,0.076,0.107,0.156c0.007,0.042,0.007,0.088,0.003,0.16L221.373,86.459z"></path>
			<path d="M223.728,85.699l-0.013,0.261l-0.898,0.142l-0.011,0.199l0.85-0.135l-0.012,0.228l-0.85,0.135l-0.01,0.204l0.912-0.144     l-0.013,0.261l-1.246,0.197l0.061-1.151L223.728,85.699z"></path>
			<path d="M224.493,85.578l0.539-0.085l0.628,0.768l0.036-0.874l0.321-0.051l-0.059,1.151l-0.544,0.086l-0.62-0.761l-0.036,0.865     l-0.326,0.052L224.493,85.578z"></path>
			<path d="M227.173,85.436l-0.496,0.079l0.015-0.285l1.331-0.211l-0.015,0.285l-0.496,0.079l-0.046,0.867l-0.339,0.054     L227.173,85.436z"></path>
			<g>
				<polygon style="fill:#ED1C24;" points="202.766,89.774 202.745,90.164 203.974,89.97 203.995,89.58     " class="can-change"></polygon>
				<polygon style="fill:#ED1C24;" points="207.73,88.62 207.751,88.23 204.405,88.76 204.383,89.15     " class="can-change"></polygon>
				<polygon style="fill:#ED1C24;" points="204.037,88.818 202.806,89.013 202.786,89.403 204.016,89.208     " class="can-change"></polygon>
				<polygon style="fill:#ED1C24;" points="204.341,89.912 207.69,89.381 207.711,88.991 204.363,89.521     " class="can-change"></polygon>
				<polygon style="fill:#FFFFFF;" points="204.383,89.15 204.405,88.76 204.037,88.818 204.016,89.208 202.786,89.403       202.766,89.774 203.995,89.58 203.974,89.97 204.341,89.912 204.363,89.521 207.711,88.991 207.73,88.62     " class="can-change"></polygon>
			</g>
		</g>
	</g>
</g>
<g id="Layer_1">
</g>
</svg>