<svg xmlns="http://www.w3.org/2000/svg" xmlns:xlink="http://www.w3.org/1999/xlink" version="1.1" id="Layer_1" x="0px" y="0px" viewBox="0 0 221 320" style="enable-background:new 0 0 221 320;" xml:space="preserve" data-product="2017509" data-design="5" data-size="m">
<g>
	<g>
		<defs>
			<path id="SVGID_1_" d="M212.905,145.545c0.45,0.42,0.65,0.88,0.56,1.36c-2.01,12.05-4.39,29.73-4.79,38.21     c0.4,18.23-3.91,63.86-2.58,116.39c-28.77,10.66-65.11,13.83-95.61,13.83h-0.08c-30.56,0-66.87-3.17-95.67-13.83     c1.36-52.53-2.95-98.16-2.56-116.39c-0.39-8.48-2.8-26.16-4.81-38.21c-0.12-0.48,0.14-0.94,0.56-1.36     c3.4-8.48,20.87-56.1,8.39-123.56c0.2-0.15,19.79-10.66,38.87-16.87l0.51,2.95l4.59-3.12c11.62,50.26,25.09,63.52,50.03,63.75     h0.23c24.91-0.23,38.41-13.49,50.03-63.75l4.56,3.12l0.48-2.95c19.11,6.21,38.67,16.72,38.87,16.87     C192.065,89.445,209.475,137.065,212.905,145.545z"></path>
		</defs>
		<use xlink:href="#SVGID_1_" style="overflow:visible;fill-rule:evenodd;clip-rule:evenodd;fill:#FFFFFF;" class="can-change"></use>
		<clipPath id="SVGID_2_">
			<use xlink:href="#SVGID_1_" style="overflow:visible;"></use>
		</clipPath>
		<g style="clip-path:url(#SVGID_2_);">
			<g>
				
					<path style="fill-rule:evenodd;clip-rule:evenodd;fill:#FFFFFF;stroke:#6D6E71;stroke-width:0.43;stroke-linecap:round;stroke-linejoin:round;stroke-miterlimit:10;" d="      M130.415,119.865h9.75v289.44h-9.75V119.865z" class="can-change"></path>
				
					<path style="fill-rule:evenodd;clip-rule:evenodd;fill:#FFFFFF;stroke:#6D6E71;stroke-width:0.43;stroke-linecap:round;stroke-linejoin:round;stroke-miterlimit:10;" d="      M149.915,119.865h9.75v289.44h-9.75V119.865z" class="can-change"></path>
				
					<path style="fill-rule:evenodd;clip-rule:evenodd;fill:#FFFFFF;stroke:#6D6E71;stroke-width:0.43;stroke-linecap:round;stroke-linejoin:round;stroke-miterlimit:10;" d="      M140.165,119.865h9.75v289.44h-9.75V119.865z" class="can-change"></path>
			</g>
		</g>
		
			<use xlink:href="#SVGID_1_" style="overflow:visible;fill-rule:evenodd;clip-rule:evenodd;fill:none;stroke:#6D6E71;stroke-width:0.34;stroke-linecap:round;stroke-linejoin:round;stroke-miterlimit:10;"></use>
	</g>
	
		<path style="fill-rule:evenodd;clip-rule:evenodd;fill:#FFFFFF;stroke:#6D6E71;stroke-width:0.34;stroke-linecap:round;stroke-linejoin:round;stroke-miterlimit:10;" d="   M14.645,301.505l0.09-0.4c1.33-52.15-2.95-97.79-2.56-115.99c-0.39-8.48-2.8-26.16-4.81-38.21c3.94-11.57,3.94-16.56,8.98-29.77   c24.12,22.99,24.95,62.79,26.59,87.68c1.02,15,3.06,76.65,0.34,104.51c-11.48-1.73-28.37-7.76-28.54-7.82H14.645z M177.325,309.615   c-2.69-27.84-0.42-89.8,0.54-104.8c1.67-24.89,2.47-64.69,26.59-87.68c5.04,13.21,5.04,18.2,9.01,29.77   c-2.01,12.05-4.39,29.73-4.79,38.21c0.4,18.2-3.88,63.84-2.58,115.99C196.745,304.675,187.135,307.515,177.325,309.615z" data-fill-id="1" class="can-change"></path>
	
		<path style="fill-rule:evenodd;clip-rule:evenodd;fill:#FFFFFF;stroke:#6D6E71;stroke-width:0.34;stroke-linecap:round;stroke-linejoin:round;stroke-miterlimit:10;" d="   M63.685,4.885c0,0,44.22,25.51,93.88-0.22l-2.46,10.46c0,0-38.27,23.98-89.32-0.51C65.785,14.615,63.685,4.665,63.685,4.885z" class="can-change"></path>
	
		<path style="fill-rule:evenodd;clip-rule:evenodd;fill:#FFFFFF;stroke:#6D6E71;stroke-width:0.34;stroke-linecap:round;stroke-linejoin:round;stroke-miterlimit:10;" d="   M55.185,5.115l8.5-0.23c0,0,3.18,22.08,14.17,43c6.84,12.93,21.12,18.2,32.83,17.78c0,0,12.27,0.48,20.78-5.96   c5.72-4.33,11.68-10.77,16.41-21.51c4.31-10.83,7.57-22.08,9.69-33.53l8.05,0.34c0,0-6.03,31.94-14.65,44.98   c-8.62,13.04-20.33,23.87-40.65,24.32c-20.35,0.46-35.46-12.53-41.1-22.79c-5.7-10.26-11.09-27.24-13.04-39.94L55.185,5.115z" data-fill-id="2" class="can-change"></path>
	
		<path style="fill-rule:evenodd;clip-rule:evenodd;fill:#FFFFFF;stroke:#6D6E71;stroke-width:0.34;stroke-linecap:round;stroke-linejoin:round;stroke-miterlimit:10;" d="   M16.315,21.985c2.1-2.02,12.65,11.79,13.78,58.93c1.22,47.17-20.13,57.71-20.13,57.71l-5.44-0.48c0,0,13.55-11.4,15.37-49.41   C21.815,50.755,16.315,21.985,16.315,21.985z" class="cannot-edit can-change"></path>
	
		<path style="fill-rule:evenodd;clip-rule:evenodd;fill:#FFFFFF;stroke:#6D6E71;stroke-width:0.34;stroke-linecap:round;stroke-linejoin:round;stroke-miterlimit:10;" d="   M24.225,17.895l1.14,3.66c8.13,22.93,9.58,64.32,9.58,64.32c3.51,54.28-27.58,61.03-27.58,61.03l-2.84-8.76   c14.88-8.14,23.22-21.18,22.37-50.17c-0.91-28.95-10.58-65.99-10.58-65.99C16.975,21.305,24.225,17.895,24.225,17.895z" data-fill-id="4" class="can-change"></path>
	
		<path style="fill-rule:evenodd;clip-rule:evenodd;fill:#FFFFFF;stroke:#6D6E71;stroke-width:0.34;stroke-linecap:round;stroke-linejoin:round;stroke-miterlimit:10;" d="   M204.685,21.985c0,0-5.48,28.77-3.58,66.75c1.85,38.01,15.37,49.41,15.37,49.41l-5.42,0.48c0,0-21.37-10.54-20.15-57.71   C192.065,33.775,202.615,19.965,204.685,21.985z" class="cannot-edit can-change"></path>
	
		<path style="fill-rule:evenodd;clip-rule:evenodd;fill:#FFFFFF;stroke:#6D6E71;stroke-width:0.34;stroke-linecap:round;stroke-linejoin:round;stroke-miterlimit:10;" d="   M196.775,17.895c0,0,7.28,3.41,7.91,4.09c0,0-9.67,37.04-10.58,65.99c-0.85,28.99,7.49,42.03,22.37,50.17l-2.84,8.76   c0,0-31.06-6.75-27.58-61.03c0,0,1.45-41.39,9.61-64.32L196.775,17.895z" data-fill-id="3" class="can-change"></path>
	
		<path style="fill-rule:evenodd;clip-rule:evenodd;fill:none;stroke:#6D6E71;stroke-width:0.34;stroke-linecap:round;stroke-linejoin:round;stroke-miterlimit:10;" d="   M16.435,294.365c0,0,96.69,27.78,187.48,0"></path>
	
		<path style="fill-rule:evenodd;clip-rule:evenodd;fill:none;stroke:#6D6E71;stroke-width:0.34;stroke-linecap:round;stroke-linejoin:round;stroke-miterlimit:10;" d="   M16.435,292.035c0,0,96.69,27.78,187.48,0"></path>
	<g class="human-logo">
		<path style="fill-rule:evenodd;clip-rule:evenodd;" d="M116.775,108.039l0.828-4.649h2.075l-0.233,1.327h1.463l0.244-1.327h3.736    l-0.471,2.693c-0.011,0.034-0.017,0.074-0.023,0.113h0.079h1.134c0.068,0,0.147,0,0.215-0.034    c0.051-0.068,0.068-0.159,0.085-0.238l0.448-2.535h4.122l0.68,1.877l1.344-1.877h2.546l-0.459,2.551l1.831-2.551h2.052    l1.009,2.716l0.482-2.716h2.41l1.174,1.899l0.335-1.899h2.086l-0.828,4.649h-2.41l-1.174-1.899l-0.34,1.899h-3.277l-0.238-0.652    h-1.746l-0.453,0.652h-3.334l0.227-1.287l-0.941,1.287h-1.412l-0.544-1.429l-0.261,1.429h-2.041l0.079-0.453    c-0.023,0.028-0.051,0.045-0.079,0.068c-0.425,0.323-0.981,0.431-1.503,0.431h-1.639c-0.442,0-0.919-0.068-1.276-0.34    c-0.108-0.074-0.204-0.176-0.272-0.289l-0.102,0.584h-2.081l0.249-1.406h-1.468l-0.25,1.406H116.775z" class="can-change"></path>
		<polygon style="fill-rule:evenodd;clip-rule:evenodd;fill:#FFFFFF;" points="117.325,107.563 117.988,103.843 119.128,103.843     118.89,105.17 121.3,105.17 121.532,103.843 122.678,103.843 122.014,107.563 120.874,107.563 121.13,106.157 118.72,106.157     118.47,107.563   " class="can-change"></polygon>
		<path style="fill-rule:evenodd;clip-rule:evenodd;fill:#FFFFFF;" d="M122.768,106.242l0.42-2.399h1.145l-0.374,2.143    c-0.085,0.476,0.051,0.663,0.516,0.663h1.134c0.471,0,0.669-0.187,0.754-0.663l0.38-2.143h1.145l-0.431,2.399    c-0.159,0.919-0.72,1.366-1.763,1.366h-1.639C123.006,107.608,122.604,107.16,122.768,106.242" class="can-change"></path>
		<polygon style="fill-rule:evenodd;clip-rule:evenodd;fill:#FFFFFF;" points="127.747,107.563 128.404,103.843 130.156,103.843     131.024,106.242 132.742,103.843 134.494,103.843 133.836,107.563 132.725,107.563 133.195,104.887 133.184,104.887     131.217,107.563 130.36,107.563 129.34,104.887 129.328,104.887 128.858,107.563   " class="can-change"></polygon>
		<path style="fill-rule:evenodd;clip-rule:evenodd;fill:#FFFFFF;" d="M137.249,104.699l-0.964,1.406h1.457L137.249,104.699z     M133.984,107.563l2.676-3.72h1.491l1.384,3.72h-1.27l-0.232-0.652h-2.313l-0.459,0.652H133.984z" class="can-change"></path>
		<polygon style="fill-rule:evenodd;clip-rule:evenodd;fill:#FFFFFF;" points="139.693,107.563 140.351,103.843 142.114,103.843     143.781,106.542 143.792,106.542 144.269,103.843 145.414,103.843 144.762,107.563 142.993,107.563 141.32,104.858     141.309,104.858 140.833,107.563   " class="can-change"></polygon>
		<path style="fill-rule:evenodd;clip-rule:evenodd;" d="M146.112,106.599l0.045-0.249h1.145c-0.068,0.391,0.085,0.425,0.419,0.425    h1.395c0.25,0,0.499-0.028,0.55-0.312c0.051-0.329-0.074-0.346-1.548-0.346c-1.718,0-1.877-0.21-1.712-1.123    c0.119-0.675,0.266-1.196,1.707-1.196h1.599c1.315,0,1.361,0.448,1.242,1.1l-0.017,0.119h-1.14c0.045-0.272,0.034-0.38-0.488-0.38    h-1.27c-0.25,0-0.442,0.085-0.482,0.283c-0.057,0.329,0.079,0.34,1.31,0.335c1.775-0.006,2.166,0.096,1.979,1.185    c-0.182,1.004-0.556,1.168-2.064,1.168h-1.389C146.355,107.608,145.975,107.41,146.112,106.599" class="can-change"></path>
		<path style="fill-rule:evenodd;clip-rule:evenodd;" d="M152.728,104.768l-0.165,0.935h1.78c0.261,0,0.397-0.176,0.437-0.397    l0.028-0.142c0.04-0.255-0.057-0.397-0.402-0.397H152.728z M151.095,107.563l0.658-3.72h3.107c1.089,0,1.259,0.544,1.123,1.276    l-0.051,0.317c-0.102,0.55-0.454,1.191-1.259,1.191H152.4l-0.164,0.936H151.095z" class="can-change"></path>
		<polygon style="fill-rule:evenodd;clip-rule:evenodd;" points="155.915,107.563 156.573,103.843 160.644,103.843 160.496,104.699     157.565,104.699 157.463,105.301 160.236,105.301 160.099,106.072 157.327,106.072 157.219,106.673 160.219,106.673     160.054,107.563   " class="can-change"></polygon>
		<polygon style="fill-rule:evenodd;clip-rule:evenodd;" points="160.496,107.563 161.148,103.843 165.225,103.843 165.072,104.699     162.146,104.699 162.039,105.301 164.811,105.301 164.681,106.072 161.902,106.072 161.795,106.673 164.794,106.673     164.636,107.563   " class="can-change"></polygon>
		<path style="fill-rule:evenodd;clip-rule:evenodd;" d="M166.75,104.768l-0.323,1.837h2.018c0.494,0,0.709-0.136,0.8-0.669    l0.091-0.499c0.091-0.527-0.074-0.669-0.561-0.669H166.75z M165.117,107.563l0.652-3.72h3.442c1.145,0,1.48,0.374,1.316,1.298    l-0.198,1.128c-0.165,0.918-0.63,1.293-1.769,1.293H165.117z" class="can-change"></path>
		<path style="fill-rule:evenodd;clip-rule:evenodd;" d="M172.228,103.146c-0.533,0-0.936,0.442-0.936,0.975    c0,0.556,0.403,0.981,0.953,0.981c0.522,0.006,0.93-0.425,0.93-0.975C173.174,103.588,172.766,103.146,172.228,103.146     M172.245,102.885c0.68,0,1.23,0.562,1.23,1.236c0,0.686-0.55,1.242-1.242,1.242c-0.692,0-1.247-0.556-1.247-1.242    C170.986,103.447,171.542,102.885,172.245,102.885 M172.04,103.713v0.357h0.142c0.153,0,0.278-0.057,0.278-0.17    c0-0.125-0.068-0.199-0.261-0.199C172.131,103.702,172.069,103.707,172.04,103.713 M172.029,104.274v0.488h-0.249v-1.247    c0.096-0.011,0.238-0.023,0.431-0.023c0.232,0,0.334,0.023,0.414,0.102c0.068,0.045,0.13,0.142,0.13,0.266    c0,0.136-0.125,0.227-0.261,0.289v0.017c0.125,0.034,0.176,0.125,0.221,0.295c0.04,0.193,0.057,0.255,0.085,0.3h-0.267    c-0.051-0.051-0.074-0.142-0.102-0.3c-0.028-0.13-0.102-0.187-0.261-0.187H172.029z" class="can-change"></path>
		<rect x="116.775" y="102.885" style="fill:none;" width="56.7" height="5.199"></rect>
		<path d="M150.911,108.879h0.326l-0.228,1.07h-0.326L150.911,108.879z"></path>
		<path d="M151.997,108.879h0.518l0.475,0.813l0.164-0.813h0.308l-0.226,1.07h-0.523l-0.469-0.806l-0.162,0.806h-0.313    L151.997,108.879z"></path>
		<path d="M154.531,109.144h-0.477l0.056-0.265h1.279l-0.056,0.265h-0.477l-0.172,0.806h-0.326L154.531,109.144z"></path>
		<path d="M157.221,108.879l-0.051,0.242h-0.863l-0.04,0.184h0.817l-0.045,0.212h-0.817l-0.04,0.189h0.876l-0.051,0.242h-1.197    l0.228-1.07H157.221z"></path>
		<path d="M157.956,108.879h0.326l-0.172,0.805h0.736l-0.056,0.265h-1.062L157.956,108.879z"></path>
		<path d="M159.671,108.879h0.326l-0.172,0.805h0.736l-0.056,0.265h-1.062L159.671,108.879z"></path>
		<path d="M161.385,108.879h0.326l-0.228,1.07h-0.326L161.385,108.879z"></path>
		<path d="M163.445,109.242c0.002-0.014,0.005-0.029,0.005-0.04c0.002-0.035-0.019-0.061-0.055-0.071    c-0.029-0.008-0.03-0.008-0.109-0.008l-0.148-0.002l-0.205,0.002c-0.144,0-0.196,0.027-0.228,0.12    c-0.032,0.095-0.071,0.287-0.071,0.35c0,0.084,0.051,0.114,0.191,0.116c0.035,0.002,0.108,0.002,0.295,0.002    c0.151,0,0.197-0.014,0.233-0.069c0.011-0.021,0.016-0.034,0.027-0.096h-0.412l0.043-0.199h0.73l-0.032,0.148    c-0.032,0.154-0.042,0.188-0.071,0.258c-0.055,0.131-0.168,0.199-0.342,0.204c-0.037,0.002-0.21,0.002-0.409,0.002    c-0.342,0-0.416-0.008-0.502-0.056c-0.063-0.035-0.095-0.106-0.095-0.207c0-0.069,0.019-0.18,0.066-0.375    c0.063-0.268,0.143-0.372,0.321-0.417c0.091-0.022,0.217-0.03,0.496-0.03c0.39,0,0.453,0.006,0.534,0.058    c0.051,0.03,0.077,0.085,0.077,0.162c0,0.04-0.006,0.083-0.021,0.151H163.445z"></path>
		<path d="M165.765,108.879l-0.051,0.242h-0.863l-0.04,0.184h0.817l-0.045,0.212h-0.817l-0.04,0.189h0.876l-0.051,0.242h-1.197    l0.228-1.07H165.765z"></path>
		<path d="M166.5,108.879h0.518l0.475,0.813l0.164-0.813h0.308l-0.226,1.07h-0.523l-0.469-0.806l-0.162,0.806h-0.313L166.5,108.879z    "></path>
		<path d="M169.033,109.144h-0.477l0.056-0.265h1.279l-0.056,0.265h-0.477l-0.172,0.806h-0.326L169.033,109.144z"></path>
		<g>
			<polygon style="fill:#ED1C24;" points="145.513,109.587 145.436,109.949 146.616,109.949 146.694,109.587    " class="can-change"></polygon>
			<polygon style="fill:#ED1C24;" points="150.338,109.242 150.415,108.879 147.2,108.879 147.122,109.242    " class="can-change"></polygon>
			<polygon style="fill:#ED1C24;" points="146.847,108.879 145.664,108.879 145.587,109.242 146.769,109.242    " class="can-change"></polygon>
			<polygon style="fill:#ED1C24;" points="146.969,109.949 150.187,109.949 150.264,109.587 147.047,109.587    " class="can-change"></polygon>
			<polygon style="fill:#FFFFFF;" points="147.122,109.242 147.2,108.879 146.847,108.879 146.769,109.242 145.587,109.242      145.513,109.587 146.694,109.587 146.616,109.949 146.969,109.949 147.047,109.587 150.264,109.587 150.338,109.242    " class="can-change"></polygon>
		</g>
	</g>
</g>
</svg>