<svg xmlns="http://www.w3.org/2000/svg" xmlns:xlink="http://www.w3.org/1999/xlink" version="1.1" x="0px" y="0px" viewBox="0 0 294.24 362.884" style="enable-background:new 0 0 294.24 362.884;" xml:space="preserve" data-product="2017501" data-design="4" data-size="m">
<g id="Layer_3">
	<g>
		<g>
			<defs>
				<path id="SVGID_1_" d="M145.02,352.884c-1.53,0.08-50.48,2.35-77.07-21.46l-3.29-3.71c7.62-75.06,7.57-131.98,0.17-166.2      c-7.37-34.24-14.37-36.14-14.46-36.2c-5.16-32.34-0.51-47.14,6.01-63.32c1.42-2.04,17.12-23.64,25.57-31.69      c8.19-8.85,32.94-24.07,39.66-28.21c12.44-0.37,21.09-1.19,44.84-0.37c7.11,4.59,28.06,16.95,40.14,29.65      c8.42,8.05,26.33,24.27,27.75,26.31c4.28,4.62,13.32,30.22,5.5,67.63c-0.06,0.06-6.97,3.38-14.46,36.2      c-7.37,34.22-7.42,91.11,0.17,166.2l-3.46,3.71C195.51,355.234,146.55,352.964,145.02,352.884z"/>
			</defs>
			<use xlink:href="#SVGID_1_" style="overflow:visible;fill-rule:evenodd;clip-rule:evenodd;fill:#FFFFFF;" data-fill-id="11" class="can-change"/>
			<clipPath id="SVGID_2_">
				<use xlink:href="#SVGID_1_" style="overflow:visible;"/>
			</clipPath>
			<g style="clip-path:url(#SVGID_2_);">
				<g>
					
						<path style="fill-rule:evenodd;clip-rule:evenodd;fill:#FFFFFF;stroke:#6D6E71;stroke-width:0.34;stroke-linecap:round;stroke-linejoin:round;stroke-miterlimit:10;" d="       M150.01,169.114h9.41v381.66h-9.41V169.114z" class="can-change"/>
					
						<path style="fill-rule:evenodd;clip-rule:evenodd;fill:#FFFFFF;stroke:#6D6E71;stroke-width:0.34;stroke-linecap:round;stroke-linejoin:round;stroke-miterlimit:10;" d="       M140.6,169.114h9.41v381.66h-9.41V169.114z" class="can-change"/>
					
						<path style="fill-rule:evenodd;clip-rule:evenodd;fill:#FFFFFF;stroke:#6D6E71;stroke-width:0.34;stroke-linecap:round;stroke-linejoin:round;stroke-miterlimit:10;" d="       M131.19,169.114h9.41v381.66h-9.41V169.114z" class="can-change"/>
				</g>
			</g>
			
				<use xlink:href="#SVGID_1_" style="overflow:visible;fill-rule:evenodd;clip-rule:evenodd;fill:none;stroke:#6D6E71;stroke-width:0.34;stroke-linecap:round;stroke-linejoin:round;stroke-miterlimit:10;"/>
		</g>
		
			<path style="fill-rule:evenodd;clip-rule:evenodd;fill:#FFFFFF;stroke:#6D6E71;stroke-width:0.34;stroke-linecap:round;stroke-linejoin:round;stroke-miterlimit:10;" d="    M144.14,235.304h2.21v0.03l20.87,0.19c0.11,0,10.29,0.15,15.64,1.36c5.39,1.25,36.68,8.93,36.99,8.99    c0,0.34,0.66,32.91,4.11,67.04c-0.19,0.23-19.75,21.74-77.61,22.08h-2.21c-57.88-0.34-77.44-21.85-77.64-22.08    c3.49-34.13,4.11-66.7,4.11-67.04c0.31-0.06,31.61-7.74,36.99-8.99c5.36-1.21,15.54-1.36,15.65-1.36l20.89-0.19V235.304z" data-fill-id="12" class="can-change"/>
		
			<path style="fill-rule:evenodd;clip-rule:evenodd;fill:none;stroke:#6D6E71;stroke-width:0.34;stroke-linecap:round;stroke-linejoin:round;stroke-miterlimit:10;" d="    M144.31,238.534l0.14,94.05"/>
		
			<path style="fill-rule:evenodd;clip-rule:evenodd;fill:none;stroke:#6D6E71;stroke-width:0.34;stroke-linecap:round;stroke-linejoin:round;stroke-miterlimit:10;" d="    M146.21,238.534l0.14,94.05"/>
		
			<path style="fill-rule:evenodd;clip-rule:evenodd;fill:none;stroke:#6D6E71;stroke-width:0.34;stroke-linecap:round;stroke-linejoin:round;stroke-miterlimit:10;" d="    M70.27,248.564c0.34-0.11,33.68-9.15,45.81-10.09c0.06,0,5.19-0.22,8.11-0.25c2.29-0.03,15.27-0.17,21-0.2l2.69-0.03h-5.38    l2.69,0.03c5.7,0.03,18.71,0.17,20.98,0.2c2.92,0.03,8.08,0.25,8.13,0.25c12.11,0.94,45.44,9.98,45.78,10.09"/>
		
			<path style="fill-rule:evenodd;clip-rule:evenodd;fill:none;stroke:#6D6E71;stroke-width:0.34;stroke-linecap:round;stroke-linejoin:round;stroke-miterlimit:10;" d="    M70.27,250.294c0.34-0.08,33.68-9.15,45.81-10.09c0.06,0,5.19-0.2,8.11-0.25c2.29-0.03,15.27-0.17,21-0.2l2.69-0.03h-5.38    l2.69,0.03c5.7,0.03,18.71,0.17,20.98,0.2c2.92,0.05,8.08,0.25,8.13,0.25c12.11,0.94,45.44,10.01,45.78,10.09"/>
		<g>
			
				<path style="fill-rule:evenodd;clip-rule:evenodd;fill:none;stroke:#6D6E71;stroke-width:0.34;stroke-linecap:round;stroke-linejoin:round;stroke-miterlimit:10;" d="     M143.23,242.444l3.97-3.51"/>
			
				<path style="fill-rule:evenodd;clip-rule:evenodd;fill:none;stroke:#6D6E71;stroke-width:0.34;stroke-linecap:round;stroke-linejoin:round;stroke-miterlimit:10;" d="     M143.23,244.204l3.97-3.52"/>
			
				<path style="fill-rule:evenodd;clip-rule:evenodd;fill:none;stroke:#6D6E71;stroke-width:0.34;stroke-linecap:round;stroke-linejoin:round;stroke-miterlimit:10;" d="     M143.23,245.964l3.97-3.52"/>
			
				<path style="fill-rule:evenodd;clip-rule:evenodd;fill:none;stroke:#6D6E71;stroke-width:0.34;stroke-linecap:round;stroke-linejoin:round;stroke-miterlimit:10;" d="     M143.23,247.714l3.97-3.51"/>
			
				<path style="fill-rule:evenodd;clip-rule:evenodd;fill:none;stroke:#6D6E71;stroke-width:0.34;stroke-linecap:round;stroke-linejoin:round;stroke-miterlimit:10;" d="     M143.23,249.474l3.97-3.51"/>
			
				<path style="fill-rule:evenodd;clip-rule:evenodd;fill:none;stroke:#6D6E71;stroke-width:0.34;stroke-linecap:round;stroke-linejoin:round;stroke-miterlimit:10;" d="     M143.23,238.934l3.97,3.51"/>
			
				<path style="fill-rule:evenodd;clip-rule:evenodd;fill:none;stroke:#6D6E71;stroke-width:0.34;stroke-linecap:round;stroke-linejoin:round;stroke-miterlimit:10;" d="     M143.23,240.684l3.97,3.52"/>
			
				<path style="fill-rule:evenodd;clip-rule:evenodd;fill:none;stroke:#6D6E71;stroke-width:0.34;stroke-linecap:round;stroke-linejoin:round;stroke-miterlimit:10;" d="     M143.23,242.444l3.97,3.52"/>
			
				<path style="fill-rule:evenodd;clip-rule:evenodd;fill:none;stroke:#6D6E71;stroke-width:0.34;stroke-linecap:round;stroke-linejoin:round;stroke-miterlimit:10;" d="     M143.23,244.204l3.97,3.51"/>
			
				<path style="fill-rule:evenodd;clip-rule:evenodd;fill:none;stroke:#6D6E71;stroke-width:0.34;stroke-linecap:round;stroke-linejoin:round;stroke-miterlimit:10;" d="     M143.23,245.964l3.97,3.51"/>
		</g>
		
			<path style="fill-rule:evenodd;clip-rule:evenodd;fill:#FFFFFF;stroke:#6D6E71;stroke-width:0.34;stroke-linecap:round;stroke-linejoin:round;stroke-miterlimit:10;" d="    M228.61,147.914l5.59,6.15c-4.99,35.54-6.15,78.29-4.4,97.11c2.13,22.59,4.37,59.78,4.37,60.15c-1.11,9.19-8.33,17.41-14.94,22.74    c-5.16,4.16-10.18,6.49-10.18,6.49C197.15,244.794,221.27,168.944,228.61,147.914z" data-fill-id="7" class="can-change"/>
		
			<path style="fill-rule:evenodd;clip-rule:evenodd;fill:#FFFFFF;stroke:#6D6E71;stroke-width:0.34;stroke-linecap:round;stroke-linejoin:round;stroke-miterlimit:10;" d="    M189.5,2.664c0,0,20.38,11.53,31.72,15.82c11.31,4.28,31.83,13.09,31.83,13.09s12.1,5.22,17.57,18.8    c5.5,13.54,11.63,34.89,12.76,59.78c1.16,24.91,3.91,29.39,3.8,36.82c-9.16,6.75-22.23,8.7-35.44,11.42l-11.9-33.08    c0,0,10.43-46.29-10.23-71.6c0,0-18.12-18.03-23.02-22.34c-4.91-4.31-33.68-26.47-40.14-29.65    C166.45,1.724,180.48,2.264,189.5,2.664z" class="can-change"/>
		
			<path style="fill-rule:evenodd;clip-rule:evenodd;fill:#FFFFFF;stroke:#6D6E71;stroke-width:0.34;stroke-linecap:round;stroke-linejoin:round;stroke-miterlimit:10;" d="    M100.71,2.664c9.02-0.4,22.88-0.71,22.88-0.71c-6.46,3.2-34.27,22.85-39.15,27.18c-4.9,4.31-21.99,24.86-21.99,24.86    c-20.64,25.32-12.08,71.32-12.08,71.32l-11.85,32.97c-10.97-1.96-27.61-4.82-35.46-10.77c-0.14-7.43,2.64-12.45,3.77-37.36    c1.16-24.89,7.29-46.24,12.76-59.78c5.5-13.58,17.6-18.8,17.6-18.8s20.49-8.81,31.83-13.09    C80.36,14.194,100.71,2.664,100.71,2.664z" data-fill-id="6" class="can-change"/>
		
			<path style="fill-rule:evenodd;clip-rule:evenodd;fill:#FFFFFF;stroke:#6D6E71;stroke-width:0.34;stroke-linecap:round;stroke-linejoin:round;stroke-miterlimit:10;" d="    M61.65,147.914c7.34,21.03,31.47,96.88,19.56,192.64c0,0-5.02-2.33-10.17-6.49c-6.61-5.33-13.84-13.55-14.94-22.74    c0-0.37,2.24-37.56,4.36-60.15c1.76-18.82,0.6-61.57-4.39-97.11L61.65,147.914z" data-fill-id="2" class="can-change"/>
		
			<path style="fill-rule:evenodd;clip-rule:evenodd;fill:#FFFFFF;stroke:#6D6E71;stroke-width:0.34;stroke-linecap:round;stroke-linejoin:round;stroke-miterlimit:10;" d="    M56.07,154.064c-0.88-5.45-2.01-10.8-3.37-16.02l-4.28,20.67c-0.03-0.06-3.97,0.17-9.1-0.4l-0.8-0.03l11.91-33.08    c0.05,0.06,5.55,2.83,11.22,22.71L56.07,154.064z" data-fill-id="3" class="can-change"/>
		
			<path style="fill-rule:evenodd;clip-rule:evenodd;fill:#FFFFFF;stroke:#6D6E71;stroke-width:0.34;stroke-linecap:round;stroke-linejoin:round;stroke-miterlimit:10;" d="    M234.2,154.174l-5.59-6.15c5.67-19.87,11.17-22.65,11.23-22.71l11.9,33.08l-0.79,0.03c-5.13,0.57-9.07,0.34-9.1,0.4l-4.28-20.67    C236.21,143.374,235.08,148.734,234.2,154.174z" data-fill-id="8" class="can-change"/>
		
			<path style="fill-rule:evenodd;clip-rule:evenodd;fill:none;stroke:#000000;stroke-width:2.83;stroke-linecap:round;stroke-linejoin:round;stroke-miterlimit:10;" d="    M100.71,2.664c0,0,48.45-2.81,88.79,0"/>
		
			<path style="fill-rule:evenodd;clip-rule:evenodd;fill:none;stroke:#000000;stroke-width:2.83;stroke-linecap:round;stroke-linejoin:round;stroke-miterlimit:10;" d="    M56.1,311.324c0,0,0.71,17.04,25.11,29.23"/>
		
			<path style="fill-rule:evenodd;clip-rule:evenodd;fill:none;stroke:#000000;stroke-width:2.83;stroke-linecap:round;stroke-linejoin:round;stroke-miterlimit:10;" d="    M234.65,311.324c0,0-0.71,17.04-25.11,29.23"/>
		
			<path style="fill-rule:evenodd;clip-rule:evenodd;fill:#FFFFFF;stroke:#6D6E71;stroke-width:0.34;stroke-linecap:round;stroke-linejoin:round;stroke-miterlimit:10;" d="    M3.06,147.514c1.25,0.17,16.56,9.95,45.36,11.2l-3.35,16.8c0,0-23.19,3.01-44.9-11.42L3.06,147.514z" data-fill-id="4" class="can-change"/>
		<g>
			<defs>
				<path id="SVGID_3_" d="M287.21,147.624l2.89,16.58c-21.72,14.43-44.9,11.43-44.9,11.43l-3.35-16.81      C270.65,157.574,285.96,147.794,287.21,147.624z"/>
			</defs>
			<use xlink:href="#SVGID_3_" style="overflow:visible;fill-rule:evenodd;clip-rule:evenodd;fill:#FFFFFF;" data-fill-id="9" class="can-change"/>
			<clipPath id="SVGID_4_">
				<use xlink:href="#SVGID_3_" style="overflow:visible;"/>
			</clipPath>
			<g style="clip-path:url(#SVGID_4_);">
				
					<path style="fill-rule:evenodd;clip-rule:evenodd;fill:#FFFFFF;stroke:#6D6E71;stroke-width:0.34;stroke-linecap:round;stroke-linejoin:round;stroke-miterlimit:10;" d="      M290.95,155.424l3.12,17.94c-23.5,15.65-48.62,12.39-48.62,12.39l-3.63-18.2C273,166.194,289.59,155.594,290.95,155.424z" data-fill-id="10" class="can-change"/>
			</g>
			
				<use xlink:href="#SVGID_3_" style="overflow:visible;fill-rule:evenodd;clip-rule:evenodd;fill:none;stroke:#6D6E71;stroke-width:0.34;stroke-linecap:round;stroke-linejoin:round;stroke-miterlimit:10;"/>
		</g>
		<g class="human-logo">
			<path style="fill-rule:evenodd;clip-rule:evenodd;" d="M115.2,316.533l0.872-4.899h2.187l-0.245,1.398h1.542l0.257-1.398h3.937     l-0.496,2.838c-0.012,0.036-0.018,0.078-0.024,0.12h0.084h1.195c0.072,0,0.155,0,0.227-0.036c0.054-0.072,0.072-0.167,0.09-0.251     l0.472-2.671h4.344l0.717,1.978l1.416-1.978h2.683l-0.484,2.689l1.93-2.689h2.163l1.064,2.862l0.508-2.862h2.539l1.237,2.002     l0.353-2.002h2.199l-0.872,4.899h-2.539l-1.237-2.002l-0.358,2.002h-3.453l-0.251-0.687h-1.84l-0.478,0.687h-3.513l0.239-1.356     l-0.992,1.356h-1.488l-0.573-1.506l-0.275,1.506h-2.151l0.084-0.478c-0.024,0.03-0.054,0.048-0.084,0.072     c-0.448,0.341-1.034,0.454-1.583,0.454h-1.727c-0.466,0-0.968-0.072-1.344-0.358c-0.113-0.078-0.215-0.185-0.287-0.305     l-0.107,0.615h-2.193l0.263-1.482h-1.547l-0.263,1.482H115.2z" class="can-change"/>
			<polygon style="fill-rule:evenodd;clip-rule:evenodd;fill:#FFFFFF;" points="115.78,316.031 116.479,312.111 117.68,312.111      117.429,313.509 119.968,313.509 120.213,312.111 121.42,312.111 120.721,316.031 119.52,316.031 119.789,314.549      117.25,314.549 116.987,316.031    " class="can-change"/>
			<path style="fill-rule:evenodd;clip-rule:evenodd;fill:#FFFFFF;" d="M121.516,314.639l0.442-2.528h1.207l-0.394,2.259     c-0.09,0.502,0.054,0.699,0.544,0.699h1.195c0.496,0,0.705-0.197,0.795-0.699l0.4-2.259h1.207l-0.454,2.528     c-0.167,0.968-0.759,1.44-1.858,1.44h-1.727C121.767,316.078,121.342,315.607,121.516,314.639" class="can-change"/>
			<polygon style="fill-rule:evenodd;clip-rule:evenodd;fill:#FFFFFF;" points="126.762,316.031 127.455,312.111 129.301,312.111      130.215,314.639 132.026,312.111 133.872,312.111 133.179,316.031 132.008,316.031 132.504,313.211 132.492,313.211      130.418,316.031 129.516,316.031 128.441,313.211 128.429,313.211 127.933,316.031    " class="can-change"/>
			<path style="fill-rule:evenodd;clip-rule:evenodd;fill:#FFFFFF;" d="M136.776,313.013l-1.016,1.482h1.536L136.776,313.013z      M133.334,316.031l2.82-3.92h1.571l1.458,3.92h-1.338l-0.245-0.687h-2.438l-0.484,0.687H133.334z" class="can-change"/>
			<polygon style="fill-rule:evenodd;clip-rule:evenodd;fill:#FFFFFF;" points="139.351,316.031 140.044,312.111 141.902,312.111      143.659,314.955 143.671,314.955 144.173,312.111 145.38,312.111 144.693,316.031 142.828,316.031 141.066,313.181      141.054,313.181 140.552,316.031    " class="can-change"/>
			<path style="fill-rule:evenodd;clip-rule:evenodd;" d="M146.115,315.015l0.048-0.263h1.207c-0.072,0.412,0.09,0.448,0.442,0.448     h1.47c0.263,0,0.526-0.03,0.58-0.329c0.054-0.346-0.077-0.364-1.631-0.364c-1.81,0-1.978-0.221-1.804-1.183     c0.125-0.711,0.281-1.261,1.798-1.261h1.685c1.386,0,1.434,0.472,1.309,1.159l-0.018,0.126h-1.201     c0.048-0.287,0.036-0.4-0.514-0.4h-1.338c-0.263,0-0.466,0.09-0.508,0.299c-0.06,0.347,0.084,0.359,1.38,0.353     c1.87-0.006,2.282,0.102,2.085,1.249c-0.191,1.057-0.586,1.231-2.175,1.231h-1.464     C146.372,316.078,145.971,315.869,146.115,315.015" class="can-change"/>
			<path style="fill-rule:evenodd;clip-rule:evenodd;" d="M153.087,313.085l-0.173,0.986h1.876c0.275,0,0.418-0.185,0.46-0.418     l0.03-0.149c0.042-0.269-0.06-0.418-0.424-0.418H153.087z M151.367,316.031l0.693-3.92h3.274c1.147,0,1.326,0.574,1.183,1.344     l-0.054,0.335c-0.108,0.58-0.478,1.255-1.326,1.255h-2.396l-0.173,0.986H151.367z" class="can-change"/>
			<polygon style="fill-rule:evenodd;clip-rule:evenodd;" points="156.445,316.031 157.138,312.111 161.429,312.111      161.273,313.013 158.184,313.013 158.076,313.647 160.998,313.647 160.855,314.459 157.933,314.459 157.82,315.093      160.98,315.093 160.807,316.031    " class="can-change"/>
			<polygon style="fill-rule:evenodd;clip-rule:evenodd;" points="161.273,316.031 161.96,312.111 166.256,312.111 166.095,313.013      163.012,313.013 162.898,313.647 165.82,313.647 165.683,314.459 162.755,314.459 162.641,315.093 165.802,315.093      165.635,316.031    " class="can-change"/>
			<path style="fill-rule:evenodd;clip-rule:evenodd;" d="M167.864,313.085l-0.341,1.936h2.127c0.52,0,0.747-0.144,0.843-0.705     l0.096-0.526c0.095-0.556-0.078-0.705-0.591-0.705H167.864z M166.143,316.031l0.687-3.92h3.627c1.207,0,1.56,0.394,1.386,1.368     l-0.209,1.189c-0.174,0.968-0.663,1.362-1.864,1.362H166.143z" class="can-change"/>
			<path style="fill-rule:evenodd;clip-rule:evenodd;" d="M173.636,311.376c-0.562,0-0.986,0.466-0.986,1.028     c0,0.586,0.424,1.034,1.004,1.034c0.55,0.006,0.98-0.448,0.98-1.028C174.633,311.842,174.203,311.376,173.636,311.376      M173.653,311.101c0.717,0,1.297,0.592,1.297,1.303c0,0.723-0.58,1.309-1.309,1.309c-0.729,0-1.314-0.586-1.314-1.309     C172.327,311.693,172.913,311.101,173.653,311.101 M173.438,311.974v0.377h0.149c0.161,0,0.293-0.06,0.293-0.179     c0-0.132-0.072-0.209-0.275-0.209C173.534,311.962,173.468,311.968,173.438,311.974 M173.426,312.565v0.514h-0.263v-1.314     c0.102-0.012,0.251-0.024,0.454-0.024c0.245,0,0.352,0.024,0.436,0.108c0.072,0.048,0.137,0.149,0.137,0.281     c0,0.143-0.131,0.239-0.275,0.305v0.018c0.131,0.036,0.185,0.131,0.233,0.311c0.042,0.203,0.06,0.269,0.09,0.317h-0.281     c-0.054-0.054-0.078-0.149-0.108-0.317c-0.03-0.137-0.108-0.197-0.275-0.197H173.426z" class="can-change"/>
			<rect x="115.2" y="311.101" style="fill:none;" width="59.75" height="5.479"/>
			<path d="M151.173,317.418h0.343l-0.24,1.128h-0.343L151.173,317.418z"/>
			<path d="M152.317,317.418h0.546l0.501,0.857l0.172-0.857h0.325l-0.238,1.128h-0.551l-0.494-0.849l-0.171,0.849h-0.33     L152.317,317.418z"/>
			<path d="M154.987,317.697h-0.502l0.059-0.279h1.348l-0.059,0.279h-0.502l-0.181,0.849h-0.343L154.987,317.697z"/>
			<path d="M157.822,317.418l-0.054,0.255h-0.91l-0.042,0.194h0.861l-0.047,0.223h-0.861l-0.042,0.199h0.923l-0.054,0.255h-1.261     l0.24-1.128H157.822z"/>
			<path d="M158.596,317.418h0.343l-0.181,0.849h0.776l-0.059,0.279h-1.119L158.596,317.418z"/>
			<path d="M160.403,317.418h0.343l-0.181,0.849h0.776l-0.059,0.279h-1.119L160.403,317.418z"/>
			<path d="M162.21,317.418h0.343l-0.24,1.128h-0.343L162.21,317.418z"/>
			<path d="M164.381,317.8c0.002-0.015,0.005-0.03,0.005-0.042c0.002-0.037-0.02-0.064-0.058-0.074     c-0.03-0.009-0.032-0.009-0.115-0.009l-0.156-0.002l-0.216,0.002c-0.152,0-0.206,0.029-0.24,0.127     c-0.034,0.1-0.074,0.303-0.074,0.369c0,0.088,0.054,0.12,0.201,0.122c0.037,0.002,0.113,0.002,0.311,0.002     c0.159,0,0.208-0.015,0.245-0.073c0.012-0.022,0.017-0.036,0.029-0.102h-0.434l0.046-0.21h0.769l-0.034,0.156     c-0.034,0.162-0.044,0.198-0.074,0.272c-0.058,0.138-0.178,0.21-0.36,0.215c-0.039,0.002-0.221,0.002-0.431,0.002     c-0.36,0-0.438-0.008-0.529-0.059c-0.066-0.037-0.1-0.112-0.1-0.218c0-0.073,0.02-0.189,0.069-0.396     c0.066-0.282,0.151-0.392,0.338-0.44c0.096-0.024,0.228-0.032,0.522-0.032c0.411,0,0.477,0.007,0.563,0.061     c0.054,0.032,0.081,0.09,0.081,0.171c0,0.042-0.007,0.088-0.022,0.159H164.381z"/>
			<path d="M166.825,317.418l-0.054,0.255h-0.91l-0.042,0.194h0.86l-0.047,0.223h-0.861l-0.042,0.199h0.923l-0.054,0.255h-1.261     l0.24-1.128H166.825z"/>
			<path d="M167.6,317.418h0.546l0.501,0.857l0.172-0.857h0.325l-0.238,1.128h-0.551l-0.494-0.849l-0.171,0.849h-0.33L167.6,317.418     z"/>
			<path d="M170.269,317.697h-0.502l0.059-0.279h1.348l-0.059,0.279h-0.502l-0.181,0.849h-0.343L170.269,317.697z"/>
			<g>
				<polygon style="fill:#ED1C24;" points="145.484,318.163 145.403,318.545 146.646,318.545 146.729,318.163     " class="can-change"/>
				<polygon style="fill:#ED1C24;" points="150.568,317.8 150.649,317.418 147.261,317.418 147.179,317.8     " class="can-change"/>
				<polygon style="fill:#ED1C24;" points="146.889,317.418 145.643,317.418 145.561,317.8 146.807,317.8     " class="can-change"/>
				<polygon style="fill:#ED1C24;" points="147.019,318.545 150.409,318.545 150.491,318.163 147.101,318.163     " class="can-change"/>
				<polygon style="fill:#FFFFFF;" points="147.179,317.8 147.261,317.418 146.889,317.418 146.807,317.8 145.561,317.8       145.484,318.163 146.729,318.163 146.646,318.545 147.019,318.545 147.101,318.163 150.491,318.163 150.568,317.8     " class="can-change"/>
			</g>
		</g>
	</g>
</g>
<g id="Layer_1">
</g>
</svg>