<svg xmlns="http://www.w3.org/2000/svg" xmlns:xlink="http://www.w3.org/1999/xlink" version="1.1" id="Layer_1" x="0px" y="0px" viewBox="-802 225 203 442" style="enable-background:new -802 225 203 442;" xml:space="preserve" data-product="2017507" data-design="1" data-size="m">
<style type="text/css">
	.st0{fill:#FFFFFF;}
	.st1{clip-path:url(#SVGID_6_);}
	.st2{fill:#FFFFFF;stroke:#6D6E71;stroke-width:0.34;stroke-linecap:round;stroke-linejoin:round;stroke-miterlimit:10;}
	.st3{fill:none;stroke:#6D6E71;stroke-width:0.34;stroke-linecap:round;stroke-linejoin:round;stroke-miterlimit:10;}
	.st4{clip-path:url(#SVGID_8_);}
	.st5{fill:#EDEDED;stroke:#6D6E71;stroke-width:0.34;stroke-linecap:round;stroke-linejoin:round;stroke-miterlimit:10;}
	.st6{fill:none;}
	.st7{fill:#ED1C24;}
</style>
<g>
	<g>
		<path id="SVGID_1_" class="st0 can-change" d="M-658.6,236.1c0.2,0,20,8.6,29.1,12.8c-4,20.8-6.3,35.9-4.3,61.9c1.1,15.2,10.2,25.6,18.5,31.4    c-1.5,5.2-5.3,30.8-5.8,40.8c-1.3,15.4-3.8,26.3-2.7,69.6c-23.7,8.8-51.9,11.5-77,11.6c-25.1,0-55-2.7-78.6-11.4    c1.1-43.3-2.4-53.1-2.1-68.2c-0.5-10-4.3-35.6-5.8-40.8c8.4-5.9,19.5-17.8,20.6-33c2-26-0.3-41.1-4.3-61.9    c9.2-4.1,28.9-12.8,29.1-12.8c13.1,11.6,35.7,10.7,39.6,10.9h0.8l0.7,0v0C-692.1,246.9-670,246.1-658.6,236.1z" fill="rgb(255, 255, 255)" data-fill-id="16"/>
	</g>
	<g>
		<defs>
			<path id="SVGID_5_" d="M-658.6,236.1c0.2,0,20,8.6,29.1,12.8c-4,20.8-6.3,35.9-4.3,61.9c1.1,15.2,10.2,25.6,18.5,31.4     c-1.5,5.2-5.3,30.8-5.8,40.8c-1.3,15.4-3.8,26.3-2.7,69.6c-23.7,8.8-51.9,11.5-77,11.6c-25.1,0-55-2.7-78.6-11.4     c1.1-43.3-2.4-53.1-2.1-68.2c-0.5-10-4.3-35.6-5.8-40.8c8.4-5.9,19.5-17.8,20.6-33c2-26-0.3-41.1-4.3-61.9     c9.2-4.1,28.9-12.8,29.1-12.8c13.1,11.6,35.7,10.7,39.6,10.9h0.8l0.7,0v0C-692.1,246.9-670,246.1-658.6,236.1z"/>
		</defs>
		<clipPath id="SVGID_6_">
			<use xlink:href="#SVGID_5_" style="overflow:visible;"/>
		</clipPath>
		<g class="st1 can-change" fill="rgb(0, 0, 0)">
			<g>
				<g>
					<path class="st2 can-change" d="M-716.3,150.4h7.7v285.3h-7.7V150.4z" fill="rgb(255, 255, 255)"/>
					<path class="st2 can-change" d="M-693.2,150.4h7.7v285.3h-7.7V150.4z" fill="rgb(255, 255, 255)"/>
					<path class="st2 can-change" d="M-700.9,150.4h7.7v285.3h-7.7V150.4z" fill="rgb(255, 255, 255)"/>
				</g>
				<path class="st2 can-change" d="M-708.6,150.4h7.7v285.3h-7.7V150.4z" fill="rgb(255, 255, 255)"/>
			</g>
		</g>
	</g>
	<g>
		<path id="SVGID_2_" class="st3" d="M-658.6,236.1c0.2,0,20,8.6,29.1,12.8c-4,20.8-6.3,35.9-4.3,61.9c1.1,15.2,10.2,25.6,18.5,31.4    c-1.5,5.2-5.3,30.8-5.8,40.8c-1.3,15.4-3.8,26.3-2.7,69.6c-23.7,8.8-51.9,11.5-77,11.6c-25.1,0-55-2.7-78.6-11.4    c1.1-43.3-2.4-53.1-2.1-68.2c-0.5-10-4.3-35.6-5.8-40.8c8.4-5.9,19.5-17.8,20.6-33c2-26-0.3-41.1-4.3-61.9    c9.2-4.1,28.9-12.8,29.1-12.8c13.1,11.6,35.7,10.7,39.6,10.9h0.8l0.7,0v0C-692.1,246.9-670,246.1-658.6,236.1z" fill="none"/>
	</g>
</g>
<g>
	<g>
		<path id="SVGID_3_" class="st0 can-change" d="M-655.2,459.2c-0.2-4.8-0.8-18.9-1.7-49c-1.1-38.7,24-59.2,28.7-63.3c2.8-2.5,4.8-7.5,5.9-11.1    c2.2,2.2,4.5,4.2,7,6.3c-1.5,5.2-5.6,30.8-6.1,40.8c0.3,15-3.6,26.3-2.4,69.6c0.8,3.1,1.6,6.6,2.5,10.6    c3.3,15.4,3.5,18.9,5.8,28.9c2.3,10,7.8,45.1,6.5,88.5c0,0.1,0.3,9-0.7,20.7c-0.9,10.7-2.9,26.4-3.9,30c-0.9,5.6-2,12.6-2.8,18.3    c-0.1,0.1-6.4,6.2-20.7,7.9l-0.1,0c-11.5,1.4-28,0-50.4-9.3l-2.1-18c0-0.2-1.8-23.4-4-28.8c-2.3-5.4-3.5-27-3.5-27.2l0.5-16.5    c0,0-2.5,1.2-3.7,1.2c-1.3,0-3.7-1.2-3.7-1.2l0.5,16.5c0,0.2-1.2,21.8-3.5,27.2c-2.2,5.4-4,28.6-4,28.8l-2,18    c-24.2,10.1-41.5,10.9-53,9c-12.6-2.1-18.2-7.5-18.3-7.6c-0.8-5.7-1.9-12.6-2.8-18.3c-1-3.7-3-19.4-3.8-30    c-1-11.7-0.7-20.6-0.7-20.7c-0.7-24-0.4-44.7,0.6-60.5c0.7-11.6,1.6-20,2.6-24.4c2.2-10,3.4-17.1,6.8-32.4    c0.9-4.1,1.7-7.7,2.5-10.8c1-43-2.4-52.8-2.2-67.8c-0.5-10-4.3-35.6-5.8-40.8c2.5-2.2,6.5-5.8,8.7-7.9c1.1,3.6,3.1,8.6,5.9,11.1    c4.7,4.1,29.9,24.6,28.8,63.3c-0.9,30.1-1.5,44.1-1.7,48.9c12.5,1.8,28,3.2,45.4,3.2C-682.8,462.4-667.5,461-655.2,459.2z" fill="rgb(255, 255, 255)" data-fill-id="1"/>
	</g>
	<g>
		<defs>
			<path id="SVGID_7_" d="M-655.2,459.2c-0.2-4.8-0.8-18.9-1.7-49c-1.1-38.7,24-59.2,28.7-63.3c2.8-2.5,4.8-7.5,5.9-11.1     c2.2,2.2,4.5,4.2,7,6.3c-1.5,5.2-5.6,30.8-6.1,40.8c0.3,15-3.6,26.3-2.4,69.6c0.8,3.1,1.6,6.6,2.5,10.6     c3.3,15.4,3.5,18.9,5.8,28.9c2.3,10,7.8,45.1,6.5,88.5c0,0.1,0.3,9-0.7,20.7c-0.9,10.7-2.9,26.4-3.9,30c-0.9,5.6-2,12.6-2.8,18.3     c-0.1,0.1-6.4,6.2-20.7,7.9l-0.1,0c-11.5,1.4-28,0-50.4-9.3l-2.1-18c0-0.2-1.8-23.4-4-28.8c-2.3-5.4-3.5-27-3.5-27.2l0.5-16.5     c0,0-2.5,1.2-3.7,1.2c-1.3,0-3.7-1.2-3.7-1.2l0.5,16.5c0,0.2-1.2,21.8-3.5,27.2c-2.2,5.4-4,28.6-4,28.8l-2,18     c-24.2,10.1-41.5,10.9-53,9c-12.6-2.1-18.2-7.5-18.3-7.6c-0.8-5.7-1.9-12.6-2.8-18.3c-1-3.7-3-19.4-3.8-30     c-1-11.7-0.7-20.6-0.7-20.7c-0.7-24-0.4-44.7,0.6-60.5c0.7-11.6,1.6-20,2.6-24.4c2.2-10,3.4-17.1,6.8-32.4     c0.9-4.1,1.7-7.7,2.5-10.8c1-43-2.4-52.8-2.2-67.8c-0.5-10-4.3-35.6-5.8-40.8c2.5-2.2,6.5-5.8,8.7-7.9c1.1,3.6,3.1,8.6,5.9,11.1     c4.7,4.1,29.9,24.6,28.8,63.3c-0.9,30.1-1.5,44.1-1.7,48.9c12.5,1.8,28,3.2,45.4,3.2C-682.8,462.4-667.5,461-655.2,459.2z"/>
		</defs>
		<clipPath id="SVGID_8_">
			<use xlink:href="#SVGID_7_" style="overflow:visible;"/>
		</clipPath>
		<g class="st4 can-change" fill="rgb(0, 0, 0)">
			<g>
				<path class="st2 can-change" d="M-598.3,612l-7.5,30.9c-27.3,22.6-91.4,0-91.4,0l-0.6-22.4l9.2,3.9c52.3,19.7,75.5,0.1,75.5,0.1L-598.3,612      z" fill="rgb(255, 255, 255)" data-fill-id="7"/>
				<path class="st2 can-change" d="M-598.2,617.9l-7.5,30.9c-27.3,22.6-91.4,0-91.4,0l-0.7-22.4l9.2,3.9c52.3,19.7,75.5,0.1,75.5,0.1      L-598.2,617.9z" fill="rgb(255, 255, 255)" data-fill-id="8"/>
				<path class="st2 can-change" d="M-598,623.8l-7.6,30.9c-27.3,22.6-91.4,0-91.4,0l-0.6-22.4l9.2,3.9c52.3,19.7,75.5,0.1,75.5,0.1L-598,623.8      z" fill="rgb(255, 255, 255)" data-fill-id="9"/>
				<path class="st2 can-change" d="M-597.9,629.8l-7.6,30.9c-27.3,22.6-91.4,0-91.4,0l-0.7-22.4l9.3,3.8c52.2,19.7,75.4,0.1,75.4,0.1      L-597.9,629.8z" fill="rgb(255, 255, 255)" data-fill-id="10"/>
			</g>
			<g>
				<path class="st2 can-change" d="M-802.4,612l14.9,12.4c0,0,23.2,19.6,75.4-0.1l9.2-3.9l-0.6,22.4c0,0-64.1,22.6-91.4,0L-802.4,612z" fill="rgb(255, 255, 255)" data-fill-id="3"/>
				<path class="st2 can-change" d="M-802.5,617.9l14.9,12.4c0,0,23.2,19.6,75.4-0.1l9.2-3.9l-0.7,22.4c0,0-64.1,22.6-91.4,0L-802.5,617.9z" fill="rgb(255, 255, 255)" data-fill-id="4"/>
				<path class="st2 can-change" d="M-802.7,623.8l14.9,12.4c0,0,23.2,19.6,75.5-0.1l9.2-3.9l-0.6,22.4c0,0-64.1,22.6-91.4,0L-802.7,623.8z" fill="rgb(255, 255, 255)" data-fill-id="5"/>
				<path class="st2 can-change" d="M-802.8,629.8l14.9,12.4c0,0,23.2,19.6,75.5-0.1l9.2-3.9l-0.7,22.4c0,0-64.1,22.6-91.4,0L-802.8,629.8z" fill="rgb(255, 255, 255)" data-fill-id="6"/>
			</g>
		</g>
	</g>
	<g>
		<path id="SVGID_4_" class="st3" d="M-655.2,459.2c-0.2-4.8-0.8-18.9-1.7-49c-1.1-38.7,24-59.2,28.7-63.3c2.8-2.5,4.8-7.5,5.9-11.1    c2.2,2.2,4.5,4.2,7,6.3c-1.5,5.2-5.6,30.8-6.1,40.8c0.3,15-3.6,26.3-2.4,69.6c0.8,3.1,1.6,6.6,2.5,10.6    c3.3,15.4,3.5,18.9,5.8,28.9c2.3,10,7.8,45.1,6.5,88.5c0,0.1,0.3,9-0.7,20.7c-0.9,10.7-2.9,26.4-3.9,30c-0.9,5.6-2,12.6-2.8,18.3    c-0.1,0.1-6.4,6.2-20.7,7.9l-0.1,0c-11.5,1.4-28,0-50.4-9.3l-2.1-18c0-0.2-1.8-23.4-4-28.8c-2.3-5.4-3.5-27-3.5-27.2l0.5-16.5    c0,0-2.5,1.2-3.7,1.2c-1.3,0-3.7-1.2-3.7-1.2l0.5,16.5c0,0.2-1.2,21.8-3.5,27.2c-2.2,5.4-4,28.6-4,28.8l-2,18    c-24.2,10.1-41.5,10.9-53,9c-12.6-2.1-18.2-7.5-18.3-7.6c-0.8-5.7-1.9-12.6-2.8-18.3c-1-3.7-3-19.4-3.8-30    c-1-11.7-0.7-20.6-0.7-20.7c-0.7-24-0.4-44.7,0.6-60.5c0.7-11.6,1.6-20,2.6-24.4c2.2-10,3.4-17.1,6.8-32.4    c0.9-4.1,1.7-7.7,2.5-10.8c1-43-2.4-52.8-2.2-67.8c-0.5-10-4.3-35.6-5.8-40.8c2.5-2.2,6.5-5.8,8.7-7.9c1.1,3.6,3.1,8.6,5.9,11.1    c4.7,4.1,29.9,24.6,28.8,63.3c-0.9,30.1-1.5,44.1-1.7,48.9c12.5,1.8,28,3.2,45.4,3.2C-682.8,462.4-667.5,461-655.2,459.2z" fill="none"/>
	</g>
</g>
<path class="st2 can-change" d="M-744.1,413.3c4.8-1.2,41.6-9.2,87.3-0.4c0.9,25.3,2.6,43.6,2.8,46.4h-1.2c-12.3,1.7-27.6,3.1-45.1,3.1  c-17.4,0-33.9-1.4-46.4-3.1C-746.6,456.5-745,438.3-744.1,413.3z" fill="rgb(255, 255, 255)" data-fill-id="14"/>
<path class="st2 can-change" d="M-656.7,415.6c-40.1-8.6-76.3-2-87.5,0.6c0.1-1.1,0.1-2.2,0.1-3.4c4.8-1.4,41.6-11.1,87.3-0.4  C-656.8,413.3-656.7,414.4-656.7,415.6z" fill="rgb(255, 255, 255)" data-fill-id="15"/>
<path class="st2 can-change" d="M-671.6,234.1c0-0.2,13,2,13,2c-48.1,28.5-83.2,0-83.2,0l10.1-1.9C-700.5,250.3-671.6,234.1-671.6,234.1z" fill="rgb(255, 255, 255)" data-fill-id="17"/>
<path class="st2 can-change" d="M-700.4,558.9l0.1-145.7" fill="rgb(255, 255, 255)"/>
<path class="st2 can-change" d="M-766.5,246.7l1.1,6.8c2.4,17.8,2.4,42.2,2.4,42.2c-0.8,43.6-23.2,53.1-23.2,53.1l-2.2-9.4  c13-9.6,17.5-22.3,17.2-43.8c-0.3-21.5-3.2-45.6-3.2-45.6L-766.5,246.7z" fill="rgb(255, 255, 255)" data-fill-id="18"/>
<path class="st2 can-change" d="M-636.3,245.9l7.9,3.3c0,0-2.9,24.3-3.2,46c-0.3,21.6,4.1,34.5,17.2,44.1l-2.3,9.4c0,0-22.3-9.6-23.2-53.5  c0,0,0-24.5,2.4-42.5L-636.3,245.9z" fill="rgb(255, 255, 255)" data-fill-id="19"/>
<path class="st2 can-change" d="M-701.2,353.9l0.2-111.1" fill="rgb(255, 255, 255)"/>
<path class="st2 can-change" d="M-701.3,379.5l0-138.3" fill="rgb(255, 255, 255)"/>
<path class="st2 can-change" d="M-699.1,379.5l0.1-138.3" fill="rgb(255, 255, 255)"/>
<path class="st2 can-change" d="M-703.4,379.5l0.1-138.3" fill="rgb(255, 255, 255)"/>
<g>
	<path class="st2 can-change" d="M-701.2,244.9h0.8c0,0,0.1-0.2,0.2-0.7c0-0.4,0.1-0.4,0.1-0.4s0.3-0.3,0.4-0.3c0.2-0.1,0.1-0.3,0.1-0.3   s0-0.3,0-0.8c0-0.5-0.1-0.5-0.1-0.5l-1-1v-0.5l-0.5,0l-0.5,0v0.5l-1,1c0,0-0.1,0.1-0.1,0.5c0,0.4,0,0.8,0,0.8s0,0.2,0.1,0.3   c0.2,0.1,0.5,0.3,0.5,0.3s0.1,0,0.1,0.4c0.1,0.5,0.2,0.7,0.2,0.7H-701.2" fill="rgb(255, 255, 255)"/>
	<path class="st2 can-change" d="M-701.2,244.9h0.8c0,0,0.1-0.2,0.2-0.7c0-0.2,0-0.3,0.1-0.3l0.1-0.1c0,0,0.3-0.3,0.4-0.3   c0.1-0.1,0.1-0.2,0.1-0.3v0c0,0,0-0.1,0-0.4c0-0.1,0-0.2,0-0.4c0-0.4-0.1-0.5-0.1-0.5l-1-1v-0.5l-0.5,0l-0.5,0v0.5l-1,1   c0,0-0.1,0.1-0.1,0.5c0,0.1,0,0.3,0,0.4c0,0.2,0,0.4,0,0.4v0c0,0.1,0,0.2,0.1,0.3c0.2,0.1,0.5,0.3,0.5,0.3l0,0.1   c0,0,0.1,0.1,0.1,0.3c0.1,0.5,0.2,0.7,0.2,0.7H-701.2h-0.8c0,0-0.1-0.2-0.2-0.7c0-0.2,0-0.3-0.1-0.3l0-0.1c0,0-0.3-0.3-0.5-0.3   c-0.1-0.1-0.1-0.2-0.1-0.3v0c0,0,0-0.1,0-0.4c0-0.1,0-0.2,0-0.4c0-0.4,0.1-0.5,0.1-0.5l1-1v-0.5l0.5,0l0.5,0v0.5l1,1   c0,0,0.1,0.1,0.1,0.5c0,0.1,0,0.3,0,0.4c0,0.2,0,0.4,0,0.4v0c0,0.1,0,0.2-0.1,0.3c-0.1,0.1-0.4,0.3-0.4,0.3l-0.1,0.1   c0,0-0.1,0.1-0.1,0.3c0,0.5-0.2,0.7-0.2,0.7H-701.2z" fill="rgb(255, 255, 255)"/>
	<path class="st2 can-change" d="M-701.6,240.6h0.7v3.1h-0.7V240.6v3.1h0.7v-3.1H-701.6z" fill="rgb(255, 255, 255)"/>
	<path class="st2 can-change" d="M-701.2,245.4l1.3,0c0,0,0-2.3,0.1-2.6c0-0.2-0.1-0.3-0.1-0.3h-1.3h-1.3c0,0-0.2,0.1-0.1,0.3   c0.1,0.3,0.1,2.6,0.1,2.6L-701.2,245.4" fill="rgb(255, 255, 255)"/>
	<path class="st2 can-change" d="M-701.2,245.4h1.3c0,0,0-2.3,0.1-2.6v-0.1c0-0.2-0.1-0.2-0.1-0.2h-1.3h-1.3c0,0-0.1,0-0.1,0.2v0.1   c0.1,0.3,0.1,2.6,0.1,2.6H-701.2h-1.3c0,0,0-2.3-0.1-2.6v-0.1c0-0.2,0.1-0.2,0.1-0.2h1.3h1.3c0,0,0.1,0,0.1,0.2v0.1   c-0.1,0.3-0.1,2.6-0.1,2.6H-701.2z" fill="rgb(255, 255, 255)"/>
	<path class="st2 can-change" d="M-700.6,249.1h-1.2c-0.5-0.1-0.5-0.9-0.5-0.9l-0.2-2.8h2.6l-0.2,2.8C-700.1,248.2-700.1,249-700.6,249.1z" fill="rgb(255, 255, 255)"/>
	<path class="st2 can-change" d="M-700.6,249.1c0.5-0.1,0.5-0.9,0.5-0.9l0.2-2.8h-2.6l0.2,2.8c0,0,0,0.8,0.5,0.9H-700.6h-1.2   c-0.5-0.1-0.5-0.9-0.5-0.9l-0.2-2.8h2.6l-0.2,2.8C-700.1,248.2-700.1,249-700.6,249.1z" fill="rgb(255, 255, 255)"/>
	<path class="st2 can-change" d="M-700.8,245.2c0.1-0.6,0.3-1,0.6-1.4v-0.9h-2.1v0.9c0.3,0.4,0.5,0.8,0.6,1.4H-700.8h-0.8   c-0.1-0.6-0.3-1-0.6-1.4v-0.9h2.1v0.9C-700.5,244.2-700.7,244.6-700.8,245.2z" fill="rgb(255, 255, 255)"/>
	<path class="st2 can-change" d="M-702.2,241.9h0.6v0.6h-0.6V241.9v0.6h0.6v-0.6H-702.2z" fill="rgb(255, 255, 255)"/>
	<path class="st2 can-change" d="M-700.9,241.9h0.6v0.6h-0.6V241.9v0.6h0.6v-0.6H-700.9z" fill="rgb(255, 255, 255)"/>
	<path class="st2 can-change" d="M-700.9,242.8h0.6v0.6h-0.6V242.8v0.6h0.6v-0.6H-700.9z" fill="rgb(255, 255, 255)"/>
	<path class="st2 can-change" d="M-702.2,242.8h0.6v0.6h-0.6V242.8v0.6h0.6v-0.6H-702.2z" fill="rgb(255, 255, 255)"/>
</g>
<g class="cannot-edit"><path class="st5 cannot-edit can-change" d="M-700,462.4l0.2,98.6l-0.4,0c-1.3,0-3.8-1.2-3.8-1.2l0.5,16.8c0,0.1-0.7,11.9-1.9,20.4  c-52.5-21.1-41-136.6-40.9-137.8C-733.5,461-717.7,462.4-700,462.4z" style="fill: rgb(0, 0, 0);"/><path class="st5 cannot-edit can-change" d="M-700.3,462.5c17.7,0,33.5-1.5,46.3-3.2c0.1,1.2,11.6,116.7-40.9,137.8c-1.3-8.5-1.9-20.3-1.9-20.4l0.5-16.8  c0,0-2.5,1.2-3.8,1.2l-0.4,0L-700.3,462.5z" style="fill: rgb(0, 0, 0);"/></g>

<path class="st2 cannot-edit can-change" d="M-703.6,574.2c0,0-38.7-34.4-12.6-42.8c3.7-1.2,9.8,3.1,16.2,3.1c7.1,0,11.2-4.1,15-2.8  c24.3,9-12.2,42.5-12.2,42.5" fill="rgb(255, 255, 255)" style="&#10;  fill: rgb(0,0,0);&#10;"/>
<g class="human-logo">
	<path d="M-728.7,437.2l0.8-4.6h2.1l-0.2,1.3h1.5l0.2-1.3h3.7l-0.5,2.7c0,0,0,0.1,0,0.1h0.1h1.1c0.1,0,0.1,0,0.2,0   c0.1-0.1,0.1-0.2,0.1-0.2l0.4-2.5h4.1l0.7,1.9l1.3-1.9h2.5l-0.5,2.6l1.8-2.6h2.1l1,2.7l0.5-2.7h2.4l1.2,1.9l0.3-1.9h2.1l-0.8,4.6   h-2.4l-1.2-1.9l-0.3,1.9h-3.3l-0.2-0.7h-1.7l-0.5,0.7h-3.3l0.2-1.3l-0.9,1.3h-1.4l-0.5-1.4l-0.3,1.4h-2l0.1-0.5c0,0-0.1,0-0.1,0.1   c-0.4,0.3-1,0.4-1.5,0.4h-1.6c-0.4,0-0.9-0.1-1.3-0.3c-0.1-0.1-0.2-0.2-0.3-0.3l-0.1,0.6h-2.1l0.2-1.4h-1.5l-0.2,1.4L-728.7,437.2   L-728.7,437.2z"/>
	<polygon class="st0 can-change" points="-728.1,436.7 -727.5,433 -726.3,433 -726.6,434.3 -724.2,434.3 -723.9,433 -722.8,433 -723.4,436.7    -724.6,436.7 -724.3,435.3 -726.7,435.3 -727,436.7  " fill="rgb(255, 255, 255)"/>
	<path class="st0 can-change" d="M-722.7,435.4l0.4-2.4h1.1l-0.4,2.1c-0.1,0.5,0.1,0.7,0.5,0.7h1.1c0.5,0,0.7-0.2,0.8-0.7l0.4-2.1h1.1l-0.4,2.4   c-0.2,0.9-0.7,1.4-1.8,1.4h-1.6C-722.4,436.8-722.8,436.3-722.7,435.4" fill="rgb(255, 255, 255)"/>
	<polygon class="st0 can-change" points="-717.7,436.7 -717,433 -715.3,433 -714.4,435.4 -712.7,433 -711,433 -711.6,436.7 -712.7,436.7    -712.3,434.1 -712.3,434.1 -714.2,436.7 -715.1,436.7 -716.1,434.1 -716.1,434.1 -716.6,436.7  " fill="rgb(255, 255, 255)"/>
	<path class="st0 can-change" d="M-708.2,433.9l-1,1.4h1.5L-708.2,433.9z M-711.5,436.7l2.7-3.7h1.5l1.4,3.7h-1.3l-0.2-0.7h-2.3l-0.5,0.7   H-711.5z" fill="rgb(255, 255, 255)"/>
	<polygon class="st0 can-change" points="-705.8,436.7 -705.1,433 -703.3,433 -701.7,435.7 -701.7,435.7 -701.2,433 -700,433 -700.7,436.7    -702.5,436.7 -704.1,434 -704.1,434 -704.6,436.7  " fill="rgb(255, 255, 255)"/>
	<path d="M-699.3,435.8l0-0.2h1.1c-0.1,0.4,0.1,0.4,0.4,0.4h1.4c0.2,0,0.5,0,0.5-0.3c0.1-0.3-0.1-0.3-1.5-0.3   c-1.7,0-1.9-0.2-1.7-1.1c0.1-0.7,0.3-1.2,1.7-1.2h1.6c1.3,0,1.4,0.4,1.2,1.1l0,0.1h-1.1c0-0.3,0-0.4-0.5-0.4h-1.3   c-0.2,0-0.4,0.1-0.5,0.3c-0.1,0.3,0.1,0.3,1.3,0.3c1.8,0,2.2,0.1,2,1.2c-0.2,1-0.6,1.2-2.1,1.2h-1.4   C-699.1,436.8-699.5,436.6-699.3,435.8"/>
	<path d="M-692.7,433.9l-0.2,0.9h1.8c0.3,0,0.4-0.2,0.4-0.4l0-0.1c0-0.3-0.1-0.4-0.4-0.4L-692.7,433.9L-692.7,433.9z M-694.4,436.7   l0.7-3.7h3.1c1.1,0,1.3,0.5,1.1,1.3l-0.1,0.3c-0.1,0.5-0.5,1.2-1.3,1.2h-2.3l-0.2,0.9H-694.4z"/>
	<polygon points="-689.5,436.7 -688.9,433 -684.8,433 -685,433.9 -687.9,433.9 -688,434.5 -685.2,434.5 -685.4,435.2 -688.1,435.2    -688.2,435.8 -685.2,435.8 -685.4,436.7  "/>
	<polygon points="-685,436.7 -684.3,433 -680.2,433 -680.4,433.9 -683.3,433.9 -683.4,434.5 -680.6,434.5 -680.8,435.2    -683.6,435.2 -683.7,435.8 -680.7,435.8 -680.8,436.7  "/>
	<path d="M-678.7,433.9l-0.3,1.8h2c0.5,0,0.7-0.1,0.8-0.7l0.1-0.5c0.1-0.5-0.1-0.7-0.6-0.7H-678.7z M-680.3,436.7l0.7-3.7h3.4   c1.1,0,1.5,0.4,1.3,1.3l-0.2,1.1c-0.2,0.9-0.6,1.3-1.8,1.3L-680.3,436.7L-680.3,436.7z"/>
	<path d="M-673.2,432.3c-0.5,0-0.9,0.4-0.9,1c0,0.6,0.4,1,1,1c0.5,0,0.9-0.4,0.9-1C-672.3,432.8-672.7,432.3-673.2,432.3    M-673.2,432.1c0.7,0,1.2,0.6,1.2,1.2c0,0.7-0.5,1.2-1.2,1.2s-1.2-0.6-1.2-1.2C-674.5,432.6-673.9,432.1-673.2,432.1 M-673.4,432.9   v0.4h0.1c0.2,0,0.3-0.1,0.3-0.2c0-0.1-0.1-0.2-0.3-0.2C-673.3,432.9-673.4,432.9-673.4,432.9 M-673.4,433.4v0.5h-0.2v-1.2   c0.1,0,0.2,0,0.4,0c0.2,0,0.3,0,0.4,0.1c0.1,0,0.1,0.1,0.1,0.3c0,0.1-0.1,0.2-0.3,0.3v0c0.1,0,0.2,0.1,0.2,0.3   c0,0.2,0.1,0.3,0.1,0.3h-0.3c-0.1-0.1-0.1-0.1-0.1-0.3c0-0.1-0.1-0.2-0.3-0.2L-673.4,433.4L-673.4,433.4z"/>
	<rect x="-728.7" y="432.1" class="st6" width="56.7" height="5.2" fill="none"/>
	<path d="M-694.5,438h0.3l-0.2,1.1h-0.3L-694.5,438z"/>
	<path d="M-693.5,438h0.5l0.5,0.8l0.2-0.8h0.3l-0.2,1.1h-0.5l-0.5-0.8l-0.2,0.8h-0.3L-693.5,438z"/>
	<path d="M-690.9,438.3h-0.5l0.1-0.3h1.3l-0.1,0.3h-0.5l-0.2,0.8h-0.3L-690.9,438.3z"/>
	<path d="M-688.2,438l-0.1,0.2h-0.9l0,0.2h0.8l0,0.2h-0.8l0,0.2h0.9l-0.1,0.2h-1.2l0.2-1.1L-688.2,438L-688.2,438z"/>
	<path d="M-687.5,438h0.3l-0.2,0.8h0.7l-0.1,0.3h-1.1L-687.5,438z"/>
	<path d="M-685.8,438h0.3l-0.2,0.8h0.7l-0.1,0.3h-1.1L-685.8,438z"/>
	<path d="M-684.1,438h0.3l-0.2,1.1h-0.3L-684.1,438z"/>
	<path d="M-682,438.4C-682,438.4-682,438.4-682,438.4c0-0.1,0-0.1,0-0.1c0,0,0,0-0.1,0l-0.1,0l-0.2,0c-0.1,0-0.2,0-0.2,0.1   c0,0.1-0.1,0.3-0.1,0.4c0,0.1,0.1,0.1,0.2,0.1c0,0,0.1,0,0.3,0c0.2,0,0.2,0,0.2-0.1c0,0,0,0,0-0.1h-0.4l0-0.2h0.7l0,0.1   c0,0.2,0,0.2-0.1,0.3c-0.1,0.1-0.2,0.2-0.3,0.2c0,0-0.2,0-0.4,0c-0.3,0-0.4,0-0.5-0.1c-0.1,0-0.1-0.1-0.1-0.2c0-0.1,0-0.2,0.1-0.4   c0.1-0.3,0.1-0.4,0.3-0.4c0.1,0,0.2,0,0.5,0c0.4,0,0.5,0,0.5,0.1c0.1,0,0.1,0.1,0.1,0.2c0,0,0,0.1,0,0.2L-682,438.4L-682,438.4z"/>
	<path d="M-679.7,438l-0.1,0.2h-0.9l0,0.2h0.8l0,0.2h-0.8l0,0.2h0.9l-0.1,0.2h-1.2l0.2-1.1L-679.7,438L-679.7,438z"/>
	<path d="M-679,438h0.5l0.5,0.8l0.2-0.8h0.3l-0.2,1.1h-0.5l-0.5-0.8l-0.2,0.8h-0.3L-679,438z"/>
	<path d="M-676.4,438.3h-0.5l0.1-0.3h1.3l-0.1,0.3h-0.5l-0.2,0.8h-0.3L-676.4,438.3z"/>
	<g>
		<polygon class="st7 can-change" points="-699.9,438.8 -700,439.1 -698.8,439.1 -698.8,438.8   " fill="rgb(237, 28, 36)"/>
		<polygon class="st7 can-change" points="-695.1,438.4 -695,438 -698.3,438 -698.3,438.4   " fill="rgb(237, 28, 36)"/>
		<polygon class="st7 can-change" points="-698.6,438 -699.8,438 -699.9,438.4 -698.7,438.4   " fill="rgb(237, 28, 36)"/>
		<polygon class="st7 can-change" points="-698.5,439.1 -695.3,439.1 -695.2,438.8 -698.4,438.8   " fill="rgb(237, 28, 36)"/>
		<polygon class="st0 can-change" points="-698.3,438.4 -698.3,438 -698.6,438 -698.7,438.4 -699.9,438.4 -699.9,438.8 -698.8,438.8     -698.8,439.1 -698.5,439.1 -698.4,438.8 -695.2,438.8 -695.1,438.4   " fill="rgb(255, 255, 255)"/>
	</g>
</g>
</svg>