<svg xmlns="http://www.w3.org/2000/svg" xmlns:xlink="http://www.w3.org/1999/xlink" version="1.1" id="Layer_1" x="0px" y="0px" viewBox="-802 225 203 442" style="enable-background:new -802 225 203 442;" xml:space="preserve" data-product="2017507" data-design="1" data-size="m">
<style type="text/css">
	.st0{fill:#FFFFFF;stroke:#6D6E71;stroke-width:0.34;stroke-linecap:round;stroke-linejoin:round;stroke-miterlimit:10;}
	.st1{fill:#FFFFFF;}
	.st2{clip-path:url(#SVGID_6_);}
	.st3{fill:none;stroke:#6D6E71;stroke-width:0.34;stroke-linecap:round;stroke-linejoin:round;stroke-miterlimit:10;}
	.st4{clip-path:url(#SVGID_8_);}
	.st5{fill:#EDEDED;stroke:#6D6E71;stroke-width:0.34;stroke-linecap:round;stroke-linejoin:round;stroke-miterlimit:10;}
	.st6{fill:none;}
	.st7{fill:#ED1C24;}
</style>
<path class="st0 cannot-edit can-change" d="M-737.6,239.5c3.4,0.3,36.4,22.1,77.6,0c0,0-5.5,52-41.4,48.3c-35.9-3.7-41.6-46.9-38.9-47.6  C-737.6,239.5-741,239.1-737.6,239.5z" fill="rgb(255, 255, 255)"></path>
<g>
	<g>
		<path id="SVGID_1_" class="st1 can-change" d="M-785,351.1c2.8-7,17.2-46.2,6.9-101.8c0.2-0.1,16.3-8.8,32-13.9l0.4,2.5l3.8-2.6    c9.6,41.4,20.7,52.4,41.2,52.6h0.2c20.5-0.2,31.7-11.1,41.2-52.6l3.8,2.6l0.4-2.5c15.7,5.1,31.9,13.8,32,13.9    c-10.3,55.6,4.1,94.8,6.9,101.8c0.3,0.3,0.5,0.7,0.5,1.1c-1.6,9.9-3.6,24.5-4,31.5c0.3,15-3.2,24.9-2.1,68.2    c-23.7,8.8-53.7,11.4-78.8,11.4h-0.1c-25.2,0-55.1-2.7-78.8-11.4c1.1-43.3-2.5-53.1-2.1-68.2c-0.3-7-2.3-21.6-4-31.5    C-785.5,351.8-785.3,351.4-785,351.1z" fill="rgb(255, 255, 255)" data-fill-id="2"></path>
	</g>
	<g>
		<defs>
			<path id="SVGID_5_" d="M-785,351.1c2.8-7,17.2-46.2,6.9-101.8c0.2-0.1,16.3-8.8,32-13.9l0.4,2.5l3.8-2.6     c9.6,41.4,20.7,52.4,41.2,52.6h0.2c20.5-0.2,31.7-11.1,41.2-52.6l3.8,2.6l0.4-2.5c15.7,5.1,31.9,13.8,32,13.9     c-10.3,55.6,4.1,94.8,6.9,101.8c0.3,0.3,0.5,0.7,0.5,1.1c-1.6,9.9-3.6,24.5-4,31.5c0.3,15-3.2,24.9-2.1,68.2     c-23.7,8.8-53.7,11.4-78.8,11.4h-0.1c-25.2,0-55.1-2.7-78.8-11.4c1.1-43.3-2.5-53.1-2.1-68.2c-0.3-7-2.3-21.6-4-31.5     C-785.5,351.8-785.3,351.4-785,351.1z"></path>
		</defs>
		<clipPath id="SVGID_6_">
			<use xlink:href="#SVGID_5_" style="overflow:visible;"></use>
		</clipPath>
		<g class="st2 can-change" fill="rgb(0, 0, 0)">
			<g>
				<path class="st0 can-change" d="M-800.8,386.3v-11.1h206.6v11.1H-800.8z" fill="rgb(255, 255, 255)" data-fill-id="11"></path>
				<path class="st0 can-change" d="M-800.8,352.9v-11.1h206.6v11.1C-594.2,352.9-800.8,352.9-800.8,352.9z" fill="rgb(255, 255, 255)" data-fill-id="13"></path>
				<path class="st0 can-change" d="M-800.8,364v-11.1h206.6V364H-800.8z" fill="rgb(255, 255, 255)" data-fill-id="12"></path>
			</g>
		</g>
	</g>
	<g>
		<path id="SVGID_2_" class="st3" d="M-785,351.1c2.8-7,17.2-46.2,6.9-101.8c0.2-0.1,16.3-8.8,32-13.9l0.4,2.5l3.8-2.6    c9.6,41.4,20.7,52.4,41.2,52.6h0.2c20.5-0.2,31.7-11.1,41.2-52.6l3.8,2.6l0.4-2.5c15.7,5.1,31.9,13.8,32,13.9    c-10.3,55.6,4.1,94.8,6.9,101.8c0.3,0.3,0.5,0.7,0.5,1.1c-1.6,9.9-3.6,24.5-4,31.5c0.3,15-3.2,24.9-2.1,68.2    c-23.7,8.8-53.7,11.4-78.8,11.4h-0.1c-25.2,0-55.1-2.7-78.8-11.4c1.1-43.3-2.5-53.1-2.1-68.2c-0.3-7-2.3-21.6-4-31.5    C-785.5,351.8-785.3,351.4-785,351.1z" fill="none"></path>
	</g>
</g>
<g>
	<g>
		<path id="SVGID_3_" class="st1 can-change" d="M-608.9,569.3c0,3.4-0.1,6.9-0.2,10.4c0,0.1,0.2,9-0.7,20.7c-0.9,10.7-2.9,26.4-3.8,30    c-0.9,5.6-2,12.6-2.8,18.3c-0.2,0.2-20.7,19.7-71.3-1.4l-2-18c0-0.2-1.8-23.4-4.1-28.8c-2.3-5.4-3.4-27-3.4-27.2l0.4-16.5    c0,0-2.4,1.2-3.7,1.2c-1.3,0-3.7-1.2-3.7-1.2l0.5,16.5c0,0.2-1.2,21.8-3.5,27.2c-2.3,5.4-4,28.6-4.1,28.8l-2,18    c-50.7,21.1-71.2,1.6-71.3,1.4c-0.8-5.7-1.9-12.6-2.8-18.3c-1-3.6-3-19.4-3.8-30c-0.9-11.7-0.7-20.6-0.7-20.7    c-1.3-43.4,1-75,3.2-84.9c2.3-10,3.4-17.1,6.8-32.4c0.9-4.1,1.7-7.7,2.5-10.8c1.1-43-2.5-52.8-2.1-67.8c-0.3-7-2.3-21.6-4-31.5    c3.3-9.5,3.3-13.6,7.4-24.5c19.9,18.9,20.5,51.8,21.9,72.3c0.9,12.4,2.8,34.7,0.6,57.7c13.9,2.8,33,5.4,55.2,5.4    c22.4,0,41.4-2.7,54.8-5.5c-2.2-23-0.2-45.3,0.6-57.6c1.4-20.5,2-53.3,21.9-72.3c4.2,10.9,4.2,15,7.4,24.5    c-1.6,9.9-3.6,24.5-4,31.5c0.3,15-3.2,24.9-2.1,67.8c0.8,3.1,1.7,6.7,2.5,10.8c3.3,15.4,4.5,22.5,6.8,32.4    C-610.3,503.9-608.2,531.3-608.9,569.3z" fill="rgb(255, 255, 255)" data-fill-id="1"></path>
	</g>
	<g>
		<defs>
			<path id="SVGID_7_" d="M-608.9,569.3c0,3.4-0.1,6.9-0.2,10.4c0,0.1,0.2,9-0.7,20.7c-0.9,10.7-2.9,26.4-3.8,30     c-0.9,5.6-2,12.6-2.8,18.3c-0.2,0.2-20.7,19.7-71.3-1.4l-2-18c0-0.2-1.8-23.4-4.1-28.8c-2.3-5.4-3.4-27-3.4-27.2l0.4-16.5     c0,0-2.4,1.2-3.7,1.2c-1.3,0-3.7-1.2-3.7-1.2l0.5,16.5c0,0.2-1.2,21.8-3.5,27.2c-2.3,5.4-4,28.6-4.1,28.8l-2,18     c-50.7,21.1-71.2,1.6-71.3,1.4c-0.8-5.7-1.9-12.6-2.8-18.3c-1-3.6-3-19.4-3.8-30c-0.9-11.7-0.7-20.6-0.7-20.7     c-1.3-43.4,1-75,3.2-84.9c2.3-10,3.4-17.1,6.8-32.4c0.9-4.1,1.7-7.7,2.5-10.8c1.1-43-2.5-52.8-2.1-67.8c-0.3-7-2.3-21.6-4-31.5     c3.3-9.5,3.3-13.6,7.4-24.5c19.9,18.9,20.5,51.8,21.9,72.3c0.9,12.4,2.8,34.7,0.6,57.7c13.9,2.8,33,5.4,55.2,5.4     c22.4,0,41.4-2.7,54.8-5.5c-2.2-23-0.2-45.3,0.6-57.6c1.4-20.5,2-53.3,21.9-72.3c4.2,10.9,4.2,15,7.4,24.5     c-1.6,9.9-3.6,24.5-4,31.5c0.3,15-3.2,24.9-2.1,67.8c0.8,3.1,1.7,6.7,2.5,10.8c3.3,15.4,4.5,22.5,6.8,32.4     C-610.3,503.9-608.2,531.3-608.9,569.3z"></path>
		</defs>
		<clipPath id="SVGID_8_">
			<use xlink:href="#SVGID_7_" style="overflow:visible;"></use>
		</clipPath>
		<g class="st4 can-change" fill="rgb(0, 0, 0)">
			<g>
				<path class="st0 can-change" d="M-802.4,611l14.9,12.4c0,0,23.2,19.6,75.4-0.1l9.2-3.9l-0.6,22.4c0,0-64.1,22.6-91.4,0L-802.4,611z" fill="rgb(255, 255, 255)" data-fill-id="7"></path>
				<path class="st0 can-change" d="M-802.6,617l14.9,12.4c0,0,23.2,19.6,75.5-0.1l9.2-3.9l-0.7,22.4c0,0-64.1,22.6-91.4,0L-802.6,617z" fill="rgb(255, 255, 255)" data-fill-id="8"></path>
				<path class="st0 can-change" d="M-802.7,622.9l14.9,12.4c0,0,23.2,19.7,75.5-0.1l9.2-3.9l-0.6,22.4c0,0-64.1,22.6-91.4,0L-802.7,622.9z" fill="rgb(255, 255, 255)" data-fill-id="9"></path>
				<path class="st0 can-change" d="M-802.8,628.9l14.9,12.4c0,0,23.2,19.6,75.4-0.1l9.2-3.8l-0.7,22.4c0,0-64.1,22.6-91.4,0L-802.8,628.9z" fill="rgb(255, 255, 255)" data-fill-id="10"></path>
			</g>
			<g>
				<path class="st0 can-change" d="M-598.3,611l-7.5,30.9c-27.3,22.6-91.4,0-91.4,0l-0.6-22.4l9.2,3.9c52.3,19.7,75.4,0.1,75.4,0.1L-598.3,611      z" fill="rgb(255, 255, 255)" data-fill-id="3"></path>
				<path class="st0 can-change" d="M-598.2,617l-7.5,30.9c-27.3,22.6-91.4,0-91.4,0l-0.7-22.4l9.2,3.9c52.3,19.7,75.5,0.1,75.5,0.1L-598.2,617      z" fill="rgb(255, 255, 255)" data-fill-id="4"></path>
				<path class="st0 can-change" d="M-598.1,622.9l-7.6,30.9c-27.3,22.6-91.4,0-91.4,0l-0.6-22.4l9.2,3.9c52.3,19.7,75.5,0.1,75.5,0.1      L-598.1,622.9z" fill="rgb(255, 255, 255)" data-fill-id="5"></path>
				<path class="st0 can-change" d="M-597.9,628.9l-7.6,30.9c-27.3,22.6-91.4,0-91.4,0l-0.6-22.4l9.3,3.9c52.2,19.7,75.4,0.1,75.4,0.1      L-597.9,628.9z" fill="rgb(255, 255, 255)" data-fill-id="6"></path>
			</g>
		</g>
	</g>
	<g>
		<path id="SVGID_4_" class="st3" d="M-608.9,569.3c0,3.4-0.1,6.9-0.2,10.4c0,0.1,0.2,9-0.7,20.7c-0.9,10.7-2.9,26.4-3.8,30    c-0.9,5.6-2,12.6-2.8,18.3c-0.2,0.2-20.7,19.7-71.3-1.4l-2-18c0-0.2-1.8-23.4-4.1-28.8c-2.3-5.4-3.4-27-3.4-27.2l0.4-16.5    c0,0-2.4,1.2-3.7,1.2c-1.3,0-3.7-1.2-3.7-1.2l0.5,16.5c0,0.2-1.2,21.8-3.5,27.2c-2.3,5.4-4,28.6-4.1,28.8l-2,18    c-50.7,21.1-71.2,1.6-71.3,1.4c-0.8-5.7-1.9-12.6-2.8-18.3c-1-3.6-3-19.4-3.8-30c-0.9-11.7-0.7-20.6-0.7-20.7    c-1.3-43.4,1-75,3.2-84.9c2.3-10,3.4-17.1,6.8-32.4c0.9-4.1,1.7-7.7,2.5-10.8c1.1-43-2.5-52.8-2.1-67.8c-0.3-7-2.3-21.6-4-31.5    c3.3-9.5,3.3-13.6,7.4-24.5c19.9,18.9,20.5,51.8,21.9,72.3c0.9,12.4,2.8,34.7,0.6,57.7c13.9,2.8,33,5.4,55.2,5.4    c22.4,0,41.4-2.7,54.8-5.5c-2.2-23-0.2-45.3,0.6-57.6c1.4-20.5,2-53.3,21.9-72.3c4.2,10.9,4.2,15,7.4,24.5    c-1.6,9.9-3.6,24.5-4,31.5c0.3,15-3.2,24.9-2.1,67.8c0.8,3.1,1.7,6.7,2.5,10.8c3.3,15.4,4.5,22.5,6.8,32.4    C-610.3,503.9-608.2,531.3-608.9,569.3z" fill="none"></path>
	</g>
</g>
<g class="cannot-edit"><path class="st5 cannot-edit can-change" d="M-700.3,463v95h-0.1c-1.3,0-3.7-1.2-3.7-1.2l0.5,16.5c0,0.2-0.8,15.7-2.5,23.8  c-62.6-28.3-49.4-138.3-49.3-139.4C-741.6,460.4-722.5,463-700.3,463z" style="fill: rgb(0, 0, 0);"></path><path class="st5 cannot-edit can-change" d="M-700.7,463c22.2,0,41.3-2.7,55.2-5.4c0.1,1.1,13.3,111.2-49.3,139.4c-1.7-8-2.5-23.6-2.5-23.8l0.4-16.5  c0,0-2.4,1.2-3.7,1.2h-0.1C-700.7,558-700.7,463-700.7,463z" style="fill: rgb(0, 0, 0);"></path></g>

<path class="st0 can-change" d="M-739,235.1c0,0,36.5,21.1,77.4-0.1l-2,8.6c0,0-31.5,19.8-73.7-0.4C-737.3,243.2-739,235-739,235.1z" fill="rgb(255, 255, 255)"></path>
<path class="st0 can-change" d="M-700.5,558l0.1-94.7" fill="rgb(255, 255, 255)"></path>
<g class="cannot-edit"><path class="st3" d="M-704.5,567.2c0,0-15.8-2.6-11.2-17c4.7-14.4,5.3-18.9,4.7-25.2c-0.6-6.3-5-14.4,10.5-14.4" fill="none"></path><path class="st3" d="M-696.3,567.2c0,0,15.8-2.6,11.1-17c-4.7-14.4-5.3-18.9-4.7-25.2c0.6-6.3,5-14.4-10.5-14.4" fill="none"></path></g>

<path class="st0 can-change" d="M-746,235.3l7-0.2c0,0,2.6,18.2,11.7,35.5c5.6,10.7,17.4,15,27,14.7c0,0,10.1,0.4,17.1-4.9  c4.7-3.6,9.6-8.9,13.5-17.7c3.6-8.9,6.3-18.2,8-27.6l6.7,0.2c0,0-5,26.3-12.1,37.1c-7.1,10.7-16.7,19.7-33.5,20  c-16.8,0.4-29.2-10.3-33.9-18.8c-4.7-8.5-9.1-22.5-10.8-32.9L-746,235.3z" fill="rgb(255, 255, 255)" data-fill-id="17"></path>
<path class="st0 cannot-edit can-change" d="M-778,249.2c1.7-1.7,10.4,9.7,11.3,48.5c1,38.9-16.6,47.6-16.6,47.6l-4.5-0.4c0,0,11.2-9.4,12.6-40.7  C-773.5,272.9-778,249.2-778,249.2z" fill="rgb(255, 255, 255)"></path>
<path class="st0 can-change" d="M-771.5,245.9l0.9,3c6.7,18.9,7.9,53,7.9,53c2.9,44.7-22.7,50.3-22.7,50.3l-2.3-7.2  c12.3-6.7,19.1-17.4,18.4-41.3c-0.7-23.9-8.7-54.4-8.7-54.4C-777.5,248.7-771.5,245.9-771.5,245.9z" fill="rgb(255, 255, 255)" data-fill-id="19"></path>
<path class="st0 cannot-edit can-change" d="M-622.8,249.2c0,0-4.5,23.7-3,55c1.5,31.3,12.7,40.7,12.7,40.7l-4.5,0.4c0,0-17.6-8.7-16.6-47.6  C-633.2,259-624.5,247.6-622.8,249.2z" fill="rgb(255, 255, 255)"></path>
<path class="st0 can-change" d="M-629.3,245.9c0,0,6,2.8,6.5,3.4c0,0-8,30.5-8.7,54.4c-0.7,23.9,6.2,34.6,18.4,41.3l-2.3,7.2  c0,0-25.6-5.6-22.7-50.3c0,0,1.2-34.1,7.9-53L-629.3,245.9z" fill="rgb(255, 255, 255)" data-fill-id="18"></path>
<g class="human-logo">
	<path d="M-700,329.9l0.8-4.6h2.1l-0.2,1.3h1.5l0.2-1.3h3.7l-0.5,2.7c0,0,0,0.1,0,0.1h0.1h1.1c0.1,0,0.1,0,0.2,0   c0.1-0.1,0.1-0.2,0.1-0.2l0.4-2.5h4.1l0.7,1.9l1.3-1.9h2.5l-0.5,2.6l1.8-2.6h2.1l1,2.7l0.5-2.7h2.4l1.2,1.9l0.3-1.9h2.1l-0.8,4.6   h-2.4l-1.2-1.9l-0.3,1.9h-3.3l-0.2-0.7h-1.7l-0.5,0.7h-3.3l0.2-1.3l-0.9,1.3h-1.4l-0.5-1.4l-0.3,1.4h-2l0.1-0.5c0,0-0.1,0-0.1,0.1   c-0.4,0.3-1,0.4-1.5,0.4h-1.6c-0.4,0-0.9-0.1-1.3-0.3c-0.1-0.1-0.2-0.2-0.3-0.3l-0.1,0.6h-2.1l0.2-1.4h-1.5l-0.2,1.4H-700z"></path>
	<polygon class="st1 can-change" points="-699.4,329.4 -698.8,325.7 -697.6,325.7 -697.9,327 -695.4,327 -695.2,325.7 -694.1,325.7    -694.7,329.4 -695.9,329.4 -695.6,328 -698,328 -698.3,329.4  " fill="rgb(255, 255, 255)"></polygon>
	<path class="st1 can-change" d="M-694,328.1l0.4-2.4h1.1l-0.4,2.1c-0.1,0.5,0.1,0.7,0.5,0.7h1.1c0.5,0,0.7-0.2,0.8-0.7l0.4-2.1h1.1l-0.4,2.4   c-0.2,0.9-0.7,1.4-1.8,1.4h-1.6C-693.7,329.4-694.1,329-694,328.1" fill="rgb(255, 255, 255)"></path>
	<polygon class="st1 can-change" points="-689,329.4 -688.3,325.7 -686.6,325.7 -685.7,328.1 -684,325.7 -682.3,325.7 -682.9,329.4 -684,329.4    -683.6,326.7 -683.6,326.7 -685.5,329.4 -686.4,329.4 -687.4,326.7 -687.4,326.7 -687.9,329.4  " fill="rgb(255, 255, 255)"></polygon>
	<path class="st1 can-change" d="M-679.5,326.5l-1,1.4h1.5L-679.5,326.5z M-682.8,329.4l2.7-3.7h1.5l1.4,3.7h-1.3l-0.2-0.7h-2.3l-0.5,0.7   H-682.8z" fill="rgb(255, 255, 255)"></path>
	<polygon class="st1 can-change" points="-677.1,329.4 -676.4,325.7 -674.6,325.7 -673,328.4 -673,328.4 -672.5,325.7 -671.3,325.7 -672,329.4    -673.8,329.4 -675.4,326.7 -675.4,326.7 -675.9,329.4  " fill="rgb(255, 255, 255)"></polygon>
	<path d="M-670.6,328.4l0-0.2h1.1c-0.1,0.4,0.1,0.4,0.4,0.4h1.4c0.2,0,0.5,0,0.5-0.3c0.1-0.3-0.1-0.3-1.5-0.3   c-1.7,0-1.9-0.2-1.7-1.1c0.1-0.7,0.3-1.2,1.7-1.2h1.6c1.3,0,1.4,0.4,1.2,1.1l0,0.1h-1.1c0-0.3,0-0.4-0.5-0.4h-1.3   c-0.2,0-0.4,0.1-0.5,0.3c-0.1,0.3,0.1,0.3,1.3,0.3c1.8,0,2.2,0.1,2,1.2c-0.2,1-0.6,1.2-2.1,1.2h-1.4   C-670.4,329.4-670.8,329.2-670.6,328.4"></path>
	<path d="M-664,326.6l-0.2,0.9h1.8c0.3,0,0.4-0.2,0.4-0.4l0-0.1c0-0.3-0.1-0.4-0.4-0.4L-664,326.6L-664,326.6z M-665.7,329.4   l0.7-3.7h3.1c1.1,0,1.3,0.5,1.1,1.3l-0.1,0.3c-0.1,0.5-0.5,1.2-1.3,1.2h-2.3l-0.2,0.9L-665.7,329.4L-665.7,329.4z"></path>
	<polygon points="-660.8,329.4 -660.2,325.7 -656.1,325.7 -656.3,326.5 -659.2,326.5 -659.3,327.1 -656.5,327.1 -656.6,327.9    -659.4,327.9 -659.5,328.5 -656.5,328.5 -656.7,329.4  "></polygon>
	<polygon points="-656.3,329.4 -655.6,325.7 -651.5,325.7 -651.7,326.5 -654.6,326.5 -654.7,327.1 -651.9,327.1 -652.1,327.9    -654.8,327.9 -655,328.5 -652,328.5 -652.1,329.4  "></polygon>
	<path d="M-650,326.6l-0.3,1.8h2c0.5,0,0.7-0.1,0.8-0.7l0.1-0.5c0.1-0.5-0.1-0.7-0.6-0.7H-650z M-651.6,329.4l0.7-3.7h3.4   c1.1,0,1.5,0.4,1.3,1.3l-0.2,1.1c-0.2,0.9-0.6,1.3-1.8,1.3L-651.6,329.4L-651.6,329.4z"></path>
	<path d="M-644.5,325c-0.5,0-0.9,0.4-0.9,1c0,0.6,0.4,1,1,1c0.5,0,0.9-0.4,0.9-1C-643.6,325.4-644,325-644.5,325 M-644.5,324.7   c0.7,0,1.2,0.6,1.2,1.2c0,0.7-0.5,1.2-1.2,1.2s-1.2-0.6-1.2-1.2C-645.8,325.3-645.2,324.7-644.5,324.7 M-644.7,325.5v0.4h0.1   c0.2,0,0.3-0.1,0.3-0.2c0-0.1-0.1-0.2-0.3-0.2C-644.6,325.5-644.7,325.5-644.7,325.5 M-644.7,326.1v0.5h-0.2v-1.2   c0.1,0,0.2,0,0.4,0c0.2,0,0.3,0,0.4,0.1c0.1,0,0.1,0.1,0.1,0.3c0,0.1-0.1,0.2-0.3,0.3v0c0.1,0,0.2,0.1,0.2,0.3   c0,0.2,0.1,0.3,0.1,0.3h-0.3c-0.1-0.1-0.1-0.1-0.1-0.3c0-0.1-0.1-0.2-0.3-0.2C-644.6,326.1-644.7,326.1-644.7,326.1z"></path>
	<rect x="-700" y="324.7" class="st6" width="56.7" height="5.2" fill="none"></rect>
	<path d="M-665.8,330.7h0.3l-0.2,1.1h-0.3L-665.8,330.7z"></path>
	<path d="M-664.8,330.7h0.5l0.5,0.8l0.2-0.8h0.3l-0.2,1.1h-0.5l-0.5-0.8l-0.2,0.8h-0.3L-664.8,330.7z"></path>
	<path d="M-662.2,331h-0.5l0.1-0.3h1.3l-0.1,0.3h-0.5l-0.2,0.8h-0.3L-662.2,331z"></path>
	<path d="M-659.5,330.7l-0.1,0.2h-0.9l0,0.2h0.8l0,0.2h-0.8l0,0.2h0.9l-0.1,0.2h-1.2l0.2-1.1L-659.5,330.7L-659.5,330.7z"></path>
	<path d="M-658.8,330.7h0.3l-0.2,0.8h0.7l-0.1,0.3h-1.1L-658.8,330.7z"></path>
	<path d="M-657.1,330.7h0.3l-0.2,0.8h0.7l-0.1,0.3h-1.1L-657.1,330.7z"></path>
	<path d="M-655.4,330.7h0.3l-0.2,1.1h-0.3L-655.4,330.7z"></path>
	<path d="M-653.3,331.1C-653.3,331.1-653.3,331-653.3,331.1c0-0.1,0-0.1,0-0.1c0,0,0,0-0.1,0l-0.1,0l-0.2,0c-0.1,0-0.2,0-0.2,0.1   c0,0.1-0.1,0.3-0.1,0.3c0,0.1,0.1,0.1,0.2,0.1c0,0,0.1,0,0.3,0c0.2,0,0.2,0,0.2-0.1c0,0,0,0,0-0.1h-0.4l0-0.2h0.7l0,0.1   c0,0.2,0,0.2-0.1,0.3c-0.1,0.1-0.2,0.2-0.3,0.2c0,0-0.2,0-0.4,0c-0.3,0-0.4,0-0.5-0.1c-0.1,0-0.1-0.1-0.1-0.2c0-0.1,0-0.2,0.1-0.4   c0.1-0.3,0.1-0.4,0.3-0.4c0.1,0,0.2,0,0.5,0c0.4,0,0.5,0,0.5,0.1c0.1,0,0.1,0.1,0.1,0.2c0,0,0,0.1,0,0.2L-653.3,331.1L-653.3,331.1   z"></path>
	<path d="M-651,330.7l-0.1,0.2h-0.9l0,0.2h0.8l0,0.2h-0.8l0,0.2h0.9l-0.1,0.2h-1.2l0.2-1.1L-651,330.7L-651,330.7z"></path>
	<path d="M-650.2,330.7h0.5l0.5,0.8l0.2-0.8h0.3l-0.2,1.1h-0.5l-0.5-0.8l-0.2,0.8h-0.3L-650.2,330.7z"></path>
	<path d="M-647.7,331h-0.5l0.1-0.3h1.3l-0.1,0.3h-0.5l-0.2,0.8h-0.3L-647.7,331z"></path>
	<g>
		<polygon class="st7 can-change" points="-671.2,331.4 -671.3,331.8 -670.1,331.8 -670.1,331.4   " fill="rgb(237, 28, 36)"></polygon>
		<polygon class="st7 can-change" points="-666.4,331.1 -666.3,330.7 -669.5,330.7 -669.6,331.1   " fill="rgb(237, 28, 36)"></polygon>
		<polygon class="st7 can-change" points="-669.9,330.7 -671.1,330.7 -671.2,331.1 -670,331.1   " fill="rgb(237, 28, 36)"></polygon>
		<polygon class="st7 can-change" points="-669.8,331.8 -666.6,331.8 -666.5,331.4 -669.7,331.4   " fill="rgb(237, 28, 36)"></polygon>
		<polygon class="st1 can-change" points="-669.6,331.1 -669.5,330.7 -669.9,330.7 -670,331.1 -671.2,331.1 -671.2,331.4 -670.1,331.4     -670.1,331.8 -669.8,331.8 -669.7,331.4 -666.5,331.4 -666.4,331.1   " fill="rgb(255, 255, 255)"></polygon>
	</g>
</g>
<g class="human-logo">
	<path d="M-778.6,617.9l0.8-4.6h2.1l-0.2,1.3h1.5l0.2-1.3h3.7l-0.5,2.7c0,0,0,0.1,0,0.1h0.1h1.1c0.1,0,0.1,0,0.2,0   c0.1-0.1,0.1-0.2,0.1-0.2l0.4-2.5h4.1l0.7,1.9l1.3-1.9h2.5l-0.5,2.6l1.8-2.6h2.1l1,2.7l0.5-2.7h2.4l1.2,1.9l0.3-1.9h2.1l-0.8,4.6   h-2.4l-1.2-1.9l-0.3,1.9h-3.3l-0.2-0.7h-1.7l-0.5,0.7h-3.3l0.2-1.3l-0.9,1.3h-1.4l-0.5-1.4l-0.3,1.4h-2l0.1-0.5c0,0-0.1,0-0.1,0.1   c-0.4,0.3-1,0.4-1.5,0.4h-1.6c-0.4,0-0.9-0.1-1.3-0.3c-0.1-0.1-0.2-0.2-0.3-0.3l-0.1,0.6h-2.1l0.2-1.4h-1.5l-0.2,1.4H-778.6z"></path>
	<polygon class="st1 can-change" points="-778,617.5 -777.4,613.8 -776.2,613.8 -776.5,615.1 -774.1,615.1 -773.8,613.8 -772.7,613.8    -773.3,617.5 -774.5,617.5 -774.2,616.1 -776.6,616.1 -776.9,617.5  " fill="rgb(255, 255, 255)"></polygon>
	<path class="st1 can-change" d="M-772.6,616.2l0.4-2.4h1.1l-0.4,2.1c-0.1,0.5,0.1,0.7,0.5,0.7h1.1c0.5,0,0.7-0.2,0.8-0.7l0.4-2.1h1.1l-0.4,2.4   c-0.2,0.9-0.7,1.4-1.8,1.4h-1.6C-772.3,617.5-772.8,617.1-772.6,616.2" fill="rgb(255, 255, 255)"></path>
	<polygon class="st1 can-change" points="-767.6,617.5 -766.9,613.8 -765.2,613.8 -764.3,616.2 -762.6,613.8 -760.9,613.8 -761.5,617.5    -762.6,617.5 -762.2,614.8 -762.2,614.8 -764.1,617.5 -765,617.5 -766,614.8 -766,614.8 -766.5,617.5  " fill="rgb(255, 255, 255)"></polygon>
	<path class="st1 can-change" d="M-758.1,614.6l-1,1.4h1.5L-758.1,614.6z M-761.4,617.5l2.7-3.7h1.5l1.4,3.7h-1.3l-0.2-0.7h-2.3l-0.5,0.7   H-761.4z" fill="rgb(255, 255, 255)"></path>
	<polygon class="st1 can-change" points="-755.7,617.5 -755,613.8 -753.2,613.8 -751.6,616.5 -751.6,616.5 -751.1,613.8 -749.9,613.8    -750.6,617.5 -752.4,617.5 -754,614.8 -754,614.8 -754.5,617.5  " fill="rgb(255, 255, 255)"></polygon>
	<path d="M-749.2,616.5l0-0.2h1.1c-0.1,0.4,0.1,0.4,0.4,0.4h1.4c0.2,0,0.5,0,0.5-0.3c0.1-0.3-0.1-0.3-1.5-0.3   c-1.7,0-1.9-0.2-1.7-1.1c0.1-0.7,0.3-1.2,1.7-1.2h1.6c1.3,0,1.4,0.4,1.2,1.1l0,0.1h-1.1c0-0.3,0-0.4-0.5-0.4h-1.3   c-0.2,0-0.4,0.1-0.5,0.3c-0.1,0.3,0.1,0.3,1.3,0.3c1.8,0,2.2,0.1,2,1.2c-0.2,1-0.6,1.2-2.1,1.2h-1.4   C-749,617.5-749.4,617.3-749.2,616.5"></path>
	<path d="M-742.6,614.7l-0.2,0.9h1.8c0.3,0,0.4-0.2,0.4-0.4l0-0.1c0-0.3-0.1-0.4-0.4-0.4L-742.6,614.7L-742.6,614.7z M-744.3,617.5   l0.7-3.7h3.1c1.1,0,1.3,0.5,1.1,1.3l-0.1,0.3c-0.1,0.6-0.5,1.2-1.3,1.2h-2.3l-0.2,0.9H-744.3z"></path>
	<polygon points="-739.4,617.5 -738.8,613.8 -734.7,613.8 -734.9,614.6 -737.8,614.6 -737.9,615.2 -735.1,615.2 -735.3,616    -738,616 -738.1,616.6 -735.1,616.6 -735.3,617.5  "></polygon>
	<polygon points="-734.9,617.5 -734.2,613.8 -730.1,613.8 -730.3,614.6 -733.2,614.6 -733.3,615.2 -730.5,615.2 -730.7,616    -733.5,616 -733.6,616.6 -730.6,616.6 -730.7,617.5  "></polygon>
	<path d="M-728.6,614.7l-0.3,1.8h2c0.5,0,0.7-0.1,0.8-0.7l0.1-0.5c0.1-0.5-0.1-0.7-0.6-0.7H-728.6z M-730.2,617.5l0.7-3.7h3.4   c1.1,0,1.5,0.4,1.3,1.3l-0.2,1.1c-0.2,0.9-0.6,1.3-1.8,1.3L-730.2,617.5L-730.2,617.5z"></path>
	<path d="M-723.1,613.1c-0.5,0-0.9,0.4-0.9,1c0,0.6,0.4,1,1,1c0.5,0,0.9-0.4,0.9-1C-722.2,613.5-722.6,613.1-723.1,613.1    M-723.1,612.8c0.7,0,1.2,0.6,1.2,1.2c0,0.7-0.5,1.2-1.2,1.2c-0.7,0-1.2-0.6-1.2-1.2C-724.4,613.4-723.8,612.8-723.1,612.8    M-723.3,613.6v0.4h0.1c0.2,0,0.3-0.1,0.3-0.2c0-0.1-0.1-0.2-0.3-0.2C-723.2,613.6-723.3,613.6-723.3,613.6 M-723.3,614.2v0.5h-0.2   v-1.2c0.1,0,0.2,0,0.4,0c0.2,0,0.3,0,0.4,0.1c0.1,0,0.1,0.1,0.1,0.3c0,0.1-0.1,0.2-0.3,0.3v0c0.1,0,0.2,0.1,0.2,0.3   c0,0.2,0.1,0.3,0.1,0.3h-0.3c-0.1-0.1-0.1-0.1-0.1-0.3c0-0.1-0.1-0.2-0.3-0.2H-723.3L-723.3,614.2z"></path>
	<rect x="-778.6" y="612.8" class="st6" width="56.7" height="5.2" fill="none"></rect>
	<path d="M-744.4,618.8h0.3l-0.2,1.1h-0.3L-744.4,618.8z"></path>
	<path d="M-743.4,618.8h0.5l0.5,0.8l0.2-0.8h0.3l-0.2,1.1h-0.5l-0.5-0.8l-0.2,0.8h-0.3L-743.4,618.8z"></path>
	<path d="M-740.8,619.1h-0.5l0.1-0.3h1.3l-0.1,0.3h-0.5l-0.2,0.8h-0.3L-740.8,619.1z"></path>
	<path d="M-738.1,618.8l-0.1,0.2h-0.9l0,0.2h0.8l0,0.2h-0.8l0,0.2h0.9l-0.1,0.2h-1.2l0.2-1.1L-738.1,618.8L-738.1,618.8z"></path>
	<path d="M-737.4,618.8h0.3l-0.2,0.8h0.7l-0.1,0.3h-1.1L-737.4,618.8z"></path>
	<path d="M-735.7,618.8h0.3l-0.2,0.8h0.7l-0.1,0.3h-1.1L-735.7,618.8z"></path>
	<path d="M-734,618.8h0.3l-0.2,1.1h-0.3L-734,618.8z"></path>
	<path d="M-731.9,619.2C-731.9,619.1-731.9,619.1-731.9,619.2c0-0.1,0-0.1,0-0.1c0,0,0,0-0.1,0l-0.1,0l-0.2,0c-0.1,0-0.2,0-0.2,0.1   c0,0.1-0.1,0.3-0.1,0.4c0,0.1,0.1,0.1,0.2,0.1c0,0,0.1,0,0.3,0c0.2,0,0.2,0,0.2-0.1c0,0,0,0,0-0.1h-0.4l0-0.2h0.7l0,0.1   c0,0.2,0,0.2-0.1,0.3c-0.1,0.1-0.2,0.2-0.3,0.2c0,0-0.2,0-0.4,0c-0.3,0-0.4,0-0.5-0.1c-0.1,0-0.1-0.1-0.1-0.2c0-0.1,0-0.2,0.1-0.4   c0.1-0.3,0.1-0.4,0.3-0.4c0.1,0,0.2,0,0.5,0c0.4,0,0.5,0,0.5,0.1c0.1,0,0.1,0.1,0.1,0.2c0,0,0,0.1,0,0.2L-731.9,619.2L-731.9,619.2   z"></path>
	<path d="M-729.6,618.8l-0.1,0.2h-0.9l0,0.2h0.8l0,0.2h-0.8l0,0.2h0.9l-0.1,0.2h-1.2l0.2-1.1L-729.6,618.8L-729.6,618.8z"></path>
	<path d="M-728.9,618.8h0.5l0.5,0.8l0.2-0.8h0.3l-0.2,1.1h-0.5l-0.5-0.8l-0.2,0.8h-0.3L-728.9,618.8z"></path>
	<path d="M-726.3,619.1h-0.5l0.1-0.3h1.3l-0.1,0.3h-0.5l-0.2,0.8h-0.3L-726.3,619.1z"></path>
	<g>
		<polygon class="st7 can-change" points="-749.8,619.5 -749.9,619.9 -748.7,619.9 -748.7,619.5   " fill="rgb(237, 28, 36)"></polygon>
		<polygon class="st7 can-change" points="-745,619.2 -744.9,618.8 -748.2,618.8 -748.2,619.2   " fill="rgb(237, 28, 36)"></polygon>
		<polygon class="st7 can-change" points="-748.5,618.8 -749.7,618.8 -749.8,619.2 -748.6,619.2   " fill="rgb(237, 28, 36)"></polygon>
		<polygon class="st7 can-change" points="-748.4,619.9 -745.2,619.9 -745.1,619.5 -748.3,619.5   " fill="rgb(237, 28, 36)"></polygon>
		<polygon class="st1 can-change" points="-748.2,619.2 -748.2,618.8 -748.5,618.8 -748.6,619.2 -749.8,619.2 -749.8,619.5 -748.7,619.5     -748.7,619.9 -748.4,619.9 -748.3,619.5 -745.1,619.5 -745,619.2   " fill="rgb(255, 255, 255)"></polygon>
	</g>
</g>
<g class="human-logo">
	<path d="M-676.5,617.9l0.8-4.6h2.1l-0.2,1.3h1.5l0.2-1.3h3.7l-0.5,2.7c0,0,0,0.1,0,0.1h0.1h1.1c0.1,0,0.1,0,0.2,0   c0.1-0.1,0.1-0.2,0.1-0.2l0.4-2.5h4.1l0.7,1.9l1.3-1.9h2.5l-0.5,2.6l1.8-2.6h2.1l1,2.7l0.5-2.7h2.4l1.2,1.9l0.3-1.9h2.1l-0.8,4.6   h-2.4l-1.2-1.9l-0.3,1.9h-3.3l-0.2-0.7h-1.7l-0.5,0.7h-3.3l0.2-1.3l-0.9,1.3h-1.4l-0.5-1.4l-0.3,1.4h-2l0.1-0.5c0,0-0.1,0-0.1,0.1   c-0.4,0.3-1,0.4-1.5,0.4h-1.6c-0.4,0-0.9-0.1-1.3-0.3c-0.1-0.1-0.2-0.2-0.3-0.3l-0.1,0.6h-2.1l0.2-1.4h-1.5l-0.2,1.4H-676.5z"></path>
	<polygon class="st1 can-change" points="-676,617.5 -675.3,613.8 -674.2,613.8 -674.4,615.1 -672,615.1 -671.8,613.8 -670.6,613.8    -671.3,617.5 -672.4,617.5 -672.2,616.1 -674.6,616.1 -674.8,617.5  " fill="rgb(255, 255, 255)"></polygon>
	<path class="st1 can-change" d="M-670.5,616.2l0.4-2.4h1.1l-0.4,2.1c-0.1,0.5,0.1,0.7,0.5,0.7h1.1c0.5,0,0.7-0.2,0.8-0.7l0.4-2.1h1.1l-0.4,2.4   c-0.2,0.9-0.7,1.4-1.8,1.4h-1.6C-670.3,617.5-670.7,617.1-670.5,616.2" fill="rgb(255, 255, 255)"></path>
	<polygon class="st1 can-change" points="-665.6,617.5 -664.9,613.8 -663.1,613.8 -662.3,616.2 -660.6,613.8 -658.8,613.8 -659.5,617.5    -660.6,617.5 -660.1,614.8 -660.1,614.8 -662.1,617.5 -662.9,617.5 -664,614.8 -664,614.8 -664.4,617.5  " fill="rgb(255, 255, 255)"></polygon>
	<path class="st1 can-change" d="M-656.1,614.6l-1,1.4h1.5L-656.1,614.6z M-659.3,617.5l2.7-3.7h1.5l1.4,3.7h-1.3l-0.2-0.7h-2.3l-0.5,0.7   H-659.3z" fill="rgb(255, 255, 255)"></path>
	<polygon class="st1 can-change" points="-653.6,617.5 -653,613.8 -651.2,613.8 -649.5,616.5 -649.5,616.5 -649,613.8 -647.9,613.8    -648.5,617.5 -650.3,617.5 -652,614.8 -652,614.8 -652.5,617.5  " fill="rgb(255, 255, 255)"></polygon>
	<path d="M-647.2,616.5l0-0.2h1.1c-0.1,0.4,0.1,0.4,0.4,0.4h1.4c0.2,0,0.5,0,0.5-0.3c0.1-0.3-0.1-0.3-1.5-0.3   c-1.7,0-1.9-0.2-1.7-1.1c0.1-0.7,0.3-1.2,1.7-1.2h1.6c1.3,0,1.4,0.4,1.2,1.1l0,0.1h-1.1c0-0.3,0-0.4-0.5-0.4h-1.3   c-0.2,0-0.4,0.1-0.5,0.3c-0.1,0.3,0.1,0.3,1.3,0.3c1.8,0,2.2,0.1,2,1.2c-0.2,1-0.6,1.2-2.1,1.2h-1.4   C-646.9,617.5-647.3,617.3-647.2,616.5"></path>
	<path d="M-640.6,614.7l-0.2,0.9h1.8c0.3,0,0.4-0.2,0.4-0.4l0-0.1c0-0.3-0.1-0.4-0.4-0.4L-640.6,614.7L-640.6,614.7z M-642.2,617.5   l0.7-3.7h3.1c1.1,0,1.3,0.5,1.1,1.3l-0.1,0.3c-0.1,0.6-0.5,1.2-1.3,1.2h-2.3l-0.2,0.9H-642.2z"></path>
	<polygon points="-637.4,617.5 -636.7,613.8 -632.7,613.8 -632.8,614.6 -635.7,614.6 -635.8,615.2 -633.1,615.2 -633.2,616    -636,616 -636.1,616.6 -633.1,616.6 -633.2,617.5  "></polygon>
	<polygon points="-632.8,617.5 -632.2,613.8 -628.1,613.8 -628.2,614.6 -631.2,614.6 -631.3,615.2 -628.5,615.2 -628.6,616    -631.4,616 -631.5,616.6 -628.5,616.6 -628.7,617.5  "></polygon>
	<path d="M-626.6,614.7l-0.3,1.8h2c0.5,0,0.7-0.1,0.8-0.7l0.1-0.5c0.1-0.5-0.1-0.7-0.6-0.7H-626.6z M-628.2,617.5l0.7-3.7h3.4   c1.1,0,1.5,0.4,1.3,1.3l-0.2,1.1c-0.2,0.9-0.6,1.3-1.8,1.3L-628.2,617.5L-628.2,617.5z"></path>
	<path d="M-621.1,613.1c-0.5,0-0.9,0.4-0.9,1c0,0.6,0.4,1,1,1c0.5,0,0.9-0.4,0.9-1C-620.1,613.5-620.5,613.1-621.1,613.1    M-621.1,612.8c0.7,0,1.2,0.6,1.2,1.2c0,0.7-0.6,1.2-1.2,1.2c-0.7,0-1.2-0.6-1.2-1.2C-622.3,613.4-621.8,612.8-621.1,612.8    M-621.3,613.6v0.4h0.1c0.2,0,0.3-0.1,0.3-0.2c0-0.1-0.1-0.2-0.3-0.2C-621.2,613.6-621.2,613.6-621.3,613.6 M-621.3,614.2v0.5h-0.2   v-1.2c0.1,0,0.2,0,0.4,0c0.2,0,0.3,0,0.4,0.1c0.1,0,0.1,0.1,0.1,0.3c0,0.1-0.1,0.2-0.3,0.3v0c0.1,0,0.2,0.1,0.2,0.3   c0,0.2,0.1,0.3,0.1,0.3h-0.3c-0.1-0.1-0.1-0.1-0.1-0.3c0-0.1-0.1-0.2-0.3-0.2H-621.3L-621.3,614.2z"></path>
	<rect x="-676.5" y="612.8" class="st6" width="56.7" height="5.2" fill="none"></rect>
	<path d="M-642.4,618.8h0.3l-0.2,1.1h-0.3L-642.4,618.8z"></path>
	<path d="M-641.3,618.8h0.5l0.5,0.8l0.2-0.8h0.3l-0.2,1.1h-0.5l-0.5-0.8l-0.2,0.8h-0.3L-641.3,618.8z"></path>
	<path d="M-638.8,619.1h-0.5l0.1-0.3h1.3l-0.1,0.3h-0.5l-0.2,0.8h-0.3L-638.8,619.1z"></path>
	<path d="M-636.1,618.8l-0.1,0.2h-0.9l0,0.2h0.8l0,0.2h-0.8l0,0.2h0.9l-0.1,0.2h-1.2l0.2-1.1L-636.1,618.8L-636.1,618.8z"></path>
	<path d="M-635.3,618.8h0.3l-0.2,0.8h0.7l-0.1,0.3h-1.1L-635.3,618.8z"></path>
	<path d="M-633.6,618.8h0.3l-0.2,0.8h0.7l-0.1,0.3h-1.1L-633.6,618.8z"></path>
	<path d="M-631.9,618.8h0.3l-0.2,1.1h-0.3L-631.9,618.8z"></path>
	<path d="M-629.9,619.2C-629.9,619.1-629.9,619.1-629.9,619.2c0-0.1,0-0.1,0-0.1c0,0,0,0-0.1,0l-0.1,0l-0.2,0c-0.1,0-0.2,0-0.2,0.1   c0,0.1-0.1,0.3-0.1,0.4c0,0.1,0.1,0.1,0.2,0.1c0,0,0.1,0,0.3,0c0.2,0,0.2,0,0.2-0.1c0,0,0,0,0-0.1h-0.4l0-0.2h0.7l0,0.1   c0,0.2,0,0.2-0.1,0.3c-0.1,0.1-0.2,0.2-0.3,0.2c0,0-0.2,0-0.4,0c-0.3,0-0.4,0-0.5-0.1c-0.1,0-0.1-0.1-0.1-0.2c0-0.1,0-0.2,0.1-0.4   c0.1-0.3,0.1-0.4,0.3-0.4c0.1,0,0.2,0,0.5,0c0.4,0,0.5,0,0.5,0.1c0.1,0,0.1,0.1,0.1,0.2c0,0,0,0.1,0,0.2L-629.9,619.2L-629.9,619.2   z"></path>
	<path d="M-627.5,618.8l-0.1,0.2h-0.9l0,0.2h0.8l0,0.2h-0.8l0,0.2h0.9l-0.1,0.2h-1.2l0.2-1.1L-627.5,618.8L-627.5,618.8z"></path>
	<path d="M-626.8,618.8h0.5l0.5,0.8l0.2-0.8h0.3l-0.2,1.1h-0.5l-0.5-0.8l-0.2,0.8h-0.3L-626.8,618.8z"></path>
	<path d="M-624.3,619.1h-0.5l0.1-0.3h1.3l-0.1,0.3h-0.5l-0.2,0.8h-0.3L-624.3,619.1z"></path>
	<g>
		<polygon class="st7 can-change" points="-647.8,619.5 -647.9,619.9 -646.7,619.9 -646.6,619.5   " fill="rgb(237, 28, 36)"></polygon>
		<polygon class="st7 can-change" points="-643,619.2 -642.9,618.8 -646.1,618.8 -646.2,619.2   " fill="rgb(237, 28, 36)"></polygon>
		<polygon class="st7 can-change" points="-646.5,618.8 -647.6,618.8 -647.7,619.2 -646.5,619.2   " fill="rgb(237, 28, 36)"></polygon>
		<polygon class="st7 can-change" points="-646.3,619.9 -643.1,619.9 -643,619.5 -646.3,619.5   " fill="rgb(237, 28, 36)"></polygon>
		<polygon class="st1 can-change" points="-646.2,619.2 -646.1,618.8 -646.5,618.8 -646.5,619.2 -647.7,619.2 -647.8,619.5 -646.6,619.5     -646.7,619.9 -646.3,619.9 -646.3,619.5 -643,619.5 -643,619.2   " fill="rgb(255, 255, 255)"></polygon>
	</g>
</g>
</svg>