<svg xmlns="http://www.w3.org/2000/svg" xmlns:xlink="http://www.w3.org/1999/xlink" version="1.1" id="Layer_1" x="0px" y="0px" viewBox="-793 220.9 220 450.1" style="enable-background:new -793 220.9 220 450.1;" xml:space="preserve" data-product="2017503" data-design="2" data-size="m">
<style type="text/css">
	.st0{fill:#EDEDED;stroke:#6D6E71;stroke-width:0.34;stroke-linecap:round;stroke-linejoin:round;stroke-miterlimit:10;}
	.st1{fill:#FFFFFF;stroke:#6D6E71;stroke-width:0.34;stroke-linecap:round;stroke-linejoin:round;stroke-miterlimit:10;}
	.st2{fill:#FFFFFF;}
	.st3{clip-path:url(#SVGID_2_);}
	.st4{fill:#FFFFFF;stroke:#6D6E71;stroke-width:0.23;stroke-linecap:round;stroke-linejoin:round;stroke-miterlimit:10;}
	.st5{fill:none;stroke:#6D6E71;stroke-width:0.34;stroke-linecap:round;stroke-linejoin:round;stroke-miterlimit:10;}
	.st6{clip-path:url(#SVGID_4_);}
	.st7{fill:none;}
	.st8{fill:#ED1C24;}
</style>
<path class="st0 cannot-edit can-change" d="M-756.8,432.4c0.3-8.2,0.7-15.4,1.8-19.7c14.5-8.8,34.5-26.8,55.5-57.9l31.8,0.1c12.3,25.4,38.6,46.9,54.8,55.8  c1.1,4.5,1.6,12.5,1.9,21.8H-756.8z" style="fill: rgb(0, 0, 0);"></path>
<path class="st0 cannot-edit can-change" d="M-667.2,355h-32.1c0.1-0.7,5.4-69.1-43.3-127.5l16.7-6.5c0.4,0.6,39.1,40.5,42,88.3  c3.1-47.8,43.9-87.7,44.3-88.3l16.2,11.8C-675,291.2-667.3,354.3-667.2,355z" style="fill: rgb(0, 0, 0);"></path>
<path class="st1 can-change" d="M-590.8,629.4L-590.8,629.4l-0.2,1c-0.1,0.7-0.2,1.4-0.3,2.1l-1.5,10.5l-0.4,2.8c0-0.2,0.1-0.3,0.1-0.5  c0-0.2,0-0.3,0.1-0.5c0-0.1,0-0.3,0-0.4c0,0,0,0,0-0.1c0.2-1.2,0.3-2.4,0.5-3.6c0.1-0.5,0.1-1,0.2-1.5c0.1-0.8,0.2-1.5,0.3-2.2  c0-0.3,0.1-0.6,0.1-0.8c0.1-0.5,0.1-0.9,0.2-1.3c0.1-0.4,0.1-0.8,0.2-1.2c0-0.2,0-0.3,0.1-0.4c0-0.3,0.1-0.6,0.1-0.9  c0.1-0.6,0.1-1.1,0.2-1.5c0-0.1,0-0.2,0.1-0.3c0-0.3,0.1-0.5,0.1-0.7c0,0,0-0.1,0-0.1C-590.8,629.6-590.8,629.5-590.8,629.4  L-590.8,629.4z M-593.3,647.3c0.1-0.4,0.1-0.8,0.2-1.2c0-0.1,0-0.1,0-0.2l-0.3,2.4C-593.4,648-593.4,647.6-593.3,647.3z   M-593.5,648.4c0,0,0-0.1,0-0.1l-0.1,0.3C-593.5,648.6-593.5,648.5-593.5,648.4z M-598.7,488c-2.4-9.8-2.6-13.2-6.1-28.3  c-3.5-15.1-3.7-36.5-3.8-36.6l0-14.9c-10.8,3.5-13.9-6.8-14.8-14.2c-0.4-3.7-0.3-6.7-0.3-6.8h0c5.1-50.6,11.2-133,0.7-159.6  c-4.9-3.5-10.6-5.7-16.6-6.5c0.1,0.8,4.4,67.9-8.1,169c-0.1,0.8-0.2,1.7-0.3,2.5c-0.1,0.3-0.2,0.6-0.3,1c0,0,0,0,0,0  c-0.6,2-1.5,4.6-2.9,7.4c0,0-0.1,0.1-0.1,0.2c-1.4,2.7-3.3,5.5-5.8,8c9.1,37.1,40.9,182-20,191.3c0.4,2,0.8,3.6,1.3,4.7  c2.4,5.2,4.2,27,4.3,28.3l-0.1,0l0.3,3h0l0.2,2.2l-0.1,0l1.7,17.6c1.2,0.5,2.3,0.9,3.4,1.3c1.1,0.4,2.2,0.8,3.3,1.2  c1.4,0.5,2.8,0.9,4.2,1.4c0.5,0.2,1,0.3,1.5,0.4c1.6,0.5,3.2,0.9,4.7,1.3c0.7,0.2,1.4,0.4,2.1,0.5c0.8,0.2,1.6,0.4,2.4,0.6  c0.7,0.2,1.5,0.3,2.2,0.5c2.7,0.6,5.3,1,7.8,1.4c0.4,0.1,0.8,0.1,1.2,0.2c24.6,3.2,37.3-4.1,40.9-6.7c0.5-0.4,0.8-0.6,1-0.7  c0,0,0.1-0.1,0.1-0.1c0.2-1.1,0.3-2.3,0.5-3.5c0.1-0.6,0.2-1.3,0.3-1.9c0.1-1,0.3-2,0.4-2.9c0-0.1,0-0.3,0.1-0.4l0.1-0.3  c0-0.3,0.1-0.7,0.1-1c0.1-0.4,0.1-0.8,0.2-1.2c0-0.1,0-0.1,0-0.2c0-0.2,0.1-0.3,0.1-0.5c0-0.3,0.1-0.6,0.1-0.9c0,0,0,0,0-0.1  c0.1-0.4,0.1-0.9,0.2-1.3c0.5-3.7,1-7.4,1.5-10.5l0.3-2.1l0.2-1v0c0.2-1.5,0.4-2.7,0.5-3.5c0.2-0.9,0.2-1.4,0.2-1.4l0,0v0h0  c0,0,0,0,0-0.1c0.1-0.6,0.2-1.1,0.2-1.7c0.6-4.6,1.2-9.6,1.7-14.2c0.1-1.2,0.2-2.3,0.3-3.4c1-11.5,0.7-20.2,0.7-20.3  C-585.8,542.2-596.3,497.8-598.7,488z M-709,409.5c-0.3-0.3-0.5-0.6-0.8-0.9c-0.5-0.5-1-1.1-1.4-1.7c-0.2-0.3-0.5-0.6-0.7-0.9  c-0.3-0.4-0.5-0.8-0.8-1.1c-1.2-1.8-2.1-3.5-2.8-5.2c-0.3-0.6-0.5-1.3-0.8-1.9c-0.1-0.4-0.3-0.8-0.4-1.2c-0.3-0.8-0.5-1.5-0.7-2.2  c-0.1-0.3-0.2-0.6-0.2-0.9c-0.1-1.2-0.3-2.3-0.4-3.5c-12.5-101.2-8.1-168.2-8.1-169c-6,0.7-11.7,3-16.6,6.5  c-10.4,26.2-4.5,106.7,0.5,157.5c0.1,2.3,0.1,5.5-0.3,8.9c-0.1,0.6-0.2,1.2-0.3,1.8c0,0.2-0.1,0.4-0.1,0.7c-0.2,1.1-0.5,2.2-0.9,3.2  c-0.1,0.2-0.1,0.4-0.2,0.6c-0.1,0.2-0.1,0.4-0.2,0.6c-0.2,0.4-0.3,0.8-0.5,1.1c-0.1,0.2-0.2,0.4-0.3,0.5c-0.2,0.4-0.4,0.7-0.6,1  c-0.1,0.2-0.2,0.3-0.3,0.5c-0.1,0.2-0.2,0.3-0.3,0.4c0,0,0,0.1-0.1,0.1c-0.1,0.1-0.2,0.3-0.3,0.4c-0.1,0.1-0.3,0.3-0.4,0.4  c-0.1,0.1-0.2,0.2-0.4,0.3c-0.1,0.1-0.2,0.2-0.3,0.3c-0.1,0.1-0.2,0.2-0.3,0.3c-0.1,0.1-0.2,0.1-0.3,0.2c-0.3,0.2-0.5,0.3-0.8,0.5  c-0.1,0.1-0.2,0.1-0.4,0.2c0,0,0,0,0,0c-0.2,0.1-0.4,0.2-0.6,0.2c-0.5,0.2-1,0.3-1.6,0.4c-0.1,0-0.2,0-0.3,0.1  c-0.2,0-0.4,0.1-0.7,0.1c0,0,0,0,0,0c-0.3,0-0.6,0-0.9,0c-1,0-2.1-0.1-3.3-0.4l-0.2,15.5c0,0,0,1.6-0.1,4.1c0,0.5,0,0.9-0.1,1.4  c0,0.2,0,0.3,0,0.5c0,0.3,0,0.7,0,1.1c-0.2,3.2-0.4,7.1-0.8,11.3c-0.2,2-0.4,4-0.7,6.1c-0.5,4.1-1.2,8.3-2,12.1  c-1.4,6.1-2.3,10.4-3,13.9c-0.2,0.8-0.3,1.6-0.5,2.3c-0.1,0.5-0.2,1-0.3,1.5c-0.1,0.5-0.2,1-0.3,1.4c-0.1,0.7-0.3,1.4-0.4,2.1  l-0.1,0.7c-0.2,0.7-0.3,1.5-0.5,2.2c-0.3,1.3-0.6,2.7-1,4.2c-2.4,9.8-12.9,54.2-11.5,96.8c0,0.1-0.3,8.8,0.7,20.3  c0.1,1.1,0.2,2.2,0.3,3.4c0.1,0.8,0.2,1.6,0.2,2.4c0.5,4.5,1.1,9.3,1.7,13.4l0,0.1l0.7,5h0v0l-0.1,0v0c0.1,0.5,2.3,17,4,28  c0,0,0,0,0,0c1.1,0.9,23,18.8,74.7-1.3h0l3.5-34.9l0-0.9c0.1-1.1,0.3-2.3,0.5-3.5c0.1-0.8,0.2-1.5,0.3-2.3c0.6-4.1,1.3-7.7,2.2-9.5  c0.5-1.1,0.9-2.7,1.2-4.7C-749.8,591.3-718.1,446.4-709,409.5z" style="fill: rgb(255, 255, 255);"></path>
<path class="st0 cannot-edit can-change" d="M-677.1,600.5c-1.6-8.1-2.3-21.8-2.3-22l0.5-16.1c0,0-2.6,1.1-4,1.2c-1.3,0-3.8-1.2-3.9-1.2l0.5,16.1  c0,0.2-1.2,21.3-3.6,26.7c-0.8,1.8-1.5,5.4-2.2,9.5c0.6-4.1,1.3-7.7,2.2-9.5c0.5-1.1,0.9-2.7,1.2-4.7c-61.1-9.2-29.5-154.1-20.4-191  c5.2,5.3,13.2,9.6,25.8,9.6c12.6,0,20.8-4.5,26.1-9.9C-648,446.4-616.2,591.2-677.1,600.5z" style="fill: rgb(0, 0, 0);"></path>
<g>
	<g>
		<path class="st2 can-change filled" d="M-688.7,600.5c-0.4,2-0.8,3.6-1.2,4.7c-0.8,1.8-1.5,5.4-2.2,9.5c-0.1,0.8-0.2,1.5-0.3,2.3    c-0.2,1.1-0.3,2.3-0.5,3.5l0,0.9l-3.5,34.9c-51.7,20.1-73.6,2.2-74.7,1.3c0,0,0,0,0,0c-1.7-11.2-4-27.9-4-28h0v0l0.1,0v0l-0.7-5    l0-0.1c-0.6-4.2-1.2-8.9-1.7-13.4c-0.1-0.8-0.2-1.6-0.2-2.4c-0.1-1.2-0.2-2.3-0.3-3.4c-1-11.5-0.7-20.2-0.7-20.3    c-1.4-42.6,9.2-87,11.5-96.8c0.4-1.5,0.7-2.9,1-4.2c0.2-0.8,0.3-1.5,0.5-2.2l0.1-0.7c0.2-0.7,0.3-1.4,0.4-2.1    c0.1-0.5,0.2-0.9,0.3-1.4c0.1-0.5,0.2-1,0.3-1.5c0.2-0.8,0.3-1.5,0.5-2.3c0.7-3.5,1.6-7.7,3-13.9c0.9-3.8,1.5-8,2.1-12.1    c0.2-2.1,0.5-4.1,0.7-6.1c0.4-4.2,0.6-8.2,0.8-11.3c0-0.4,0-0.7,0-1.1c0-0.2,0-0.3,0-0.5c0-0.5,0-1,0.1-1.4c0.1-2.5,0.1-4,0.1-4.1    l0.2-15.5h0c1.2,0.3,2.3,0.4,3.3,0.4c0.3,0,0.6,0,0.9,0c0,0,0,0,0,0c0.2,0,0.5,0,0.7-0.1c0.1,0,0.2,0,0.3-0.1    c0.6-0.1,1.1-0.2,1.6-0.4c0.2-0.1,0.4-0.1,0.6-0.2c0,0,0,0,0,0c0.1-0.1,0.3-0.1,0.4-0.2c0.3-0.1,0.5-0.3,0.8-0.5    c0.1-0.1,0.2-0.1,0.3-0.2c0.1-0.1,0.2-0.2,0.3-0.3c0.1-0.1,0.2-0.2,0.3-0.3c0.1-0.1,0.2-0.2,0.4-0.3c0.1-0.1,0.3-0.3,0.4-0.4    c0.1-0.1,0.2-0.3,0.3-0.4c0,0,0,0,0.1-0.1c0.1-0.1,0.2-0.3,0.3-0.4c0.1-0.2,0.2-0.3,0.3-0.5c0.2-0.3,0.4-0.7,0.6-1    c0.1-0.2,0.2-0.4,0.3-0.5c0.2-0.4,0.4-0.8,0.5-1.1c0.1-0.2,0.2-0.4,0.2-0.6c0.1-0.2,0.1-0.4,0.2-0.6c0.4-1,0.6-2.1,0.9-3.2    c0-0.2,0.1-0.4,0.1-0.7c0.1-0.6,0.2-1.2,0.3-1.8l24.5-3.9h0c0.1,1.2,0.3,2.4,0.4,3.5c0.1,0.3,0.1,0.6,0.2,0.9    c0.2,0.7,0.4,1.4,0.7,2.2c0.1,0.4,0.3,0.8,0.4,1.2c0.2,0.6,0.5,1.2,0.8,1.9c0.7,1.7,1.6,3.4,2.8,5.2c0.2,0.4,0.5,0.8,0.8,1.1    c0.2,0.3,0.4,0.6,0.7,0.9c0.4,0.6,0.9,1.1,1.4,1.7c0.2,0.3,0.5,0.6,0.8,0.8v0C-718.1,446.4-749.8,591.3-688.7,600.5z" style="fill: rgb(237, 28, 36);" data-fill-id="3"></path>
	</g>
	<g>
		<defs>
			<path id="SVGID_1_" d="M-742.5,393.9l24.5-3.9c0.1,1.2,0.3,2.4,0.4,3.5c0.9,3.9,3.2,10.5,8.5,15.9c-9.1,36.9-40.7,181.8,20.4,191     c-0.4,2-0.8,3.6-1.2,4.6c-1.2,2.6-2.2,9.1-2.9,15.2l0,0.9l-3.5,34.9c-52.8,20.5-74.5,1.5-74.8,1.3c-1.7-11.2-4-27.9-4-28l0.1,0.1     l-0.7-5l0-0.1c-0.9-6-1.8-13.4-2.3-19.3c-1-11.5-0.7-20.2-0.7-20.3c-1.4-42.6,9.2-87,11.5-96.8c2.3-9.8,2.5-13.2,6.1-28.3     c3.5-15.1,3.7-36.5,3.8-36.6l0.2-15.5C-746.9,409.8-743.5,401.6-742.5,393.9z"></path>
		</defs>
		<clipPath id="SVGID_2_">
			<use xlink:href="#SVGID_1_" style="overflow:visible;"></use>
		</clipPath>
		<g class="st3 can-change" style="fill: rgb(0, 0, 0);">
			<path class="st4 can-change filled" d="M-777.7,621.6c3.2,1.5,6.4,2.9,9.6,4.2c7,2.2,14.1,4,21.4,5.2c2.2,0.2,4.3,0.3,6.5,0.4     c5.1,0.2,10.2,0.1,15.3-0.3c7.4-1.1,14.5-2.8,21.6-5.1c4.3-1.5,8.5-3.4,12.6-5.4c0,0.3,0,0.6,0,0.9c-0.2,0.1-0.4,0.2-0.7,0.3     c-4.1,1.9-8.2,3.7-12.4,5.3c-7,2.2-14.1,3.8-21.4,4.9c-5.1,0.4-10.3,0.5-15.5,0.3c-2-0.1-4-0.2-6-0.3c-7.1-1.2-14.2-2.9-21.1-5.1     c-3.4-1.5-6.8-3-10.2-4.6C-777.9,622-777.9,621.8-777.7,621.6z M-779.2,625.1c3.4,1.6,6.9,3.2,10.3,4.7c7.2,2.3,14.4,4,21.8,5.2     c2.2,0.2,4.2,0.3,6.2,0.3c5.3,0.2,10.7,0.1,16-0.3c7.5-1.2,14.8-2.8,22-5c4.2-1.6,8.2-3.4,12.3-5.2c0,0.4,0.1,0.8,0.1,1.2     c-4.2,2-8.4,3.7-12.7,5.4c-7.1,2.2-14.5,3.8-21.9,5c-5.2,0.4-10.6,0.5-15.9,0.3c-2-0.1-4.1-0.2-6.1-0.3     c-7.3-1.3-14.5-2.9-21.6-5.2c-3.7-1.6-7.3-3.3-11-5.1C-779.4,625.8-779.3,625.4-779.2,625.1z M-780.6,628.5     c3.6,1.7,7.3,3.5,11.1,5.1c7.3,2.4,14.7,4,22.2,5.4c2.1,0.1,4.2,0.3,6.3,0.3c5.4,0.2,10.9,0.1,16.3-0.3c7.6-1.2,15-2.9,22.4-5.2     c4.1-1.6,8.1-3.3,12-5.1c0,0.6,0,1.1,0,1.7c-4,1.9-8.1,3.6-12.2,5.1c-7.3,2.4-14.8,4-22.3,5.2c-5.2,0.4-10.5,0.5-15.7,0.3     c-2.3-0.1-4.6-0.2-6.9-0.4c-7.5-1.2-14.9-3-22.1-5.3c-4-1.7-7.9-3.5-11.8-5.5C-781,629.4-780.8,629-780.6,628.5z M-782.1,632     c3.9,2,7.9,3.8,11.9,5.5c7.4,2.4,14.9,4.2,22.6,5.4c2.4,0.2,4.8,0.3,7.1,0.4c5.3,0.2,10.6,0.1,16-0.3c7.7-1.2,15.3-2.9,22.8-5.2     c3.9-1.6,7.8-3.1,11.6-4.9c0,0.7,0.1,1.4,0.1,2.1c-0.1,0.1-0.3,0.1-0.5,0.2c-3.8,1.7-7.6,3.3-11.3,4.7     c-7.5,2.4-15.1,4.1-22.8,5.3c-5.3,0.4-10.6,0.5-15.9,0.3c-2.4-0.1-4.8-0.2-7.1-0.4c-7.6-1.2-15.2-3-22.6-5.4     c-4.2-1.8-8.4-3.8-12.5-5.9C-782.7,633.2-782.4,632.6-782.1,632z M-783.6,635.5c4.2,2.1,8.5,4.1,12.7,5.9     c7.5,2.5,15.2,4.3,22.9,5.6c2.5,0.2,4.9,0.4,7.3,0.5c5.4,0.2,10.7,0.1,16.1-0.4c7.9-1.3,15.6-2.9,23.2-5.4     c3.8-1.4,7.6-3.1,11.3-4.7c0,0.9,0.1,1.7,0.1,2.6c-0.1,0-0.1,0-0.2,0.1c-3.7,1.6-7.4,3.2-11.2,4.6c-7.6,2.4-15.5,4.1-23.3,5.4     c-5.5,0.4-11,0.5-16.5,0.3c-2.4-0.1-4.7-0.2-7-0.4c-7.8-1.3-15.5-3.1-23-5.5c-4.5-2-9-4-13.4-6.3     C-784.3,637-784,636.2-783.6,635.5z M-785.1,639c4.4,2.3,9,4.3,13.6,6.3c7.7,2.5,15.4,4.3,23.3,5.7c2.4,0.2,4.7,0.4,7.1,0.5     c5.5,0.2,11.1,0.1,16.6-0.4c8-1.3,15.9-3,23.7-5.5c3.7-1.4,7.3-2.9,10.9-4.5c0,1,0.1,2,0.1,3c-3.6,1.6-7.2,3.1-10.9,4.4     c-7.8,2.5-15.8,4.2-23.8,5.5c-5.6,0.4-11.3,0.5-16.9,0.3c-2.4-0.1-4.7-0.2-7.1-0.3c-7.9-1.4-15.8-3.2-23.5-5.7     c-4.8-2.1-9.6-4.3-14.3-6.6C-785.9,640.8-785.5,639.8-785.1,639z M-786.7,642.5c4.6,2.4,9.5,4.6,14.3,6.7     c7.8,2.6,15.7,4.4,23.8,5.8c2.4,0.1,4.8,0.2,7.2,0.3c5.7,0.2,11.4,0.1,17-0.3c8.1-1.3,16.1-3.1,24-5.6c3.6-1.4,7.1-2.8,10.7-4.4     c0,1.2,0,2.3,0.1,3.5c-3.4,1.5-6.9,2.9-10.4,4.2c-7.9,2.5-16.1,4.3-24.3,5.6c-5.7,0.4-11.3,0.6-17,0.4c-2.5-0.1-5-0.3-7.5-0.5     c-8.1-1.3-16.2-3.3-24.1-5.8c-5.2-2.1-10.2-4.5-15.2-7.1C-787.6,644.4-787.2,643.5-786.7,642.5z M-788.3,646     c5,2.6,10.1,5,15.3,7.1c7.9,2.5,16,4.5,24.1,5.8c2.5,0.2,5,0.3,7.5,0.4c5.7,0.2,11.4,0.1,17.1-0.4c8.3-1.2,16.4-3.1,24.4-5.7     c3.4-1.2,6.8-2.6,10.2-4.1c0.1,3.8,0.2,7.7,0.2,11.6c-3,1.3-5.9,2.4-8.9,3.6c-8.4,2.5-17.1,4.6-25.7,5.9     c-8.6,0.6-17.2,0.6-25.8-0.1c-8.5-1.3-16.9-3.3-25.3-6c-5.9-2.4-12-5.1-17.9-8.2C-791.3,652.7-789.8,649.4-788.3,646z" style="fill: rgb(0, 102, 179);" data-fill-id="4"></path>
		</g>
	</g>
	<g>
		<path class="st5" d="M-688.7,600.5c-0.4,2-0.8,3.6-1.2,4.7c-0.8,1.8-1.5,5.4-2.2,9.5c-0.1,0.8-0.2,1.5-0.3,2.3    c-0.2,1.1-0.3,2.3-0.5,3.5l0,0.9l-3.5,34.9c-51.7,20.1-73.6,2.2-74.7,1.3c0,0,0,0,0,0c-1.7-11.2-4-27.9-4-28h0v0l0.1,0v0l-0.7-5    l0-0.1c-0.6-4.2-1.2-8.9-1.7-13.4c-0.1-0.8-0.2-1.6-0.2-2.4c-0.1-1.2-0.2-2.3-0.3-3.4c-1-11.5-0.7-20.2-0.7-20.3    c-1.4-42.6,9.2-87,11.5-96.8c0.4-1.5,0.7-2.9,1-4.2c0.2-0.8,0.3-1.5,0.5-2.2l0.1-0.7c0.2-0.7,0.3-1.4,0.4-2.1    c0.1-0.5,0.2-0.9,0.3-1.4c0.1-0.5,0.2-1,0.3-1.5c0.2-0.8,0.3-1.5,0.5-2.3c0.7-3.5,1.6-7.7,3-13.9c0.9-3.8,1.5-8,2.1-12.1    c0.2-2.1,0.5-4.1,0.7-6.1c0.4-4.2,0.6-8.2,0.8-11.3c0-0.4,0-0.7,0-1.1c0-0.2,0-0.3,0-0.5c0-0.5,0-1,0.1-1.4c0.1-2.5,0.1-4,0.1-4.1    l0.2-15.5h0c1.2,0.3,2.3,0.4,3.3,0.4c0.3,0,0.6,0,0.9,0c0,0,0,0,0,0c0.2,0,0.5,0,0.7-0.1c0.1,0,0.2,0,0.3-0.1    c0.6-0.1,1.1-0.2,1.6-0.4c0.2-0.1,0.4-0.1,0.6-0.2c0,0,0,0,0,0c0.1-0.1,0.3-0.1,0.4-0.2c0.3-0.1,0.5-0.3,0.8-0.5    c0.1-0.1,0.2-0.1,0.3-0.2c0.1-0.1,0.2-0.2,0.3-0.3c0.1-0.1,0.2-0.2,0.3-0.3c0.1-0.1,0.2-0.2,0.4-0.3c0.1-0.1,0.3-0.3,0.4-0.4    c0.1-0.1,0.2-0.3,0.3-0.4c0,0,0,0,0.1-0.1c0.1-0.1,0.2-0.3,0.3-0.4c0.1-0.2,0.2-0.3,0.3-0.5c0.2-0.3,0.4-0.7,0.6-1    c0.1-0.2,0.2-0.4,0.3-0.5c0.2-0.4,0.4-0.8,0.5-1.1c0.1-0.2,0.2-0.4,0.2-0.6c0.1-0.2,0.1-0.4,0.2-0.6c0.4-1,0.6-2.1,0.9-3.2    c0-0.2,0.1-0.4,0.1-0.7c0.1-0.6,0.2-1.2,0.3-1.8l24.5-3.9h0c0.1,1.2,0.3,2.4,0.4,3.5c0.1,0.3,0.1,0.6,0.2,0.9    c0.2,0.7,0.4,1.4,0.7,2.2c0.1,0.4,0.3,0.8,0.4,1.2c0.2,0.6,0.5,1.2,0.8,1.9c0.7,1.7,1.6,3.4,2.8,5.2c0.2,0.4,0.5,0.8,0.8,1.1    c0.2,0.3,0.4,0.6,0.7,0.9c0.4,0.6,0.9,1.1,1.4,1.7c0.2,0.3,0.5,0.6,0.8,0.8v0C-718.1,446.4-749.8,591.3-688.7,600.5z" style="fill: none;"></path>
	</g>
</g>
<g>
	<g>
		<path class="st2 can-change filled" d="M-587.2,584.8c0,0.1,0.3,8.8-0.7,20.3c-0.1,1.1-0.2,2.3-0.3,3.4c-0.5,4.6-1.1,9.6-1.7,14.2    c-0.1,0.6-0.2,1.2-0.2,1.7l0,0l0,0.1v0l-0.7,5l0.1,0l0,0c0,0,0,0.1,0,0.3c0,0,0,0.1,0,0.1c0,0.2,0,0.4-0.1,0.7    c0,0.1,0,0.2-0.1,0.3c-0.1,0.4-0.1,0.9-0.2,1.5c0,0.3-0.1,0.6-0.1,0.9c0,0.1,0,0.3-0.1,0.4c0,0.4-0.1,0.8-0.2,1.2    s-0.1,0.9-0.2,1.3c0,0.3-0.1,0.5-0.1,0.8c-0.1,0.7-0.2,1.4-0.3,2.2c-0.1,0.5-0.1,1-0.2,1.5c-0.2,1.2-0.3,2.3-0.5,3.6    c0,0.2,0,0.3-0.1,0.5s0,0.3-0.1,0.5c0,0.2-0.1,0.5-0.1,0.7c-0.1,0.4-0.1,0.8-0.2,1.2c0,0.3-0.1,0.7-0.1,1c0,0,0,0.1,0,0.1    c0,0.2-0.1,0.4-0.1,0.7c-0.1,1-0.3,2-0.4,2.9c-0.1,0.7-0.2,1.3-0.3,1.9c-0.2,1.2-0.4,2.4-0.5,3.5c0,0,0,0-0.1,0.1    c-0.2,0.1-0.5,0.4-1,0.7c-3.6,2.5-16.4,9.8-40.9,6.7c-0.4,0-0.8-0.1-1.2-0.2c-2.5-0.3-5-0.8-7.8-1.4c-0.7-0.1-1.4-0.3-2.2-0.5    c-0.8-0.2-1.6-0.4-2.4-0.6c-0.7-0.2-1.4-0.3-2.1-0.5c-1.5-0.4-3-0.8-4.6-1.3c-0.1,0-0.1,0-0.2,0c-0.5-0.1-1-0.3-1.5-0.4    c-1.4-0.4-2.8-0.9-4.2-1.4c-1.1-0.4-2.2-0.8-3.3-1.2c-1.1-0.4-2.3-0.8-3.4-1.3l-3.5-34.9l0-0.9c-0.8-6.1-1.8-12.7-3-15.2    c-0.5-1.1-0.9-2.7-1.2-4.7c0,0,0,0,0.1,0c61-9.3,29.1-154.1,20-191.3c0-0.1,0-0.1,0-0.2c2.5-2.6,4.4-5.3,5.9-7.9    c0,0,0.1-0.1,0.1-0.2c1.5-2.8,2.4-5.4,2.9-7.4c0,0,0,0,0,0c0.1-1.2,0.3-2.3,0.4-3.5l0.2,0l24.3,3.8h0c1,7.7,4.6,16.5,14.8,14.2    l0,14.9c0.1,0.1,0.3,21.5,3.8,36.6c3.5,15.1,3.7,18.6,6.1,28.3C-596.3,497.8-585.8,542.2-587.2,584.8z" style="fill: rgb(237, 28, 36);" data-fill-id="1"></path>
	</g>
	<g>
		<defs>
			<path id="SVGID_3_" d="M-623.4,393.9c1,7.7,4.6,16.5,14.8,14.2l0,14.9c0.1,0.1,0.3,21.5,3.8,36.6c3.5,15.1,3.7,18.6,6.1,28.3     c2.4,9.8,12.9,54.2,11.5,96.8c0,0.1,0.3,8.8-0.7,20.3c-0.5,5.9-1.4,13.3-2.3,19.3l0,0.1l-0.7,5l0.1-0.1c0,0.2-2.3,16.8-4,28     c-0.2,0.2-22,19.2-74.8-1.3l-3.5-34.9l0-0.9c-0.8-6.2-1.8-12.7-3-15.2c-0.4-1-0.9-2.7-1.2-4.6c61.1-9.2,29.1-154.6,20-191.4     c5.4-5.5,7.9-11.6,8.9-15.5c0.1-1.2,0.3-2.4,0.4-3.5L-623.4,393.9z"></path>
		</defs>
		<clipPath id="SVGID_4_">
			<use xlink:href="#SVGID_3_" style="overflow:visible;"></use>
		</clipPath>
		<g class="st6 can-change" style="fill: rgb(0, 0, 0);">
			<path class="st4 can-change selected filled" d="M-588.3,621.6c0.2,0.2,0.2,0.4,0.2,0.6c-3.3,1.6-6.8,3.2-10.1,4.6c-6.9,2.2-14,3.9-21.1,5.1     c-2,0.1-3.9,0.2-6,0.3c-5.2,0.2-10.5,0.1-15.5-0.3c-7.3-1.1-14.5-2.7-21.4-4.9c-4.1-1.7-8.3-3.4-12.4-5.3     c-0.3-0.1-0.5-0.2-0.7-0.3c0-0.2,0-0.6,0-0.9c4.1,2,8.3,3.8,12.6,5.4c7.1,2.3,14.3,3.9,21.6,5.1c5.1,0.4,10.2,0.5,15.3,0.3     c2.2-0.1,4.3-0.2,6.5-0.4c7.3-1.1,14.3-2.9,21.3-5.2C-594.6,624.5-591.4,623.1-588.3,621.6z M-586.8,625.1c0.2,0.3,0.3,0.7,0.5,1     c-3.6,1.8-7.3,3.5-11,5.1c-7.1,2.3-14.3,4-21.6,5.2c-2,0.1-4.1,0.3-6.1,0.3c-5.3,0.2-10.7,0.1-15.9-0.3c-7.4-1.2-14.8-2.8-21.9-5     c-4.2-1.7-8.5-3.5-12.7-5.4c0-0.4,0.1-0.8,0.1-1.2c4,1.9,8.1,3.6,12.3,5.2c7.2,2.3,14.5,3.9,22,5c5.3,0.4,10.7,0.5,16,0.3     c2.1-0.1,4-0.1,6.2-0.3c7.3-1.2,14.6-2.9,21.8-5.2C-593.7,628.2-590.2,626.7-586.8,625.1z M-585.4,628.5c0.2,0.5,0.4,0.9,0.6,1.5     c-3.9,1.9-7.8,3.7-11.8,5.5c-7.2,2.4-14.6,4.1-22.1,5.3c-2.2,0.2-4.6,0.3-6.9,0.4c-5.2,0.2-10.5,0.1-15.7-0.3     c-7.5-1.2-15-2.8-22.3-5.2c-4.1-1.6-8.2-3.2-12.2-5.1c0-0.5,0-1.1,0.1-1.7c3.9,1.8,7.9,3.5,12.1,5.1c7.3,2.3,14.7,4,22.4,5.2     c5.4,0.4,10.9,0.5,16.3,0.3c2-0.1,4.1-0.2,6.3-0.3c7.5-1.3,14.9-3,22.2-5.4C-592.7,632-589,630.2-585.4,628.5z M-583.8,632     c0.3,0.6,0.5,1.2,0.7,1.8c-4.1,2.1-8.3,4-12.6,5.9c-7.4,2.4-15,4.2-22.6,5.4c-2.4,0.2-4.8,0.3-7.1,0.4     c-5.3,0.2-10.6,0.1-15.9-0.3c-7.7-1.2-15.4-3-22.8-5.3c-3.7-1.5-7.5-3-11.3-4.7c-0.2-0.1-0.3-0.1-0.5-0.2c0-0.7,0.1-1.4,0.1-2.1     c3.8,1.8,7.7,3.3,11.6,4.9c7.5,2.3,15.1,4,22.8,5.2c5.3,0.4,10.7,0.5,16,0.3c2.3-0.1,4.7-0.2,7.1-0.4c7.6-1.2,15.1-3,22.6-5.4     C-591.7,635.8-587.7,634-583.8,632z M-582.4,635.5c0.3,0.8,0.6,1.6,1,2.2c-4.4,2.3-8.9,4.3-13.4,6.3c-7.6,2.4-15.2,4.2-23,5.5     c-2.4,0.1-4.7,0.3-7,0.4c-5.5,0.2-11,0.1-16.5-0.3c-7.8-1.2-15.7-2.9-23.4-5.4c-3.7-1.4-7.5-3-11.2-4.6c0,0-0.1-0.1-0.2-0.1     c0-0.9,0.1-1.7,0.1-2.6c3.7,1.6,7.5,3.3,11.3,4.7c7.6,2.4,15.4,4.1,23.2,5.4c5.4,0.4,10.7,0.6,16.1,0.4c2.4-0.1,4.8-0.2,7.3-0.5     c7.7-1.2,15.4-3.1,22.9-5.6C-590.8,639.5-586.5,637.5-582.4,635.5z M-580.8,639c0.4,0.9,0.8,1.8,1.1,2.6     c-4.7,2.3-9.5,4.6-14.3,6.6c-7.7,2.5-15.6,4.4-23.5,5.7c-2.4,0.1-4.7,0.3-7.1,0.3c-5.7,0.2-11.3,0.1-16.9-0.3     c-8-1.3-16-3.1-23.8-5.5c-3.7-1.3-7.3-2.8-10.9-4.4c0-1,0.1-2.1,0.1-3c3.6,1.6,7.3,3.1,10.9,4.5c7.8,2.5,15.7,4.2,23.7,5.5     c5.5,0.4,11.1,0.5,16.6,0.4c2.4-0.1,4.8-0.3,7.1-0.5c7.9-1.3,15.6-3.2,23.3-5.7C-589.8,643.3-585.2,641.3-580.8,639z      M-579.3,642.5c0.5,1,0.9,1.9,1.3,2.9c-5,2.6-10,5-15.2,7.1c-7.9,2.5-16,4.5-24.1,5.8c-2.5,0.2-4.9,0.3-7.5,0.5     c-5.7,0.2-11.3,0-17-0.4c-8.2-1.3-16.4-3.1-24.3-5.6c-3.5-1.3-7-2.7-10.4-4.2c0.1-1.2,0.1-2.3,0.1-3.5c3.5,1.6,7.1,3,10.7,4.4     c7.9,2.5,15.9,4.2,24,5.6c5.6,0.4,11.3,0.5,17,0.3c2.4-0.1,4.8-0.2,7.2-0.3c8-1.4,16-3.2,23.8-5.8     C-588.8,647.1-583.9,644.9-579.3,642.5z M-577.7,646c1.5,3.4,3.1,6.7,4.6,10.1c-5.9,3.1-11.9,5.8-17.9,8.2     c-8.4,2.7-16.8,4.7-25.3,6c-8.6,0.7-17.2,0.7-25.8,0.1c-8.6-1.3-17.2-3.4-25.6-5.9c-3-1.2-6-2.3-8.9-3.6c0-3.9,0.1-7.8,0.2-11.6     c3.4,1.5,6.8,2.8,10.2,4.1c8,2.5,16.1,4.5,24.4,5.7c5.7,0.5,11.4,0.6,17.1,0.4c2.5-0.1,5-0.2,7.5-0.5c8.1-1.4,16.2-3.3,24.1-5.8     C-587.8,651-582.7,648.6-577.7,646z" style="fill: rgb(0, 102, 179);" data-fill-id="2"></path>
		</g>
	</g>
	<g>
		<path class="st5" d="M-587.2,584.8c0,0.1,0.3,8.8-0.7,20.3c-0.1,1.1-0.2,2.3-0.3,3.4c-0.5,4.6-1.1,9.6-1.7,14.2    c-0.1,0.6-0.2,1.2-0.2,1.7l0,0l0,0.1v0l-0.7,5l0.1,0l0,0c0,0,0,0.1,0,0.3c0,0,0,0.1,0,0.1c0,0.2,0,0.4-0.1,0.7    c0,0.1,0,0.2-0.1,0.3c-0.1,0.4-0.1,0.9-0.2,1.5c0,0.3-0.1,0.6-0.1,0.9c0,0.1,0,0.3-0.1,0.4c0,0.4-0.1,0.8-0.2,1.2    s-0.1,0.9-0.2,1.3c0,0.3-0.1,0.5-0.1,0.8c-0.1,0.7-0.2,1.4-0.3,2.2c-0.1,0.5-0.1,1-0.2,1.5c-0.2,1.2-0.3,2.3-0.5,3.6    c0,0.2,0,0.3-0.1,0.5s0,0.3-0.1,0.5c0,0.2-0.1,0.5-0.1,0.7c-0.1,0.4-0.1,0.8-0.2,1.2c0,0.3-0.1,0.7-0.1,1c0,0,0,0.1,0,0.1    c0,0.2-0.1,0.4-0.1,0.7c-0.1,1-0.3,2-0.4,2.9c-0.1,0.7-0.2,1.3-0.3,1.9c-0.2,1.2-0.4,2.4-0.5,3.5c0,0,0,0-0.1,0.1    c-0.2,0.1-0.5,0.4-1,0.7c-3.6,2.5-16.4,9.8-40.9,6.7c-0.4,0-0.8-0.1-1.2-0.2c-2.5-0.3-5-0.8-7.8-1.4c-0.7-0.1-1.4-0.3-2.2-0.5    c-0.8-0.2-1.6-0.4-2.4-0.6c-0.7-0.2-1.4-0.3-2.1-0.5c-1.5-0.4-3-0.8-4.6-1.3c-0.1,0-0.1,0-0.2,0c-0.5-0.1-1-0.3-1.5-0.4    c-1.4-0.4-2.8-0.9-4.2-1.4c-1.1-0.4-2.2-0.8-3.3-1.2c-1.1-0.4-2.3-0.8-3.4-1.3l-3.5-34.9l0-0.9c-0.8-6.1-1.8-12.7-3-15.2    c-0.5-1.1-0.9-2.7-1.2-4.7c0,0,0,0,0.1,0c61-9.3,29.1-154.1,20-191.3c0-0.1,0-0.1,0-0.2c2.5-2.6,4.4-5.3,5.9-7.9    c0,0,0.1-0.1,0.1-0.2c1.5-2.8,2.4-5.4,2.9-7.4c0,0,0,0,0,0c0.1-1.2,0.3-2.3,0.4-3.5l0.2,0l24.3,3.8h0c1,7.7,4.6,16.5,14.8,14.2    l0,14.9c0.1,0.1,0.3,21.5,3.8,36.6c3.5,15.1,3.7,18.6,6.1,28.3C-596.3,497.8-585.8,542.2-587.2,584.8z" style="fill: none;"></path>
	</g>
</g>
<path class="st1 can-change" d="M-682.9,563.5l0.2-144.4" style="fill: rgb(255, 255, 255);"></path>
<path class="st5" d="M-686.3,578.5c0,0-52.4-35,2.8-35s4,35,4,35" style="fill: none;"></path>
<path class="st0 cannot-edit can-change" d="M-650,398.3c1-2.2,1.6-4.2,2-5.8c12.8-102.5,8.5-170.8,8.4-171.5c6,0.7,11.7,3,16.6,6.5  c10.5,26.6,4.4,108.9-0.7,159.6h0.1c0,0.1-0.3,6.6,1.4,12.5C-629.3,399.3-639.4,398.8-650,398.3z M-716.5,397.3  c-8.8,0.8-19.7,1.8-27.4,2.5c1.8-5,1.8-11.2,1.7-14.8c-5-50.8-10.9-131.3-0.5-157.5c4.9-3.5,10.6-5.7,16.6-6.5  c-0.1,0.8-4.5,69.4,8.5,172.5C-717.3,394.7-716.9,396-716.5,397.3z" style="fill: rgb(0, 0, 0);"></path>


<g class="human-logo">
	<path d="M-764,620.9l0.8-4.6h2.1l-0.2,1.3h1.5l0.2-1.3h3.7l-0.5,2.7c0,0,0,0.1,0,0.1h0.1h1.1c0.1,0,0.1,0,0.2,0   c0.1-0.1,0.1-0.2,0.1-0.2l0.4-2.5h4.1l0.7,1.9l1.3-1.9h2.5l-0.5,2.6l1.8-2.6h2.1l1,2.7l0.5-2.7h2.4l1.2,1.9l0.3-1.9h2.1l-0.8,4.6   h-2.4l-1.2-1.9l-0.3,1.9h-3.3l-0.2-0.7h-1.7l-0.5,0.7h-3.3l0.2-1.3l-0.9,1.3h-1.4l-0.5-1.4l-0.3,1.4h-2l0.1-0.5c0,0-0.1,0-0.1,0.1   c-0.4,0.3-1,0.4-1.5,0.4h-1.6c-0.4,0-0.9-0.1-1.3-0.3c-0.1-0.1-0.2-0.2-0.3-0.3l-0.1,0.6h-2.1l0.2-1.4h-1.5l-0.2,1.4H-764z"></path>
	<polygon class="st2 can-change" points="-763.4,620.4 -762.8,616.7 -761.6,616.7 -761.9,618.1 -759.5,618.1 -759.2,616.7 -758.1,616.7    -758.7,620.4 -759.9,620.4 -759.6,619 -762,619 -762.3,620.4  " style="fill: rgb(255, 255, 255);"></polygon>
	<path class="st2 can-change" d="M-758,619.1l0.4-2.4h1.1l-0.4,2.1c-0.1,0.5,0.1,0.7,0.5,0.7h1.1c0.5,0,0.7-0.2,0.8-0.7l0.4-2.1h1.1l-0.4,2.4   c-0.2,0.9-0.7,1.4-1.8,1.4h-1.6C-757.7,620.5-758.1,620-758,619.1" style="fill: rgb(255, 255, 255);"></path>
	<polygon class="st2 can-change" points="-753,620.4 -752.3,616.7 -750.6,616.7 -749.7,619.1 -748,616.7 -746.3,616.7 -746.9,620.4 -748,620.4    -747.6,617.8 -747.6,617.8 -749.5,620.4 -750.4,620.4 -751.4,617.8 -751.4,617.8 -751.9,620.4  " style="fill: rgb(255, 255, 255);"></polygon>
	<path class="st2 can-change" d="M-743.5,617.6l-1,1.4h1.5L-743.5,617.6z M-746.8,620.4l2.7-3.7h1.5l1.4,3.7h-1.3l-0.2-0.7h-2.3l-0.5,0.7   H-746.8z" style="fill: rgb(255, 255, 255);"></path>
	<polygon class="st2 can-change" points="-741.1,620.4 -740.4,616.7 -738.6,616.7 -737,619.4 -737,619.4 -736.5,616.7 -735.3,616.7 -736,620.4    -737.8,620.4 -739.4,617.7 -739.4,617.7 -739.9,620.4  " style="fill: rgb(255, 255, 255);"></polygon>
	<path d="M-734.6,619.5l0-0.2h1.1c-0.1,0.4,0.1,0.4,0.4,0.4h1.4c0.2,0,0.5,0,0.6-0.3c0.1-0.3-0.1-0.3-1.5-0.3   c-1.7,0-1.9-0.2-1.7-1.1c0.1-0.7,0.3-1.2,1.7-1.2h1.6c1.3,0,1.4,0.4,1.2,1.1l0,0.1h-1.1c0-0.3,0-0.4-0.5-0.4h-1.3   c-0.2,0-0.4,0.1-0.5,0.3c-0.1,0.3,0.1,0.3,1.3,0.3c1.8,0,2.2,0.1,2,1.2c-0.2,1-0.6,1.2-2.1,1.2h-1.4   C-734.4,620.5-734.8,620.3-734.6,619.5"></path>
	<path d="M-728,617.6l-0.2,0.9h1.8c0.3,0,0.4-0.2,0.4-0.4l0-0.1c0-0.3-0.1-0.4-0.4-0.4L-728,617.6L-728,617.6z M-729.7,620.4   l0.7-3.7h3.1c1.1,0,1.3,0.5,1.1,1.3l-0.1,0.3c-0.1,0.5-0.5,1.2-1.3,1.2h-2.3l-0.2,0.9H-729.7z"></path>
	<polygon points="-724.8,620.4 -724.2,616.7 -720.1,616.7 -720.3,617.6 -723.2,617.6 -723.3,618.2 -720.5,618.2 -720.7,619    -723.4,619 -723.5,619.6 -720.5,619.6 -720.7,620.4  "></polygon>
	<polygon points="-720.3,620.4 -719.6,616.7 -715.5,616.7 -715.7,617.6 -718.6,617.6 -718.7,618.2 -715.9,618.2 -716.1,619    -718.8,619 -719,619.6 -716,619.6 -716.1,620.4  "></polygon>
	<path d="M-714,617.6l-0.3,1.8h2c0.5,0,0.7-0.1,0.8-0.7l0.1-0.5c0.1-0.5-0.1-0.7-0.6-0.7H-714z M-715.6,620.4l0.7-3.7h3.4   c1.1,0,1.5,0.4,1.3,1.3l-0.2,1.1c-0.2,0.9-0.6,1.3-1.8,1.3L-715.6,620.4L-715.6,620.4z"></path>
	<path d="M-708.5,616c-0.5,0-0.9,0.4-0.9,1c0,0.6,0.4,1,1,1c0.5,0,0.9-0.4,0.9-1C-707.6,616.5-708,616-708.5,616 M-708.5,615.8   c0.7,0,1.2,0.6,1.2,1.2c0,0.7-0.5,1.2-1.2,1.2c-0.7,0-1.2-0.6-1.2-1.2C-709.8,616.3-709.2,615.8-708.5,615.8 M-708.7,616.6v0.4h0.1   c0.2,0,0.3-0.1,0.3-0.2c0-0.1-0.1-0.2-0.3-0.2C-708.6,616.6-708.7,616.6-708.7,616.6 M-708.7,617.2v0.5h-0.2v-1.2   c0.1,0,0.2,0,0.4,0c0.2,0,0.3,0,0.4,0.1c0.1,0,0.1,0.1,0.1,0.3c0,0.1-0.1,0.2-0.3,0.3v0c0.1,0,0.2,0.1,0.2,0.3   c0,0.2,0.1,0.3,0.1,0.3h-0.3c-0.1-0.1-0.1-0.1-0.1-0.3c0-0.1-0.1-0.2-0.3-0.2L-708.7,617.2L-708.7,617.2z"></path>
	<rect x="-764" y="615.8" class="st7" width="56.7" height="5.2" style="fill: none;"></rect>
	<path d="M-729.8,621.8h0.3l-0.2,1.1h-0.3L-729.8,621.8z"></path>
	<path d="M-728.8,621.8h0.5l0.5,0.8l0.2-0.8h0.3l-0.2,1.1h-0.5l-0.5-0.8l-0.2,0.8h-0.3L-728.8,621.8z"></path>
	<path d="M-726.2,622h-0.5l0.1-0.3h1.3l-0.1,0.3h-0.5l-0.2,0.8h-0.3L-726.2,622z"></path>
	<path d="M-723.5,621.8l-0.1,0.2h-0.9l0,0.2h0.8l0,0.2h-0.8l0,0.2h0.9l-0.1,0.2h-1.2l0.2-1.1L-723.5,621.8L-723.5,621.8z"></path>
	<path d="M-722.8,621.8h0.3l-0.2,0.8h0.7l-0.1,0.3h-1.1L-722.8,621.8z"></path>
	<path d="M-721.1,621.8h0.3l-0.2,0.8h0.7l-0.1,0.3h-1.1L-721.1,621.8z"></path>
	<path d="M-719.4,621.8h0.3l-0.2,1.1h-0.3L-719.4,621.8z"></path>
	<path d="M-717.3,622.1C-717.3,622.1-717.3,622.1-717.3,622.1c0-0.1,0-0.1,0-0.1c0,0,0,0-0.1,0l-0.1,0l-0.2,0c-0.1,0-0.2,0-0.2,0.1   c0,0.1-0.1,0.3-0.1,0.4c0,0.1,0.1,0.1,0.2,0.1c0,0,0.1,0,0.3,0c0.2,0,0.2,0,0.2-0.1c0,0,0,0,0-0.1h-0.4l0-0.2h0.7l0,0.1   c0,0.2,0,0.2-0.1,0.3c-0.1,0.1-0.2,0.2-0.3,0.2c0,0-0.2,0-0.4,0c-0.3,0-0.4,0-0.5-0.1c-0.1,0-0.1-0.1-0.1-0.2c0-0.1,0-0.2,0.1-0.4   c0.1-0.3,0.1-0.4,0.3-0.4c0.1,0,0.2,0,0.5,0c0.4,0,0.5,0,0.5,0.1c0.1,0,0.1,0.1,0.1,0.2c0,0,0,0.1,0,0.2L-717.3,622.1L-717.3,622.1   z"></path>
	<path d="M-715,621.8l-0.1,0.2h-0.9l0,0.2h0.8l0,0.2h-0.8l0,0.2h0.9l-0.1,0.2h-1.2l0.2-1.1L-715,621.8L-715,621.8z"></path>
	<path d="M-714.2,621.8h0.5l0.5,0.8l0.2-0.8h0.3l-0.2,1.1h-0.5l-0.5-0.8l-0.2,0.8h-0.3L-714.2,621.8z"></path>
	<path d="M-711.7,622h-0.5l0.1-0.3h1.3l-0.1,0.3h-0.5l-0.2,0.8h-0.3L-711.7,622z"></path>
	<g>
		<polygon class="st8 can-change" points="-735.2,622.5 -735.3,622.8 -734.1,622.8 -734.1,622.5   " style="fill: rgb(237, 28, 36);"></polygon>
		<polygon class="st8 can-change" points="-730.4,622.1 -730.3,621.8 -733.5,621.8 -733.6,622.1   " style="fill: rgb(237, 28, 36);"></polygon>
		<polygon class="st8 can-change" points="-733.9,621.8 -735.1,621.8 -735.2,622.1 -734,622.1   " style="fill: rgb(237, 28, 36);"></polygon>
		<polygon class="st8 can-change" points="-733.8,622.8 -730.6,622.8 -730.5,622.5 -733.7,622.5   " style="fill: rgb(237, 28, 36);"></polygon>
		<polygon class="st2 can-change" points="-733.6,622.1 -733.5,621.8 -733.9,621.8 -734,622.1 -735.2,622.1 -735.2,622.5 -734.1,622.5     -734.1,622.8 -733.8,622.8 -733.7,622.5 -730.5,622.5 -730.4,622.1   " style="fill: rgb(255, 255, 255);"></polygon>
	</g>
</g>
<g class="human-logo">
	<path d="M-657,620.9l0.8-4.6h2.1l-0.2,1.3h1.5l0.2-1.3h3.7l-0.5,2.7c0,0,0,0.1,0,0.1h0.1h1.1c0.1,0,0.1,0,0.2,0   c0.1-0.1,0.1-0.2,0.1-0.2l0.4-2.5h4.1l0.7,1.9l1.3-1.9h2.5l-0.5,2.6l1.8-2.6h2.1l1,2.7l0.5-2.7h2.4l1.2,1.9l0.3-1.9h2.1l-0.8,4.6   h-2.4l-1.2-1.9l-0.3,1.9h-3.3l-0.2-0.7h-1.7l-0.5,0.7h-3.3l0.2-1.3l-0.9,1.3h-1.4l-0.5-1.4l-0.3,1.4h-2l0.1-0.5c0,0-0.1,0-0.1,0.1   c-0.4,0.3-1,0.4-1.5,0.4h-1.6c-0.4,0-0.9-0.1-1.3-0.3c-0.1-0.1-0.2-0.2-0.3-0.3l-0.1,0.6h-2.1l0.2-1.4h-1.5l-0.2,1.4H-657z"></path>
	<polygon class="st2 can-change" points="-656.5,620.4 -655.8,616.7 -654.7,616.7 -654.9,618.1 -652.5,618.1 -652.3,616.7 -651.1,616.7    -651.8,620.4 -653,620.4 -652.7,619 -655.1,619 -655.4,620.4  " style="fill: rgb(255, 255, 255);"></polygon>
	<path class="st2 can-change" d="M-651.1,619.1l0.4-2.4h1.1l-0.4,2.1c-0.1,0.5,0.1,0.7,0.5,0.7h1.1c0.5,0,0.7-0.2,0.8-0.7l0.4-2.1h1.1l-0.4,2.4   c-0.2,0.9-0.7,1.4-1.8,1.4h-1.6C-650.8,620.5-651.2,620-651.1,619.1" style="fill: rgb(255, 255, 255);"></path>
	<polygon class="st2 can-change" points="-646.1,620.4 -645.4,616.7 -643.7,616.7 -642.8,619.1 -641.1,616.7 -639.3,616.7 -640,620.4    -641.1,620.4 -640.6,617.8 -640.6,617.8 -642.6,620.4 -643.5,620.4 -644.5,617.8 -644.5,617.8 -645,620.4  " style="fill: rgb(255, 255, 255);"></polygon>
	<path class="st2 can-change" d="M-636.6,617.6l-1,1.4h1.5L-636.6,617.6z M-639.8,620.4l2.7-3.7h1.5l1.4,3.7h-1.3l-0.2-0.7h-2.3l-0.5,0.7   H-639.8z" style="fill: rgb(255, 255, 255);"></path>
	<polygon class="st2 can-change" points="-634.1,620.4 -633.5,616.7 -631.7,616.7 -630,619.4 -630,619.4 -629.6,616.7 -628.4,616.7    -629.1,620.4 -630.8,620.4 -632.5,617.7 -632.5,617.7 -633,620.4  " style="fill: rgb(255, 255, 255);"></polygon>
	<path d="M-627.7,619.5l0-0.2h1.1c-0.1,0.4,0.1,0.4,0.4,0.4h1.4c0.2,0,0.5,0,0.5-0.3c0.1-0.3-0.1-0.3-1.5-0.3   c-1.7,0-1.9-0.2-1.7-1.1c0.1-0.7,0.3-1.2,1.7-1.2h1.6c1.3,0,1.4,0.4,1.2,1.1l0,0.1h-1.1c0-0.3,0-0.4-0.5-0.4h-1.3   c-0.2,0-0.4,0.1-0.5,0.3c-0.1,0.3,0.1,0.3,1.3,0.3c1.8,0,2.2,0.1,2,1.2c-0.2,1-0.6,1.2-2.1,1.2h-1.4   C-627.5,620.5-627.8,620.3-627.7,619.5"></path>
	<path d="M-621.1,617.6l-0.2,0.9h1.8c0.3,0,0.4-0.2,0.4-0.4l0-0.1c0-0.3-0.1-0.4-0.4-0.4L-621.1,617.6L-621.1,617.6z M-622.7,620.4   l0.7-3.7h3.1c1.1,0,1.3,0.5,1.1,1.3l-0.1,0.3c-0.1,0.5-0.5,1.2-1.3,1.2h-2.3l-0.2,0.9H-622.7z"></path>
	<polygon points="-617.9,620.4 -617.3,616.7 -613.2,616.7 -613.3,617.6 -616.3,617.6 -616.4,618.2 -613.6,618.2 -613.7,619    -616.5,619 -616.6,619.6 -613.6,619.6 -613.8,620.4  "></polygon>
	<polygon points="-613.3,620.4 -612.7,616.7 -608.6,616.7 -608.8,617.6 -611.7,617.6 -611.8,618.2 -609,618.2 -609.1,619    -611.9,619 -612,619.6 -609,619.6 -609.2,620.4  "></polygon>
	<path d="M-607.1,617.6l-0.3,1.8h2c0.5,0,0.7-0.1,0.8-0.7l0.1-0.5c0.1-0.5-0.1-0.7-0.6-0.7H-607.1z M-608.7,620.4l0.7-3.7h3.4   c1.1,0,1.5,0.4,1.3,1.3l-0.2,1.1c-0.2,0.9-0.6,1.3-1.8,1.3L-608.7,620.4L-608.7,620.4z"></path>
	<path d="M-601.6,616c-0.5,0-0.9,0.4-0.9,1c0,0.6,0.4,1,1,1c0.5,0,0.9-0.4,0.9-1C-600.7,616.5-601.1,616-601.6,616 M-601.6,615.8   c0.7,0,1.2,0.6,1.2,1.2c0,0.7-0.6,1.2-1.2,1.2c-0.7,0-1.2-0.6-1.2-1.2C-602.8,616.3-602.3,615.8-601.6,615.8 M-601.8,616.6v0.4h0.1   c0.2,0,0.3-0.1,0.3-0.2c0-0.1-0.1-0.2-0.3-0.2C-601.7,616.6-601.8,616.6-601.8,616.6 M-601.8,617.2v0.5h-0.2v-1.2   c0.1,0,0.2,0,0.4,0c0.2,0,0.3,0,0.4,0.1c0.1,0,0.1,0.1,0.1,0.3c0,0.1-0.1,0.2-0.3,0.3v0c0.1,0,0.2,0.1,0.2,0.3   c0,0.2,0.1,0.3,0.1,0.3h-0.3c-0.1-0.1-0.1-0.1-0.1-0.3c0-0.1-0.1-0.2-0.3-0.2L-601.8,617.2L-601.8,617.2z"></path>
	<rect x="-657" y="615.8" class="st7" width="56.7" height="5.2" style="fill: none;"></rect>
	<path d="M-622.9,621.8h0.3l-0.2,1.1h-0.3L-622.9,621.8z"></path>
	<path d="M-621.8,621.8h0.5l0.5,0.8l0.2-0.8h0.3l-0.2,1.1h-0.5l-0.5-0.8l-0.2,0.8h-0.3L-621.8,621.8z"></path>
	<path d="M-619.3,622h-0.5l0.1-0.3h1.3l-0.1,0.3h-0.5l-0.2,0.8h-0.3L-619.3,622z"></path>
	<path d="M-616.6,621.8l-0.1,0.2h-0.9l0,0.2h0.8l0,0.2h-0.8l0,0.2h0.9l-0.1,0.2h-1.2l0.2-1.1L-616.6,621.8L-616.6,621.8z"></path>
	<path d="M-615.9,621.8h0.3l-0.2,0.8h0.7l-0.1,0.3h-1.1L-615.9,621.8z"></path>
	<path d="M-614.2,621.8h0.3l-0.2,0.8h0.7l-0.1,0.3h-1.1L-614.2,621.8z"></path>
	<path d="M-612.4,621.8h0.3l-0.2,1.1h-0.3L-612.4,621.8z"></path>
	<path d="M-610.4,622.1C-610.4,622.1-610.4,622.1-610.4,622.1c0-0.1,0-0.1,0-0.1c0,0,0,0-0.1,0l-0.1,0l-0.2,0c-0.1,0-0.2,0-0.2,0.1   c0,0.1-0.1,0.3-0.1,0.4c0,0.1,0.1,0.1,0.2,0.1c0,0,0.1,0,0.3,0c0.2,0,0.2,0,0.2-0.1c0,0,0,0,0-0.1h-0.4l0-0.2h0.7l0,0.1   c0,0.2,0,0.2-0.1,0.3c-0.1,0.1-0.2,0.2-0.3,0.2c0,0-0.2,0-0.4,0c-0.3,0-0.4,0-0.5-0.1c-0.1,0-0.1-0.1-0.1-0.2c0-0.1,0-0.2,0.1-0.4   c0.1-0.3,0.1-0.4,0.3-0.4c0.1,0,0.2,0,0.5,0c0.4,0,0.5,0,0.5,0.1c0.1,0,0.1,0.1,0.1,0.2c0,0,0,0.1,0,0.2L-610.4,622.1L-610.4,622.1   z"></path>
	<path d="M-608.1,621.8l-0.1,0.2h-0.9l0,0.2h0.8l0,0.2h-0.8l0,0.2h0.9l-0.1,0.2h-1.2l0.2-1.1L-608.1,621.8L-608.1,621.8z"></path>
	<path d="M-607.3,621.8h0.5l0.5,0.8l0.2-0.8h0.3l-0.2,1.1h-0.5l-0.5-0.8l-0.2,0.8h-0.3L-607.3,621.8z"></path>
	<path d="M-604.8,622h-0.5l0.1-0.3h1.3l-0.1,0.3h-0.5l-0.2,0.8h-0.3L-604.8,622z"></path>
	<g>
		<polygon class="st8 can-change" points="-628.3,622.5 -628.4,622.8 -627.2,622.8 -627.1,622.5   " style="fill: rgb(237, 28, 36);"></polygon>
		<polygon class="st8 can-change" points="-623.5,622.1 -623.4,621.8 -626.6,621.8 -626.7,622.1   " style="fill: rgb(237, 28, 36);"></polygon>
		<polygon class="st8 can-change" points="-627,621.8 -628.2,621.8 -628.2,622.1 -627.1,622.1   " style="fill: rgb(237, 28, 36);"></polygon>
		<polygon class="st8 can-change" points="-626.9,622.8 -623.6,622.8 -623.6,622.5 -626.8,622.5   " style="fill: rgb(237, 28, 36);"></polygon>
		<polygon class="st2 can-change" points="-626.7,622.1 -626.6,621.8 -627,621.8 -627.1,622.1 -628.2,622.1 -628.3,622.5 -627.1,622.5     -627.2,622.8 -626.9,622.8 -626.8,622.5 -623.6,622.5 -623.5,622.1   " style="fill: rgb(255, 255, 255);"></polygon>
	</g>
</g>
<g id="Layer_1_1_">
</g>
</svg>