<svg xmlns="http://www.w3.org/2000/svg" xmlns:xlink="http://www.w3.org/1999/xlink" version="1.1" id="Layer_1" x="0px" y="0px" viewBox="0 0 231 330" style="enable-background:new 0 0 231 330;" xml:space="preserve" data-product="2017509" data-design="1" data-size="m">
<g>
	<g>
		<defs>
			<path id="SVGID_1_" d="M167.44,14.405c0.2,0,24.18,10.49,35.35,15.5c-4.87,25.26-7.65,43.57-5.24,75.12     c1.39,18.48,12.36,31.01,22.51,38.13c-1.82,6.29-6.47,37.36-7.03,49.52c-1.59,18.71-4.63,58.87-3.32,111.37     c-28.66,10.63-62.9,14.01-93.37,14.03c-30.48-0.02-66.7-3.23-95.36-13.86c1.3-52.5-2.95-91.42-2.58-109.64     c-0.6-12.19-5.25-43.23-7.06-49.49c10.18-7.12,23.64-21.58,25.06-40.06c2.41-31.55-0.37-49.86-5.22-75.12     c11.14-5.01,35.1-15.5,35.35-15.5c15.96,14.11,43.29,13.04,48.05,13.21h0.99l0.77-0.03v0.03     C126.8,27.475,153.64,26.565,167.44,14.405z"></path>
		</defs>
		<use xlink:href="#SVGID_1_" style="overflow:visible;fill-rule:evenodd;clip-rule:evenodd;fill:#FFFFFF;" class="can-change"></use>
		<clipPath id="SVGID_2_">
			<use xlink:href="#SVGID_1_" style="overflow:visible;"></use>
		</clipPath>
		<g style="clip-path:url(#SVGID_2_);">
			<g>
				<g>
					
						<path style="fill-rule:evenodd;clip-rule:evenodd;fill:#FFFFFF;stroke:#6D6E71;stroke-width:0.34;stroke-linecap:round;stroke-linejoin:round;stroke-miterlimit:10;" d="       M95.59-61.875h10.03v456.26H95.59V-61.875z" class="can-change"></path>
					
						<path style="fill-rule:evenodd;clip-rule:evenodd;fill:#FFFFFF;stroke:#6D6E71;stroke-width:0.34;stroke-linecap:round;stroke-linejoin:round;stroke-miterlimit:10;" d="       M125.72-61.875h10.06v456.26h-10.06V-61.875z" class="can-change"></path>
					
						<path style="fill-rule:evenodd;clip-rule:evenodd;fill:#FFFFFF;stroke:#6D6E71;stroke-width:0.34;stroke-linecap:round;stroke-linejoin:round;stroke-miterlimit:10;" d="       M115.68-61.875h10.04v456.26h-10.04V-61.875z" class="can-change"></path>
				</g>
				
					<path style="fill-rule:evenodd;clip-rule:evenodd;fill:#FFFFFF;stroke:#6D6E71;stroke-width:0.34;stroke-linecap:round;stroke-linejoin:round;stroke-miterlimit:10;" d="      M105.62-61.875h10.06v456.26h-10.06V-61.875z" class="can-change"></path>
			</g>
		</g>
		
			<use xlink:href="#SVGID_1_" style="overflow:visible;fill-rule:evenodd;clip-rule:evenodd;fill:none;stroke:#6D6E71;stroke-width:0.34;stroke-linecap:round;stroke-linejoin:round;stroke-miterlimit:10;"></use>
	</g>
	
		<path style="fill-rule:evenodd;clip-rule:evenodd;fill:#FFFFFF;stroke:#6D6E71;stroke-width:0.34;stroke-linecap:round;stroke-linejoin:round;stroke-miterlimit:10;" d="   M63.72,236.155c5.87-1.41,50.49-11.19,105.94-0.48c1.13,30.61,3.17,75.29,3.37,78.66h-1.45c-14.88,2.04-33.5,3.74-54.71,3.74   c-21.03,0-41.13-1.7-56.35-3.74C60.69,310.995,62.62,266.435,63.72,236.155z" class="can-change"></path>
	
		<path style="fill-rule:evenodd;clip-rule:evenodd;fill:#FFFFFF;stroke:#6D6E71;stroke-width:0.34;stroke-linecap:round;stroke-linejoin:round;stroke-miterlimit:10;" d="   M169.77,238.855c-48.62-10.41-92.61-2.39-106.19,0.7c0.09-1.36,0.14-2.72,0.14-4.13c5.87-1.71,50.49-13.44,105.94-0.54   C169.66,236.185,169.74,237.545,169.77,238.855z" class="can-change"></path>
	
		<path style="fill-rule:evenodd;clip-rule:evenodd;fill:#FFFFFF;stroke:#6D6E71;stroke-width:0.34;stroke-linecap:round;stroke-linejoin:round;stroke-miterlimit:10;" d="   M151.71,11.935c0-0.2,15.73,2.47,15.73,2.47c-58.42,34.52-100.91,0-100.91,0l12.33-2.3C116.62,31.585,151.71,11.935,151.71,11.935z   " data-fill-id="6" class="can-change"></path>
	<g>
		<defs>
			<path id="SVGID_3_" d="M171.5,311.535c-0.31-7.23-0.97-52.64-2.01-85.87c-1.37-46.91,29.19-71.77,34.86-76.76     c3.46-3.03,5.84-9.1,7.17-13.46c2.64,2.66,5.5,5.07,8.54,7.71c-1.85,6.29-6.84,37.33-7.4,49.46c0.39,18.2-4.28,58.93-2.95,111.43     c-18.99,5.47-36.51,9.38-36.68,9.41C173,313.425,172.4,312.695,171.5,311.535z M61.88,313.035l-1.36,0.62     c-22.62-2.66-39.37-9.35-39.54-9.44l-0.09-0.03l0.09-0.36c1.27-52.19-2.95-91.05-2.58-109.25c-0.6-12.19-5.25-43.23-7.06-49.49     c3.06-2.64,7.88-6.98,10.55-9.64c1.33,4.36,3.74,10.43,7.14,13.46c5.7,4.99,36.28,29.85,34.86,76.76     C62.82,261.045,62.11,306.655,61.88,313.035z"></path>
		</defs>
		<use xlink:href="#SVGID_3_" style="overflow: visible; fill-rule: evenodd; clip-rule: evenodd; fill: rgb(114, 191, 68);" data-fill-id="1" class="can-change"></use>
		<clipPath id="SVGID_4_">
			<use xlink:href="#SVGID_3_" style="overflow:visible;"></use>
		</clipPath>
		<g style="clip-path:url(#SVGID_4_);">
			<g>
				<g>
					
						<path style="fill-rule:evenodd;clip-rule:evenodd;fill:#FFFFFF;stroke:#6D6E71;stroke-width:0.34;stroke-linecap:round;stroke-linejoin:round;stroke-miterlimit:10;" d="       M8.68,258.235h7.85v63.53H8.68V258.235z" class="can-change"></path>
					
						<path style="fill-rule:evenodd;clip-rule:evenodd;fill:#FFFFFF;stroke:#6D6E71;stroke-width:0.34;stroke-linecap:round;stroke-linejoin:round;stroke-miterlimit:10;" d="       M32.2,258.235h7.83v63.53H32.2V258.235z" class="can-change"></path>
					
						<path style="fill-rule:evenodd;clip-rule:evenodd;fill:#FFFFFF;stroke:#6D6E71;stroke-width:0.34;stroke-linecap:round;stroke-linejoin:round;stroke-miterlimit:10;" d="       M24.35,258.235h7.85v63.53h-7.85V258.235z" data-fill-id="3" class="can-change"></path>
				</g>
				
					<path style="fill-rule:evenodd;clip-rule:evenodd;fill:#FFFFFF;stroke:#6D6E71;stroke-width:0.34;stroke-linecap:round;stroke-linejoin:round;stroke-miterlimit:10;" d="      M16.53,258.235h7.82v63.53h-7.82V258.235z" data-fill-id="2" class="can-change"></path>
			</g>
			<g>
				<g>
					
						<path style="fill-rule:evenodd;clip-rule:evenodd;fill:#FFFFFF;stroke:#6D6E71;stroke-width:0.34;stroke-linecap:round;stroke-linejoin:round;stroke-miterlimit:10;" d="       M222.72,258.235v63.53h-7.85v-63.53H222.72z" class="can-change"></path>
					
						<path style="fill-rule:evenodd;clip-rule:evenodd;fill:#FFFFFF;stroke:#6D6E71;stroke-width:0.34;stroke-linecap:round;stroke-linejoin:round;stroke-miterlimit:10;" d="       M199.19,258.235v63.53h-7.82v-63.53H199.19z" class="can-change"></path>
					
						<path style="fill-rule:evenodd;clip-rule:evenodd;fill:#FFFFFF;stroke:#6D6E71;stroke-width:0.34;stroke-linecap:round;stroke-linejoin:round;stroke-miterlimit:10;" d="       M207.04,258.235v63.53h-7.85v-63.53H207.04z" data-fill-id="5" class="can-change"></path>
				</g>
				
					<path style="fill-rule:evenodd;clip-rule:evenodd;fill:#FFFFFF;stroke:#6D6E71;stroke-width:0.34;stroke-linecap:round;stroke-linejoin:round;stroke-miterlimit:10;" d="      M214.87,258.235v63.53h-7.83v-63.53H214.87z" data-fill-id="4" class="can-change"></path>
			</g>
		</g>
		
			<use xlink:href="#SVGID_3_" style="overflow:visible;fill-rule:evenodd;clip-rule:evenodd;fill:none;stroke:#6D6E71;stroke-width:0.34;stroke-linecap:round;stroke-linejoin:round;stroke-miterlimit:10;"></use>
	</g>
	
		<path style="fill-rule:evenodd;clip-rule:evenodd;fill:#FFFFFF;stroke:#6D6E71;stroke-width:0.34;stroke-linecap:round;stroke-linejoin:round;stroke-miterlimit:10;" d="   M116.68,234.225v83.85" class="can-change"></path>
	
		<path style="fill-rule:evenodd;clip-rule:evenodd;fill:#FFFFFF;stroke:#6D6E71;stroke-width:0.34;stroke-linecap:round;stroke-linejoin:round;stroke-miterlimit:10;" d="   M36.48,27.305l1.36,8.22c2.95,21.65,2.95,51.19,2.95,51.19c-1.02,52.87-28.12,64.37-28.12,64.37l-2.75-11.33   c15.85-11.6,21.23-27.1,20.87-53.15c-0.34-26.11-3.86-55.34-3.86-55.34L36.48,27.305z" data-fill-id="7" class="can-change"></path>
	
		<path style="fill-rule:evenodd;clip-rule:evenodd;fill:#FFFFFF;stroke:#6D6E71;stroke-width:0.34;stroke-linecap:round;stroke-linejoin:round;stroke-miterlimit:10;" d="   M194.52,26.335l9.55,4c0,0-3.52,29.45-3.86,55.76c-0.37,26.27,5.02,41.89,20.87,53.54l-2.73,11.45c0,0-27.12-11.62-28.14-64.85   c0,0,0-29.79,2.94-51.62L194.52,26.335z" data-fill-id="8" class="can-change"></path>
	
		<path style="fill-rule:evenodd;clip-rule:evenodd;fill:none;stroke:#6D6E71;stroke-width:0.34;stroke-linecap:round;stroke-linejoin:round;stroke-miterlimit:10;" d="   M22.23,295.375c0,0,96.71,27.78,187.48,0"></path>
	
		<path style="fill-rule:evenodd;clip-rule:evenodd;fill:none;stroke:#6D6E71;stroke-width:0.34;stroke-linecap:round;stroke-linejoin:round;stroke-miterlimit:10;" d="   M22.23,293.045c0,0,96.71,27.78,187.48,0"></path>
	<g class="human-logo">
		<path style="fill-rule:evenodd;clip-rule:evenodd;" d="M88.325,279.027l0.828-4.649h2.075l-0.233,1.327h1.463l0.244-1.327h3.736    l-0.471,2.693c-0.011,0.034-0.017,0.074-0.023,0.113h0.079h1.134c0.068,0,0.147,0,0.215-0.034    c0.051-0.068,0.068-0.159,0.085-0.238l0.448-2.535h4.122l0.68,1.877l1.344-1.877h2.546l-0.459,2.551l1.831-2.551h2.052    l1.009,2.716l0.482-2.716h2.41l1.174,1.899l0.335-1.899h2.086l-0.828,4.649h-2.41l-1.174-1.899l-0.34,1.899h-3.277l-0.238-0.652    h-1.746l-0.453,0.652h-3.334l0.227-1.287l-0.941,1.287h-1.412l-0.544-1.429l-0.261,1.429h-2.041l0.079-0.453    c-0.023,0.028-0.051,0.045-0.079,0.068c-0.425,0.323-0.981,0.431-1.503,0.431h-1.639c-0.442,0-0.919-0.068-1.276-0.34    c-0.108-0.074-0.204-0.176-0.272-0.289l-0.102,0.584h-2.081l0.249-1.406h-1.468l-0.25,1.406H88.325z" class="can-change"></path>
		<polygon style="fill-rule:evenodd;clip-rule:evenodd;fill:#FFFFFF;" points="88.875,278.551 89.538,274.831 90.678,274.831     90.44,276.158 92.85,276.158 93.082,274.831 94.228,274.831 93.564,278.551 92.424,278.551 92.68,277.145 90.27,277.145     90.02,278.551   " class="can-change"></polygon>
		<path style="fill-rule:evenodd;clip-rule:evenodd;fill:#FFFFFF;" d="M94.318,277.23l0.42-2.399h1.145l-0.374,2.143    c-0.085,0.476,0.051,0.663,0.516,0.663h1.134c0.471,0,0.669-0.187,0.754-0.663l0.38-2.143h1.145l-0.431,2.399    c-0.159,0.919-0.72,1.366-1.763,1.366h-1.639C94.556,278.596,94.154,278.149,94.318,277.23" class="can-change"></path>
		<polygon style="fill-rule:evenodd;clip-rule:evenodd;fill:#FFFFFF;" points="99.297,278.551 99.954,274.831 101.706,274.831     102.574,277.23 104.292,274.831 106.044,274.831 105.386,278.551 104.275,278.551 104.745,275.875 104.734,275.875     102.767,278.551 101.91,278.551 100.89,275.875 100.878,275.875 100.408,278.551   " class="can-change"></polygon>
		<path style="fill-rule:evenodd;clip-rule:evenodd;fill:#FFFFFF;" d="M108.799,275.688l-0.964,1.406h1.457L108.799,275.688z     M105.534,278.551l2.676-3.72h1.491l1.384,3.72h-1.27l-0.232-0.652h-2.313l-0.459,0.652H105.534z" class="can-change"></path>
		<polygon style="fill-rule:evenodd;clip-rule:evenodd;fill:#FFFFFF;" points="111.243,278.551 111.901,274.831 113.664,274.831     115.331,277.53 115.342,277.53 115.819,274.831 116.964,274.831 116.312,278.551 114.543,278.551 112.87,275.846 112.859,275.846     112.383,278.551   " class="can-change"></polygon>
		<path style="fill-rule:evenodd;clip-rule:evenodd;" d="M117.662,277.587l0.045-0.249h1.145c-0.068,0.391,0.085,0.425,0.419,0.425    h1.395c0.25,0,0.499-0.028,0.55-0.312c0.051-0.329-0.074-0.346-1.548-0.346c-1.718,0-1.877-0.21-1.712-1.123    c0.119-0.675,0.266-1.196,1.707-1.196h1.599c1.315,0,1.361,0.448,1.242,1.1l-0.017,0.119h-1.14c0.045-0.272,0.034-0.38-0.488-0.38    h-1.27c-0.25,0-0.442,0.085-0.482,0.283c-0.057,0.329,0.079,0.34,1.31,0.335c1.775-0.006,2.166,0.096,1.979,1.185    c-0.181,1.004-0.556,1.168-2.064,1.168h-1.389C117.905,278.596,117.525,278.398,117.662,277.587" class="can-change"></path>
		<path style="fill-rule:evenodd;clip-rule:evenodd;" d="M124.278,275.756l-0.165,0.935h1.78c0.261,0,0.397-0.176,0.437-0.397    l0.028-0.142c0.04-0.255-0.057-0.397-0.402-0.397H124.278z M122.645,278.551l0.658-3.72h3.107c1.089,0,1.259,0.544,1.123,1.276    l-0.051,0.317c-0.102,0.55-0.454,1.191-1.259,1.191h-2.274l-0.164,0.936H122.645z" class="can-change"></path>
		<polygon style="fill-rule:evenodd;clip-rule:evenodd;" points="127.465,278.551 128.123,274.831 132.194,274.831 132.046,275.688     129.115,275.688 129.013,276.289 131.786,276.289 131.649,277.06 128.877,277.06 128.769,277.661 131.769,277.661     131.604,278.551   " class="can-change"></polygon>
		<polygon style="fill-rule:evenodd;clip-rule:evenodd;" points="132.046,278.551 132.699,274.831 136.775,274.831 136.622,275.688     133.696,275.688 133.589,276.289 136.361,276.289 136.231,277.06 133.452,277.06 133.345,277.661 136.344,277.661     136.186,278.551   " class="can-change"></polygon>
		<path style="fill-rule:evenodd;clip-rule:evenodd;" d="M138.3,275.756l-0.323,1.837h2.018c0.493,0,0.709-0.136,0.8-0.669    l0.091-0.499c0.091-0.527-0.074-0.669-0.561-0.669H138.3z M136.667,278.551l0.652-3.72h3.442c1.145,0,1.48,0.374,1.316,1.298    l-0.198,1.128c-0.165,0.918-0.63,1.293-1.769,1.293H136.667z" class="can-change"></path>
		<path style="fill-rule:evenodd;clip-rule:evenodd;" d="M143.778,274.134c-0.533,0-0.936,0.442-0.936,0.975    c0,0.556,0.403,0.981,0.953,0.981c0.522,0.006,0.93-0.425,0.93-0.975C144.724,274.576,144.316,274.134,143.778,274.134     M143.795,273.873c0.68,0,1.23,0.562,1.23,1.236c0,0.686-0.55,1.242-1.242,1.242c-0.692,0-1.247-0.556-1.247-1.242    C142.536,274.435,143.092,273.873,143.795,273.873 M143.59,274.701v0.357h0.142c0.153,0,0.278-0.057,0.278-0.17    c0-0.125-0.068-0.199-0.261-0.199C143.681,274.69,143.619,274.695,143.59,274.701 M143.579,275.262v0.488h-0.249v-1.247    c0.096-0.011,0.238-0.023,0.431-0.023c0.232,0,0.334,0.023,0.414,0.102c0.068,0.045,0.13,0.142,0.13,0.266    c0,0.136-0.125,0.227-0.261,0.289v0.017c0.125,0.034,0.176,0.125,0.221,0.295c0.04,0.193,0.057,0.255,0.085,0.3h-0.267    c-0.051-0.051-0.074-0.142-0.102-0.3c-0.028-0.13-0.102-0.187-0.261-0.187H143.579z" class="can-change"></path>
		<rect x="88.325" y="273.873" style="fill:none;" width="56.7" height="5.199"></rect>
		<path d="M122.461,279.867h0.326l-0.228,1.07h-0.326L122.461,279.867z"></path>
		<path d="M123.547,279.867h0.518l0.475,0.813l0.164-0.813h0.308l-0.226,1.07h-0.523l-0.469-0.806l-0.162,0.806h-0.313    L123.547,279.867z"></path>
		<path d="M126.081,280.132h-0.477l0.056-0.265h1.279l-0.056,0.265h-0.477l-0.172,0.806h-0.326L126.081,280.132z"></path>
		<path d="M128.771,279.867l-0.051,0.242h-0.863l-0.04,0.184h0.817l-0.045,0.212h-0.817l-0.04,0.189h0.876l-0.051,0.242h-1.197    l0.228-1.07H128.771z"></path>
		<path d="M129.506,279.867h0.326l-0.172,0.805h0.736l-0.056,0.265h-1.062L129.506,279.867z"></path>
		<path d="M131.221,279.867h0.326l-0.172,0.805h0.736l-0.056,0.265h-1.062L131.221,279.867z"></path>
		<path d="M132.935,279.867h0.326l-0.228,1.07h-0.326L132.935,279.867z"></path>
		<path d="M134.995,280.23c0.002-0.014,0.005-0.029,0.005-0.04c0.002-0.035-0.019-0.061-0.055-0.071    c-0.029-0.008-0.03-0.008-0.109-0.008l-0.148-0.002l-0.205,0.002c-0.144,0-0.196,0.027-0.228,0.12    c-0.032,0.095-0.071,0.287-0.071,0.35c0,0.083,0.051,0.114,0.191,0.116c0.035,0.002,0.108,0.002,0.295,0.002    c0.151,0,0.197-0.014,0.233-0.069c0.011-0.021,0.016-0.034,0.027-0.096h-0.412l0.043-0.199h0.73l-0.032,0.148    c-0.032,0.154-0.042,0.188-0.071,0.258c-0.055,0.131-0.168,0.199-0.342,0.204c-0.037,0.002-0.21,0.002-0.409,0.002    c-0.342,0-0.416-0.008-0.502-0.056c-0.063-0.035-0.095-0.106-0.095-0.207c0-0.069,0.019-0.18,0.066-0.375    c0.063-0.268,0.143-0.372,0.321-0.417c0.091-0.022,0.217-0.03,0.496-0.03c0.39,0,0.452,0.006,0.534,0.058    c0.051,0.03,0.077,0.085,0.077,0.162c0,0.04-0.006,0.083-0.021,0.151H134.995z"></path>
		<path d="M137.315,279.867l-0.051,0.242h-0.863l-0.04,0.184h0.817l-0.045,0.212h-0.817l-0.04,0.189h0.876l-0.051,0.242h-1.197    l0.228-1.07H137.315z"></path>
		<path d="M138.05,279.867h0.518l0.475,0.813l0.164-0.813h0.308l-0.226,1.07h-0.523l-0.469-0.806l-0.162,0.806h-0.313    L138.05,279.867z"></path>
		<path d="M140.583,280.132h-0.477l0.056-0.265h1.279l-0.056,0.265h-0.477l-0.172,0.806h-0.326L140.583,280.132z"></path>
		<g>
			<polygon style="fill:#ED1C24;" points="117.063,280.575 116.986,280.937 118.166,280.937 118.244,280.575    " class="can-change"></polygon>
			<polygon style="fill:#ED1C24;" points="121.888,280.23 121.965,279.867 118.75,279.867 118.672,280.23    " class="can-change"></polygon>
			<polygon style="fill:#ED1C24;" points="118.397,279.867 117.214,279.867 117.137,280.23 118.319,280.23    " class="can-change"></polygon>
			<polygon style="fill:#ED1C24;" points="118.519,280.937 121.737,280.937 121.814,280.575 118.597,280.575    " class="can-change"></polygon>
			<polygon style="fill:#FFFFFF;" points="118.672,280.23 118.75,279.867 118.397,279.867 118.319,280.23 117.137,280.23      117.063,280.575 118.244,280.575 118.166,280.937 118.519,280.937 118.597,280.575 121.814,280.575 121.888,280.23    " class="can-change"></polygon>
		</g>
	</g>
</g>
</svg>