<svg xmlns="http://www.w3.org/2000/svg" xmlns:xlink="http://www.w3.org/1999/xlink" version="1.1" id="Layer_1" x="0px" y="0px" viewBox="-758 233 291 426" style="enable-background:new -758 233 291 426;" xml:space="preserve" data-product="2017513" data-design="7" data-size="m">
<style type="text/css">
	.st0{fill:#FFFFFF;stroke:#6D6E71;stroke-width:0.34;stroke-linecap:round;stroke-linejoin:round;stroke-miterlimit:10;}
	.st1{fill:#FFFFFF;}
	.st2{clip-path:url(#SVGID_12_);}
	.st3{fill:none;stroke:#6D6E71;stroke-width:0.34;stroke-linecap:round;stroke-linejoin:round;stroke-miterlimit:10;}
	.st4{clip-path:url(#SVGID_14_);}
	.st5{clip-path:url(#SVGID_16_);}
	.st6{clip-path:url(#SVGID_18_);}
	.st7{clip-path:url(#SVGID_20_);}
	.st8{fill:#EDEDED;stroke:#6D6E71;stroke-width:0.34;stroke-linecap:round;stroke-linejoin:round;stroke-miterlimit:10;}
	.st9{fill:none;}
	.st10{fill:#ED1C24;}
</style>
<path class="st0 cannot-edit can-change" d="M-649.5,246.1c3.4,0.3,36.4,22.1,77.6,0c0,0-5.5,52-41.4,48.3c-35.9-3.7-41.6-46.9-38.9-47.6  C-649.5,246.1-652.8,245.8-649.5,246.1z" fill="rgb(255, 255, 255)"></path>
<g>
	<g>
		<path id="SVGID_1_" class="st1 can-change" d="M-568.5,243c31.8,12.2,59.1,27.6,64.2,33c0.1,0,4.1,4.6,8.4,15.2c2.4,6,5,14.2,7.1,23.6    c9.3,39.6,10.2,65,10.2,65.3c-2.2,3.6-17.2,18.4-37.2,11.2c-2.1-4.4-12.5-28.8-13.9-33.3c-1.2-3.7-8-25.6-8-25.7    c0.1-0.3-4.9-23.8-3.5-40.1c-1.2-3.7-2.8-7.1-4.9-10c-9-8.2-11.5-11.1-26.8-19.2C-569.7,251.8-570.1,252.1-568.5,243z" fill="rgb(255, 255, 255)" data-fill-id="15"></path>
	</g>
	<g>
		<defs>
			<path id="SVGID_11_" d="M-568.5,243c31.8,12.2,59.1,27.6,64.2,33c0.1,0,4.1,4.6,8.4,15.2c2.4,6,5,14.2,7.1,23.6     c9.3,39.6,10.2,65,10.2,65.3c-2.2,3.6-17.2,18.4-37.2,11.2c-2.1-4.4-12.5-28.8-13.9-33.3c-1.2-3.7-8-25.6-8-25.7     c0.1-0.3-4.9-23.8-3.5-40.1c-1.2-3.7-2.8-7.1-4.9-10c-9-8.2-11.5-11.1-26.8-19.2C-569.7,251.8-570.1,252.1-568.5,243z"></path>
		</defs>
		<clipPath id="SVGID_12_">
			<use xmlns:xlink="http://www.w3.org/1999/xlink" xlink:href="#SVGID_11_" style="overflow:visible;"></use>
		</clipPath>
		<g class="st2 can-change" fill="rgb(0, 0, 0)">
			<g>
				<g>
					<path class="st0 can-change" d="M-496,350.8l6.1-1.1l12.1,71.5l-6.1,1L-496,350.8z" fill="rgb(255, 255, 255)"></path>
					<path class="st0 can-change" d="M-483.8,348.7l6.1-1l12,71.5l-6.1,1L-483.8,348.7z" fill="rgb(255, 255, 255)" data-fill-id="20"></path>
				</g>
				<path class="st0 can-change" d="M-489.9,349.7l6.1-1l12.1,71.5l-6.1,1L-489.9,349.7z" fill="rgb(255, 255, 255)" data-fill-id="19"></path>
			</g>
		</g>
	</g>
	<g>
		<path id="SVGID_2_" class="st3" d="M-568.5,243c31.8,12.2,59.1,27.6,64.2,33c0.1,0,4.1,4.6,8.4,15.2c2.4,6,5,14.2,7.1,23.6    c9.3,39.6,10.2,65,10.2,65.3c-2.2,3.6-17.2,18.4-37.2,11.2c-2.1-4.4-12.5-28.8-13.9-33.3c-1.2-3.7-8-25.6-8-25.7    c0.1-0.3-4.9-23.8-3.5-40.1c-1.2-3.7-2.8-7.1-4.9-10c-9-8.2-11.5-11.1-26.8-19.2C-569.7,251.8-570.1,252.1-568.5,243z" fill="none"></path>
	</g>
</g>
<g>
	<g>
		<path id="SVGID_3_" class="st1 can-change" d="M-656.2,243c1.6,9.1,1.2,8.8,4.4,20c-15.3,8.2-17.8,11-26.8,19.2c-2.1,2.9-3.7,6.3-4.9,10    c1.3,16.3-3.6,39.8-3.5,40.1c0,0.1-6.8,22-7.9,25.7c-1.4,4.5-10.8,26.6-12.9,31.1c-20,7.2-36.3-7.9-38.5-11.6    c0-0.3,1.1-23,10.5-62.6c2-9.4,4.6-17.6,7-23.6c4.3-10.6,8.3-15.2,8.4-15.2C-715.2,270.6-688,255.2-656.2,243z" fill="rgb(255, 255, 255)" data-fill-id="17"></path>
	</g>
	<g>
		<defs>
			<path id="SVGID_13_" d="M-656.2,243c1.6,9.1,1.2,8.8,4.4,20c-15.3,8.2-17.8,11-26.8,19.2c-2.1,2.9-3.7,6.3-4.9,10     c1.3,16.3-3.6,39.8-3.5,40.1c0,0.1-6.8,22-7.9,25.7c-1.4,4.5-10.8,26.6-12.9,31.1c-20,7.2-36.3-7.9-38.5-11.6     c0-0.3,1.1-23,10.5-62.6c2-9.4,4.6-17.6,7-23.6c4.3-10.6,8.3-15.2,8.4-15.2C-715.2,270.6-688,255.2-656.2,243z"></path>
		</defs>
		<clipPath id="SVGID_14_">
			<use xmlns:xlink="http://www.w3.org/1999/xlink" xlink:href="#SVGID_13_" style="overflow:visible;"></use>
		</clipPath>
		<g class="st4 can-change" fill="rgb(0, 0, 0)">
			<g>
				<g>
					<path class="st0 can-change" d="M-728.3,350.8l-12,71.5l-6.1-1l12.1-71.5L-728.3,350.8z" fill="rgb(255, 255, 255)"></path>
					<path class="st0 can-change" d="M-746.5,347.7l-12,71.5l-6.1-1l12.1-71.5L-746.5,347.7z" fill="rgb(255, 255, 255)"></path>
					<path class="st0 can-change" d="M-740.4,348.7l-12,71.5l-6.1-1l12-71.5L-740.4,348.7z" fill="rgb(255, 255, 255)" data-fill-id="22"></path>
				</g>
				<path class="st0 can-change" d="M-734.4,349.7l-12,71.5l-6.1-1l12.1-71.5L-734.4,349.7z" fill="rgb(255, 255, 255)" data-fill-id="21"></path>
			</g>
		</g>
	</g>
	<g>
		<path id="SVGID_4_" class="st3" d="M-656.2,243c1.6,9.1,1.2,8.8,4.4,20c-15.3,8.2-17.8,11-26.8,19.2c-2.1,2.9-3.7,6.3-4.9,10    c1.3,16.3-3.6,39.8-3.5,40.1c0,0.1-6.8,22-7.9,25.7c-1.4,4.5-10.8,26.6-12.9,31.1c-20,7.2-36.3-7.9-38.5-11.6    c0-0.3,1.1-23,10.5-62.6c2-9.4,4.6-17.6,7-23.6c4.3-10.6,8.3-15.2,8.4-15.2C-715.2,270.6-688,255.2-656.2,243z" fill="none"></path>
	</g>
</g>
<g>
	<g>
		<path id="SVGID_5_" class="st1 can-change" d="M-530.9,354.5c0.4,0.3,0.5,0.7,0.5,1c-1.6,9.6-3.5,23.6-3.9,30.4c0.3,14.5-3.1,24-2,65.7    c-22.9,8.5-51.8,11-76,11h0V293.5h0.1c19.8-0.2,30.5-10.8,39.7-50.7l3.6,2.5l0.4-2.3c15.1,4.9,30.7,13.3,30.8,13.4    C-547.5,310-533.7,347.8-530.9,354.5z" fill="rgb(255, 255, 255)" data-fill-id="10"></path>
	</g>
	<g>
		<defs>
			<path id="SVGID_15_" d="M-530.9,354.5c0.4,0.3,0.5,0.7,0.5,1c-1.6,9.6-3.5,23.6-3.9,30.4c0.3,14.5-3.1,24-2,65.7     c-22.9,8.5-51.8,11-76,11h0V293.5h0.1c19.8-0.2,30.5-10.8,39.7-50.7l3.6,2.5l0.4-2.3c15.1,4.9,30.7,13.3,30.8,13.4     C-547.5,310-533.7,347.8-530.9,354.5z"></path>
		</defs>
		<clipPath id="SVGID_16_">
			<use xmlns:xlink="http://www.w3.org/1999/xlink" xlink:href="#SVGID_15_" style="overflow:visible;"></use>
		</clipPath>
		<g class="st5 can-change" fill="rgb(0, 0, 0)">
			<g>
				<path class="st0 can-change" d="M-715.8,380.6v-11.1h206.6v11.1H-715.8z" fill="rgb(255, 255, 255)" data-fill-id="11"></path>
				<path class="st0 can-change" d="M-715.8,347.3v-11.1h206.6v11.1C-509.2,347.3-715.8,347.3-715.8,347.3z" fill="rgb(255, 255, 255)" data-fill-id="13"></path>
				<path xmlns="http://www.w3.org/2000/svg" class="st0 can-change" d="M-715.8,358.4v-11.1h206.6v11.1H-715.8z" fill="rgb(255, 255, 255)" data-fill-id="12"></path>
<path xmlns="http://www.w3.org/2000/svg" class="st0 can-change" d="M-715.8,369.4v-11.1h206.6v11.1H-715.8z" fill="rgb(255, 255, 255)" data-fill-id="99"></path>
			</g>
		</g>
	</g>
	<g>
		<path id="SVGID_6_" class="st3" d="M-530.9,354.5c0.4,0.3,0.5,0.7,0.5,1c-1.6,9.6-3.5,23.6-3.9,30.4c0.3,14.5-3.1,24-2,65.7    c-22.9,8.5-51.8,11-76,11h0V293.5h0.1c19.8-0.2,30.5-10.8,39.7-50.7l3.6,2.5l0.4-2.3c15.1,4.9,30.7,13.3,30.8,13.4    C-547.5,310-533.7,347.8-530.9,354.5z" fill="none"></path>
	</g>
</g>
<g>
	<g>
		<path id="SVGID_7_" class="st1 can-change selected filled" d="M-693.7,354.5c2.7-6.8,16.6-44.6,6.7-98.2c0.2-0.1,15.7-8.5,30.9-13.4l0.4,2.3l3.6-2.5    c9.2,39.9,19.9,50.4,39.7,50.7h0.1v169.1h0c-24.3,0-53.1-2.5-76-11c1.1-41.7-2.4-51.2-2-65.7c-0.3-6.7-2.2-20.8-3.8-30.4    C-694.2,355.2-694.1,354.9-693.7,354.5z" fill="rgb(255, 255, 255)" style="fill: rgb(237, 28, 36);"></path>
	</g>
	<g>
		<defs>
			<path id="SVGID_17_" d="M-693.7,354.5c2.7-6.8,16.6-44.6,6.7-98.2c0.2-0.1,15.7-8.5,30.9-13.4l0.4,2.3l3.6-2.5     c9.2,39.9,19.9,50.4,39.7,50.7h0.1v169.1h0c-24.3,0-53.1-2.5-76-11c1.1-41.7-2.4-51.2-2-65.7c-0.3-6.7-2.2-20.8-3.8-30.4     C-694.2,355.2-694.1,354.9-693.7,354.5z"></path>
		</defs>
		<clipPath id="SVGID_18_">
			<use xmlns:xlink="http://www.w3.org/1999/xlink" xlink:href="#SVGID_17_" style="overflow:visible;"></use>
		</clipPath>
		<g class="st6 can-change" fill="rgb(0, 0, 0)">
			<g>
				<path class="st0 can-change" d="M-715.8,380.6v-11.1h206.6v11.1H-715.8z" fill="rgb(255, 255, 255)"></path>
				<path class="st0 can-change" d="M-715.8,347.3v-11.1h206.6v11.1C-509.2,347.3-715.8,347.3-715.8,347.3z" fill="rgb(255, 255, 255)"></path>
				<path xmlns="http://www.w3.org/2000/svg" class="st0 can-change" d="M-715.8,358.4v-11.1h206.6v11.1H-715.8z" fill="rgb(255, 255, 255)"></path>
<path xmlns="http://www.w3.org/2000/svg" class="st0 can-change" d="M-715.8,369.4v-11.1h206.6v11.1H-715.8z" fill="rgb(255, 255, 255)"></path>
			</g>
		</g>
	</g>
	<g>
		<path id="SVGID_8_" class="st3" d="M-693.7,354.5c2.7-6.8,16.6-44.6,6.7-98.2c0.2-0.1,15.7-8.5,30.9-13.4l0.4,2.3l3.6-2.5    c9.2,39.9,19.9,50.4,39.7,50.7h0.1v169.1h0c-24.3,0-53.1-2.5-76-11c1.1-41.7-2.4-51.2-2-65.7c-0.3-6.7-2.2-20.8-3.8-30.4    C-694.2,355.2-694.1,354.9-693.7,354.5z" fill="none"></path>
	</g>
</g>
<g>
	<g>
		<path id="SVGID_9_" class="st1 can-change" d="M-524,564.8c0,3.3,0,6.6-0.2,10c0,0.1,0.3,8.6-0.6,19.9c-0.9,10.3-2.8,25.4-3.7,28.9    c-0.9,5.4-1.9,12.2-2.7,17.6c-0.2,0.2-19.9,18.9-68.7-1.4l-2-17.3c0-0.2-1.7-22.6-3.9-27.8c-2.2-5.2-3.3-26-3.3-26.2l0.5-15.8    c0,0-2.3,1.2-3.6,1.2c-1.2,0-3.6-1.2-3.6-1.2l0.5,15.8c0,0.2-1.1,21-3.3,26.2c-2.2,5.2-3.9,27.6-3.9,27.8l-2,17.3    c-48.8,20.3-68.5,1.5-68.7,1.4c-0.8-5.4-1.8-12.2-2.7-17.6c-0.9-3.5-2.8-18.7-3.7-28.9c-0.9-11.3-0.6-19.8-0.6-19.9    c-1.3-41.8,0.9-72.2,3.1-81.8c2.2-9.6,3.3-16.5,6.5-31.3c0.8-3.9,1.7-7.4,2.4-10.4c1.1-41.4-2.4-50.9-2-65.4    c-0.3-6.7-2.2-20.8-3.8-30.4c3.2-9.2,3.2-13.1,7.1-23.6c19.2,18.3,19.8,49.9,21.1,69.6c0.8,11.9,2.8,33.4,0.6,55.6    c13.4,2.7,31.8,5.2,53.2,5.2c21.7,0,39.9-2.6,52.8-5.3c-2.1-22.1-0.2-43.6,0.6-55.5c1.3-19.8,1.9-51.4,21.1-69.6    c4,10.5,4,14.5,7.2,23.6c-1.7,9.6-3.5,23.6-3.9,30.4c0.3,14.5-3.1,24-2,65.4c0.7,3,1.6,6.5,2.4,10.4c3.2,14.8,4.3,21.6,6.5,31.3    C-525.4,501.8-523.4,528.2-524,564.8z" fill="rgb(255, 255, 255)" data-fill-id="1"></path>
	</g>
	<g>
		<defs>
			<path id="SVGID_19_" d="M-524,564.8c0,3.3,0,6.6-0.2,10c0,0.1,0.3,8.6-0.6,19.9c-0.9,10.3-2.8,25.4-3.7,28.9     c-0.9,5.4-1.9,12.2-2.7,17.6c-0.2,0.2-19.9,18.9-68.7-1.4l-2-17.3c0-0.2-1.7-22.6-3.9-27.8c-2.2-5.2-3.3-26-3.3-26.2l0.5-15.8     c0,0-2.3,1.2-3.6,1.2c-1.2,0-3.6-1.2-3.6-1.2l0.5,15.8c0,0.2-1.1,21-3.3,26.2c-2.2,5.2-3.9,27.6-3.9,27.8l-2,17.3     c-48.8,20.3-68.5,1.5-68.7,1.4c-0.8-5.4-1.8-12.2-2.7-17.6c-0.9-3.5-2.8-18.7-3.7-28.9c-0.9-11.3-0.6-19.8-0.6-19.9     c-1.3-41.8,0.9-72.2,3.1-81.8c2.2-9.6,3.3-16.5,6.5-31.3c0.8-3.9,1.7-7.4,2.4-10.4c1.1-41.4-2.4-50.9-2-65.4     c-0.3-6.7-2.2-20.8-3.8-30.4c3.2-9.2,3.2-13.1,7.1-23.6c19.2,18.3,19.8,49.9,21.1,69.6c0.8,11.9,2.8,33.4,0.6,55.6     c13.4,2.7,31.8,5.2,53.2,5.2c21.7,0,39.9-2.6,52.8-5.3c-2.1-22.1-0.2-43.6,0.6-55.5c1.3-19.8,1.9-51.4,21.1-69.6     c4,10.5,4,14.5,7.2,23.6c-1.7,9.6-3.5,23.6-3.9,30.4c0.3,14.5-3.1,24-2,65.4c0.7,3,1.6,6.5,2.4,10.4c3.2,14.8,4.3,21.6,6.5,31.3     C-525.4,501.8-523.4,528.2-524,564.8z"></path>
		</defs>
		<clipPath id="SVGID_20_">
			<use xmlns:xlink="http://www.w3.org/1999/xlink" xlink:href="#SVGID_19_" style="overflow:visible;"></use>
		</clipPath>
		<g class="st7 can-change" fill="rgb(0, 0, 0)">
			<g>
				<path class="st0 can-change" d="M-710.5,605.3l14.4,12c0,0,22.4,18.9,72.8-0.1l8.9-3.7l-0.6,21.6c0,0-61.8,21.8-88.1,0L-710.5,605.3z" fill="rgb(255, 255, 255)" data-fill-id="6"></path>
				<path class="st0 can-change" d="M-710.6,611l14.3,12c0,0,22.4,18.9,72.8-0.1l8.9-3.7l-0.6,21.6c0,0-61.8,21.8-88.2,0L-710.6,611z" fill="rgb(255, 255, 255)" data-fill-id="7"></path>
				<path class="st0 can-change" d="M-710.7,616.8l14.4,12c0,0,22.4,18.9,72.8-0.1l8.9-3.7l-0.6,21.6c0,0-61.8,21.7-88.2,0L-710.7,616.8z" fill="rgb(255, 255, 255)" data-fill-id="8"></path>
				<path class="st0 can-change" d="M-710.9,622.5l14.3,12c0,0,22.4,18.9,72.8-0.1l8.9-3.7l-0.6,21.6c0,0-61.8,21.7-88.1,0L-710.9,622.5z" fill="rgb(255, 255, 255)" data-fill-id="9"></path>
			</g>
			<g>
				<path class="st0 can-change" d="M-513.6,605.3l-7.3,29.8c-26.4,21.8-88.2,0-88.2,0l-0.6-21.6l8.9,3.7c50.4,19,72.8,0.1,72.8,0.1      L-513.6,605.3z" fill="rgb(255, 255, 255)" data-fill-id="2"></path>
				<path class="st0 can-change" d="M-513.5,611l-7.3,29.8c-26.4,21.8-88.2,0-88.2,0l-0.6-21.6l8.9,3.7c50.4,19,72.8,0.1,72.8,0.1L-513.5,611z" fill="rgb(255, 255, 255)" data-fill-id="3"></path>
				<path class="st0 can-change" d="M-513.4,616.8l-7.3,29.8c-26.3,21.7-88.2,0-88.2,0l-0.6-21.6l8.9,3.7c50.4,19,72.8,0.1,72.8,0.1      L-513.4,616.8z" fill="rgb(255, 255, 255)" data-fill-id="4"></path>
				<path class="st0 can-change" d="M-513.2,622.5l-7.3,29.8c-26.3,21.7-88.2,0-88.2,0l-0.6-21.6l8.9,3.7c50.4,19,72.8,0.1,72.8,0.1      L-513.2,622.5z" fill="rgb(255, 255, 255)" data-fill-id="5"></path>
			</g>
		</g>
	</g>
	<g>
		<path id="SVGID_10_" class="st3" d="M-524,564.8c0,3.3,0,6.6-0.2,10c0,0.1,0.3,8.6-0.6,19.9c-0.9,10.3-2.8,25.4-3.7,28.9    c-0.9,5.4-1.9,12.2-2.7,17.6c-0.2,0.2-19.9,18.9-68.7-1.4l-2-17.3c0-0.2-1.7-22.6-3.9-27.8c-2.2-5.2-3.3-26-3.3-26.2l0.5-15.8    c0,0-2.3,1.2-3.6,1.2c-1.2,0-3.6-1.2-3.6-1.2l0.5,15.8c0,0.2-1.1,21-3.3,26.2c-2.2,5.2-3.9,27.6-3.9,27.8l-2,17.3    c-48.8,20.3-68.5,1.5-68.7,1.4c-0.8-5.4-1.8-12.2-2.7-17.6c-0.9-3.5-2.8-18.7-3.7-28.9c-0.9-11.3-0.6-19.8-0.6-19.9    c-1.3-41.8,0.9-72.2,3.1-81.8c2.2-9.6,3.3-16.5,6.5-31.3c0.8-3.9,1.7-7.4,2.4-10.4c1.1-41.4-2.4-50.9-2-65.4    c-0.3-6.7-2.2-20.8-3.8-30.4c3.2-9.2,3.2-13.1,7.1-23.6c19.2,18.3,19.8,49.9,21.1,69.6c0.8,11.9,2.8,33.4,0.6,55.6    c13.4,2.7,31.8,5.2,53.2,5.2c21.7,0,39.9-2.6,52.8-5.3c-2.1-22.1-0.2-43.6,0.6-55.5c1.3-19.8,1.9-51.4,21.1-69.6    c4,10.5,4,14.5,7.2,23.6c-1.7,9.6-3.5,23.6-3.9,30.4c0.3,14.5-3.1,24-2,65.4c0.7,3,1.6,6.5,2.4,10.4c3.2,14.8,4.3,21.6,6.5,31.3    C-525.4,501.8-523.4,528.2-524,564.8z" fill="none"></path>
	</g>
</g>
<path class="st0 can-change" d="M-649.5,242.8c0,0,35.1,20.3,74.6-0.1l-2,8.3c0,0-30.4,19-71-0.4C-647.8,250.5-649.5,242.7-649.5,242.8z" fill="rgb(255, 255, 255)"></path>
<path class="st0 can-change" d="M-612.3,554l0.1-91.3" fill="rgb(255, 255, 255)"></path>
<path class="st0 can-change" d="M-612.3,430.9l0.1-138" fill="rgb(255, 255, 255)"></path>
<path class="st0 can-change" d="M-656.2,243l6.8-0.2c0,0,2.5,17.6,11.3,34.2c5.4,10.3,16.8,14.5,26,14.1c0,0,9.8,0.4,16.5-4.7  c4.6-3.4,9.3-8.6,13-17.1c3.4-8.6,6-17.6,7.7-26.6l6.4,0.3c0,0-4.8,25.4-11.7,35.7c-6.9,10.3-16.2,19-32.3,19.3  c-16.2,0.4-28.2-10-32.7-18.1c-4.5-8.2-8.8-21.6-10.3-31.7L-656.2,243z" fill="rgb(255, 255, 255)" data-fill-id="23"></path>
<path class="st0 can-change" d="M-612.3,462.6l0-171.7" fill="rgb(255, 255, 255)"></path>
<path class="st0 can-change" d="M-610.3,462.6l0.1-171.7" fill="rgb(255, 255, 255)"></path>
<path class="st0 can-change" d="M-614.4,462.6l0.1-171.7" fill="rgb(255, 255, 255)"></path>
<g>
	<path class="st0 can-change" d="M-612.3,294.5h0.8c0,0,0.1-0.2,0.2-0.6c0-0.4,0.1-0.4,0.1-0.4s0.3-0.3,0.4-0.3c0.1-0.1,0.1-0.3,0.1-0.3   s0-0.3,0-0.8c0-0.4-0.1-0.5-0.1-0.5l-1-1v-0.5l-0.5,0l-0.5,0v0.5l-0.9,1c0,0-0.1,0-0.2,0.5c0,0.4,0,0.8,0,0.8s0,0.2,0.2,0.3   c0.1,0,0.4,0.3,0.4,0.3s0.1,0,0.1,0.4c0,0.4,0.2,0.6,0.2,0.6H-612.3" fill="rgb(255, 255, 255)"></path>
	<path class="st0 can-change" d="M-612.3,294.5h0.8c0,0,0.1-0.2,0.2-0.6c0-0.2,0-0.3,0-0.3l0.1-0.1c0,0,0.3-0.3,0.4-0.3   c0.1-0.1,0.1-0.3,0.1-0.3v0c0,0,0-0.1,0-0.4c0-0.1,0-0.3,0-0.4c0-0.4-0.1-0.5-0.1-0.5l-1-1v-0.5l-0.5,0l-0.5,0v0.5l-0.9,1   c0,0-0.1,0-0.2,0.5c0,0.1,0,0.2,0,0.4c0,0.2,0,0.4,0,0.4v0c0,0,0,0.2,0.2,0.3c0.1,0,0.4,0.3,0.4,0.3l0.1,0.1c0,0,0.1,0.1,0.1,0.3   c0,0.4,0.2,0.6,0.2,0.6H-612.3h-0.8c0,0-0.1-0.2-0.2-0.6c0-0.2,0-0.3-0.1-0.3l-0.1-0.1c0,0-0.3-0.3-0.4-0.3   c-0.1-0.1-0.2-0.3-0.2-0.3v0c0,0,0-0.1,0-0.4c0-0.1,0-0.3,0-0.4c0-0.4,0.2-0.5,0.2-0.5l0.9-1v-0.5l0.5,0l0.5,0v0.5l1,1   c0,0,0.1,0,0.1,0.5c0,0.1,0,0.2,0,0.4c0,0.2,0,0.4,0,0.4v0c0,0,0,0.2-0.1,0.3c-0.1,0-0.4,0.3-0.4,0.3l-0.1,0.1c0,0,0,0.1,0,0.3   c0,0.4-0.2,0.6-0.2,0.6H-612.3z" fill="rgb(255, 255, 255)"></path>
	<path class="st0 can-change" d="M-612.6,290.4h0.6v3h-0.6V290.4v3h0.6v-3H-612.6z" fill="rgb(255, 255, 255)"></path>
	<path class="st0 can-change" d="M-612.3,295l1.3,0c0,0,0-2.2,0.1-2.4c0-0.3-0.1-0.3-0.1-0.3h-1.3h-1.2c0,0-0.2,0-0.1,0.3   c0.1,0.2,0.1,2.4,0.1,2.4L-612.3,295" fill="rgb(255, 255, 255)"></path>
	<path class="st0 can-change" d="M-612.3,295h1.3c0,0,0-2.2,0.1-2.4v-0.1c0-0.2-0.1-0.2-0.1-0.2h-1.3h-1.2c0,0-0.1,0-0.1,0.2v0.1   c0.1,0.2,0.1,2.4,0.1,2.4H-612.3h-1.3c0,0,0-2.2-0.1-2.4v-0.1c0-0.2,0.1-0.2,0.1-0.2h1.2h1.3c0,0,0.1,0,0.1,0.2v0.1   c0,0.2-0.1,2.4-0.1,2.4H-612.3z" fill="rgb(255, 255, 255)"></path>
	<path class="st0 can-change" d="M-611.7,298.6h-1.2c-0.5-0.1-0.5-0.9-0.5-0.9l-0.2-2.7h2.5l-0.2,2.7C-611.2,297.6-611.2,298.5-611.7,298.6z" fill="rgb(255, 255, 255)"></path>
	<path class="st0 can-change" d="M-611.7,298.6c0.5-0.1,0.5-0.9,0.5-0.9l0.2-2.7h-2.5l0.2,2.7c0,0.1,0,0.8,0.5,0.9H-611.7h-1.2   c-0.5-0.1-0.5-0.9-0.5-0.9l-0.2-2.7h2.5l-0.2,2.7C-611.2,297.7-611.2,298.5-611.7,298.6z" fill="rgb(255, 255, 255)"></path>
	<path class="st0 can-change" d="M-611.9,294.8c0.1-0.6,0.3-1,0.6-1.4v-0.8h-2v0.8c0.3,0.5,0.5,0.8,0.6,1.4H-611.9h-0.8c-0.1-0.6-0.3-1-0.6-1.4   v-0.8h2v0.8C-611.6,293.9-611.8,294.2-611.9,294.8z" fill="rgb(255, 255, 255)"></path>
	<path class="st0 can-change" d="M-613.2,291.7h0.6v0.6h-0.6V291.7v0.6h0.6v-0.6H-613.2z" fill="rgb(255, 255, 255)"></path>
	<path class="st0 can-change" d="M-612,291.7h0.6v0.6h-0.6V291.7v0.6h0.6v-0.6H-612z" fill="rgb(255, 255, 255)"></path>
	<path class="st0 can-change" d="M-612,292.5h0.6v0.6h-0.6V292.5v0.6h0.6v-0.6H-612z" fill="rgb(255, 255, 255)"></path>
	<path class="st0 can-change" d="M-613.2,292.5h0.6v0.6h-0.6V292.5v0.6h0.6v-0.6H-613.2z" fill="rgb(255, 255, 255)"></path>
</g>
<g class="cannot-edit"><path class="st8 cannot-edit can-change" d="M-612.2,462.4V554h-0.1c-1.2,0-3.6-1.2-3.6-1.2l0.5,15.8c0,0.2-0.8,15.2-2.4,22.9  c-60.4-27.3-47.7-133.3-47.5-134.4C-652,459.9-633.5,462.4-612.2,462.4z" style="fill: rgb(0, 0, 0);"></path><path class="st8 cannot-edit can-change" d="M-612.5,462.4c21.4,0,39.8-2.6,53.2-5.3c0.1,1.1,12.8,107.2-47.5,134.4c-1.6-7.7-2.4-22.8-2.4-22.9l0.5-15.9  c0,0-2.4,1.2-3.6,1.2h-0.1V462.4z" style="fill: rgb(0, 0, 0);"></path></g>

<g class="cannot-edit"><path class="st8 cannot-edit can-change" d="M-616.2,562.8c0,0-15.2-2.5-10.7-16.4c4.6-13.8,5.1-18.2,4.6-24.3c-0.6-6.1-4.8-13.8,10.2-13.8" style="fill: rgb(0, 0, 0);"></path><path class="st8 cannot-edit can-change" d="M-608.3,562.8c0,0,15.2-2.5,10.7-16.4c-4.5-13.8-5.1-18.2-4.5-24.3c0.6-6.1,4.8-13.8-10.2-13.8" style="fill: rgb(0, 0, 0);"></path></g>

<path class="st0 can-change" d="M-746.3,377.5l1.8,2.6c17.7,16.5,36.7,9,36.7,9l-5.4,15.5c-22.2,5.3-35-10.1-35-10.1L-746.3,377.5z" fill="rgb(255, 255, 255)" data-fill-id="18"></path>
<path class="st0 can-change" d="M-478.6,379.8l1.8,17c0,0-12.4,15.4-33.8,10.1l-5.2-15.5c0,0,18.4,7.5,35.5-9L-478.6,379.8z" fill="rgb(255, 255, 255)" data-fill-id="16"></path>
<g class="human-logo">
	<path d="M-603.9,325.2l0.8-4.6h2.1l-0.2,1.3h1.5l0.2-1.3h3.7l-0.5,2.7c0,0,0,0.1,0,0.1h0.1h1.1c0.1,0,0.1,0,0.2,0   c0.1-0.1,0.1-0.2,0.1-0.2l0.4-2.5h4.1l0.7,1.9l1.3-1.9h2.5l-0.5,2.6l1.8-2.6h2.1l1,2.7l0.5-2.7h2.4l1.2,1.9l0.3-1.9h2.1l-0.8,4.6   h-2.4l-1.2-1.9l-0.3,1.9h-3.3l-0.2-0.7h-1.7l-0.5,0.7h-3.3l0.2-1.3l-0.9,1.3h-1.4l-0.5-1.4l-0.3,1.4h-2l0.1-0.5c0,0-0.1,0-0.1,0.1   c-0.4,0.3-1,0.4-1.5,0.4h-1.6c-0.4,0-0.9-0.1-1.3-0.3c-0.1-0.1-0.2-0.2-0.3-0.3l-0.1,0.6h-2.1l0.2-1.4h-1.5l-0.2,1.4H-603.9z"></path>
	<polygon class="st1 can-change" points="-603.3,324.7 -602.7,321 -601.5,321 -601.8,322.3 -599.4,322.3 -599.1,321 -598,321 -598.7,324.7    -599.8,324.7 -599.5,323.3 -602,323.3 -602.2,324.7  " fill="rgb(255, 255, 255)"></polygon>
	<path class="st1 can-change" d="M-597.9,323.4l0.4-2.4h1.1l-0.4,2.1c-0.1,0.5,0.1,0.7,0.5,0.7h1.1c0.5,0,0.7-0.2,0.8-0.7l0.4-2.1h1.1l-0.4,2.4   c-0.2,0.9-0.7,1.4-1.8,1.4h-1.6C-597.7,324.8-598.1,324.3-597.9,323.4" fill="rgb(255, 255, 255)"></path>
	<polygon class="st1 can-change" points="-592.9,324.7 -592.3,321 -590.5,321 -589.7,323.4 -587.9,321 -586.2,321 -586.8,324.7 -588,324.7    -587.5,322.1 -587.5,322.1 -589.5,324.7 -590.3,324.7 -591.3,322.1 -591.3,322.1 -591.8,324.7  " fill="rgb(255, 255, 255)"></polygon>
	<path class="st1 can-change" d="M-583.4,321.9l-1,1.4h1.5L-583.4,321.9z M-586.7,324.7l2.7-3.7h1.5l1.4,3.7h-1.3l-0.2-0.7h-2.3l-0.5,0.7   H-586.7z" fill="rgb(255, 255, 255)"></path>
	<polygon class="st1 can-change" points="-581,324.7 -580.3,321 -578.6,321 -576.9,323.7 -576.9,323.7 -576.4,321 -575.3,321 -575.9,324.7    -577.7,324.7 -579.4,322 -579.4,322 -579.8,324.7  " fill="rgb(255, 255, 255)"></polygon>
	<path d="M-574.6,323.8l0-0.2h1.1c-0.1,0.4,0.1,0.4,0.4,0.4h1.4c0.2,0,0.5,0,0.5-0.3c0.1-0.3-0.1-0.3-1.5-0.3   c-1.7,0-1.9-0.2-1.7-1.1c0.1-0.7,0.3-1.2,1.7-1.2h1.6c1.3,0,1.4,0.4,1.2,1.1l0,0.1h-1.1c0-0.3,0-0.4-0.5-0.4h-1.3   c-0.2,0-0.4,0.1-0.5,0.3c-0.1,0.3,0.1,0.3,1.3,0.3c1.8,0,2.2,0.1,2,1.2c-0.2,1-0.6,1.2-2.1,1.2h-1.4   C-574.3,324.8-574.7,324.6-574.6,323.8"></path>
	<path d="M-567.9,321.9l-0.2,0.9h1.8c0.3,0,0.4-0.2,0.4-0.4l0-0.1c0-0.3-0.1-0.4-0.4-0.4L-567.9,321.9L-567.9,321.9z M-569.6,324.7   l0.7-3.7h3.1c1.1,0,1.3,0.5,1.1,1.3l-0.1,0.3c-0.1,0.5-0.5,1.2-1.3,1.2h-2.3l-0.2,0.9H-569.6z"></path>
	<polygon points="-564.8,324.7 -564.1,321 -560,321 -560.2,321.9 -563.1,321.9 -563.2,322.5 -560.4,322.5 -560.6,323.2    -563.3,323.2 -563.5,323.8 -560.5,323.8 -560.6,324.7  "></polygon>
	<polygon points="-560.2,324.7 -559.5,321 -555.5,321 -555.6,321.9 -558.5,321.9 -558.6,322.5 -555.9,322.5 -556,323.2    -558.8,323.2 -558.9,323.8 -555.9,323.8 -556,324.7  "></polygon>
	<path d="M-553.9,321.9l-0.3,1.8h2c0.5,0,0.7-0.1,0.8-0.7l0.1-0.5c0.1-0.5-0.1-0.7-0.6-0.7H-553.9z M-555.6,324.7l0.7-3.7h3.4   c1.1,0,1.5,0.4,1.3,1.3l-0.2,1.1c-0.2,0.9-0.6,1.3-1.8,1.3L-555.6,324.7L-555.6,324.7z"></path>
	<path d="M-548.4,320.3c-0.5,0-0.9,0.4-0.9,1c0,0.6,0.4,1,1,1c0.5,0,0.9-0.4,0.9-1C-547.5,320.8-547.9,320.3-548.4,320.3    M-548.4,320c0.7,0,1.2,0.6,1.2,1.2c0,0.7-0.5,1.2-1.2,1.2s-1.2-0.6-1.2-1.2C-549.7,320.6-549.1,320-548.4,320 M-548.6,320.9v0.4   h0.1c0.2,0,0.3-0.1,0.3-0.2c0-0.1-0.1-0.2-0.3-0.2C-548.5,320.9-548.6,320.9-548.6,320.9 M-548.6,321.4v0.5h-0.2v-1.2   c0.1,0,0.2,0,0.4,0c0.2,0,0.3,0,0.4,0.1c0.1,0,0.1,0.1,0.1,0.3c0,0.1-0.1,0.2-0.3,0.3v0c0.1,0,0.2,0.1,0.2,0.3   c0,0.2,0.1,0.3,0.1,0.3h-0.3c-0.1-0.1-0.1-0.1-0.1-0.3c0-0.1-0.1-0.2-0.3-0.2C-548.5,321.4-548.6,321.4-548.6,321.4z"></path>
	<rect x="-603.9" y="320" class="st9" width="56.7" height="5.2" fill="none"></rect>
	<path d="M-569.8,326h0.3l-0.2,1.1h-0.3L-569.8,326z"></path>
	<path d="M-568.7,326h0.5l0.5,0.8l0.2-0.8h0.3l-0.2,1.1h-0.5l-0.5-0.8l-0.2,0.8h-0.3L-568.7,326z"></path>
	<path d="M-566.1,326.3h-0.5l0.1-0.3h1.3l-0.1,0.3h-0.5l-0.2,0.8h-0.3L-566.1,326.3z"></path>
	<path d="M-563.5,326l-0.1,0.2h-0.9l0,0.2h0.8l0,0.2h-0.8l0,0.2h0.9l-0.1,0.2h-1.2l0.2-1.1L-563.5,326L-563.5,326z"></path>
	<path d="M-562.7,326h0.3l-0.2,0.8h0.7l-0.1,0.3h-1.1L-562.7,326z"></path>
	<path d="M-561,326h0.3l-0.2,0.8h0.7l-0.1,0.3h-1.1L-561,326z"></path>
	<path d="M-559.3,326h0.3l-0.2,1.1h-0.3L-559.3,326z"></path>
	<path d="M-557.2,326.4C-557.2,326.4-557.2,326.4-557.2,326.4c0-0.1,0-0.1,0-0.1c0,0,0,0-0.1,0l-0.1,0l-0.2,0c-0.1,0-0.2,0-0.2,0.1   c0,0.1-0.1,0.3-0.1,0.4c0,0.1,0.1,0.1,0.2,0.1c0,0,0.1,0,0.3,0c0.2,0,0.2,0,0.2-0.1c0,0,0,0,0-0.1h-0.4l0-0.2h0.7l0,0.1   c0,0.2,0,0.2-0.1,0.3c-0.1,0.1-0.2,0.2-0.3,0.2c0,0-0.2,0-0.4,0c-0.3,0-0.4,0-0.5-0.1c-0.1,0-0.1-0.1-0.1-0.2c0-0.1,0-0.2,0.1-0.4   c0.1-0.3,0.1-0.4,0.3-0.4c0.1,0,0.2,0,0.5,0c0.4,0,0.5,0,0.5,0.1c0.1,0,0.1,0.1,0.1,0.2c0,0,0,0.1,0,0.2L-557.2,326.4L-557.2,326.4   z"></path>
	<path d="M-554.9,326l-0.1,0.2h-0.9l0,0.2h0.8l0,0.2h-0.8l0,0.2h0.9l-0.1,0.2h-1.2l0.2-1.1L-554.9,326L-554.9,326z"></path>
	<path d="M-554.2,326h0.5l0.5,0.8l0.2-0.8h0.3l-0.2,1.1h-0.5l-0.5-0.8l-0.2,0.8h-0.3L-554.2,326z"></path>
	<path d="M-551.6,326.3h-0.5l0.1-0.3h1.3l-0.1,0.3h-0.5l-0.2,0.8h-0.3L-551.6,326.3z"></path>
	<g>
		<polygon class="st10 can-change" points="-575.2,326.8 -575.2,327.1 -574.1,327.1 -574,326.8   " fill="rgb(237, 28, 36)"></polygon>
		<polygon class="st10 can-change" points="-570.3,326.4 -570.3,326 -573.5,326 -573.6,326.4   " fill="rgb(237, 28, 36)"></polygon>
		<polygon class="st10 can-change" points="-573.8,326 -575,326 -575.1,326.4 -573.9,326.4   " fill="rgb(237, 28, 36)"></polygon>
		<polygon class="st10 can-change" points="-573.7,327.1 -570.5,327.1 -570.4,326.8 -573.6,326.8   " fill="rgb(237, 28, 36)"></polygon>
		<polygon class="st1 can-change" points="-573.6,326.4 -573.5,326 -573.8,326 -573.9,326.4 -575.1,326.4 -575.2,326.8 -574,326.8     -574.1,327.1 -573.7,327.1 -573.6,326.8 -570.4,326.8 -570.3,326.4   " fill="rgb(255, 255, 255)"></polygon>
	</g>
</g>
<g class="human-logo">
	<path d="M-688.7,613.7l0.8-4.6h2.1l-0.2,1.3h1.5l0.2-1.3h3.7l-0.5,2.7c0,0,0,0.1,0,0.1h0.1h1.1c0.1,0,0.1,0,0.2,0   c0.1-0.1,0.1-0.2,0.1-0.2l0.4-2.5h4.1l0.7,1.9l1.3-1.9h2.5l-0.5,2.6l1.8-2.6h2.1l1,2.7l0.5-2.7h2.4l1.2,1.9l0.3-1.9h2.1l-0.8,4.6   h-2.4l-1.2-1.9l-0.3,1.9h-3.3l-0.2-0.7h-1.7l-0.5,0.7h-3.3l0.2-1.3l-0.9,1.3h-1.4l-0.5-1.4l-0.3,1.4h-2l0.1-0.5c0,0-0.1,0-0.1,0.1   c-0.4,0.3-1,0.4-1.5,0.4h-1.6c-0.4,0-0.9-0.1-1.3-0.3c-0.1-0.1-0.2-0.2-0.3-0.3l-0.1,0.6h-2.1l0.2-1.4h-1.5l-0.2,1.4H-688.7z"></path>
	<polygon class="st1 can-change" points="-688.1,613.2 -687.5,609.5 -686.3,609.5 -686.6,610.8 -684.2,610.8 -683.9,609.5 -682.8,609.5    -683.4,613.2 -684.6,613.2 -684.3,611.8 -686.7,611.8 -687,613.2  " fill="rgb(255, 255, 255)"></polygon>
	<path class="st1 can-change" d="M-682.7,611.9l0.4-2.4h1.1l-0.4,2.1c-0.1,0.5,0.1,0.7,0.5,0.7h1.1c0.5,0,0.7-0.2,0.8-0.7l0.4-2.1h1.1l-0.4,2.4   c-0.2,0.9-0.7,1.4-1.8,1.4h-1.6C-682.5,613.3-682.9,612.8-682.7,611.9" fill="rgb(255, 255, 255)"></path>
	<polygon class="st1 can-change" points="-677.7,613.2 -677.1,609.5 -675.3,609.5 -674.4,611.9 -672.7,609.5 -671,609.5 -671.6,613.2    -672.7,613.2 -672.3,610.5 -672.3,610.5 -674.2,613.2 -675.1,613.2 -676.1,610.5 -676.1,610.5 -676.6,613.2  " fill="rgb(255, 255, 255)"></polygon>
	<path class="st1 can-change" d="M-668.2,610.4l-1,1.4h1.5L-668.2,610.4z M-671.5,613.2l2.7-3.7h1.5l1.4,3.7h-1.3l-0.2-0.7h-2.3l-0.5,0.7   H-671.5z" fill="rgb(255, 255, 255)"></path>
	<polygon class="st1 can-change" points="-665.8,613.2 -665.1,609.5 -663.3,609.5 -661.7,612.2 -661.7,612.2 -661.2,609.5 -660,609.5    -660.7,613.2 -662.5,613.2 -664.1,610.5 -664.2,610.5 -664.6,613.2  " fill="rgb(255, 255, 255)"></polygon>
	<path d="M-659.3,612.3l0-0.2h1.1c-0.1,0.4,0.1,0.4,0.4,0.4h1.4c0.2,0,0.5,0,0.5-0.3c0.1-0.3-0.1-0.3-1.5-0.3   c-1.7,0-1.9-0.2-1.7-1.1c0.1-0.7,0.3-1.2,1.7-1.2h1.6c1.3,0,1.4,0.4,1.2,1.1l0,0.1h-1.1c0-0.3,0-0.4-0.5-0.4h-1.3   c-0.2,0-0.4,0.1-0.5,0.3c-0.1,0.3,0.1,0.3,1.3,0.3c1.8,0,2.2,0.1,2,1.2c-0.2,1-0.6,1.2-2.1,1.2h-1.4   C-659.1,613.3-659.5,613.1-659.3,612.3"></path>
	<path d="M-652.7,610.4l-0.2,0.9h1.8c0.3,0,0.4-0.2,0.4-0.4l0-0.1c0-0.3-0.1-0.4-0.4-0.4L-652.7,610.4L-652.7,610.4z M-654.4,613.2   l0.7-3.7h3.1c1.1,0,1.3,0.5,1.1,1.3l-0.1,0.3c-0.1,0.5-0.5,1.2-1.3,1.2h-2.3l-0.2,0.9H-654.4z"></path>
	<polygon points="-649.5,613.2 -648.9,609.5 -644.8,609.5 -645,610.4 -647.9,610.4 -648,611 -645.2,611 -645.4,611.7 -648.1,611.7    -648.2,612.3 -645.2,612.3 -645.4,613.2  "></polygon>
	<polygon points="-645,613.2 -644.3,609.5 -640.2,609.5 -640.4,610.4 -643.3,610.4 -643.4,611 -640.6,611 -640.8,611.7    -643.6,611.7 -643.7,612.3 -640.7,612.3 -640.8,613.2  "></polygon>
	<path d="M-638.7,610.4l-0.3,1.8h2c0.5,0,0.7-0.1,0.8-0.7l0.1-0.5c0.1-0.5-0.1-0.7-0.6-0.7H-638.7z M-640.3,613.2l0.7-3.7h3.4   c1.1,0,1.5,0.4,1.3,1.3l-0.2,1.1c-0.2,0.9-0.6,1.3-1.8,1.3L-640.3,613.2L-640.3,613.2z"></path>
	<path d="M-633.2,608.8c-0.5,0-0.9,0.4-0.9,1c0,0.6,0.4,1,1,1c0.5,0,0.9-0.4,0.9-1C-632.3,609.3-632.7,608.8-633.2,608.8    M-633.2,608.5c0.7,0,1.2,0.6,1.2,1.2c0,0.7-0.5,1.2-1.2,1.2s-1.2-0.6-1.2-1.2C-634.5,609.1-633.9,608.5-633.2,608.5 M-633.4,609.4   v0.4h0.1c0.2,0,0.3-0.1,0.3-0.2c0-0.1-0.1-0.2-0.3-0.2C-633.3,609.4-633.4,609.4-633.4,609.4 M-633.4,609.9v0.5h-0.2v-1.2   c0.1,0,0.2,0,0.4,0c0.2,0,0.3,0,0.4,0.1c0.1,0,0.1,0.1,0.1,0.3c0,0.1-0.1,0.2-0.3,0.3v0c0.1,0,0.2,0.1,0.2,0.3   c0,0.2,0.1,0.3,0.1,0.3h-0.3c-0.1-0.1-0.1-0.1-0.1-0.3c0-0.1-0.1-0.2-0.3-0.2H-633.4L-633.4,609.9z"></path>
	<rect x="-688.7" y="608.5" class="st9" width="56.7" height="5.2" fill="none"></rect>
	<path d="M-654.5,614.5h0.3l-0.2,1.1h-0.3L-654.5,614.5z"></path>
	<path d="M-653.5,614.5h0.5l0.5,0.8l0.2-0.8h0.3l-0.2,1.1h-0.5l-0.5-0.8l-0.2,0.8h-0.3L-653.5,614.5z"></path>
	<path d="M-650.9,614.8h-0.5l0.1-0.3h1.3l-0.1,0.3h-0.5l-0.2,0.8h-0.3L-650.9,614.8z"></path>
	<path d="M-648.2,614.5l-0.1,0.2h-0.9l0,0.2h0.8l0,0.2h-0.8l0,0.2h0.9l-0.1,0.2h-1.2l0.2-1.1L-648.2,614.5L-648.2,614.5z"></path>
	<path d="M-647.5,614.5h0.3l-0.2,0.8h0.7l-0.1,0.3h-1.1L-647.5,614.5z"></path>
	<path d="M-645.8,614.5h0.3l-0.2,0.8h0.7l-0.1,0.3h-1.1L-645.8,614.5z"></path>
	<path d="M-644.1,614.5h0.3l-0.2,1.1h-0.3L-644.1,614.5z"></path>
	<path d="M-642,614.9C-642,614.9-642,614.9-642,614.9c0-0.1,0-0.1,0-0.1c0,0,0,0-0.1,0l-0.1,0l-0.2,0c-0.1,0-0.2,0-0.2,0.1   c0,0.1-0.1,0.3-0.1,0.3c0,0.1,0.1,0.1,0.2,0.1c0,0,0.1,0,0.3,0c0.2,0,0.2,0,0.2-0.1c0,0,0,0,0-0.1h-0.4l0-0.2h0.7l0,0.1   c0,0.2,0,0.2-0.1,0.3c-0.1,0.1-0.2,0.2-0.3,0.2c0,0-0.2,0-0.4,0c-0.3,0-0.4,0-0.5-0.1c-0.1,0-0.1-0.1-0.1-0.2c0-0.1,0-0.2,0.1-0.4   c0.1-0.3,0.1-0.4,0.3-0.4c0.1,0,0.2,0,0.5,0c0.4,0,0.5,0,0.5,0.1c0.1,0,0.1,0.1,0.1,0.2c0,0,0,0.1,0,0.2L-642,614.9L-642,614.9z"></path>
	<path d="M-639.7,614.5l-0.1,0.2h-0.9l0,0.2h0.8l0,0.2h-0.8l0,0.2h0.9l-0.1,0.2h-1.2l0.2-1.1L-639.7,614.5L-639.7,614.5z"></path>
	<path d="M-639,614.5h0.5l0.5,0.8l0.2-0.8h0.3l-0.2,1.1h-0.5l-0.5-0.8l-0.2,0.8h-0.3L-639,614.5z"></path>
	<path d="M-636.4,614.8h-0.5l0.1-0.3h1.3l-0.1,0.3h-0.5l-0.2,0.8h-0.3L-636.4,614.8z"></path>
	<g>
		<polygon class="st10 can-change" points="-659.9,615.2 -660,615.6 -658.8,615.6 -658.8,615.2   " fill="rgb(237, 28, 36)"></polygon>
		<polygon class="st10 can-change" points="-655.1,614.9 -655,614.5 -658.3,614.5 -658.3,614.9   " fill="rgb(237, 28, 36)"></polygon>
		<polygon class="st10 can-change" points="-658.6,614.5 -659.8,614.5 -659.9,614.9 -658.7,614.9   " fill="rgb(237, 28, 36)"></polygon>
		<polygon class="st10 can-change" points="-658.5,615.6 -655.3,615.6 -655.2,615.2 -658.4,615.2   " fill="rgb(237, 28, 36)"></polygon>
		<polygon class="st1 can-change" points="-658.3,614.9 -658.3,614.5 -658.6,614.5 -658.7,614.9 -659.9,614.9 -659.9,615.2 -658.8,615.2     -658.8,615.6 -658.5,615.6 -658.4,615.2 -655.2,615.2 -655.1,614.9   " fill="rgb(255, 255, 255)"></polygon>
	</g>
</g>
<g class="human-logo">
	<path d="M-590.7,613.7l0.8-4.6h2.1l-0.2,1.3h1.5l0.2-1.3h3.7l-0.5,2.7c0,0,0,0.1,0,0.1h0.1h1.1c0.1,0,0.1,0,0.2,0   c0.1-0.1,0.1-0.2,0.1-0.2l0.4-2.5h4.1l0.7,1.9l1.3-1.9h2.5l-0.5,2.6l1.8-2.6h2.1l1,2.7l0.5-2.7h2.4l1.2,1.9l0.3-1.9h2.1l-0.8,4.6   h-2.4l-1.2-1.9l-0.3,1.9h-3.3l-0.2-0.7h-1.7l-0.5,0.7h-3.3l0.2-1.3l-0.9,1.3h-1.4l-0.5-1.4l-0.3,1.4h-2l0.1-0.5c0,0-0.1,0-0.1,0.1   c-0.4,0.3-1,0.4-1.5,0.4h-1.6c-0.4,0-0.9-0.1-1.3-0.3c-0.1-0.1-0.2-0.2-0.3-0.3l-0.1,0.6h-2.1l0.2-1.4h-1.5l-0.2,1.4H-590.7z"></path>
	<polygon class="st1 can-change" points="-590.2,613.2 -589.5,609.5 -588.4,609.5 -588.6,610.8 -586.2,610.8 -586,609.5 -584.8,609.5    -585.5,613.2 -586.6,613.2 -586.4,611.8 -588.8,611.8 -589,613.2  " fill="rgb(255, 255, 255)"></polygon>
	<path class="st1 can-change" d="M-584.7,611.9l0.4-2.4h1.1l-0.4,2.1c-0.1,0.5,0.1,0.7,0.5,0.7h1.1c0.5,0,0.7-0.2,0.8-0.7l0.4-2.1h1.1l-0.4,2.4   c-0.2,0.9-0.7,1.4-1.8,1.4h-1.6C-584.5,613.3-584.9,612.8-584.7,611.9" fill="rgb(255, 255, 255)"></path>
	<polygon class="st1 can-change" points="-579.7,613.2 -579.1,609.5 -577.3,609.5 -576.5,611.9 -574.8,609.5 -573,609.5 -573.7,613.2    -574.8,613.2 -574.3,610.5 -574.3,610.5 -576.3,613.2 -577.1,613.2 -578.2,610.5 -578.2,610.5 -578.6,613.2  " fill="rgb(255, 255, 255)"></polygon>
	<path class="st1 can-change" d="M-570.2,610.4l-1,1.4h1.5L-570.2,610.4z M-573.5,613.2l2.7-3.7h1.5l1.4,3.7h-1.3l-0.2-0.7h-2.3l-0.5,0.7   H-573.5z" fill="rgb(255, 255, 255)"></path>
	<polygon class="st1 can-change" points="-567.8,613.2 -567.1,609.5 -565.4,609.5 -563.7,612.2 -563.7,612.2 -563.2,609.5 -562.1,609.5    -562.7,613.2 -564.5,613.2 -566.2,610.5 -566.2,610.5 -566.7,613.2  " fill="rgb(255, 255, 255)"></polygon>
	<path d="M-561.4,612.3l0-0.2h1.1c-0.1,0.4,0.1,0.4,0.4,0.4h1.4c0.2,0,0.5,0,0.5-0.3c0.1-0.3-0.1-0.3-1.5-0.3   c-1.7,0-1.9-0.2-1.7-1.1c0.1-0.7,0.3-1.2,1.7-1.2h1.6c1.3,0,1.4,0.4,1.2,1.1l0,0.1h-1.1c0-0.3,0-0.4-0.5-0.4h-1.3   c-0.2,0-0.4,0.1-0.5,0.3c-0.1,0.3,0.1,0.3,1.3,0.3c1.8,0,2.2,0.1,2,1.2c-0.2,1-0.6,1.2-2.1,1.2h-1.4   C-561.1,613.3-561.5,613.1-561.4,612.3"></path>
	<path d="M-554.8,610.4l-0.2,0.9h1.8c0.3,0,0.4-0.2,0.4-0.4l0-0.1c0-0.3-0.1-0.4-0.4-0.4L-554.8,610.4L-554.8,610.4z M-556.4,613.2   l0.7-3.7h3.1c1.1,0,1.3,0.5,1.1,1.3l-0.1,0.3c-0.1,0.5-0.5,1.2-1.3,1.2h-2.3l-0.2,0.9H-556.4z"></path>
	<polygon points="-551.6,613.2 -550.9,609.5 -546.9,609.5 -547,610.4 -549.9,610.4 -550,611 -547.3,611 -547.4,611.7 -550.2,611.7    -550.3,612.3 -547.3,612.3 -547.4,613.2  "></polygon>
	<polygon points="-547,613.2 -546.3,609.5 -542.3,609.5 -542.4,610.4 -545.3,610.4 -545.5,611 -542.7,611 -542.8,611.7    -545.6,611.7 -545.7,612.3 -542.7,612.3 -542.9,613.2  "></polygon>
	<path d="M-540.7,610.4l-0.3,1.8h2c0.5,0,0.7-0.1,0.8-0.7l0.1-0.5c0.1-0.5-0.1-0.7-0.6-0.7H-540.7z M-542.4,613.2l0.7-3.7h3.4   c1.1,0,1.5,0.4,1.3,1.3l-0.2,1.1c-0.2,0.9-0.6,1.3-1.8,1.3L-542.4,613.2L-542.4,613.2z"></path>
	<path d="M-535.3,608.8c-0.5,0-0.9,0.4-0.9,1c0,0.6,0.4,1,1,1c0.5,0,0.9-0.4,0.9-1C-534.3,609.3-534.7,608.8-535.3,608.8    M-535.2,608.5c0.7,0,1.2,0.6,1.2,1.2c0,0.7-0.5,1.2-1.2,1.2c-0.7,0-1.2-0.6-1.2-1.2C-536.5,609.1-536,608.5-535.2,608.5    M-535.5,609.4v0.4h0.1c0.2,0,0.3-0.1,0.3-0.2c0-0.1-0.1-0.2-0.3-0.2C-535.4,609.4-535.4,609.4-535.5,609.4 M-535.5,609.9v0.5h-0.2   v-1.2c0.1,0,0.2,0,0.4,0c0.2,0,0.3,0,0.4,0.1c0.1,0,0.1,0.1,0.1,0.3c0,0.1-0.1,0.2-0.3,0.3v0c0.1,0,0.2,0.1,0.2,0.3   c0,0.2,0.1,0.3,0.1,0.3h-0.3c-0.1-0.1-0.1-0.1-0.1-0.3c0-0.1-0.1-0.2-0.3-0.2H-535.5L-535.5,609.9z"></path>
	<rect x="-590.7" y="608.5" class="st9" width="56.7" height="5.2" fill="none"></rect>
	<path d="M-556.6,614.5h0.3l-0.2,1.1h-0.3L-556.6,614.5z"></path>
	<path d="M-555.5,614.5h0.5l0.5,0.8l0.2-0.8h0.3l-0.2,1.1h-0.5l-0.5-0.8l-0.2,0.8h-0.3L-555.5,614.5z"></path>
	<path d="M-553,614.8h-0.5l0.1-0.3h1.3l-0.1,0.3h-0.5l-0.2,0.8h-0.3L-553,614.8z"></path>
	<path d="M-550.3,614.5l-0.1,0.2h-0.9l0,0.2h0.8l0,0.2h-0.8l0,0.2h0.9l-0.1,0.2h-1.2l0.2-1.1L-550.3,614.5L-550.3,614.5z"></path>
	<path d="M-549.5,614.5h0.3l-0.2,0.8h0.7l-0.1,0.3h-1.1L-549.5,614.5z"></path>
	<path d="M-547.8,614.5h0.3l-0.2,0.8h0.7l-0.1,0.3h-1.1L-547.8,614.5z"></path>
	<path d="M-546.1,614.5h0.3l-0.2,1.1h-0.3L-546.1,614.5z"></path>
	<path d="M-544,614.9C-544,614.9-544,614.9-544,614.9c0-0.1,0-0.1,0-0.1c0,0,0,0-0.1,0l-0.1,0l-0.2,0c-0.1,0-0.2,0-0.2,0.1   c0,0.1-0.1,0.3-0.1,0.3c0,0.1,0.1,0.1,0.2,0.1c0,0,0.1,0,0.3,0c0.2,0,0.2,0,0.2-0.1c0,0,0,0,0-0.1h-0.4l0-0.2h0.7l0,0.1   c0,0.2,0,0.2-0.1,0.3c-0.1,0.1-0.2,0.2-0.3,0.2c0,0-0.2,0-0.4,0c-0.3,0-0.4,0-0.5-0.1c-0.1,0-0.1-0.1-0.1-0.2c0-0.1,0-0.2,0.1-0.4   c0.1-0.3,0.1-0.4,0.3-0.4c0.1,0,0.2,0,0.5,0c0.4,0,0.5,0,0.5,0.1c0.1,0,0.1,0.1,0.1,0.2c0,0,0,0.1,0,0.2L-544,614.9L-544,614.9z"></path>
	<path d="M-541.7,614.5l-0.1,0.2h-0.9l0,0.2h0.8l0,0.2h-0.8l0,0.2h0.9l-0.1,0.2h-1.2l0.2-1.1L-541.7,614.5L-541.7,614.5z"></path>
	<path d="M-541,614.5h0.5l0.5,0.8l0.2-0.8h0.3l-0.2,1.1h-0.5l-0.5-0.8l-0.2,0.8h-0.3L-541,614.5z"></path>
	<path d="M-538.5,614.8h-0.5l0.1-0.3h1.3l-0.1,0.3h-0.5l-0.2,0.8h-0.3L-538.5,614.8z"></path>
	<g>
		<polygon class="st10 can-change" points="-562,615.2 -562.1,615.6 -560.9,615.6 -560.8,615.2   " fill="rgb(237, 28, 36)"></polygon>
		<polygon class="st10 can-change" points="-557.2,614.9 -557.1,614.5 -560.3,614.5 -560.4,614.9   " fill="rgb(237, 28, 36)"></polygon>
		<polygon class="st10 can-change" points="-560.6,614.5 -561.8,614.5 -561.9,614.9 -560.7,614.9   " fill="rgb(237, 28, 36)"></polygon>
		<polygon class="st10 can-change" points="-560.5,615.6 -557.3,615.6 -557.2,615.2 -560.4,615.2   " fill="rgb(237, 28, 36)"></polygon>
		<polygon class="st1 can-change" points="-560.4,614.9 -560.3,614.5 -560.6,614.5 -560.7,614.9 -561.9,614.9 -562,615.2 -560.8,615.2     -560.9,615.6 -560.5,615.6 -560.4,615.2 -557.2,615.2 -557.2,614.9   " fill="rgb(255, 255, 255)"></polygon>
	</g>
</g>
<wappalyzerData id="wappalyzerData" style="display: none"></wappalyzerData><script id="wappalyzerEnvDetection" src="chrome-extension://gppongmhjkpfnbhagpmjfkannfbllamg/js/inject.js"></script></svg>