<svg xmlns="http://www.w3.org/2000/svg" xmlns:xlink="http://www.w3.org/1999/xlink" version="1.1" id="Layer_1" x="0px" y="0px" viewBox="-807 224.4 192.1 443.6" style="enable-background:new -807 224.4 192.1 443.6;" xml:space="preserve" data-product="2017507" data-design="4" data-size="m">
<style type="text/css">
	.st0{fill:#FFFFFF;}
	.st1{clip-path:url(#SVGID_6_);}
	.st2{fill:#FFFFFF;stroke:#6D6E71;stroke-width:0.28;stroke-linecap:round;stroke-linejoin:round;stroke-miterlimit:10;}
	.st3{fill:none;stroke:#6D6E71;stroke-width:0.34;stroke-linecap:round;stroke-linejoin:round;stroke-miterlimit:10;}
	.st4{clip-path:url(#SVGID_8_);}
	.st5{fill:#FFFFFF;stroke:#6D6E71;stroke-width:0.34;stroke-linecap:round;stroke-linejoin:round;stroke-miterlimit:10;}
	.st6{fill:#EDEDED;stroke:#6D6E71;stroke-width:0.34;stroke-linecap:round;stroke-linejoin:round;stroke-miterlimit:10;}
	.st7{fill:none;}
	.st8{fill:#ED1C24;}
</style>
<g>
	<g>
		<path id="SVGID_1_" class="st0 can-change" d="M-664.9,226.6c0.2,0,20,8.6,29.1,12.8c-4,20.8-6.3,35.9-4.3,61.9c1.1,15.2,10.2,25.6,18.5,31.4    c-1.5,5.2-5.3,30.8-5.8,40.8c-1.3,15.4-3.8,26.3-2.7,69.6c-23.6,8.8-51.9,11.5-77,11.6c-25.1,0-55-2.7-78.6-11.4    c1.1-43.3-2.4-53.2-2.1-68.2c-0.5-10-4.3-35.6-5.8-40.8c8.4-5.9,19.5-17.8,20.6-33c2-26-0.3-41.1-4.3-61.9    c9.2-4.1,28.9-12.8,29.1-12.8c13.1,11.7,35.7,10.7,39.6,10.9h0.8l0.6,0v0C-698.4,237.4-676.3,236.6-664.9,226.6z" fill="rgb(255, 255, 255)" data-fill-id="5"/>
	</g>
	<g>
		<defs>
			<path id="SVGID_5_" d="M-664.9,226.6c0.2,0,20,8.6,29.1,12.8c-4,20.8-6.3,35.9-4.3,61.9c1.1,15.2,10.2,25.6,18.5,31.4     c-1.5,5.2-5.3,30.8-5.8,40.8c-1.3,15.4-3.8,26.3-2.7,69.6c-23.6,8.8-51.9,11.5-77,11.6c-25.1,0-55-2.7-78.6-11.4     c1.1-43.3-2.4-53.2-2.1-68.2c-0.5-10-4.3-35.6-5.8-40.8c8.4-5.9,19.5-17.8,20.6-33c2-26-0.3-41.1-4.3-61.9     c9.2-4.1,28.9-12.8,29.1-12.8c13.1,11.7,35.7,10.7,39.6,10.9h0.8l0.6,0v0C-698.4,237.4-676.3,236.6-664.9,226.6z"/>
		</defs>
		<clipPath id="SVGID_6_">
			<use xlink:href="#SVGID_5_" style="overflow:visible;"/>
		</clipPath>
		<g class="st1 can-change" fill="rgb(0, 0, 0)">
			<g>
				<path class="st2 can-change" d="M-703.5,338.6h8.1v329.3h-8.1V338.6z" fill="rgb(255, 255, 255)"/>
				<path class="st2 can-change" d="M-711.7,338.6h8.1v329.3h-8.1V338.6z" fill="rgb(255, 255, 255)"/>
				<path class="st2 can-change" d="M-719.8,338.6h8.1v329.3h-8.1V338.6z" fill="rgb(255, 255, 255)"/>
			</g>
		</g>
	</g>
	<g>
		<path id="SVGID_2_" class="st3" d="M-664.9,226.6c0.2,0,20,8.6,29.1,12.8c-4,20.8-6.3,35.9-4.3,61.9c1.1,15.2,10.2,25.6,18.5,31.4    c-1.5,5.2-5.3,30.8-5.8,40.8c-1.3,15.4-3.8,26.3-2.7,69.6c-23.6,8.8-51.9,11.5-77,11.6c-25.1,0-55-2.7-78.6-11.4    c1.1-43.3-2.4-53.2-2.1-68.2c-0.5-10-4.3-35.6-5.8-40.8c8.4-5.9,19.5-17.8,20.6-33c2-26-0.3-41.1-4.3-61.9    c9.2-4.1,28.9-12.8,29.1-12.8c13.1,11.7,35.7,10.7,39.6,10.9h0.8l0.6,0v0C-698.4,237.4-676.3,236.6-664.9,226.6z" fill="none"/>
	</g>
</g>
<g>
	<g>
		<path id="SVGID_3_" class="st0 can-change" d="M-661.5,449.7c-0.2-4.8-0.8-18.8-1.7-49c-1.1-38.7,24-59.2,28.7-63.3c2.8-2.5,4.8-7.5,5.9-11.1    c2.2,2.2,4.5,4.2,7,6.3c-1.5,5.2-5.6,30.8-6.1,40.8c0.3,15-3.5,26.3-2.4,69.6c0.8,3.1,1.6,6.6,2.5,10.6    c3.3,15.4,3.5,18.9,5.8,28.9c2.3,10,7.8,45.1,6.5,88.5c0,0.1,0.3,9-0.7,20.7c-0.9,10.7-2.9,26.4-3.9,30c-0.9,5.6-2,12.6-2.8,18.3    c-0.1,0.1-6.4,6.1-20.7,7.9l-0.1,0c-11.5,1.4-28,0-50.4-9.3l-2.1-18c0-0.2-1.8-23.4-4-28.8c-2.3-5.4-3.5-27-3.5-27.2l0.5-16.5    c0,0-2.5,1.2-3.7,1.2c-1.3,0-3.7-1.2-3.7-1.2l0.5,16.5c0,0.2-1.2,21.8-3.5,27.2c-2.2,5.4-4,28.6-4,28.8l-2,18    c-24.2,10.1-41.5,10.8-53,9c-12.6-2.1-18.2-7.5-18.3-7.6c-0.8-5.7-1.9-12.6-2.8-18.3c-1-3.7-3-19.4-3.8-30    c-1-11.7-0.7-20.6-0.7-20.7c-0.7-23.9-0.4-44.7,0.6-60.5c0.7-11.6,1.6-20,2.6-24.4c2.2-9.9,3.4-17.1,6.8-32.4    c0.8-4.1,1.7-7.7,2.5-10.8c1-43-2.4-52.8-2.2-67.8c-0.5-10-4.3-35.6-5.8-40.8c2.5-2.2,6.5-5.8,8.7-7.9c1.1,3.6,3.1,8.6,5.9,11.1    c4.7,4.1,29.9,24.6,28.8,63.3c-0.9,30-1.5,44.1-1.7,49c12.5,1.8,28,3.2,45.3,3.2C-689.1,452.9-673.8,451.5-661.5,449.7z" fill="rgb(255, 255, 255)" data-fill-id="1"/>
	</g>
	<g>
		<defs>
			<path id="SVGID_7_" d="M-661.5,449.7c-0.2-4.8-0.8-18.8-1.7-49c-1.1-38.7,24-59.2,28.7-63.3c2.8-2.5,4.8-7.5,5.9-11.1     c2.2,2.2,4.5,4.2,7,6.3c-1.5,5.2-5.6,30.8-6.1,40.8c0.3,15-3.5,26.3-2.4,69.6c0.8,3.1,1.6,6.6,2.5,10.6     c3.3,15.4,3.5,18.9,5.8,28.9c2.3,10,7.8,45.1,6.5,88.5c0,0.1,0.3,9-0.7,20.7c-0.9,10.7-2.9,26.4-3.9,30c-0.9,5.6-2,12.6-2.8,18.3     c-0.1,0.1-6.4,6.1-20.7,7.9l-0.1,0c-11.5,1.4-28,0-50.4-9.3l-2.1-18c0-0.2-1.8-23.4-4-28.8c-2.3-5.4-3.5-27-3.5-27.2l0.5-16.5     c0,0-2.5,1.2-3.7,1.2c-1.3,0-3.7-1.2-3.7-1.2l0.5,16.5c0,0.2-1.2,21.8-3.5,27.2c-2.2,5.4-4,28.6-4,28.8l-2,18     c-24.2,10.1-41.5,10.8-53,9c-12.6-2.1-18.2-7.5-18.3-7.6c-0.8-5.7-1.9-12.6-2.8-18.3c-1-3.7-3-19.4-3.8-30     c-1-11.7-0.7-20.6-0.7-20.7c-0.7-23.9-0.4-44.7,0.6-60.5c0.7-11.6,1.6-20,2.6-24.4c2.2-9.9,3.4-17.1,6.8-32.4     c0.8-4.1,1.7-7.7,2.5-10.8c1-43-2.4-52.8-2.2-67.8c-0.5-10-4.3-35.6-5.8-40.8c2.5-2.2,6.5-5.8,8.7-7.9c1.1,3.6,3.1,8.6,5.9,11.1     c4.7,4.1,29.9,24.6,28.8,63.3c-0.9,30-1.5,44.1-1.7,49c12.5,1.8,28,3.2,45.3,3.2C-689.1,452.9-673.8,451.5-661.5,449.7z"/>
		</defs>
		<clipPath id="SVGID_8_">
			<use xlink:href="#SVGID_7_" style="overflow:visible;"/>
		</clipPath>
		<g class="st4 can-change" fill="rgb(0, 0, 0)">
			<g>
				<path class="st5 can-change" d="M-806.6,603l14.4,12c0,0,22.4,18.9,72.8-0.1l8.9-3.7l-0.6,21.6c0,0-61.8,21.8-88.1,0L-806.6,603z" fill="rgb(255, 255, 255)" data-fill-id="2"/>
				<path class="st5 can-change" d="M-806.8,614.4l14.4,12c0,0,22.4,18.9,72.8-0.1l8.9-3.7l-0.6,21.6c0,0-61.8,21.8-88.2,0L-806.8,614.4z" fill="rgb(255, 255, 255)" data-fill-id="3"/>
			</g>
		</g>
	</g>
	<g>
		<path id="SVGID_4_" class="st3" d="M-661.5,449.7c-0.2-4.8-0.8-18.8-1.7-49c-1.1-38.7,24-59.2,28.7-63.3c2.8-2.5,4.8-7.5,5.9-11.1    c2.2,2.2,4.5,4.2,7,6.3c-1.5,5.2-5.6,30.8-6.1,40.8c0.3,15-3.5,26.3-2.4,69.6c0.8,3.1,1.6,6.6,2.5,10.6    c3.3,15.4,3.5,18.9,5.8,28.9c2.3,10,7.8,45.1,6.5,88.5c0,0.1,0.3,9-0.7,20.7c-0.9,10.7-2.9,26.4-3.9,30c-0.9,5.6-2,12.6-2.8,18.3    c-0.1,0.1-6.4,6.1-20.7,7.9l-0.1,0c-11.5,1.4-28,0-50.4-9.3l-2.1-18c0-0.2-1.8-23.4-4-28.8c-2.3-5.4-3.5-27-3.5-27.2l0.5-16.5    c0,0-2.5,1.2-3.7,1.2c-1.3,0-3.7-1.2-3.7-1.2l0.5,16.5c0,0.2-1.2,21.8-3.5,27.2c-2.2,5.4-4,28.6-4,28.8l-2,18    c-24.2,10.1-41.5,10.8-53,9c-12.6-2.1-18.2-7.5-18.3-7.6c-0.8-5.7-1.9-12.6-2.8-18.3c-1-3.7-3-19.4-3.8-30    c-1-11.7-0.7-20.6-0.7-20.7c-0.7-23.9-0.4-44.7,0.6-60.5c0.7-11.6,1.6-20,2.6-24.4c2.2-9.9,3.4-17.1,6.8-32.4    c0.8-4.1,1.7-7.7,2.5-10.8c1-43-2.4-52.8-2.2-67.8c-0.5-10-4.3-35.6-5.8-40.8c2.5-2.2,6.5-5.8,8.7-7.9c1.1,3.6,3.1,8.6,5.9,11.1    c4.7,4.1,29.9,24.6,28.8,63.3c-0.9,30-1.5,44.1-1.7,49c12.5,1.8,28,3.2,45.3,3.2C-689.1,452.9-673.8,451.5-661.5,449.7z" fill="none"/>
	</g>
</g>
<path class="st5 can-change" d="M-750.4,403.8c4.8-1.2,41.6-9.2,87.3-0.4c0.9,25.3,2.6,43.6,2.8,46.4h-1.2c-12.3,1.7-27.6,3.1-45.1,3.1  c-17.4,0-33.9-1.4-46.4-3.1C-752.9,447-751.3,428.8-750.4,403.8z" fill="rgb(255, 255, 255)" data-fill-id="7"/>
<path class="st5 can-change" d="M-663,406.1c-40.1-8.6-76.3-2-87.5,0.6c0.1-1.1,0.1-2.2,0.1-3.4c4.8-1.4,41.6-11.1,87.3-0.4  C-663.1,403.9-663,405-663,406.1z" fill="rgb(255, 255, 255)" data-fill-id="6"/>
<path class="st5 can-change" d="M-677.9,224.6c0-0.2,13,2,13,2c-48.1,28.5-83.2,0-83.2,0l10.1-1.9C-706.8,240.8-677.9,224.6-677.9,224.6z" fill="rgb(255, 255, 255)" data-fill-id="8"/>
<path class="st5 can-change" d="M-706.7,549.4l0.1-145.7" fill="rgb(255, 255, 255)"/>
<path class="st5 can-change" d="M-772.9,237.2l1.1,6.8c2.4,17.8,2.4,42.2,2.4,42.2c-0.9,43.6-23.2,53.1-23.2,53.1l-2.2-9.4  c13-9.6,17.5-22.3,17.2-43.8c-0.3-21.5-3.2-45.6-3.2-45.6L-772.9,237.2z" fill="rgb(255, 255, 255)" data-fill-id="9"/>
<path class="st5 can-change" d="M-642.6,236.4l7.8,3.3c0,0-2.9,24.3-3.2,46c-0.3,21.6,4.1,34.5,17.2,44.1l-2.3,9.4c0,0-22.3-9.6-23.2-53.5  c0,0,0-24.5,2.4-42.5L-642.6,236.4z" fill="rgb(255, 255, 255)" data-fill-id="10"/>
<path class="st5 can-change" d="M-707.5,344.4l0.1-111.1" fill="rgb(255, 255, 255)"/>
<path class="st5 can-change" d="M-707.6,370l0-138.3" fill="rgb(255, 255, 255)"/>
<path class="st5 can-change" d="M-705.5,370l0.1-138.3" fill="rgb(255, 255, 255)"/>
<path class="st5 can-change" d="M-709.7,370l0.1-138.3" fill="rgb(255, 255, 255)"/>
<g>
	<path class="st5 can-change" d="M-707.5,235.4h0.8c0,0,0.1-0.2,0.2-0.7c0-0.4,0.1-0.4,0.1-0.4s0.3-0.3,0.4-0.3c0.2-0.1,0.1-0.3,0.1-0.3   s0-0.3,0-0.8c0-0.4-0.1-0.5-0.1-0.5l-1-1v-0.5l-0.5,0l-0.5,0v0.5l-1,1c0,0-0.1,0.1-0.1,0.5c0,0.4,0,0.8,0,0.8s0,0.2,0.1,0.3   c0.2,0.1,0.5,0.3,0.5,0.3s0.1,0,0.1,0.4c0.1,0.5,0.2,0.7,0.2,0.7H-707.5" fill="rgb(255, 255, 255)"/>
	<path class="st5 can-change" d="M-707.5,235.4h0.8c0,0,0.1-0.2,0.2-0.7c0-0.2,0-0.3,0.1-0.3l0.1-0.1c0,0,0.3-0.3,0.4-0.3   c0.1-0.1,0.1-0.2,0.1-0.3v0c0,0,0-0.1,0-0.4c0-0.1,0-0.2,0-0.4c0-0.4-0.1-0.5-0.1-0.5l-1-1v-0.5l-0.5,0l-0.5,0v0.5l-1,1   c0,0-0.1,0.1-0.1,0.5c0,0.1,0,0.3,0,0.4c0,0.2,0,0.4,0,0.4v0c0,0.1,0,0.2,0.1,0.3c0.2,0.1,0.5,0.3,0.5,0.3l0,0.1   c0,0,0.1,0.1,0.1,0.3c0.1,0.5,0.2,0.7,0.2,0.7H-707.5h-0.8c0,0-0.1-0.2-0.2-0.7c0-0.2,0-0.3-0.1-0.3l0-0.1c0,0-0.3-0.3-0.5-0.3   c-0.1-0.1-0.1-0.2-0.1-0.3v0c0,0,0-0.1,0-0.4c0-0.1,0-0.2,0-0.4c0-0.4,0.1-0.5,0.1-0.5l1-1v-0.5l0.5,0l0.5,0v0.5l1,1   c0,0,0.1,0.1,0.1,0.5c0,0.1,0,0.3,0,0.4c0,0.2,0,0.4,0,0.4v0c0,0.1,0,0.2-0.1,0.3c-0.1,0.1-0.4,0.3-0.4,0.3l-0.1,0.1   c0,0-0.1,0.1-0.1,0.3c0,0.5-0.2,0.7-0.2,0.7H-707.5z" fill="rgb(255, 255, 255)"/>
	<path class="st5 can-change" d="M-707.9,231.1h0.7v3.1h-0.7V231.1v3.1h0.7v-3.1C-707.2,231.1-707.9,231.1-707.9,231.1z" fill="rgb(255, 255, 255)"/>
	<path class="st5 can-change" d="M-707.6,235.9l1.3,0c0,0,0-2.3,0.1-2.6c0-0.2-0.1-0.3-0.1-0.3h-1.3h-1.3c0,0-0.2,0.1-0.1,0.3   c0,0.3,0.1,2.6,0.1,2.6L-707.6,235.9" fill="rgb(255, 255, 255)"/>
	<path class="st5 can-change" d="M-707.5,235.9h1.3c0,0,0-2.3,0.1-2.6v-0.1c0-0.2-0.1-0.2-0.1-0.2h-1.3h-1.3c0,0-0.1,0-0.1,0.2v0.1   c0,0.3,0.1,2.6,0.1,2.6H-707.5h-1.3c0,0,0-2.3-0.1-2.6v-0.1c0-0.2,0.1-0.2,0.1-0.2h1.3h1.3c0,0,0.1,0,0.1,0.2v0.1   c-0.1,0.3-0.1,2.6-0.1,2.6H-707.5z" fill="rgb(255, 255, 255)"/>
	<path class="st5 can-change" d="M-706.9,239.6h-1.2c-0.5-0.1-0.5-0.9-0.5-0.9l-0.2-2.8h2.6l-0.2,2.8C-706.4,238.7-706.4,239.5-706.9,239.6z" fill="rgb(255, 255, 255)"/>
	<path class="st5 can-change" d="M-706.9,239.6c0.5-0.1,0.5-0.9,0.5-0.9l0.2-2.8h-2.6l0.2,2.8c0,0,0,0.8,0.5,0.9H-706.9h-1.2   c-0.5-0.1-0.5-0.9-0.5-0.9l-0.2-2.8h2.6l-0.2,2.8C-706.4,238.7-706.4,239.5-706.9,239.6z" fill="rgb(255, 255, 255)"/>
	<path class="st5 can-change" d="M-707.1,235.7c0.1-0.6,0.3-1,0.6-1.4v-0.9h-2.1v0.9c0.3,0.4,0.5,0.8,0.6,1.4H-707.1h-0.9   c-0.1-0.6-0.3-1-0.6-1.4v-0.9h2.1v0.9C-706.8,234.7-707,235.1-707.1,235.7z" fill="rgb(255, 255, 255)"/>
	<path class="st5 can-change" d="M-708.5,232.4h0.6v0.6h-0.6V232.4v0.6h0.6v-0.6H-708.5z" fill="rgb(255, 255, 255)"/>
	<path class="st5 can-change" d="M-707.2,232.4h0.6v0.6h-0.6V232.4v0.6h0.6v-0.6H-707.2z" fill="rgb(255, 255, 255)"/>
	<path class="st5 can-change" d="M-707.2,233.3h0.6v0.6h-0.6V233.3v0.6h0.6v-0.6H-707.2z" fill="rgb(255, 255, 255)"/>
	<path class="st5 can-change" d="M-708.5,233.3h0.6v0.6h-0.6V233.3v0.6h0.6v-0.6H-708.5z" fill="rgb(255, 255, 255)"/>
</g>
<g class="cannot-edit"><path class="st6 cannot-edit can-change" d="M-706.3,452.9l0.2,98.6l-0.4,0c-1.3,0-3.8-1.2-3.8-1.2l0.5,16.8c0,0.1-0.7,11.9-1.9,20.4  c-52.5-21.2-41-136.6-40.9-137.8C-739.8,451.5-724,452.9-706.3,452.9z" style="fill: rgb(0, 0, 0);"/><path class="st6 cannot-edit can-change" d="M-706.6,453c17.7,0,33.5-1.5,46.3-3.2c0.1,1.2,11.6,116.7-40.9,137.8c-1.3-8.5-1.9-20.3-1.9-20.4l0.5-16.8  c0,0-2.5,1.2-3.8,1.2l-0.4,0L-706.6,453z" style="fill: rgb(0, 0, 0);"/></g>

<path class="st5 cannot-edit" d="M-710,564.7c0,0-38.7-34.4-12.6-42.8c3.7-1.2,9.8,3.1,16.2,3.1c7.1,0,11.2-4.1,15-2.8  c24.3,9-12.2,42.5-12.2,42.5" fill="rgb(255, 255, 255)" style="&#10;  fill: rgb(0,0,0);&#10;"/>
<g class="human-logo">
	<path d="M-735,427.7l0.8-4.6h2.1l-0.2,1.3h1.5l0.2-1.3h3.7l-0.5,2.7c0,0,0,0.1,0,0.1h0.1h1.1c0.1,0,0.1,0,0.2,0   c0.1-0.1,0.1-0.2,0.1-0.2l0.4-2.5h4.1l0.7,1.9l1.3-1.9h2.5l-0.5,2.6l1.8-2.6h2.1l1,2.7l0.5-2.7h2.4l1.2,1.9l0.3-1.9h2.1l-0.8,4.6   h-2.4l-1.2-1.9l-0.3,1.9h-3.3l-0.2-0.7h-1.7l-0.5,0.7h-3.3l0.2-1.3l-0.9,1.3h-1.4l-0.5-1.4l-0.3,1.4h-2l0.1-0.5c0,0-0.1,0-0.1,0.1   c-0.4,0.3-1,0.4-1.5,0.4h-1.6c-0.4,0-0.9-0.1-1.3-0.3c-0.1-0.1-0.2-0.2-0.3-0.3l-0.1,0.6h-2.1l0.2-1.4h-1.5l-0.2,1.4L-735,427.7   L-735,427.7z"/>
	<polygon class="st0 can-change" points="-734.5,427.2 -733.8,423.5 -732.7,423.5 -732.9,424.8 -730.5,424.8 -730.2,423.5 -729.1,423.5    -729.8,427.2 -730.9,427.2 -730.7,425.8 -733.1,425.8 -733.3,427.2  " fill="rgb(255, 255, 255)"/>
	<path class="st0 can-change" d="M-729,425.9l0.4-2.4h1.1l-0.4,2.1c-0.1,0.5,0.1,0.7,0.5,0.7h1.1c0.5,0,0.7-0.2,0.8-0.7l0.4-2.1h1.1l-0.4,2.4   c-0.2,0.9-0.7,1.4-1.8,1.4h-1.6C-728.8,427.3-729.2,426.8-729,425.9" fill="rgb(255, 255, 255)"/>
	<polygon class="st0 can-change" points="-724,427.2 -723.4,423.5 -721.6,423.5 -720.8,425.9 -719,423.5 -717.3,423.5 -717.9,427.2    -719.1,427.2 -718.6,424.6 -718.6,424.6 -720.6,427.2 -721.4,427.2 -722.4,424.6 -722.5,424.6 -722.9,427.2  " fill="rgb(255, 255, 255)"/>
	<path class="st0 can-change" d="M-714.5,424.4l-1,1.4h1.5L-714.5,424.4z M-717.8,427.2l2.7-3.7h1.5l1.4,3.7h-1.3l-0.2-0.7h-2.3l-0.5,0.7   H-717.8z" fill="rgb(255, 255, 255)"/>
	<polygon class="st0 can-change" points="-712.1,427.2 -711.4,423.5 -709.7,423.5 -708,426.2 -708,426.2 -707.5,423.5 -706.4,423.5 -707,427.2    -708.8,427.2 -710.5,424.5 -710.5,424.5 -710.9,427.2  " fill="rgb(255, 255, 255)"/>
	<path d="M-705.7,426.3l0-0.2h1.1c-0.1,0.4,0.1,0.4,0.4,0.4h1.4c0.2,0,0.5,0,0.5-0.3c0.1-0.3-0.1-0.3-1.5-0.3   c-1.7,0-1.9-0.2-1.7-1.1c0.1-0.7,0.3-1.2,1.7-1.2h1.6c1.3,0,1.4,0.4,1.2,1.1l0,0.1h-1.1c0-0.3,0-0.4-0.5-0.4h-1.3   c-0.2,0-0.4,0.1-0.5,0.3c-0.1,0.3,0.1,0.3,1.3,0.3c1.8,0,2.2,0.1,2,1.2c-0.2,1-0.6,1.2-2.1,1.2h-1.4   C-705.4,427.3-705.8,427.1-705.7,426.3"/>
	<path d="M-699.1,424.4l-0.2,0.9h1.8c0.3,0,0.4-0.2,0.4-0.4l0-0.1c0-0.3-0.1-0.4-0.4-0.4H-699.1z M-700.7,427.2l0.7-3.7h3.1   c1.1,0,1.3,0.5,1.1,1.3l-0.1,0.3c-0.1,0.6-0.5,1.2-1.3,1.2h-2.3l-0.2,0.9H-700.7z"/>
	<polygon points="-695.9,427.2 -695.2,423.5 -691.1,423.5 -691.3,424.4 -694.2,424.4 -694.3,425 -691.5,425 -691.7,425.8    -694.5,425.8 -694.6,426.4 -691.6,426.4 -691.7,427.2  "/>
	<polygon points="-691.3,427.2 -690.6,423.5 -686.6,423.5 -686.7,424.4 -689.6,424.4 -689.7,425 -687,425 -687.1,425.8    -689.9,425.8 -690,426.4 -687,426.4 -687.1,427.2  "/>
	<path d="M-685,424.4l-0.3,1.8h2c0.5,0,0.7-0.1,0.8-0.7l0.1-0.5c0.1-0.5-0.1-0.7-0.6-0.7H-685z M-686.7,427.2l0.7-3.7h3.4   c1.1,0,1.5,0.4,1.3,1.3l-0.2,1.1c-0.2,0.9-0.6,1.3-1.8,1.3L-686.7,427.2L-686.7,427.2z"/>
	<path d="M-679.6,422.8c-0.5,0-0.9,0.4-0.9,1c0,0.6,0.4,1,1,1c0.5,0,0.9-0.4,0.9-1C-678.6,423.3-679,422.8-679.6,422.8    M-679.5,422.6c0.7,0,1.2,0.6,1.2,1.2c0,0.7-0.5,1.2-1.2,1.2s-1.2-0.6-1.2-1.2C-680.8,423.1-680.2,422.6-679.5,422.6 M-679.7,423.4   v0.4h0.1c0.2,0,0.3-0.1,0.3-0.2c0-0.1-0.1-0.2-0.3-0.2C-679.6,423.4-679.7,423.4-679.7,423.4 M-679.8,424v0.5h-0.2v-1.2   c0.1,0,0.2,0,0.4,0c0.2,0,0.3,0,0.4,0.1c0.1,0,0.1,0.1,0.1,0.3c0,0.1-0.1,0.2-0.3,0.3v0c0.1,0,0.2,0.1,0.2,0.3   c0,0.2,0.1,0.3,0.1,0.3h-0.3c-0.1-0.1-0.1-0.1-0.1-0.3c0-0.1-0.1-0.2-0.3-0.2L-679.8,424L-679.8,424z"/>
	<rect x="-735" y="422.6" class="st7" width="56.7" height="5.2" fill="none"/>
	<path d="M-700.9,428.6h0.3l-0.2,1.1h-0.3L-700.9,428.6z"/>
	<path d="M-699.8,428.6h0.5l0.5,0.8l0.2-0.8h0.3l-0.2,1.1h-0.5l-0.5-0.8l-0.2,0.8h-0.3L-699.8,428.6z"/>
	<path d="M-697.2,428.8h-0.5l0.1-0.3h1.3l-0.1,0.3h-0.5l-0.2,0.8h-0.3L-697.2,428.8z"/>
	<path d="M-694.6,428.6l-0.1,0.2h-0.9l0,0.2h0.8l0,0.2h-0.8l0,0.2h0.9l-0.1,0.2h-1.2l0.2-1.1L-694.6,428.6L-694.6,428.6z"/>
	<path d="M-693.8,428.6h0.3l-0.2,0.8h0.7l-0.1,0.3h-1.1L-693.8,428.6z"/>
	<path d="M-692.1,428.6h0.3l-0.2,0.8h0.7l-0.1,0.3h-1.1L-692.1,428.6z"/>
	<path d="M-690.4,428.6h0.3l-0.2,1.1h-0.3L-690.4,428.6z"/>
	<path d="M-688.3,428.9C-688.3,428.9-688.3,428.9-688.3,428.9c0-0.1,0-0.1,0-0.1c0,0,0,0-0.1,0l-0.1,0l-0.2,0c-0.1,0-0.2,0-0.2,0.1   c0,0.1-0.1,0.3-0.1,0.4c0,0.1,0.1,0.1,0.2,0.1c0,0,0.1,0,0.3,0c0.2,0,0.2,0,0.2-0.1c0,0,0,0,0-0.1h-0.4l0-0.2h0.7l0,0.1   c0,0.2,0,0.2-0.1,0.3c-0.1,0.1-0.2,0.2-0.3,0.2c0,0-0.2,0-0.4,0c-0.3,0-0.4,0-0.5-0.1c-0.1,0-0.1-0.1-0.1-0.2c0-0.1,0-0.2,0.1-0.4   c0.1-0.3,0.1-0.4,0.3-0.4c0.1,0,0.2,0,0.5,0c0.4,0,0.5,0,0.5,0.1c0.1,0,0.1,0.1,0.1,0.2c0,0,0,0.1,0,0.2L-688.3,428.9L-688.3,428.9   z"/>
	<path d="M-686,428.6l-0.1,0.2h-0.9l0,0.2h0.8l0,0.2h-0.8l0,0.2h0.9l-0.1,0.2h-1.2l0.2-1.1L-686,428.6L-686,428.6z"/>
	<path d="M-685.3,428.6h0.5l0.5,0.8l0.2-0.8h0.3l-0.2,1.1h-0.5l-0.5-0.8l-0.2,0.8h-0.3L-685.3,428.6z"/>
	<path d="M-682.7,428.8h-0.5l0.1-0.3h1.3l-0.1,0.3h-0.5l-0.2,0.8h-0.3L-682.7,428.8z"/>
	<g>
		<polygon class="st8 can-change" points="-706.3,429.3 -706.3,429.6 -705.2,429.6 -705.1,429.3   " fill="rgb(237, 28, 36)"/>
		<polygon class="st8 can-change" points="-701.4,428.9 -701.4,428.6 -704.6,428.6 -704.7,428.9   " fill="rgb(237, 28, 36)"/>
		<polygon class="st8 can-change" points="-704.9,428.6 -706.1,428.6 -706.2,428.9 -705,428.9   " fill="rgb(237, 28, 36)"/>
		<polygon class="st8 can-change" points="-704.8,429.6 -701.6,429.6 -701.5,429.3 -704.7,429.3   " fill="rgb(237, 28, 36)"/>
		<polygon class="st0 can-change" points="-704.7,428.9 -704.6,428.6 -704.9,428.6 -705,428.9 -706.2,428.9 -706.3,429.3 -705.1,429.3     -705.2,429.6 -704.8,429.6 -704.7,429.3 -701.5,429.3 -701.4,428.9   " fill="rgb(255, 255, 255)"/>
	</g>
</g>
<g id="Layer_1_2_">
</g>
</svg>