<svg xmlns="http://www.w3.org/2000/svg" xmlns:xlink="http://www.w3.org/1999/xlink" version="1.1" id="Layer_1" x="0px" y="0px" viewBox="0 0 295 367" style="enable-background:new 0 0 295 367;" xml:space="preserve" data-product="2017501" data-design="5" data-size="m">
<g>
	<g>
		<defs>
			<path id="SVGID_1_" d="M147.385,359.21c-1.53,0.08-50.48,2.35-77.07-21.46l-3.29-3.71c7.62-75.06,7.57-131.98,0.17-166.2     c-7.37-34.24-14.37-36.14-14.46-36.2c-5.16-32.34-0.51-47.14,6.01-63.32c1.42-2.04,17.12-23.64,25.57-31.69     c8.19-8.85,32.94-24.07,39.66-28.21c12.44-0.37,21.09-1.19,44.84-0.37c7.11,4.59,28.06,16.95,40.14,29.65     c8.42,8.05,26.33,24.27,27.75,26.31c4.28,4.62,13.32,30.22,5.5,67.63c-0.06,0.06-6.97,3.38-14.46,36.2     c-7.37,34.22-7.42,91.11,0.17,166.2l-3.46,3.71C197.875,361.56,148.915,359.29,147.385,359.21z"/>
		</defs>
		<use xlink:href="#SVGID_1_" style="overflow:visible;fill-rule:evenodd;clip-rule:evenodd;fill:#FFFFFF;" data-fill-id="14" class="can-change"/>
		<clipPath id="SVGID_2_">
			<use xlink:href="#SVGID_1_" style="overflow:visible;"/>
		</clipPath>
		<g style="clip-path:url(#SVGID_2_);">
			<g>
				
					<path style="fill-rule:evenodd;clip-rule:evenodd;fill:#FFFFFF;stroke:#6D6E71;stroke-width:0.34;stroke-linecap:round;stroke-linejoin:round;stroke-miterlimit:10;" d="      M164.505-58.22h7.31v482.74h-7.31V-58.22z" class="can-change"/>
				
					<path style="fill-rule:evenodd;clip-rule:evenodd;fill:#FFFFFF;stroke:#6D6E71;stroke-width:0.34;stroke-linecap:round;stroke-linejoin:round;stroke-miterlimit:10;" d="      M179.165-58.22h7.31v482.74h-7.31V-58.22z" class="can-change"/>
				
					<path style="fill-rule:evenodd;clip-rule:evenodd;fill:#FFFFFF;stroke:#6D6E71;stroke-width:0.34;stroke-linecap:round;stroke-linejoin:round;stroke-miterlimit:10;" d="      M171.815-58.22h7.35v482.74h-7.35V-58.22z" class="can-change"/>
			</g>
		</g>
		
			<use xlink:href="#SVGID_1_" style="overflow:visible;fill-rule:evenodd;clip-rule:evenodd;fill:none;stroke:#6D6E71;stroke-width:0.34;stroke-linecap:round;stroke-linejoin:round;stroke-miterlimit:10;"/>
	</g>
	
		<path style="fill-rule:evenodd;clip-rule:evenodd;fill:none;stroke:#6D6E71;stroke-width:0.34;stroke-linecap:round;stroke-linejoin:round;stroke-miterlimit:10;" d="   M235.345,315.61c-0.06,0.2-8.31,19.19-31.27,28.89c-21.12,8.9-51.7,9.44-56.72,9.49h-0.74h1.45h-0.71   c-5.04-0.05-35.63-0.59-56.75-9.49c-22.96-9.7-31.18-28.69-31.26-28.89"/>
	
		<path style="fill-rule:evenodd;clip-rule:evenodd;fill:none;stroke:#6D6E71;stroke-width:0.34;stroke-linecap:round;stroke-linejoin:round;stroke-miterlimit:10;" d="   M235.345,313.63c-0.06,0.22-8.31,19.19-31.27,28.88c-21.12,8.93-51.7,9.47-56.72,9.5h-0.74h1.45h-0.71   c-5.04-0.03-35.63-0.57-56.75-9.5c-22.96-9.69-31.18-28.66-31.26-28.88"/>
	<g>
		<defs>
			<path id="SVGID_3_" d="M146.505,241.63h2.21v0.03l20.87,0.19c0.11,0,10.29,0.15,15.64,1.36c5.39,1.25,36.68,8.93,36.99,8.99     c0,0.34,0.66,32.91,4.11,67.04c-0.19,0.23-19.75,21.74-77.61,22.08h-2.21c-57.88-0.34-77.44-21.85-77.64-22.08     c3.49-34.13,4.11-66.7,4.11-67.04c0.31-0.06,31.61-7.74,36.99-8.99c5.36-1.21,15.54-1.36,15.65-1.36l20.89-0.19V241.63z"/>
		</defs>
		<use xlink:href="#SVGID_3_" style="fill-rule:evenodd;clip-rule:evenodd;fill:#FFFFFF;stroke:#6D6E71;stroke-width:0.34;stroke-linecap:round;stroke-linejoin:round;stroke-miterlimit:10;" data-fill-id="15" class="can-change"/>
		<clipPath id="SVGID_4_">
			<use xlink:href="#SVGID_3_" style="overflow:visible;"/>
		</clipPath>
		<g style="clip-path:url(#SVGID_4_);">
			<g>
				
					<path style="fill-rule:evenodd;clip-rule:evenodd;fill:#FFFFFF;stroke:#6D6E71;stroke-width:0.34;stroke-linecap:round;stroke-linejoin:round;stroke-miterlimit:10;" d="      M164.505-58.22h7.31v482.74h-7.31V-58.22z" class="can-change"/>
				
					<path style="fill-rule:evenodd;clip-rule:evenodd;fill:#FFFFFF;stroke:#6D6E71;stroke-width:0.34;stroke-linecap:round;stroke-linejoin:round;stroke-miterlimit:10;" d="      M179.165-58.22h7.31v482.74h-7.31V-58.22z" class="can-change"/>
				
					<path style="fill-rule:evenodd;clip-rule:evenodd;fill:#FFFFFF;stroke:#6D6E71;stroke-width:0.34;stroke-linecap:round;stroke-linejoin:round;stroke-miterlimit:10;" d="      M171.815-58.22h7.35v482.74h-7.35V-58.22z" class="can-change"/>
			</g>
		</g>
		
			<use xlink:href="#SVGID_3_" style="overflow:visible;fill-rule:evenodd;clip-rule:evenodd;fill:none;stroke:#6D6E71;stroke-width:0.34;stroke-linecap:round;stroke-linejoin:round;stroke-miterlimit:10;"/>
	</g>
	
		<path style="fill-rule:evenodd;clip-rule:evenodd;fill:none;stroke:#6D6E71;stroke-width:0.34;stroke-linecap:round;stroke-linejoin:round;stroke-miterlimit:10;" d="   M146.675,244.86l0.14,94.05"/>
	
		<path style="fill-rule:evenodd;clip-rule:evenodd;fill:none;stroke:#6D6E71;stroke-width:0.34;stroke-linecap:round;stroke-linejoin:round;stroke-miterlimit:10;" d="   M148.575,244.86l0.14,94.05"/>
	
		<path style="fill-rule:evenodd;clip-rule:evenodd;fill:none;stroke:#6D6E71;stroke-width:0.34;stroke-linecap:round;stroke-linejoin:round;stroke-miterlimit:10;" d="   M72.635,254.89c0.34-0.11,33.68-9.15,45.81-10.09c0.06,0,5.19-0.22,8.11-0.25c2.29-0.03,15.27-0.17,21-0.2l2.69-0.03h-5.38   l2.69,0.03c5.7,0.03,18.71,0.17,20.98,0.2c2.92,0.03,8.08,0.25,8.13,0.25c12.11,0.94,45.44,9.98,45.78,10.09"/>
	
		<path style="fill-rule:evenodd;clip-rule:evenodd;fill:none;stroke:#6D6E71;stroke-width:0.34;stroke-linecap:round;stroke-linejoin:round;stroke-miterlimit:10;" d="   M72.635,256.62c0.34-0.08,33.68-9.15,45.81-10.09c0.06,0,5.19-0.2,8.11-0.25c2.29-0.03,15.27-0.17,21-0.2l2.69-0.03h-5.38   l2.69,0.03c5.7,0.03,18.71,0.17,20.98,0.2c2.92,0.05,8.08,0.25,8.13,0.25c12.11,0.94,45.44,10.01,45.78,10.09"/>
	<g>
		
			<path style="fill-rule:evenodd;clip-rule:evenodd;fill:none;stroke:#6D6E71;stroke-width:0.34;stroke-linecap:round;stroke-linejoin:round;stroke-miterlimit:10;" d="    M145.595,248.77l3.97-3.51"/>
		
			<path style="fill-rule:evenodd;clip-rule:evenodd;fill:none;stroke:#6D6E71;stroke-width:0.34;stroke-linecap:round;stroke-linejoin:round;stroke-miterlimit:10;" d="    M145.595,250.53l3.97-3.52"/>
		
			<path style="fill-rule:evenodd;clip-rule:evenodd;fill:none;stroke:#6D6E71;stroke-width:0.34;stroke-linecap:round;stroke-linejoin:round;stroke-miterlimit:10;" d="    M145.595,252.29l3.97-3.52"/>
		
			<path style="fill-rule:evenodd;clip-rule:evenodd;fill:none;stroke:#6D6E71;stroke-width:0.34;stroke-linecap:round;stroke-linejoin:round;stroke-miterlimit:10;" d="    M145.595,254.04l3.97-3.51"/>
		
			<path style="fill-rule:evenodd;clip-rule:evenodd;fill:none;stroke:#6D6E71;stroke-width:0.34;stroke-linecap:round;stroke-linejoin:round;stroke-miterlimit:10;" d="    M145.595,255.8l3.97-3.51"/>
		
			<path style="fill-rule:evenodd;clip-rule:evenodd;fill:none;stroke:#6D6E71;stroke-width:0.34;stroke-linecap:round;stroke-linejoin:round;stroke-miterlimit:10;" d="    M145.595,245.26l3.97,3.51"/>
		
			<path style="fill-rule:evenodd;clip-rule:evenodd;fill:none;stroke:#6D6E71;stroke-width:0.34;stroke-linecap:round;stroke-linejoin:round;stroke-miterlimit:10;" d="    M145.595,247.01l3.97,3.52"/>
		
			<path style="fill-rule:evenodd;clip-rule:evenodd;fill:none;stroke:#6D6E71;stroke-width:0.34;stroke-linecap:round;stroke-linejoin:round;stroke-miterlimit:10;" d="    M145.595,248.77l3.97,3.52"/>
		
			<path style="fill-rule:evenodd;clip-rule:evenodd;fill:none;stroke:#6D6E71;stroke-width:0.34;stroke-linecap:round;stroke-linejoin:round;stroke-miterlimit:10;" d="    M145.595,250.53l3.97,3.51"/>
		
			<path style="fill-rule:evenodd;clip-rule:evenodd;fill:none;stroke:#6D6E71;stroke-width:0.34;stroke-linecap:round;stroke-linejoin:round;stroke-miterlimit:10;" d="    M145.595,252.29l3.97,3.51"/>
	</g>
	
		<path style="fill-rule:evenodd;clip-rule:evenodd;fill:#FFFFFF;stroke:#6D6E71;stroke-width:0.34;stroke-linecap:round;stroke-linejoin:round;stroke-miterlimit:10;" d="   M230.975,154.24l5.59,6.15c-4.99,35.54-6.15,78.29-4.4,97.11c2.13,22.59,4.37,59.78,4.37,60.15c-1.11,9.19-8.33,17.41-14.94,22.74   c-5.16,4.16-10.18,6.49-10.18,6.49C199.515,251.12,223.635,175.27,230.975,154.24z" data-fill-id="16" class="can-change"/>
	
		<path style="fill-rule:evenodd;clip-rule:evenodd;fill:#FFFFFF;stroke:#6D6E71;stroke-width:0.34;stroke-linecap:round;stroke-linejoin:round;stroke-miterlimit:10;" d="   M191.865,8.99c0,0,20.38,11.53,31.72,15.82c11.31,4.28,31.83,13.09,31.83,13.09s12.1,5.22,17.57,18.8   c5.5,13.54,11.63,34.89,12.76,59.78c1.16,24.91,3.91,29.39,3.8,36.82c-9.16,6.75-22.23,8.7-35.44,11.42l-11.9-33.08   c0,0,10.43-46.29-10.23-71.6c0,0-18.12-18.03-23.02-22.34c-4.91-4.31-33.68-26.47-40.14-29.65   C168.815,8.05,182.845,8.59,191.865,8.99z" class="can-change"/>
	
		<path style="fill-rule:evenodd;clip-rule:evenodd;fill:#FFFFFF;stroke:#6D6E71;stroke-width:0.34;stroke-linecap:round;stroke-linejoin:round;stroke-miterlimit:10;" d="   M103.075,8.99c9.02-0.4,22.88-0.71,22.88-0.71c-6.46,3.2-34.27,22.85-39.15,27.18c-4.9,4.31-21.99,24.86-21.99,24.86   c-20.64,25.32-12.08,71.32-12.08,71.32l-11.85,32.97c-10.97-1.96-27.61-4.82-35.46-10.77c-0.14-7.43,2.64-12.45,3.77-37.36   c1.16-24.89,7.29-46.24,12.76-59.78c5.5-13.58,17.6-18.8,17.6-18.8s20.49-8.81,31.83-13.09C82.725,20.52,103.075,8.99,103.075,8.99   z" data-fill-id="5" class="can-change"/>
	
		<path style="fill-rule:evenodd;clip-rule:evenodd;fill:#FFFFFF;stroke:#6D6E71;stroke-width:0.34;stroke-linecap:round;stroke-linejoin:round;stroke-miterlimit:10;" d="   M64.015,154.24c7.34,21.03,31.47,96.88,19.56,192.64c0,0-5.02-2.33-10.17-6.49c-6.61-5.33-13.84-13.55-14.94-22.74   c0-0.37,2.24-37.56,4.36-60.15c1.76-18.82,0.6-61.57-4.39-97.11L64.015,154.24z" data-fill-id="2" class="can-change"/>
	
		<path style="fill-rule:evenodd;clip-rule:evenodd;fill:#FFFFFF;stroke:#6D6E71;stroke-width:0.34;stroke-linecap:round;stroke-linejoin:round;stroke-miterlimit:10;" d="   M58.435,160.39c-0.88-5.45-2.01-10.8-3.37-16.02l-4.28,20.67c-0.03-0.06-3.97,0.17-9.1-0.4l-0.8-0.03l11.91-33.08   c0.05,0.06,5.55,2.83,11.22,22.71L58.435,160.39z" data-fill-id="3" class="can-change"/>
	
		<path style="fill-rule:evenodd;clip-rule:evenodd;fill:#FFFFFF;stroke:#6D6E71;stroke-width:0.34;stroke-linecap:round;stroke-linejoin:round;stroke-miterlimit:10;" d="   M236.565,160.5l-5.59-6.15c5.67-19.87,11.17-22.65,11.23-22.71l11.9,33.08l-0.79,0.03c-5.13,0.57-9.07,0.34-9.1,0.4l-4.28-20.67   C238.575,149.7,237.445,155.06,236.565,160.5z" data-fill-id="17" class="can-change"/>
	
		<path style="fill-rule:evenodd;clip-rule:evenodd;fill:none;stroke:#000000;stroke-width:2.83;stroke-linecap:round;stroke-linejoin:round;stroke-miterlimit:10;" d="   M103.075,8.99c0,0,48.45-2.81,88.79,0"/>
	
		<path style="fill-rule:evenodd;clip-rule:evenodd;fill:none;stroke:#000000;stroke-width:2.83;stroke-linecap:round;stroke-linejoin:round;stroke-miterlimit:10;" d="   M58.465,317.65c0,0,0.71,17.04,25.11,29.23"/>
	
		<path style="fill-rule:evenodd;clip-rule:evenodd;fill:none;stroke:#000000;stroke-width:2.83;stroke-linecap:round;stroke-linejoin:round;stroke-miterlimit:10;" d="   M237.015,317.65c0,0-0.71,17.04-25.11,29.23"/>
	<g>
		<defs>
			<path id="SVGID_5_" d="M5.425,153.84c1.25,0.17,16.56,9.95,45.36,11.2l-3.35,16.8c0,0-23.19,3.01-44.9-11.42L5.425,153.84z"/>
		</defs>
		<use xlink:href="#SVGID_5_" style="overflow:visible;fill-rule:evenodd;clip-rule:evenodd;fill:#FFFFFF;" data-fill-id="6" class="can-change"/>
		<clipPath id="SVGID_6_">
			<use xlink:href="#SVGID_5_" style="overflow:visible;"/>
		</clipPath>
		<g style="clip-path:url(#SVGID_6_);">
			<g>
				
					<path style="fill-rule:evenodd;clip-rule:evenodd;fill:#FFFFFF;stroke:#6D6E71;stroke-width:0.34;stroke-linecap:round;stroke-linejoin:round;stroke-miterlimit:10;" d="      M4.235,157.84c1.28,0.17,16.78,10.14,46.12,11.79l-3.6,16.75c0,0-23.73,2.69-45.67-12.02L4.235,157.84z" data-fill-id="7" class="can-change"/>
				
					<path style="fill-rule:evenodd;clip-rule:evenodd;fill:#FFFFFF;stroke:#6D6E71;stroke-width:0.34;stroke-linecap:round;stroke-linejoin:round;stroke-miterlimit:10;" d="      M3.475,162.06c1.24,0.2,16.8,10.18,46.31,11.79l-3.63,16.78c0,0-23.83,2.69-45.89-12.02L3.475,162.06z" data-fill-id="8" class="can-change"/>
				
					<path style="fill-rule:evenodd;clip-rule:evenodd;fill:#FFFFFF;stroke:#6D6E71;stroke-width:0.34;stroke-linecap:round;stroke-linejoin:round;stroke-miterlimit:10;" d="      M2.425,166.31c1.27,0.17,17,10.18,46.8,11.79l-3.66,16.78c0,0-24.09,2.7-46.38-12.04L2.425,166.31z" data-fill-id="9" class="can-change"/>
			</g>
		</g>
		
			<use xlink:href="#SVGID_5_" style="overflow:visible;fill-rule:evenodd;clip-rule:evenodd;fill:none;stroke:#6D6E71;stroke-width:0.34;stroke-linecap:round;stroke-linejoin:round;stroke-miterlimit:10;"/>
	</g>
	
		<path style="fill-rule:evenodd;clip-rule:evenodd;fill:#FFFFFF;stroke:#6D6E71;stroke-width:0.34;stroke-linecap:round;stroke-linejoin:round;stroke-miterlimit:10;" d="   M289.575,153.95l2.89,16.58c-21.72,14.43-44.9,11.43-44.9,11.43l-3.35-16.81C273.015,163.9,288.325,154.12,289.575,153.95z" class="can-change"/>
	<g>
		<defs>
			<path id="SVGID_7_" d="M289.575,153.95l2.89,16.58c-21.72,14.43-44.9,11.43-44.9,11.43l-3.35-16.81     C273.015,163.9,288.325,154.12,289.575,153.95z"/>
		</defs>
		<use xlink:href="#SVGID_7_" style="overflow:visible;fill-rule:evenodd;clip-rule:evenodd;fill:#FFFFFF;" data-fill-id="10" class="can-change"/>
		<clipPath id="SVGID_8_">
			<use xlink:href="#SVGID_7_" style="overflow:visible;"/>
		</clipPath>
		<g style="clip-path:url(#SVGID_8_);">
			<g>
				
					<path style="fill-rule:evenodd;clip-rule:evenodd;fill:#FFFFFF;stroke:#6D6E71;stroke-width:0.34;stroke-linecap:round;stroke-linejoin:round;stroke-miterlimit:10;" d="      M290.765,157.95l3.14,16.52c-21.94,14.72-45.66,12.02-45.66,12.02l-3.6-16.75C273.985,168.1,289.485,158.12,290.765,157.95z" data-fill-id="11" class="can-change"/>
				
					<path style="fill-rule:evenodd;clip-rule:evenodd;fill:#FFFFFF;stroke:#6D6E71;stroke-width:0.34;stroke-linecap:round;stroke-linejoin:round;stroke-miterlimit:10;" d="      M291.525,162.17l3.2,16.56c-22.05,14.71-45.89,12.02-45.89,12.02l-3.63-16.79C274.715,172.35,290.275,162.37,291.525,162.17z" data-fill-id="12" class="can-change"/>
				
					<path style="fill-rule:evenodd;clip-rule:evenodd;fill:#FFFFFF;stroke:#6D6E71;stroke-width:0.34;stroke-linecap:round;stroke-linejoin:round;stroke-miterlimit:10;" d="      M292.575,166.42l3.23,16.53c-22.28,14.74-46.37,12.05-46.37,12.05l-3.66-16.78C275.565,176.6,291.305,166.59,292.575,166.42z" data-fill-id="13" class="can-change"/>
			</g>
		</g>
		
			<use xlink:href="#SVGID_7_" style="overflow:visible;fill-rule:evenodd;clip-rule:evenodd;fill:none;stroke:#6D6E71;stroke-width:0.34;stroke-linecap:round;stroke-linejoin:round;stroke-miterlimit:10;"/>
	</g>
	<g class="human-logo">
		<path style="fill-rule:evenodd;clip-rule:evenodd;" d="M117.565,322.859l0.872-4.899h2.187l-0.245,1.398h1.542l0.257-1.398h3.937    l-0.496,2.838c-0.012,0.036-0.018,0.078-0.024,0.119h0.084h1.195c0.072,0,0.155,0,0.227-0.036c0.054-0.072,0.072-0.167,0.09-0.251    l0.472-2.671h4.344l0.717,1.978l1.416-1.978h2.683l-0.484,2.689l1.93-2.689h2.163l1.064,2.862l0.508-2.862h2.539l1.237,2.002    l0.353-2.002h2.199l-0.872,4.899h-2.539l-1.237-2.002l-0.358,2.002h-3.453l-0.251-0.687h-1.84l-0.478,0.687h-3.513l0.239-1.356    l-0.992,1.356h-1.488l-0.573-1.506l-0.275,1.506h-2.151l0.084-0.478c-0.024,0.03-0.054,0.048-0.084,0.072    c-0.448,0.341-1.034,0.454-1.583,0.454h-1.727c-0.466,0-0.968-0.072-1.344-0.358c-0.113-0.078-0.215-0.185-0.287-0.305    l-0.107,0.615h-2.193l0.263-1.482h-1.547l-0.263,1.482H117.565z" class="can-change"/>
		<polygon style="fill-rule:evenodd;clip-rule:evenodd;fill:#FFFFFF;" points="118.145,322.357 118.844,318.437 120.045,318.437     119.794,319.835 122.333,319.835 122.578,318.437 123.785,318.437 123.086,322.357 121.885,322.357 122.154,320.875     119.615,320.875 119.352,322.357   " class="can-change"/>
		<path style="fill-rule:evenodd;clip-rule:evenodd;fill:#FFFFFF;" d="M123.881,320.965l0.442-2.528h1.207l-0.394,2.259    c-0.09,0.502,0.054,0.699,0.544,0.699h1.195c0.496,0,0.705-0.197,0.795-0.699l0.4-2.259h1.207l-0.454,2.528    c-0.167,0.968-0.759,1.44-1.858,1.44h-1.727C124.132,322.405,123.707,321.933,123.881,320.965" class="can-change"/>
		<polygon style="fill-rule:evenodd;clip-rule:evenodd;fill:#FFFFFF;" points="129.127,322.357 129.82,318.437 131.666,318.437     132.58,320.965 134.391,318.437 136.237,318.437 135.544,322.357 134.373,322.357 134.869,319.537 134.857,319.537     132.783,322.357 131.881,322.357 130.806,319.537 130.794,319.537 130.298,322.357   " class="can-change"/>
		<path style="fill-rule:evenodd;clip-rule:evenodd;fill:#FFFFFF;" d="M139.141,319.34l-1.016,1.482h1.536L139.141,319.34z     M135.699,322.357l2.82-3.92h1.571l1.458,3.92h-1.339l-0.245-0.687h-2.438l-0.484,0.687H135.699z" class="can-change"/>
		<polygon style="fill-rule:evenodd;clip-rule:evenodd;fill:#FFFFFF;" points="141.716,322.357 142.409,318.437 144.267,318.437     146.024,321.281 146.036,321.281 146.538,318.437 147.745,318.437 147.058,322.357 145.193,322.357 143.431,319.507     143.419,319.507 142.917,322.357   " class="can-change"/>
		<path style="fill-rule:evenodd;clip-rule:evenodd;" d="M148.48,321.341l0.048-0.263h1.207c-0.072,0.412,0.09,0.448,0.442,0.448    h1.47c0.263,0,0.526-0.03,0.58-0.329c0.054-0.346-0.077-0.364-1.631-0.364c-1.81,0-1.978-0.221-1.804-1.183    c0.125-0.711,0.281-1.261,1.798-1.261h1.685c1.386,0,1.434,0.472,1.309,1.159l-0.018,0.126h-1.201    c0.048-0.287,0.036-0.4-0.514-0.4h-1.338c-0.263,0-0.466,0.09-0.508,0.299c-0.06,0.347,0.084,0.359,1.38,0.353    c1.87-0.006,2.282,0.102,2.085,1.249c-0.191,1.057-0.586,1.231-2.175,1.231h-1.464    C148.737,322.405,148.336,322.196,148.48,321.341" class="can-change"/>
		<path style="fill-rule:evenodd;clip-rule:evenodd;" d="M155.452,319.411l-0.173,0.986h1.876c0.275,0,0.418-0.185,0.46-0.418    l0.03-0.149c0.042-0.269-0.06-0.418-0.424-0.418H155.452z M153.732,322.357l0.693-3.92h3.274c1.147,0,1.326,0.574,1.183,1.344    l-0.054,0.335c-0.108,0.58-0.478,1.255-1.326,1.255h-2.396l-0.173,0.986H153.732z" class="can-change"/>
		<polygon style="fill-rule:evenodd;clip-rule:evenodd;" points="158.81,322.357 159.503,318.437 163.794,318.437 163.638,319.34     160.549,319.34 160.441,319.973 163.363,319.973 163.22,320.785 160.298,320.785 160.185,321.419 163.345,321.419     163.172,322.357   " class="can-change"/>
		<polygon style="fill-rule:evenodd;clip-rule:evenodd;" points="163.638,322.357 164.325,318.437 168.621,318.437 168.46,319.34     165.377,319.34 165.263,319.973 168.185,319.973 168.048,320.785 165.12,320.785 165.006,321.419 168.167,321.419 168,322.357       " class="can-change"/>
		<path style="fill-rule:evenodd;clip-rule:evenodd;" d="M170.229,319.411l-0.341,1.936h2.127c0.52,0,0.747-0.144,0.843-0.705    l0.096-0.526c0.095-0.556-0.078-0.705-0.591-0.705H170.229z M168.508,322.357l0.687-3.92h3.627c1.207,0,1.56,0.394,1.386,1.368    l-0.209,1.189c-0.174,0.968-0.663,1.362-1.864,1.362H168.508z" class="can-change"/>
		<path style="fill-rule:evenodd;clip-rule:evenodd;" d="M176.001,317.702c-0.562,0-0.986,0.466-0.986,1.028    c0,0.585,0.424,1.034,1.004,1.034c0.55,0.006,0.98-0.448,0.98-1.028C176.998,318.168,176.568,317.702,176.001,317.702     M176.018,317.427c0.717,0,1.297,0.592,1.297,1.303c0,0.723-0.58,1.309-1.309,1.309c-0.729,0-1.314-0.586-1.314-1.309    C174.692,318.019,175.278,317.427,176.018,317.427 M175.803,318.3v0.377h0.149c0.161,0,0.293-0.06,0.293-0.179    c0-0.132-0.072-0.209-0.275-0.209C175.899,318.288,175.833,318.294,175.803,318.3 M175.791,318.891v0.514h-0.263v-1.314    c0.102-0.012,0.251-0.024,0.454-0.024c0.245,0,0.352,0.024,0.436,0.108c0.072,0.048,0.137,0.149,0.137,0.281    c0,0.143-0.131,0.239-0.275,0.305v0.018c0.131,0.036,0.185,0.131,0.233,0.311c0.042,0.203,0.06,0.269,0.09,0.317h-0.281    c-0.054-0.054-0.078-0.149-0.108-0.317c-0.03-0.137-0.108-0.197-0.275-0.197H175.791z" class="can-change"/>
		<rect x="117.565" y="317.427" style="fill:none;" width="59.75" height="5.479"/>
		<path d="M153.538,323.744h0.343l-0.24,1.128h-0.343L153.538,323.744z"/>
		<path d="M154.682,323.744h0.546l0.501,0.857l0.172-0.857h0.325l-0.238,1.128h-0.551l-0.494-0.849l-0.171,0.849h-0.33    L154.682,323.744z"/>
		<path d="M157.352,324.023h-0.502l0.059-0.279h1.348l-0.059,0.279h-0.502l-0.181,0.849h-0.343L157.352,324.023z"/>
		<path d="M160.187,323.744l-0.054,0.255h-0.91l-0.042,0.194h0.861l-0.047,0.223h-0.861l-0.042,0.199h0.923l-0.054,0.255h-1.261    l0.24-1.128H160.187z"/>
		<path d="M160.961,323.744h0.343l-0.181,0.849h0.776l-0.059,0.279h-1.119L160.961,323.744z"/>
		<path d="M162.768,323.744h0.343l-0.181,0.849h0.776l-0.059,0.279h-1.119L162.768,323.744z"/>
		<path d="M164.575,323.744h0.343l-0.24,1.128h-0.343L164.575,323.744z"/>
		<path d="M166.746,324.126c0.002-0.015,0.005-0.03,0.005-0.042c0.002-0.037-0.02-0.064-0.057-0.074    c-0.03-0.009-0.032-0.009-0.115-0.009l-0.156-0.002l-0.216,0.002c-0.152,0-0.206,0.029-0.24,0.127    c-0.034,0.1-0.074,0.303-0.074,0.369c0,0.088,0.054,0.12,0.201,0.122c0.037,0.002,0.113,0.002,0.311,0.002    c0.159,0,0.208-0.015,0.245-0.073c0.012-0.022,0.017-0.035,0.029-0.102h-0.434l0.046-0.21h0.769l-0.034,0.156    c-0.034,0.162-0.044,0.198-0.074,0.272c-0.057,0.138-0.178,0.21-0.36,0.215c-0.039,0.002-0.221,0.002-0.431,0.002    c-0.36,0-0.438-0.008-0.529-0.059c-0.066-0.037-0.1-0.112-0.1-0.218c0-0.073,0.02-0.189,0.069-0.396    c0.066-0.282,0.151-0.392,0.338-0.44c0.096-0.024,0.228-0.032,0.522-0.032c0.411,0,0.477,0.007,0.563,0.061    c0.054,0.032,0.081,0.09,0.081,0.171c0,0.042-0.007,0.088-0.022,0.159H166.746z"/>
		<path d="M169.19,323.744l-0.054,0.255h-0.91l-0.042,0.194h0.861l-0.047,0.223h-0.861l-0.042,0.199h0.923l-0.054,0.255h-1.261    l0.24-1.128H169.19z"/>
		<path d="M169.965,323.744h0.546l0.501,0.857l0.172-0.857h0.325l-0.238,1.128h-0.551l-0.494-0.849l-0.171,0.849h-0.33    L169.965,323.744z"/>
		<path d="M172.634,324.023h-0.502l0.059-0.279h1.348l-0.059,0.279h-0.502l-0.181,0.849h-0.343L172.634,324.023z"/>
		<g>
			<polygon style="fill:#ED1C24;" points="147.849,324.49 147.768,324.872 149.011,324.872 149.094,324.49    " class="can-change"/>
			<polygon style="fill:#ED1C24;" points="152.933,324.126 153.014,323.744 149.626,323.744 149.544,324.126    " class="can-change"/>
			<polygon style="fill:#ED1C24;" points="149.254,323.744 148.008,323.744 147.926,324.126 149.172,324.126    " class="can-change"/>
			<polygon style="fill:#ED1C24;" points="149.384,324.872 152.774,324.872 152.856,324.49 149.466,324.49    " class="can-change"/>
			<polygon style="fill:#FFFFFF;" points="149.544,324.126 149.626,323.744 149.254,323.744 149.172,324.126 147.926,324.126      147.849,324.49 149.094,324.49 149.011,324.872 149.384,324.872 149.466,324.49 152.856,324.49 152.933,324.126    " class="can-change"/>
		</g>
	</g>
</g>
</svg>