<svg xmlns="http://www.w3.org/2000/svg" xmlns:xlink="http://www.w3.org/1999/xlink" version="1.1" id="Layer_1" x="0px" y="0px" viewBox="-763 236 280 420" style="enable-background:new -763 236 280 420;" xml:space="preserve" data-product="2017513" data-design="3" data-size="m">
<style type="text/css">
	.st0{fill:#FFFFFF;stroke:#6D6E70;stroke-width:0.34;stroke-linecap:round;stroke-linejoin:round;stroke-miterlimit:10;}
	.st1{fill:#FFFFFF;}
	.st2{clip-path:url(#SVGID_6_);}
	.st3{fill:#FFFFFF;stroke:#6D6E70;stroke-width:0.4;stroke-linecap:round;stroke-linejoin:round;stroke-miterlimit:10;}
	.st4{fill:none;stroke:#6D6E70;stroke-width:0.34;stroke-linecap:round;stroke-linejoin:round;stroke-miterlimit:10;}
	.st5{clip-path:url(#SVGID_8_);}
	.st6{fill:#EDEDED;stroke:#6D6E70;stroke-width:0.34;stroke-linecap:round;stroke-linejoin:round;stroke-miterlimit:10;}
	.st7{fill:#231F20;}
	.st8{fill:none;}
	.st9{fill:#EC1C24;}
</style>
<path class="st0 cannot-edit can-change" d="M-659.9,246.1c3.4,0.3,36.4,22.1,77.6,0c0,0-5.5,52-41.4,48.3c-35.9-3.7-41.6-46.9-38.9-47.6  C-659.9,246.1-663.3,245.8-659.9,246.1z" fill="rgb(255, 255, 255)"></path>
<path class="st0 can-change" d="M-579,243c31.8,12.2,59.1,27.6,64.2,33c0.1,0,4.1,4.6,8.4,15.2c2.4,6,5,14.2,7.1,23.6  c9.3,39.6,10.2,65,10.2,65.3c-2.2,3.6-17.2,18.4-37.2,11.2c-2.1-4.4-12.4-28.8-13.9-33.3c-1.2-3.7-8-25.6-8-25.7  c0.1-0.3-4.9-23.8-3.5-40.1c-1.2-3.7-2.8-7.1-4.9-10c-9-8.2-11.5-11.1-26.8-19.3C-580.2,251.8-580.6,252.1-579,243z" fill="rgb(255, 255, 255)" data-fill-id="4"></path>
<path class="st0 can-change" d="M-666.7,243c1.6,9.1,1.2,8.8,4.4,20c-15.3,8.2-17.8,11-26.7,19.2c-2.1,2.9-3.7,6.3-4.9,10  c1.3,16.3-3.6,39.8-3.5,40.1c0,0.1-6.8,22-7.9,25.7c-1.4,4.5-10.8,26.7-12.9,31.1c-20,7.2-36.3-7.9-38.5-11.6  c0-0.3,1.1-23,10.5-62.6c2-9.4,4.6-17.6,7-23.6c4.2-10.7,8.2-15.2,8.3-15.3C-725.7,270.6-698.5,255.2-666.7,243z" fill="rgb(255, 255, 255)" data-fill-id="6"></path>
<g>
	<g>
		<path id="SVGID_1_" class="st1 can-change filled" d="M-541.4,354.6c0.4,0.3,0.5,0.7,0.5,1c-1.7,9.6-3.5,23.6-3.9,30.4c0.3,14.5-3.1,24-2,65.7    c-22.9,8.4-51.8,11-76,11l0,0V293.5h0.1c19.8-0.2,30.5-10.8,39.7-50.7l3.6,2.5l0.4-2.3c15.1,4.9,30.7,13.3,30.8,13.4    C-558,310-544.1,347.8-541.4,354.6z" fill="rgb(255, 255, 255)" data-fill-id="2" style="fill: rgb(237, 28, 36);"></path>
	</g>
	<g>
		<defs>
			<path id="SVGID_5_" d="M-541.4,354.6c0.4,0.3,0.5,0.7,0.5,1c-1.7,9.6-3.5,23.6-3.9,30.4c0.3,14.5-3.1,24-2,65.7     c-22.9,8.4-51.8,11-76,11l0,0V293.5h0.1c19.8-0.2,30.5-10.8,39.7-50.7l3.6,2.5l0.4-2.3c15.1,4.9,30.7,13.3,30.8,13.4     C-558,310-544.1,347.8-541.4,354.6z"></path>
		</defs>
		<clipPath id="SVGID_6_">
			<use xlink:href="#SVGID_5_" style="overflow:visible;"></use>
		</clipPath>
		<g class="st2 can-change" fill="rgb(0, 0, 0)">
			<path class="st3 can-change selected filled" d="M-536.4,347c-4-0.4-8.2-1-12.7-1.9c-26.3-5.2-52.6-6.8-75.9-6.8v-58.1h0.2c21.9-0.2,33.9-12.7,44.1-59.8     l4,2.9l0.4-2.8c16.8,5.8,34.1,15.7,34.3,15.8C-551.5,291-541.3,331.8-536.4,347z" fill="rgb(255, 255, 255)" data-fill-id="3" style="fill: rgb(0, 102, 179);"></path>
		</g>
	</g>
	<g>
		<path id="SVGID_2_" class="st4" d="M-541.4,354.6c0.4,0.3,0.5,0.7,0.5,1c-1.7,9.6-3.5,23.6-3.9,30.4c0.3,14.5-3.1,24-2,65.7    c-22.9,8.4-51.8,11-76,11l0,0V293.5h0.1c19.8-0.2,30.5-10.8,39.7-50.7l3.6,2.5l0.4-2.3c15.1,4.9,30.7,13.3,30.8,13.4    C-558,310-544.1,347.8-541.4,354.6z" fill="none"></path>
	</g>
</g>
<g>
	<g>
		<path id="SVGID_3_" class="st1 can-change" d="M-704.2,354.6c2.7-6.8,16.6-44.6,6.7-98.2c0.2-0.1,15.7-8.5,30.9-13.4l0.4,2.3l3.6-2.5    c9.2,39.9,19.9,50.4,39.7,50.7h0.1v169.1l0,0c-24.3,0-53.1-2.6-76-11c1.1-41.7-2.4-51.2-2-65.7c-0.3-6.7-2.2-20.8-3.8-30.4    C-704.7,355.2-704.6,354.9-704.2,354.6z" fill="rgb(255, 255, 255)"></path>
	</g>
	<g>
		<defs>
			<path id="SVGID_7_" d="M-704.2,354.6c2.7-6.8,16.6-44.6,6.7-98.2c0.2-0.1,15.7-8.5,30.9-13.4l0.4,2.3l3.6-2.5     c9.2,39.9,19.9,50.4,39.7,50.7h0.1v169.1l0,0c-24.3,0-53.1-2.6-76-11c1.1-41.7-2.4-51.2-2-65.7c-0.3-6.7-2.2-20.8-3.8-30.4     C-704.7,355.2-704.6,354.9-704.2,354.6z"></path>
		</defs>
		<clipPath id="SVGID_8_">
			<use xlink:href="#SVGID_7_" style="overflow:visible;"></use>
		</clipPath>
		<g class="st5 can-change" fill="rgb(0, 0, 0)">
			<path class="st3 can-change" d="M-707.6,347c4.9-15.2,15-56,5.5-110.7c0.2-0.1,17.5-10,34.3-15.8l0.4,2.8l4-2.9     c10.4,47.1,22.3,59.6,44.3,59.8h0.2v58.2c-23.3-0.1-49.6,1.5-75.9,6.8C-699.3,346-703.6,346.6-707.6,347z" fill="rgb(255, 255, 255)"></path>
		</g>
	</g>
	<g>
		<path id="SVGID_4_" class="st4" d="M-704.2,354.6c2.7-6.8,16.6-44.6,6.7-98.2c0.2-0.1,15.7-8.5,30.9-13.4l0.4,2.3l3.6-2.5    c9.2,39.9,19.9,50.4,39.7,50.7h0.1v169.1l0,0c-24.3,0-53.1-2.6-76-11c1.1-41.7-2.4-51.2-2-65.7c-0.3-6.7-2.2-20.8-3.8-30.4    C-704.7,355.2-704.6,354.9-704.2,354.6z" fill="none"></path>
	</g>
</g>
<path class="st0 can-change" d="M-534.5,564.8c0,3.3-0.1,6.6-0.2,10c0,0.1,0.3,8.6-0.6,19.9c-0.9,10.3-2.8,25.4-3.7,28.9  c-0.9,5.4-1.9,12.2-2.7,17.6c-0.2,0.2-19.9,18.9-68.7-1.4l-1.9-17.3c0-0.2-1.7-22.6-3.9-27.8c-2.2-5.2-3.3-26-3.3-26.2l0.4-15.9  c0,0-2.3,1.2-3.6,1.2c-1.2,0-3.6-1.2-3.6-1.2l0.5,15.9c0,0.2-1.1,21-3.3,26.2c-2.2,5.2-3.9,27.6-3.9,27.8l-2,17.3  c-48.8,20.3-68.5,1.5-68.7,1.4c-0.8-5.4-1.8-12.2-2.7-17.6c-0.9-3.5-2.8-18.7-3.7-28.9c-0.9-11.3-0.6-19.8-0.6-19.9  c-1.5-41.8,0.7-72.2,2.9-81.8s3.3-16.5,6.5-31.3c0.8-3.9,1.7-7.4,2.4-10.4c1-41.4-2.4-50.9-2-65.4c-0.3-6.7-2.2-20.8-3.8-30.4  c3.2-9.2,3.2-13.1,7.1-23.6c19.2,18.3,19.8,49.9,21.1,69.7c0.8,11.9,2.8,33.4,0.6,55.6c13.4,2.7,31.8,5.2,53.2,5.2  c21.7,0,39.9-2.6,52.8-5.3c-2.1-22.1-0.2-43.6,0.6-55.5c1.3-19.8,2-51.4,21.1-69.7c4,10.5,4,14.5,7.2,23.6  c-1.7,9.6-3.5,23.6-3.9,30.4c0.3,14.5-3.1,24-2,65.4c0.7,3,1.6,6.5,2.4,10.4c3.2,14.8,4.3,21.6,6.5,31.3  C-535.9,501.8-533.9,528.2-534.5,564.8z" fill="rgb(255, 255, 255)" data-fill-id="1"></path>
<path class="st0 can-change" d="M-659.9,242.8c0,0,35.1,20.3,74.6-0.1l-2,8.3c0,0-30.4,19-70.9-0.4C-658.3,250.5-659.9,242.7-659.9,242.8z" fill="rgb(255, 255, 255)"></path>
<path class="st0 can-change" d="M-622.8,554l0.1-91.3" fill="rgb(255, 255, 255)"></path>
<path class="st0 can-change" d="M-622.8,430.9l0.1-138" fill="rgb(255, 255, 255)"></path>
<path class="st0 can-change" d="M-666.7,243l6.8-0.2c0,0,2.5,17.5,11.3,34.2c5.4,10.3,16.8,14.5,26.1,14.1c0,0,9.8,0.4,16.5-4.7  c4.6-3.4,9.3-8.6,13-17.1c3.4-8.6,6-17.6,7.7-26.6l6.4,0.3c0,0-4.8,25.4-11.6,35.7c-6.9,10.3-16.2,19-32.3,19.3  c-16.2,0.4-28.2-10-32.7-18.1c-4.5-8.2-8.8-21.6-10.3-31.7L-666.7,243z" fill="rgb(255, 255, 255)" data-fill-id="8"></path>
<path class="st0 can-change" d="M-622.8,462.6V290.9" fill="rgb(255, 255, 255)"></path>
<path class="st0 can-change" d="M-620.8,462.6l0.1-171.7" fill="rgb(255, 255, 255)"></path>
<path class="st0 can-change" d="M-624.9,462.6l0.1-171.7" fill="rgb(255, 255, 255)"></path>
<g>
	<path class="st0 can-change" d="M-622.8,294.5h0.8c0,0,0.1-0.2,0.2-0.6c0-0.4,0.1-0.4,0.1-0.4s0.3-0.3,0.4-0.3c0.1-0.1,0.1-0.3,0.1-0.3   s0-0.3,0-0.8c0-0.4-0.1-0.5-0.1-0.5l-1-1v-0.5h-0.5h-0.5v0.5l-0.9,1c0,0-0.1,0-0.2,0.5c0,0.5,0,0.8,0,0.8s0,0.2,0.2,0.3   c0.1,0.1,0.4,0.3,0.4,0.3s0.1,0,0.1,0.4c0.1,0.4,0.2,0.6,0.2,0.6H-622.8" fill="rgb(255, 255, 255)"></path>
	<path class="st0 can-change" d="M-622.8,294.5h0.8c0,0,0.1-0.2,0.2-0.6c0-0.2,0-0.3,0-0.3l0.1-0.1c0,0,0.3-0.3,0.4-0.3   c0.1-0.1,0.1-0.3,0.1-0.3l0,0c0,0,0-0.1,0-0.4c0-0.1,0-0.3,0-0.4c0-0.4-0.1-0.5-0.1-0.5l-1-1v-0.5h-0.5h-0.5v0.5l-0.9,1   c0,0-0.1,0-0.2,0.5c0,0.1,0,0.2,0,0.4s0,0.4,0,0.4l0,0c0,0,0,0.2,0.2,0.3c0.1,0.1,0.4,0.3,0.4,0.3l0.1,0.1c0,0,0.1,0.1,0.1,0.3   c0.1,0.4,0.2,0.6,0.2,0.6H-622.8h-0.8c0,0-0.1-0.2-0.2-0.6c0-0.2,0-0.3-0.1-0.3l-0.1-0.1c0,0-0.3-0.3-0.4-0.3   c-0.1-0.1-0.2-0.3-0.2-0.3l0,0c0,0,0-0.1,0-0.4c0-0.1,0-0.3,0-0.4c0-0.4,0.2-0.5,0.2-0.5l0.9-1v-0.5h0.5h0.5v0.5l1,1   c0,0,0.1,0,0.1,0.5c0,0.1,0,0.2,0,0.4s0,0.4,0,0.4l0,0c0,0,0,0.2-0.1,0.3c-0.1,0.1-0.4,0.3-0.4,0.3l-0.1,0.1c0,0,0,0.1,0,0.3   c0,0.4-0.2,0.6-0.2,0.6H-622.8z" fill="rgb(255, 255, 255)"></path>
	<path class="st0 can-change" d="M-623.1,290.4h0.6v3h-0.6V290.4v3h0.6v-3H-623.1z" fill="rgb(255, 255, 255)"></path>
	<path class="st0 can-change" d="M-622.8,295h1.3c0,0,0-2.2,0.1-2.4c0-0.3-0.1-0.3-0.1-0.3h-1.3h-1.2c0,0-0.2,0-0.1,0.3   c0.1,0.2,0.1,2.4,0.1,2.4H-622.8" fill="rgb(255, 255, 255)"></path>
	<path class="st0 can-change" d="M-622.8,295h1.3c0,0,0-2.2,0.1-2.4v-0.1c0-0.2-0.1-0.2-0.1-0.2h-1.3h-1.2c0,0-0.1,0-0.1,0.2v0.1   c0.1,0.2,0.1,2.4,0.1,2.4H-622.8h-1.3c0,0,0-2.2-0.1-2.4v-0.1c0-0.2,0.1-0.2,0.1-0.2h1.2h1.3c0,0,0.1,0,0.1,0.2v0.1   c-0.1,0.2-0.1,2.4-0.1,2.4H-622.8z" fill="rgb(255, 255, 255)"></path>
	<path class="st0 can-change" d="M-622.2,298.6h-1.2c-0.5-0.1-0.5-0.9-0.5-0.9l-0.2-2.7h2.6l-0.2,2.7C-621.7,297.7-621.7,298.5-622.2,298.6z" fill="rgb(255, 255, 255)"></path>
	<path class="st0 can-change" d="M-622.2,298.6c0.5-0.1,0.5-0.9,0.5-0.9l0.2-2.7h-2.6l0.2,2.7c0,0.1,0,0.8,0.5,0.9H-622.2h-1.2   c-0.5-0.1-0.5-0.9-0.5-0.9l-0.2-2.7h2.6l-0.2,2.7C-621.7,297.7-621.7,298.5-622.2,298.6z" fill="rgb(255, 255, 255)"></path>
	<path class="st0 can-change" d="M-622.4,294.8c0.1-0.6,0.3-1,0.6-1.4v-0.8h-2v0.8c0.3,0.5,0.5,0.8,0.6,1.4H-622.4h-0.8c-0.1-0.6-0.3-1-0.6-1.4   v-0.8h2v0.8C-622.1,293.9-622.3,294.2-622.4,294.8z" fill="rgb(255, 255, 255)"></path>
	<path class="st0 can-change" d="M-623.7,291.7h0.6v0.6h-0.6V291.7v0.6h0.6v-0.6H-623.7z" fill="rgb(255, 255, 255)"></path>
	<path class="st0 can-change" d="M-622.5,291.7h0.6v0.6h-0.6V291.7v0.6h0.6v-0.6H-622.5z" fill="rgb(255, 255, 255)"></path>
	<path class="st0 can-change" d="M-622.5,292.5h0.6v0.5h-0.6V292.5v0.5h0.6v-0.6h-0.6V292.5z" fill="rgb(255, 255, 255)"></path>
	<path class="st0 can-change" d="M-623.7,292.5h0.6v0.5h-0.6V292.5v0.5h0.6v-0.6h-0.6V292.5z" fill="rgb(255, 255, 255)"></path>
</g>
<g class="cannot-edit"><path class="st6 cannot-edit can-change" d="M-622.6,462.4V554h-0.1c-1.2,0-3.6-1.2-3.6-1.2l0.5,15.9c0,0.2-0.8,15.2-2.4,22.9  c-60.5-27.3-47.8-133.3-47.6-134.4C-662.5,459.9-644.1,462.4-622.6,462.4z" style="fill: rgb(0, 0, 0);"></path><path class="st6 cannot-edit can-change" d="M-623,462.4c21.4,0,39.8-2.6,53.2-5.3c0.1,1.1,12.8,107.1-47.5,134.4c-1.6-7.7-2.4-22.8-2.4-22.9l0.5-15.9  c0,0-2.4,1.2-3.6,1.2h-0.2V462.4z" style="fill: rgb(0, 0, 0);"></path></g>

<g class="cannot-edit"><path class="st4" d="M-626.7,562.8c0,0-15.2-2.5-10.7-16.4c4.6-13.8,5.1-18.2,4.6-24.3c-0.6-6.1-4.8-13.8,10.2-13.8" fill="none"></path><path class="st4" d="M-618.8,562.8c0,0,15.2-2.5,10.7-16.4c-4.5-13.8-5-18.2-4.5-24.3c0.6-6.1,4.8-13.8-10.1-13.8" fill="none"></path></g>

<path class="st0 can-change" d="M-756.8,377.5l1.8,2.6c17.7,16.5,36.7,9,36.7,9l-5.4,15.5c-22.2,5.3-35-10.1-35-10.1L-756.8,377.5z" fill="rgb(255, 255, 255)" data-fill-id="7"></path>
<path class="st0 can-change" d="M-489.1,379.8l1.8,17c0,0-12.4,15.4-33.8,10.1l-5.2-15.5c0,0,18.4,7.5,35.5-9L-489.1,379.8z" fill="rgb(255, 255, 255)" data-fill-id="5"></path>
<g class="human-logo">
	<path class="st7 can-change" d="M-614.4,327.7l0.8-4.6h2.1l-0.2,1.3h1.5l0.2-1.3h3.7l-0.5,2.7v0.1h0.1h1.1c0.1,0,0.1,0,0.2,0   c0.1-0.1,0.1-0.2,0.1-0.2l0.4-2.5h4.1l0.7,1.9l1.3-1.9h2.5l-0.5,2.6l1.8-2.6h2.1l1,2.7l0.5-2.7h2.4l1.2,1.9l0.3-1.9h2.1l-0.8,4.6   h-2.4l-1.2-1.9l-0.3,1.9h-3.3l-0.2-0.7h-1.7l-0.5,0.7h-3.2l0.2-1.3l-0.9,1.3h-1.4l-0.5-1.4l-0.3,1.4h-2l0.1-0.5c0,0-0.1,0-0.1,0.1   c-0.4,0.3-1,0.4-1.5,0.4h-1.6c-0.4,0-0.9-0.1-1.3-0.3c-0.1-0.1-0.2-0.2-0.3-0.3l-0.1,0.6h-2.1l0.2-1.4h-1.5l-0.2,1.4L-614.4,327.7   L-614.4,327.7z" fill="rgb(35, 31, 32)"></path>
	<polygon class="st1 can-change" points="-613.8,327.2 -613.2,323.5 -612,323.5 -612.3,324.8 -609.9,324.8 -609.6,323.5 -608.5,323.5    -609.2,327.2 -610.3,327.2 -610,325.8 -612.5,325.8 -612.7,327.2  " fill="rgb(255, 255, 255)"></polygon>
	<path class="st1 can-change" d="M-608.4,325.9l0.4-2.4h1.1l-0.4,2.1c-0.1,0.5,0.1,0.7,0.5,0.7h1.1c0.5,0,0.7-0.2,0.8-0.7l0.4-2.1h1.1l-0.4,2.4   c-0.2,0.9-0.7,1.4-1.8,1.4h-1.6C-608.2,327.3-608.6,326.8-608.4,325.9" fill="rgb(255, 255, 255)"></path>
	<polygon class="st1 can-change" points="-603.4,327.2 -602.8,323.5 -601,323.5 -600.2,325.9 -598.4,323.5 -596.7,323.5 -597.3,327.2    -598.5,327.2 -598,324.6 -598,324.6 -600,327.2 -600.8,327.2 -601.8,324.6 -601.8,324.6 -602.3,327.2  " fill="rgb(255, 255, 255)"></polygon>
	<path class="st1 can-change" d="M-593.9,324.4l-1,1.4h1.5L-593.9,324.4z M-597.2,327.2l2.7-3.7h1.5l1.4,3.7h-1.3l-0.2-0.7h-2.3l-0.5,0.7   H-597.2z" fill="rgb(255, 255, 255)"></path>
	<polygon class="st1 can-change" points="-591.5,327.2 -590.8,323.5 -589.1,323.5 -587.4,326.2 -587.4,326.2 -586.9,323.5 -585.8,323.5    -586.4,327.2 -588.2,327.2 -589.9,324.5 -589.9,324.5 -590.3,327.2  " fill="rgb(255, 255, 255)"></polygon>
	<path class="st7 can-change" d="M-585.1,326.3v-0.2h1.1c-0.1,0.4,0.1,0.4,0.4,0.4h1.4c0.2,0,0.5,0,0.6-0.3c0.1-0.3-0.1-0.3-1.5-0.3   c-1.7,0-1.9-0.2-1.7-1.1c0.1-0.7,0.3-1.2,1.7-1.2h1.6c1.3,0,1.4,0.4,1.2,1.1v0.1h-1.1c0-0.3,0-0.4-0.5-0.4h-1.3   c-0.2,0-0.4,0.1-0.5,0.3c-0.1,0.3,0.1,0.3,1.3,0.3c1.8,0,2.2,0.1,2,1.2c-0.2,1-0.6,1.2-2.1,1.2h-1.4   C-584.8,327.3-585.2,327.1-585.1,326.3" fill="rgb(35, 31, 32)"></path>
	<path class="st7 can-change" d="M-578.4,324.4l-0.2,0.9h1.8c0.3,0,0.4-0.2,0.4-0.4v-0.1c0-0.3-0.1-0.4-0.4-0.4H-578.4z M-580.1,327.2l0.7-3.7   h3.1c1.1,0,1.3,0.5,1.1,1.3l-0.1,0.3c-0.1,0.6-0.5,1.2-1.3,1.2h-2.3l-0.2,0.9C-579.1,327.2-580.1,327.2-580.1,327.2z" fill="rgb(35, 31, 32)"></path>
	<polygon class="st7 can-change" points="-575.3,327.2 -574.6,323.5 -570.5,323.5 -570.7,324.4 -573.6,324.4 -573.7,325 -570.9,325    -571.1,325.7 -573.8,325.7 -574,326.3 -571,326.3 -571.1,327.2  " fill="rgb(35, 31, 32)"></polygon>
	<polygon class="st7 can-change" points="-570.7,327.2 -570,323.5 -565.9,323.5 -566.1,324.4 -569,324.4 -569.1,325 -566.4,325 -566.5,325.7    -569.3,325.7 -569.4,326.3 -566.4,326.3 -566.5,327.2  " fill="rgb(35, 31, 32)"></polygon>
	<path class="st7 can-change" d="M-564.4,324.4l-0.3,1.8h2c0.5,0,0.7-0.1,0.8-0.7l0.1-0.5c0.1-0.5-0.1-0.7-0.6-0.7L-564.4,324.4L-564.4,324.4z    M-566.1,327.2l0.7-3.7h3.4c1.1,0,1.5,0.4,1.3,1.3l-0.2,1.1c-0.2,0.9-0.6,1.3-1.8,1.3C-562.7,327.2-566.1,327.2-566.1,327.2z" fill="rgb(35, 31, 32)"></path>
	<path class="st7 can-change" d="M-558.9,322.8c-0.5,0-0.9,0.4-0.9,1c0,0.6,0.4,1,1,1c0.5,0,0.9-0.4,0.9-1C-558,323.3-558.4,322.8-558.9,322.8    M-558.9,322.6c0.7,0,1.2,0.6,1.2,1.2c0,0.7-0.6,1.2-1.2,1.2c-0.6,0-1.2-0.6-1.2-1.2C-560.2,323.1-559.6,322.6-558.9,322.6    M-559.1,323.4v0.4h0.1c0.2,0,0.3-0.1,0.3-0.2S-558.8,323.4-559.1,323.4C-559,323.4-559.1,323.4-559.1,323.4 M-559.1,323.9v0.5   h-0.2v-1.2c0.1,0,0.2,0,0.4,0c0.2,0,0.3,0,0.4,0.1c0.1,0,0.1,0.1,0.1,0.3c0,0.1-0.1,0.2-0.3,0.3l0,0c0.1,0,0.2,0.1,0.2,0.3   s0.1,0.3,0.1,0.3h-0.3c-0.1-0.1-0.1-0.1-0.1-0.3c0-0.1-0.1-0.2-0.3-0.2h0V323.9z" fill="rgb(35, 31, 32)"></path>
	<rect x="-614.4" y="322.6" class="st8" width="56.7" height="5.2" fill="none"></rect>
	<path class="st7 can-change" d="M-580.3,328.6h0.3l-0.2,1.1h-0.3L-580.3,328.6z" fill="rgb(35, 31, 32)"></path>
	<path class="st7 can-change" d="M-579.2,328.6h0.5l0.5,0.8l0.2-0.8h0.3l-0.2,1.1h-0.5l-0.5-0.8l-0.2,0.8h-0.3L-579.2,328.6z" fill="rgb(35, 31, 32)"></path>
	<path class="st7 can-change" d="M-576.6,328.8h-0.5l0.1-0.3h1.3l-0.1,0.3h-0.5l-0.2,0.8h-0.3L-576.6,328.8z" fill="rgb(35, 31, 32)"></path>
	<path class="st7 can-change" d="M-574,328.6l-0.1,0.2h-0.9v0.2h0.8v0.2h-0.8v0.2h0.9l-0.1,0.2h-1.2l0.2-1.1h1.2V328.6z" fill="rgb(35, 31, 32)"></path>
	<path class="st7 can-change" d="M-573.2,328.6h0.3l-0.2,0.8h0.7l-0.1,0.3h-1.1L-573.2,328.6z" fill="rgb(35, 31, 32)"></path>
	<path class="st7 can-change" d="M-571.5,328.6h0.3l-0.2,0.8h0.7l-0.1,0.3h-1.1L-571.5,328.6z" fill="rgb(35, 31, 32)"></path>
	<path class="st7 can-change" d="M-569.8,328.6h0.3l-0.2,1.1h-0.3L-569.8,328.6z" fill="rgb(35, 31, 32)"></path>
	<path class="st7 can-change" d="M-567.7,328.9L-567.7,328.9c0-0.1,0-0.1,0-0.1s0,0-0.1,0h-0.1h-0.2c-0.1,0-0.2,0-0.2,0.1s-0.1,0.3-0.1,0.3   c0,0.1,0.1,0.1,0.2,0.1c0,0,0.1,0,0.3,0c0.2,0,0.2,0,0.2-0.1c0,0,0,0,0-0.1h-0.4v-0.2h0.7v0.1c0,0.2,0,0.2-0.1,0.3   c-0.1,0.1-0.2,0.2-0.3,0.2c0,0-0.2,0-0.4,0c-0.3,0-0.4,0-0.5-0.1c-0.1,0-0.1-0.1-0.1-0.2s0-0.2,0.1-0.4c0.1-0.3,0.1-0.4,0.3-0.4   c0.1,0,0.2,0,0.5,0c0.4,0,0.5,0,0.5,0.1c0.1,0,0.1,0.1,0.1,0.2c0,0,0,0.1,0,0.2H-567.7z" fill="rgb(35, 31, 32)"></path>
	<path class="st7 can-change" d="M-565.4,328.6l-0.1,0.2h-0.9v0.2h0.8v0.2h-0.8v0.2h0.9l-0.1,0.2h-1.2l0.2-1.1h1.2V328.6z" fill="rgb(35, 31, 32)"></path>
	<path class="st7 can-change" d="M-564.7,328.6h0.5l0.5,0.8l0.2-0.8h0.3l-0.2,1.1h-0.6l-0.5-0.8l-0.2,0.8h-0.3L-564.7,328.6z" fill="rgb(35, 31, 32)"></path>
	<path class="st7 can-change" d="M-562.1,328.8h-0.5l0.1-0.3h1.3l-0.1,0.3h-0.5l-0.2,0.8h-0.3L-562.1,328.8z" fill="rgb(35, 31, 32)"></path>
	<g>
		<polygon class="st9 can-change" points="-585.7,329.3 -585.7,329.6 -584.6,329.6 -584.5,329.3   " fill="rgb(236, 28, 36)"></polygon>
		<polygon class="st9 can-change" points="-580.8,328.9 -580.8,328.6 -584,328.6 -584.1,328.9   " fill="rgb(236, 28, 36)"></polygon>
		<polygon class="st9 can-change" points="-584.3,328.6 -585.5,328.6 -585.6,328.9 -584.4,328.9   " fill="rgb(236, 28, 36)"></polygon>
		<polygon class="st9 can-change" points="-584.2,329.6 -581,329.6 -580.9,329.3 -584.1,329.3   " fill="rgb(236, 28, 36)"></polygon>
		<polygon class="st1 can-change" points="-584.1,328.9 -584,328.6 -584.3,328.6 -584.4,328.9 -585.6,328.9 -585.7,329.3 -584.5,329.3     -584.6,329.6 -584.2,329.6 -584.1,329.3 -580.9,329.3 -580.8,328.9   " fill="rgb(255, 255, 255)"></polygon>
	</g>
</g>
<g class="human-logo">
	<path class="st7 can-change" d="M-699.2,627.9l0.8-4.6h2.1l-0.2,1.3h1.5l0.2-1.3h3.7l-0.5,2.7v0.1h0.1h1.1c0.1,0,0.1,0,0.2,0   c0.1-0.1,0.1-0.2,0.1-0.2l0.4-2.5h4.1l0.7,1.9l1.3-1.9h2.5l-0.5,2.6l1.8-2.6h2.1l1,2.7l0.5-2.7h2.4l1.2,1.9l0.3-1.9h2.3l-0.8,4.6   h-2.4l-1.2-1.9l-0.3,1.9h-3.3l-0.2-0.7h-1.8l-0.5,0.7h-3.3l0.2-1.3l-0.9,1.3h-1.4l-0.5-1.4l-0.3,1.4h-2l0.1-0.5c0,0-0.1,0-0.1,0.1   c-0.4,0.3-1,0.4-1.5,0.4h-1.6c-0.4,0-0.9-0.1-1.3-0.3c-0.1-0.1-0.2-0.2-0.3-0.3l-0.1,0.6h-2.1l0.2-1.4h-1.5l-0.2,1.4L-699.2,627.9   L-699.2,627.9z" fill="rgb(35, 31, 32)"></path>
	<polygon class="st1 can-change" points="-698.6,627.4 -698,623.7 -696.8,623.7 -697.1,625 -694.7,625 -694.4,623.7 -693.3,623.7 -693.9,627.4    -695.1,627.4 -694.8,626 -697.2,626 -697.5,627.4  " fill="rgb(255, 255, 255)"></polygon>
	<path class="st1 can-change" d="M-693.2,626.1l0.4-2.4h1.1l-0.4,2.1c-0.1,0.5,0.1,0.7,0.5,0.7h1.1c0.5,0,0.7-0.2,0.8-0.7l0.4-2.1h1.1l-0.4,2.4   c-0.2,0.9-0.7,1.4-1.8,1.4h-1.6C-693,627.4-693.4,627-693.2,626.1" fill="rgb(255, 255, 255)"></path>
	<polygon class="st1 can-change" points="-688.2,627.4 -687.6,623.7 -685.8,623.7 -684.9,626.1 -683.2,623.7 -681.5,623.7 -682.1,627.4    -683.2,627.4 -682.8,624.7 -682.8,624.7 -684.7,627.4 -685.6,627.4 -686.6,624.7 -686.6,624.7 -687.1,627.4  " fill="rgb(255, 255, 255)"></polygon>
	<path class="st1 can-change" d="M-678.7,624.5l-1,1.4h1.5L-678.7,624.5z M-682,627.4l2.7-3.7h1.5l1.4,3.7h-1.3l-0.2-0.7h-2.3l-0.5,0.7H-682z" fill="rgb(255, 255, 255)"></path>
	<polygon class="st1 can-change" points="-676.3,627.4 -675.6,623.7 -673.8,623.7 -672.2,626.4 -672.2,626.4 -671.7,623.7 -670.5,623.7    -671.2,627.4 -673,627.4 -674.6,624.7 -674.7,624.7 -675.1,627.4  " fill="rgb(255, 255, 255)"></polygon>
	<path class="st7 can-change" d="M-669.8,626.4v-0.2h1.1c-0.1,0.4,0.1,0.4,0.4,0.4h1.4c0.2,0,0.5,0,0.6-0.3c0.1-0.3-0.1-0.3-1.5-0.3   c-1.7,0-1.9-0.2-1.7-1.1c0.1-0.7,0.3-1.2,1.7-1.2h1.6c1.3,0,1.4,0.4,1.2,1.1v0.1h-1.1c0-0.3,0-0.4-0.5-0.4h-1.3   c-0.2,0-0.4,0.1-0.5,0.3c-0.1,0.3,0.1,0.3,1.3,0.3c1.8,0,2.2,0.1,2,1.2c-0.2,1-0.6,1.2-2.1,1.2h-1.4   C-669.6,627.4-670,627.2-669.8,626.4" fill="rgb(35, 31, 32)"></path>
	<path class="st7 can-change" d="M-663.2,624.6l-0.2,0.9h1.8c0.3,0,0.4-0.2,0.4-0.4V625c0-0.3-0.1-0.4-0.4-0.4H-663.2z M-664.9,627.4l0.7-3.7   h3.1c1.1,0,1.3,0.5,1.1,1.3l-0.1,0.3c-0.1,0.6-0.5,1.2-1.3,1.2h-2.3l-0.2,0.9L-664.9,627.4L-664.9,627.4z" fill="rgb(35, 31, 32)"></path>
	<polygon class="st7 can-change" points="-660,627.4 -659.4,623.7 -655.3,623.7 -655.5,624.5 -658.4,624.5 -658.5,625.1 -655.7,625.1    -655.9,625.9 -658.6,625.9 -658.7,626.5 -655.7,626.5 -655.9,627.4  " fill="rgb(35, 31, 32)"></polygon>
	<polygon class="st7 can-change" points="-655.5,627.4 -654.8,623.7 -650.7,623.7 -650.9,624.5 -653.8,624.5 -653.9,625.1 -651.1,625.1    -651.3,625.9 -654.1,625.9 -654.2,626.5 -651.2,626.5 -651.3,627.4  " fill="rgb(35, 31, 32)"></polygon>
	<path class="st7 can-change" d="M-649.2,624.6l-0.3,1.8h2c0.5,0,0.7-0.1,0.8-0.7l0.1-0.5c0.1-0.5-0.1-0.7-0.6-0.7L-649.2,624.6L-649.2,624.6z    M-650.8,627.4l0.7-3.7h3.4c1.1,0,1.5,0.4,1.3,1.3l-0.2,1.1c-0.2,0.9-0.6,1.3-1.8,1.3L-650.8,627.4L-650.8,627.4z" fill="rgb(35, 31, 32)"></path>
	<path class="st7 can-change" d="M-643.7,623c-0.5,0-0.9,0.4-0.9,1s0.4,1,1,1c0.5,0,0.9-0.4,0.9-1C-642.8,623.4-643.2,623-643.7,623    M-643.7,622.7c0.7,0,1.2,0.6,1.2,1.2c0,0.7-0.6,1.2-1.2,1.2c-0.7,0-1.2-0.6-1.2-1.2C-645,623.3-644.4,622.7-643.7,622.7    M-643.9,623.5v0.4h0.1c0.2,0,0.3-0.1,0.3-0.2c0-0.1-0.1-0.2-0.3-0.2C-643.8,623.5-643.9,623.5-643.9,623.5 M-643.9,624.1v0.5h-0.2   v-1.2c0.1,0,0.2,0,0.4,0s0.3,0,0.4,0.1c0.1,0,0.1,0.1,0.1,0.3c0,0.1-0.1,0.2-0.3,0.3l0,0c0.1,0,0.2,0.1,0.2,0.3s0.1,0.3,0.1,0.3   h-0.3c-0.1-0.1-0.1-0.1-0.1-0.3C-643.6,624.3-643.7,624.2-643.9,624.1L-643.9,624.1L-643.9,624.1z" fill="rgb(35, 31, 32)"></path>
	<rect x="-699.2" y="622.7" class="st8" width="56.7" height="5.2" fill="none"></rect>
	<path class="st7 can-change" d="M-665,628.7h0.3l-0.2,1.1h-0.3L-665,628.7z" fill="rgb(35, 31, 32)"></path>
	<path class="st7 can-change" d="M-664,628.7h0.5l0.5,0.8l0.2-0.8h0.3l-0.2,1.1h-0.5l-0.5-0.8l-0.2,0.8h-0.3L-664,628.7z" fill="rgb(35, 31, 32)"></path>
	<path class="st7 can-change" d="M-661.4,629h-0.5l0.1-0.3h1.3l-0.1,0.3h-0.5l-0.2,0.8h-0.3L-661.4,629z" fill="rgb(35, 31, 32)"></path>
	<path class="st7 can-change" d="M-658.7,628.7l-0.1,0.2h-0.9v0.2h0.8v0.2h-0.8v0.2h0.9l-0.1,0.2h-1.2l0.2-1.1L-658.7,628.7L-658.7,628.7z" fill="rgb(35, 31, 32)"></path>
	<path class="st7 can-change" d="M-658,628.7h0.3l-0.2,0.8h0.7l-0.1,0.3h-1.1L-658,628.7z" fill="rgb(35, 31, 32)"></path>
	<path class="st7 can-change" d="M-656.3,628.7h0.3l-0.2,0.8h0.7l-0.1,0.3h-1.1L-656.3,628.7z" fill="rgb(35, 31, 32)"></path>
	<path class="st7 can-change" d="M-654.6,628.7h0.3l-0.2,1.1h-0.3L-654.6,628.7z" fill="rgb(35, 31, 32)"></path>
	<path class="st7 can-change" d="M-652.5,629.1C-652.5,629.1-652.5,629-652.5,629.1C-652.5,629-652.5,629-652.5,629.1   C-652.5,629-652.5,629-652.5,629.1l-0.2-0.1h-0.2c-0.1,0-0.2,0-0.2,0.1c0,0.1-0.1,0.3-0.1,0.3c0,0.1,0.1,0.1,0.2,0.1   c0,0,0.1,0,0.3,0s0.2,0,0.2-0.1c0,0,0,0,0-0.1h-0.5v-0.2h0.7v0.1c0,0.2,0,0.2-0.1,0.3c-0.1,0.1-0.2,0.2-0.3,0.2c0,0-0.2,0-0.4,0   c-0.3,0-0.4,0-0.5-0.1c-0.1,0-0.1-0.1-0.1-0.2s0-0.2,0.1-0.4c0.1-0.3,0.1-0.4,0.3-0.4c0.1,0,0.2,0,0.5,0c0.4,0,0.5,0,0.5,0.1   c0.1,0,0.1,0.1,0.1,0.2c0,0,0,0.1,0,0.2H-652.5z" fill="rgb(35, 31, 32)"></path>
	<path class="st7 can-change" d="M-650.2,628.7l-0.1,0.2h-0.9v0.2h0.8v0.2h-0.8v0.2h0.9l-0.1,0.2h-1.2l0.2-1.1L-650.2,628.7L-650.2,628.7z" fill="rgb(35, 31, 32)"></path>
	<path class="st7 can-change" d="M-649.5,628.7h0.5l0.5,0.8l0.2-0.8h0.3l-0.2,1.1h-0.5l-0.5-0.8l-0.2,0.8h-0.3L-649.5,628.7z" fill="rgb(35, 31, 32)"></path>
	<path class="st7 can-change" d="M-646.9,629h-0.5l0.1-0.3h1.3l-0.1,0.3h-0.5l-0.2,0.8h-0.3L-646.9,629z" fill="rgb(35, 31, 32)"></path>
	<g>
		<polygon class="st9 can-change" points="-670.4,629.4 -670.5,629.8 -669.3,629.8 -669.3,629.4   " fill="rgb(236, 28, 36)"></polygon>
		<polygon class="st9 can-change" points="-665.6,629.1 -665.5,628.7 -668.8,628.7 -668.8,629.1   " fill="rgb(236, 28, 36)"></polygon>
		<polygon class="st9 can-change" points="-669.1,628.7 -670.3,628.7 -670.4,629.1 -669.2,629.1   " fill="rgb(236, 28, 36)"></polygon>
		<polygon class="st9 can-change" points="-669,629.8 -665.8,629.8 -665.7,629.4 -668.9,629.4   " fill="rgb(236, 28, 36)"></polygon>
		<polygon class="st1 can-change" points="-668.8,629.1 -668.8,628.7 -669.1,628.7 -669.2,629.1 -670.4,629.1 -670.4,629.4 -669.3,629.4     -669.3,629.8 -669,629.8 -668.9,629.4 -665.7,629.4 -665.6,629.1   " fill="rgb(255, 255, 255)"></polygon>
	</g>
</g>
<g class="human-logo">
	<path class="st7 can-change" d="M-601.2,627.9l0.8-4.6h2.1l-0.2,1.3h1.5l0.2-1.3h3.7l-0.5,2.7v0.1h0.1h1.1c0.1,0,0.1,0,0.2,0   c0.1-0.1,0.1-0.2,0.1-0.2l0.4-2.5h4.1l0.7,1.9l1.3-1.9h2.5l-0.5,2.6l1.8-2.6h2.1l1,2.7l0.5-2.7h2.4l1.2,1.9l0.3-1.9h2.1l-0.8,4.6   h-2.4l-1.2-1.9l-0.3,1.9h-3.3l-0.2-0.7h-1.6l-0.5,0.7h-3.3l0.2-1.3l-0.9,1.3h-1.5l-0.5-1.4l-0.3,1.4h-2l0.1-0.5c0,0-0.1,0-0.1,0.1   c-0.4,0.3-1,0.4-1.5,0.4h-1.6c-0.4,0-0.9-0.1-1.3-0.3c-0.1-0.1-0.2-0.2-0.3-0.3l-0.1,0.6h-2.1l0.2-1.4h-1.5l-0.2,1.4L-601.2,627.9   L-601.2,627.9z" fill="rgb(35, 31, 32)"></path>
	<polygon class="st1 can-change" points="-600.7,627.4 -600,623.7 -598.9,623.7 -599.1,625 -596.7,625 -596.5,623.7 -595.3,623.7 -596,627.4    -597.1,627.4 -596.9,626 -599.3,626 -599.5,627.4  " fill="rgb(255, 255, 255)"></polygon>
	<path class="st1 can-change" d="M-595.2,626.1l0.4-2.4h1.1l-0.4,2.1c-0.1,0.5,0.1,0.7,0.5,0.7h1.1c0.5,0,0.7-0.2,0.8-0.7l0.4-2.1h1.1l-0.4,2.4   c-0.2,0.9-0.7,1.4-1.8,1.4h-1.6C-595,627.4-595.4,627-595.2,626.1" fill="rgb(255, 255, 255)"></path>
	<polygon class="st1 can-change" points="-590.2,627.4 -589.6,623.7 -587.8,623.7 -587,626.1 -585.3,623.7 -583.5,623.7 -584.2,627.4    -585.3,627.4 -584.8,624.7 -584.8,624.7 -586.8,627.4 -587.6,627.4 -588.7,624.7 -588.7,624.7 -589.1,627.4  " fill="rgb(255, 255, 255)"></polygon>
	<path class="st1 can-change" d="M-580.7,624.5l-1,1.4h1.5L-580.7,624.5z M-584,627.4l2.7-3.7h1.5l1.4,3.7h-1.3l-0.2-0.7h-2.3l-0.5,0.7H-584z" fill="rgb(255, 255, 255)"></path>
	<polygon class="st1 can-change" points="-578.3,627.4 -577.6,623.7 -575.9,623.7 -574.2,626.4 -574.2,626.4 -573.7,623.7 -572.6,623.7    -573.2,627.4 -575,627.4 -576.7,624.7 -576.7,624.7 -577.2,627.4  " fill="rgb(255, 255, 255)"></polygon>
	<path class="st7 can-change" d="M-571.9,626.4v-0.2h1.1c-0.1,0.4,0.1,0.4,0.4,0.4h1.4c0.2,0,0.5,0,0.6-0.3c0.1-0.3-0.1-0.3-1.5-0.3   c-1.7,0-1.9-0.2-1.7-1.1c0.1-0.7,0.3-1.2,1.7-1.2h1.6c1.3,0,1.4,0.4,1.2,1.1v0.1h-1.1c0-0.3,0-0.4-0.5-0.4h-1.3   c-0.2,0-0.4,0.1-0.5,0.3c-0.1,0.3,0.1,0.3,1.3,0.3c1.8,0,2.2,0.1,2,1.2c-0.2,1-0.6,1.2-2.1,1.2h-1.4   C-571.6,627.4-572,627.2-571.9,626.4" fill="rgb(35, 31, 32)"></path>
	<path class="st7 can-change" d="M-565.3,624.6l-0.2,0.9h1.8c0.3,0,0.4-0.2,0.4-0.4V625c0-0.3-0.1-0.4-0.4-0.4H-565.3z M-566.9,627.4l0.7-3.7   h3.1c1.1,0,1.3,0.5,1.1,1.3l-0.1,0.3c-0.1,0.6-0.5,1.2-1.3,1.2h-2.3l-0.2,0.9L-566.9,627.4L-566.9,627.4z" fill="rgb(35, 31, 32)"></path>
	<polygon class="st7 can-change" points="-562.1,627.4 -561.4,623.7 -557.4,623.7 -557.5,624.5 -560.4,624.5 -560.5,625.1 -557.8,625.1    -557.9,625.9 -560.7,625.9 -560.8,626.5 -557.8,626.5 -557.9,627.4  " fill="rgb(35, 31, 32)"></polygon>
	<polygon class="st7 can-change" points="-557.5,627.4 -556.8,623.7 -552.8,623.7 -552.9,624.5 -555.8,624.5 -556,625.1 -553.2,625.1    -553.3,625.9 -556.1,625.9 -556.2,626.5 -553.2,626.5 -553.4,627.4  " fill="rgb(35, 31, 32)"></polygon>
	<path class="st7 can-change" d="M-551.2,624.6l-0.3,1.8h2c0.5,0,0.7-0.1,0.8-0.7l0.1-0.5c0.1-0.5-0.1-0.7-0.6-0.7L-551.2,624.6L-551.2,624.6z    M-552.9,627.4l0.7-3.7h3.4c1.1,0,1.5,0.4,1.3,1.3l-0.2,1.1c-0.2,0.9-0.6,1.3-1.8,1.3L-552.9,627.4L-552.9,627.4z" fill="rgb(35, 31, 32)"></path>
	<path class="st7 can-change" d="M-545.8,623c-0.5,0-0.9,0.4-0.9,1s0.4,1,1,1c0.5,0,0.9-0.4,0.9-1S-545.2,623-545.8,623 M-545.8,622.7   c0.7,0,1.2,0.6,1.2,1.2c0,0.7-0.6,1.2-1.2,1.2c-0.7,0-1.2-0.6-1.2-1.2C-547,623.3-546.5,622.7-545.8,622.7 M-546,623.5v0.4h0.1   c0.2,0,0.3-0.1,0.3-0.2C-545.6,623.6-545.7,623.5-546,623.5C-545.9,623.5-545.9,623.5-546,623.5 M-546,624.1v0.5h-0.2v-1.2   c0.1,0,0.2,0,0.4,0s0.3,0,0.4,0.1c0.1,0,0.1,0.1,0.1,0.3c0,0.1-0.1,0.2-0.3,0.3l0,0c0.1,0,0.2,0.1,0.2,0.3s0.1,0.3,0.1,0.3h-0.3   c-0.1-0.1-0.1-0.1-0.1-0.3C-545.7,624.3-545.8,624.2-546,624.1L-546,624.1L-546,624.1z" fill="rgb(35, 31, 32)"></path>
	<rect x="-601.2" y="622.7" class="st8" width="56.7" height="5.2" fill="none"></rect>
	<path class="st7 can-change" d="M-567.1,628.7h0.3l-0.2,1.1h-0.3L-567.1,628.7z" fill="rgb(35, 31, 32)"></path>
	<path class="st7 can-change" d="M-566,628.7h0.5l0.5,0.8l0.2-0.8h0.3l-0.2,1.1h-0.5l-0.5-0.8l-0.2,0.8h-0.3L-566,628.7z" fill="rgb(35, 31, 32)"></path>
	<path class="st7 can-change" d="M-563.5,629h-0.5l0.1-0.3h1.3l-0.1,0.3h-0.5l-0.2,0.8h-0.3L-563.5,629z" fill="rgb(35, 31, 32)"></path>
	<path class="st7 can-change" d="M-560.8,628.7l-0.1,0.2h-0.9v0.2h0.8v0.2h-0.8v0.2h0.9l-0.1,0.2h-1.2l0.2-1.1L-560.8,628.7L-560.8,628.7z" fill="rgb(35, 31, 32)"></path>
	<path class="st7 can-change" d="M-560,628.7h0.3l-0.2,0.8h0.7l-0.1,0.3h-1.1L-560,628.7z" fill="rgb(35, 31, 32)"></path>
	<path class="st7 can-change" d="M-558.3,628.7h0.3l-0.2,0.8h0.7l-0.1,0.3h-1.1L-558.3,628.7z" fill="rgb(35, 31, 32)"></path>
	<path class="st7 can-change" d="M-556.6,628.7h0.3l-0.2,1.1h-0.3L-556.6,628.7z" fill="rgb(35, 31, 32)"></path>
	<path class="st7 can-change" d="M-554.5,629.1C-554.5,629.1-554.5,629-554.5,629.1C-554.5,629-554.5,629-554.5,629.1   C-554.5,629-554.5,629-554.5,629.1l-0.2-0.1h-0.2c-0.1,0-0.2,0-0.2,0.1c0,0.1-0.1,0.3-0.1,0.3c0,0.1,0.1,0.1,0.2,0.1   c0,0,0.1,0,0.3,0s0.2,0,0.2-0.1c0,0,0,0,0-0.1h-0.5v-0.2h0.7v0.1c0,0.2,0,0.2-0.1,0.3c-0.1,0.1-0.2,0.2-0.3,0.2c0,0-0.2,0-0.4,0   c-0.3,0-0.4,0-0.5-0.1c-0.1,0-0.1-0.1-0.1-0.2s0-0.2,0.1-0.4c0.1-0.3,0.1-0.4,0.3-0.4c0.1,0,0.2,0,0.5,0c0.4,0,0.5,0,0.5,0.1   c0.1,0,0.1,0.1,0.1,0.2c0,0,0,0.1,0,0.2H-554.5z" fill="rgb(35, 31, 32)"></path>
	<path class="st7 can-change" d="M-552.2,628.7l-0.1,0.2h-0.9v0.2h0.8v0.2h-0.8v0.2h0.9l-0.1,0.2h-1.2l0.2-1.1L-552.2,628.7L-552.2,628.7z" fill="rgb(35, 31, 32)"></path>
	<path class="st7 can-change" d="M-551.5,628.7h0.5l0.5,0.8l0.2-0.8h0.3l-0.2,1.1h-0.5l-0.5-0.8l-0.2,0.8h-0.3L-551.5,628.7z" fill="rgb(35, 31, 32)"></path>
	<path class="st7 can-change" d="M-549,629h-0.5l0.1-0.3h1.3l-0.1,0.3h-0.5l-0.2,0.8h-0.3L-549,629z" fill="rgb(35, 31, 32)"></path>
	<g>
		<polygon class="st9 can-change" points="-572.5,629.4 -572.6,629.8 -571.4,629.8 -571.3,629.4   " fill="rgb(236, 28, 36)"></polygon>
		<polygon class="st9 can-change" points="-567.7,629.1 -567.6,628.7 -570.8,628.7 -570.9,629.1   " fill="rgb(236, 28, 36)"></polygon>
		<polygon class="st9 can-change" points="-571.1,628.7 -572.3,628.7 -572.4,629.1 -571.2,629.1   " fill="rgb(236, 28, 36)"></polygon>
		<polygon class="st9 can-change" points="-571,629.8 -567.8,629.8 -567.7,629.4 -570.9,629.4   " fill="rgb(236, 28, 36)"></polygon>
		<polygon class="st1 can-change" points="-570.9,629.1 -570.8,628.7 -571.1,628.7 -571.2,629.1 -572.4,629.1 -572.5,629.4 -571.3,629.4     -571.4,629.8 -571,629.8 -570.9,629.4 -567.7,629.4 -567.7,629.1   " fill="rgb(255, 255, 255)"></polygon>
	</g>
</g>
</svg>