<svg xmlns="http://www.w3.org/2000/svg" xmlns:xlink="http://www.w3.org/1999/xlink" version="1.1" id="Layer_1" x="0px" y="0px" viewBox="-794 319 219 254" style="enable-background:new -794 319 219 254;" xml:space="preserve" data-product="2017511" data-design="2" data-size="m">
<style type="text/css">
	.st0{fill:#FFFFFF;stroke:#6D6E71;stroke-width:0.34;stroke-linecap:round;stroke-linejoin:round;stroke-miterlimit:10;}
	.st1{fill:#EDEDED;stroke:#6D6E71;stroke-width:0.34;stroke-linecap:round;stroke-linejoin:round;stroke-miterlimit:10;}
	.st2{fill:#FFFFFF;}
	.st3{clip-path:url(#SVGID_2_);}
	.st4{fill:none;stroke:#6D6E71;stroke-width:0.34;stroke-linecap:round;stroke-linejoin:round;stroke-miterlimit:10;}
	.st5{clip-path:url(#SVGID_4_);}
	.st6{fill:none;}
	.st7{fill:#ED1C24;}
</style>
<path class="st0 cannot-edit can-change" d="M-777.2,329.9c0,0-2-6.1,50.1-7.6c52.2-1.5,129.5-3.5,135.6,7.9c0,0-39.1,15.2-91.4,15.3  C-735.2,345.6-777.2,330.2-777.2,329.9z" fill="rgb(255, 255, 255)"></path>
<path class="st1 cannot-edit can-change" d="M-677.8,499.6c-1.9-9.6-2.8-27.1-2.8-27.2l0.5-19.3c0,0-2.8,1.3-4.4,1.4c-1.5,0-4.3-1.4-4.4-1.4l0.5,19.3  c0,0.2-0.9,17.6-2.8,27.3c-39.8-14.2-38.7-140.4-32.6-159.2c11.8,1.4,25.1,2.3,39.5,2.3c14.4,0,27.5-1,39.1-2.3  C-639.2,359.2-638.1,485.2-677.8,499.6z" style="fill: rgb(0, 0, 0);"></path>
<path class="st0 can-change" d="M-691.1,499.6c-0.2,0.9-0.3,1.7-0.5,2.5c-0.1,0.3-0.2,0.6-0.2,0.8c-0.1,0.3-0.2,0.5-0.2,0.8  c-0.1,0.2-0.2,0.5-0.2,0.7c-2.6,6.3-4.7,33.6-4.7,33.9l-2.4,21.2c-59.5,24.8-83.6,1.9-83.9,1.6c-1-6.7-2.2-14.8-3.3-21.5  c-1.1-4.2-3.5-22.8-4.5-35.3c-1.1-13.7-0.8-24.2-0.8-24.3c-1.5-51,1.2-88.2,3.8-99.8c2.7-11.7,4-20.2,8-38.2c1-4.8,2.1-9.1,3-12.7  c0,0,0.7,0.2,1.9,0.6c0.2,0.1,0.5,0.1,0.7,0.2c0.4,0.1,0.8,0.2,1.3,0.4c0.3,0.1,0.6,0.2,1,0.3c0.3,0.1,0.7,0.2,1.1,0.3  s0.8,0.2,1.2,0.3c0.4,0.1,0.9,0.2,1.3,0.4c0.9,0.2,1.9,0.5,2.9,0.8c0.4,0.1,0.8,0.2,1.2,0.3c0.2,0.1,0.5,0.1,0.8,0.2  c0.6,0.2,1.3,0.3,2,0.5c0.4,0.1,0.8,0.2,1.2,0.3c2.9,0.7,6.2,1.4,9.8,2.2c0.5,0.1,1,0.2,1.6,0.3c0.5,0.1,1.1,0.2,1.6,0.3  c0.9,0.2,1.8,0.3,2.7,0.5c0.5,0.1,1,0.2,1.5,0.3c0.1,0,0.2,0,0.3,0.1c0.8,0.1,1.5,0.3,2.3,0.4c2.4,0.4,4.8,0.8,7.4,1.2  c0.6,0.1,1.3,0.2,1.9,0.3c1.1,0.2,2.3,0.3,3.5,0.5c1.5,0.2,3,0.4,4.5,0.6C-729.8,359.2-730.9,485.3-691.1,499.6z" fill="rgb(255, 255, 255)"></path>
<path class="st0 can-change" d="M-576.7,467.9c0,0.2,0,0.4,0,0.6c0,3.7-0.1,7.5-0.2,11.4c0,0.1,0.3,10.6-0.8,24.3c-1,12.6-3.4,31.1-4.5,35.3  c-1.1,6.7-2.3,14.8-3.3,21.5c0,0-0.1,0.1-0.2,0.1c-1.2,1.1-9.7,8.1-27.5,9.5c-4.1,0.3-8.6,0.3-13.7-0.1c-11.5-1-25.6-4.1-42.5-11.2  l-2.3-21.2c0-0.3-2.1-27.5-4.8-33.9c-0.5-1.1-0.9-2.8-1.3-4.8c39.7-14.3,38.7-140.4,32.6-159.2c1.3-0.1,2.5-0.3,3.7-0.5  c0.2,0,0.5-0.1,0.8-0.1c26.9-3.6,44.1-9.4,46.5-10.4c0.1,0.2,0.1,0.4,0.2,0.6c0.9,3.5,1.8,7.5,2.8,11.9c4,18,4.1,22.2,6.9,34  C-582.1,386.6-576.4,422.5-576.7,467.9z" fill="rgb(255, 255, 255)"></path>
<g>
	<g>
		<path class="st2 can-change" d="M-691.1,499.6c-0.2,0.9-0.4,1.7-0.5,2.5c-0.1,0.3-0.2,0.6-0.2,0.8c-0.1,0.3-0.2,0.5-0.2,0.8    c-0.1,0.2-0.2,0.5-0.2,0.7c-2.6,6.3-4.7,33.6-4.7,33.9l-2.4,21.2c-59.5,24.8-83.6,1.9-83.9,1.6c-1-6.7-2.2-14.8-3.3-21.5    c-1.1-4.2-3.5-22.8-4.5-35.3c-1.1-13.7-0.8-24.2-0.8-24.3c-1.5-51,1.2-88.2,3.8-99.8c2.7-11.7,4-20.2,8-38.2c1-4.8,2.1-9.1,3-12.7    c0,0,0.7,0.2,1.9,0.6c0.2,0.1,0.5,0.1,0.7,0.2c0.4,0.1,0.8,0.2,1.3,0.4c0.3,0.1,0.6,0.2,1,0.3c0.3,0.1,0.7,0.2,1.1,0.3    c0.4,0.1,0.8,0.2,1.2,0.3c0.4,0.1,0.9,0.2,1.3,0.4c0.9,0.2,1.9,0.5,2.9,0.8c0.4,0.1,0.8,0.2,1.2,0.3c0.2,0.1,0.5,0.1,0.8,0.2    c0.6,0.2,1.3,0.3,2,0.5c0.4,0.1,0.8,0.2,1.2,0.3c2.9,0.7,6.2,1.4,9.8,2.2c0.5,0.1,1,0.2,1.6,0.3c0.5,0.1,1.1,0.2,1.6,0.3    c0.9,0.2,1.8,0.3,2.7,0.5c0.5,0.1,1,0.2,1.5,0.3c0.1,0,0.2,0,0.3,0.1c0.8,0.1,1.5,0.3,2.3,0.4c2.4,0.4,4.8,0.8,7.4,1.2    c0.6,0.1,1.3,0.2,1.9,0.3c1.1,0.2,2.3,0.3,3.5,0.5c0.8,0.1,1.7,0.2,2.5,0.3c0.6,0.1,1.3,0.2,1.9,0.2v0    C-729.8,359.2-730.9,485.3-691.1,499.6L-691.1,499.6z" fill="rgb(255, 255, 255)" data-fill-id="3"></path>
	</g>
	<g>
		<defs>
			<path id="SVGID_1_" d="M-723.8,340.4c-6.1,18.8-7.1,145,32.7,159.2c-0.4,2-0.8,3.6-1.3,4.7c-2.6,6.3-4.7,33.6-4.7,33.9l-2.4,21.2     c-59.5,24.8-83.6,1.9-83.9,1.6c-1-6.7-2.2-14.8-3.3-21.5c-1.1-4.2-3.5-22.8-4.5-35.3c-1.1-13.7-0.8-24.1-0.8-24.3     c-1.5-51,1.2-88.2,3.8-99.8c2.7-11.7,4-20.1,8-38.2c1-4.8,2.1-9.1,3-12.7C-777,329.3-756.2,336.5-723.8,340.4z"></path>
		</defs>
		<clipPath id="SVGID_2_">
			<use xlink:href="#SVGID_1_" style="overflow:visible;"></use>
		</clipPath>
		<g class="st3 can-change" fill="rgb(0, 0, 0)">
			<path class="st0 can-change" d="M-694,519.8c0.1,0.2,0.2,0.5,0.3,0.7c-4.1,1.7-8.2,3.4-12.4,4.9c-8.4,2.3-17,3.9-25.6,5     c-2.3,0.1-4.7,0.1-7.1,0.1c-6.3,0-12.5-0.3-18.7-1c-8.6-1.5-17.2-3.7-25.5-6.5c-4.9-2-9.8-4.2-14.7-6.6c-0.3-0.1-0.6-0.2-0.8-0.4     c0-0.3,0.1-0.6,0.1-1c4.9,2.4,9.9,4.7,15,6.7c8.4,2.9,17,5.1,25.7,6.6c6.1,0.6,12.2,1,18.4,1c2.6,0,5.1,0,7.8-0.2     c8.7-1,17.3-2.8,25.8-5.1C-701.8,522.9-697.8,521.5-694,519.8z M-692.4,523.8c0.2,0.4,0.3,0.8,0.5,1.2c-4.4,1.9-8.9,3.7-13.3,5.4     c-8.6,2.3-17.4,4-26.2,5.1c-2.4,0.1-4.9,0.1-7.4,0.1c-6.4,0-12.8-0.3-19.1-1c-8.8-1.6-17.6-3.8-26-6.6c-5-2.1-10.1-4.3-15-6.7     c0-0.5,0-0.9,0.1-1.4c4.8,2.3,9.6,4.5,14.6,6.5c8.6,2.9,17.3,5,26.2,6.7c6.4,0.7,12.8,1,19.2,1c2.5,0,4.9,0,7.4-0.1     c8.9-1.1,17.7-2.8,26.4-5.2C-700.7,527.3-696.5,525.6-692.4,523.8z M-690.8,527.9c0.2,0.5,0.5,1.1,0.7,1.7     c-4.7,2.1-9.5,4-14.3,5.8c-8.8,2.4-17.7,4.1-26.7,5.2c-2.8,0.1-5.6,0.2-8.3,0.2c-6.3,0-12.6-0.3-18.8-1c-9-1.7-18-3.9-26.6-6.8     c-4.9-2-9.8-4.1-14.5-6.4c0-0.6,0.1-1.2,0.1-1.9c4.7,2.2,9.4,4.3,14.2,6.3c8.7,2.9,17.6,5.1,26.7,6.8c6.5,0.7,13,1,19.5,1     c2.5,0,5,0,7.6-0.1c9.1-1.2,18-2.9,26.9-5.3C-699.7,531.6-695.2,529.8-690.8,527.9z M-689.1,532c0.3,0.7,0.6,1.4,0.8,2.1     c-5,2.2-10.2,4.3-15.3,6.2c-9,2.5-18.1,4.3-27.3,5.4c-2.8,0.1-5.7,0.2-8.6,0.2c-6.4,0-12.8-0.3-19-1c-9.2-1.7-18.4-4-27.3-6.9     c-4.5-1.9-9-3.8-13.4-5.9c-0.2-0.1-0.4-0.2-0.6-0.2c0-0.8,0.1-1.6,0.2-2.4c4.5,2.2,9.1,4.1,13.8,6.1c8.9,3,17.9,5.3,27.2,7     c6.4,0.7,12.8,1,19.2,1c2.8,0,5.7-0.1,8.5-0.2c9.2-1.1,18.3-2.8,27.3-5.3C-698.7,536-693.8,534.1-689.1,532z M-687.4,536     c0.3,0.9,0.7,1.8,1.1,2.6c-5.4,2.4-10.9,4.6-16.4,6.7c-9.1,2.5-18.5,4.3-27.9,5.5c-2.8,0.1-5.6,0.2-8.5,0.2     c-6.6,0-13.2-0.3-19.8-1c-9.4-1.8-18.8-4.1-27.9-7.1c-4.5-1.8-8.9-3.7-13.3-5.8c-0.1,0-0.1-0.1-0.2-0.1c0-1,0.1-2,0.2-3     c4.4,2.1,8.9,4,13.4,5.9c9.1,3,18.3,5.3,27.7,7.1c6.4,0.7,12.9,1,19.3,1c2.9,0,5.8-0.1,8.8-0.2c9.4-1.1,18.7-2.9,27.8-5.5     C-697.7,540.3-692.5,538.2-687.4,536z M-685.7,540.1c0.4,1,0.8,2,1.2,2.9c-5.7,2.5-11.6,4.9-17.4,7.1c-9.3,2.6-18.9,4.4-28.5,5.6     c-2.8,0.1-5.7,0.2-8.6,0.2c-6.8,0-13.6-0.3-20.3-1.1c-9.6-1.8-19.1-4.2-28.4-7.3c-4.4-1.7-8.7-3.6-12.9-5.5     c0.1-1.2,0.1-2.3,0.2-3.5c4.3,2,8.6,3.9,13,5.6c9.2,3.2,18.6,5.5,28.2,7.3c6.7,0.7,13.3,1,20,1c2.9,0,5.7-0.1,8.6-0.2     c9.5-1.2,18.9-3,28.2-5.5C-696.7,544.7-691.1,542.6-685.7,540.1z M-684,544.2c0.5,1.1,1,2.3,1.5,3.4c-6.1,2.8-12.2,5.3-18.5,7.5     c-9.6,2.6-19.3,4.5-29.1,5.7c-3,0.1-6,0.2-9,0.2c-6.8,0-13.7-0.3-20.4-1.1c-9.8-1.8-19.5-4.3-29-7.5c-4.2-1.6-8.3-3.4-12.3-5.2     c0.1-1.3,0.2-2.6,0.2-3.9c4.1,1.9,8.3,3.7,12.6,5.4c9.3,3.2,18.9,5.5,28.6,7.4c6.8,0.7,13.6,1,20.5,1.1c2.9,0,5.8-0.1,8.7-0.2     c9.7-1.2,19.3-3,28.7-5.7C-695.6,549.1-689.7,546.8-684,544.2z M-682.3,548.3c1.7,4,3.4,7.9,5.2,11.8c-7.2,3.3-14.5,6.2-21.7,8.7     c-10.2,2.7-20.4,4.7-30.6,5.9c-10.4,0.5-20.8,0.2-31-1c-10.3-1.8-20.5-4.5-30.6-7.8c-3.6-1.4-7.1-2.9-10.6-4.5     c0.2-4.5,0.5-8.9,0.7-13.3c4,1.8,8,3.5,12.1,5.1c9.5,3.2,19.2,5.7,29.1,7.5c6.8,0.7,13.7,1.1,20.5,1.1c3,0,6,0,9-0.2     c9.8-1.2,19.6-3.1,29.2-5.8C-694.6,553.6-688.3,551.1-682.3,548.3z" fill="rgb(255, 255, 255)" data-fill-id="4"></path>
		</g>
	</g>
	<g>
		<path class="st4" d="M-691.1,499.6c-0.2,0.9-0.4,1.7-0.5,2.5c-0.1,0.3-0.2,0.6-0.2,0.8c-0.1,0.3-0.2,0.5-0.2,0.8    c-0.1,0.2-0.2,0.5-0.2,0.7c-2.6,6.3-4.7,33.6-4.7,33.9l-2.4,21.2c-59.5,24.8-83.6,1.9-83.9,1.6c-1-6.7-2.2-14.8-3.3-21.5    c-1.1-4.2-3.5-22.8-4.5-35.3c-1.1-13.7-0.8-24.2-0.8-24.3c-1.5-51,1.2-88.2,3.8-99.8c2.7-11.7,4-20.2,8-38.2c1-4.8,2.1-9.1,3-12.7    c0,0,0.7,0.2,1.9,0.6c0.2,0.1,0.5,0.1,0.7,0.2c0.4,0.1,0.8,0.2,1.3,0.4c0.3,0.1,0.6,0.2,1,0.3c0.3,0.1,0.7,0.2,1.1,0.3    c0.4,0.1,0.8,0.2,1.2,0.3c0.4,0.1,0.9,0.2,1.3,0.4c0.9,0.2,1.9,0.5,2.9,0.8c0.4,0.1,0.8,0.2,1.2,0.3c0.2,0.1,0.5,0.1,0.8,0.2    c0.6,0.2,1.3,0.3,2,0.5c0.4,0.1,0.8,0.2,1.2,0.3c2.9,0.7,6.2,1.4,9.8,2.2c0.5,0.1,1,0.2,1.6,0.3c0.5,0.1,1.1,0.2,1.6,0.3    c0.9,0.2,1.8,0.3,2.7,0.5c0.5,0.1,1,0.2,1.5,0.3c0.1,0,0.2,0,0.3,0.1c0.8,0.1,1.5,0.3,2.3,0.4c2.4,0.4,4.8,0.8,7.4,1.2    c0.6,0.1,1.3,0.2,1.9,0.3c1.1,0.2,2.3,0.3,3.5,0.5c0.8,0.1,1.7,0.2,2.5,0.3c0.6,0.1,1.3,0.2,1.9,0.2v0    C-729.8,359.2-730.9,485.3-691.1,499.6L-691.1,499.6z" fill="none"></path>
	</g>
</g>
<g>
	<g>
		<path class="st2 can-change" d="M-576.7,467.9c0,0.2,0,0.4,0,0.6c-0.1,3.7-0.2,7.5-0.3,11.4c0,0.1,0.3,10.6-0.8,24.3    c-1,12.6-3.4,31.1-4.5,35.3c-1.1,6.7-2.4,14.8-3.3,21.5c0,0-0.1,0.1-0.2,0.1c-1.2,1.1-9.7,8.1-27.5,9.5c-4.1,0.3-8.6,0.3-13.7-0.1    c-11.5-0.9-25.6-4.1-42.6-11.2l-2.4-21.2c0-0.3-2.1-27.5-4.7-33.9c-0.5-1.1-0.9-2.8-1.3-4.7c0,0,0,0,0.1,0    c39.7-14.3,38.7-140.4,32.6-159.2v0c1.3-0.1,2.5-0.3,3.7-0.5c0.2,0,0.5-0.1,0.8-0.1c23.8-3.1,40.7-8,46.6-9.8    c1.5-0.5,2.3-0.8,2.3-0.8c1,3.7,2,8,3,12.7c3.9,18,5.3,26.5,8,38.2C-578.4,390.8-575.9,423.1-576.7,467.9z" fill="rgb(255, 255, 255)" data-fill-id="1"></path>
	</g>
	<g>
		<defs>
			<path id="SVGID_3_" d="M-645.2,340.4c32.4-3.8,53.3-11.1,53.5-11.2c1,3.7,2,8,3,12.7c3.9,18,5.3,26.5,8,38.2     c2.6,11.6,5.3,48.8,3.8,99.8c0,0.1,0.3,10.6-0.8,24.3c-1,12.6-3.4,31.1-4.5,35.3c-1.1,6.7-2.4,14.8-3.3,21.5     c-0.2,0.2-24.4,23.2-83.9-1.6l-2.4-21.2c0-0.3-2.1-27.5-4.7-33.9c-0.5-1.1-0.9-2.8-1.3-4.7C-638.1,485.4-639.2,359.1-645.2,340.4     z"></path>
		</defs>
		<clipPath id="SVGID_4_">
			<use xlink:href="#SVGID_3_" style="overflow:visible;"></use>
		</clipPath>
		<g class="st5 can-change" fill="rgb(0, 0, 0)">
			<path class="st0 can-change" d="M-675.8,519.8c3.8,1.6,7.8,3.1,11.8,4.4c8.5,2.3,17.1,4.1,25.8,5.1c2.7,0.1,5.2,0.2,7.8,0.2     c6.1,0,12.2-0.3,18.4-1c8.8-1.6,17.4-3.8,25.7-6.6c5.1-2,10.1-4.2,15-6.7c0,0.3,0.1,0.7,0.1,1c-0.3,0.1-0.5,0.3-0.8,0.4     c-4.8,2.3-9.8,4.5-14.7,6.6c-8.3,2.8-16.9,4.9-25.5,6.5c-6.2,0.7-12.5,1-18.7,1c-2.4,0-4.8,0-7.1-0.1c-8.6-1.1-17.2-2.8-25.6-5     c-4.1-1.6-8.3-3.2-12.4-4.9C-676,520.3-676,520.1-675.8,519.8z M-677.5,523.8c4.2,1.8,8.4,3.4,12.6,5c8.7,2.4,17.5,4.1,26.4,5.2     c2.6,0.1,5,0.1,7.5,0.1c6.4,0,12.8-0.3,19.2-1c8.9-1.6,17.7-3.7,26.2-6.7c5-2.1,9.8-4.2,14.6-6.5c0.1,0.5,0.1,1,0.1,1.4     c-4.9,2.4-10,4.6-15,6.7c-8.5,2.8-17.2,5-26,6.6c-6.3,0.7-12.7,1-19.1,1c-2.5,0-5,0-7.4-0.1c-8.8-1.2-17.6-2.8-26.2-5.1     c-4.4-1.7-8.9-3.5-13.3-5.4C-677.8,524.7-677.6,524.3-677.5,523.8z M-679.1,527.9c4.4,1.9,9,3.7,13.5,5.4     c8.8,2.4,17.8,4.1,26.9,5.3c2.6,0.1,5.1,0.1,7.6,0.1c6.5,0,13-0.3,19.6-1c9.1-1.7,18-3.9,26.7-6.8c4.8-2,9.5-4.1,14.2-6.3     c0,0.6,0.1,1.2,0.1,1.9c-4.8,2.3-9.6,4.4-14.5,6.4c-8.6,3-17.6,5.2-26.6,6.8c-6.2,0.6-12.5,1-18.8,1c-2.8,0-5.6-0.1-8.3-0.2     c-9-1-18-2.8-26.7-5.2c-4.8-1.8-9.6-3.7-14.3-5.8C-679.5,529-679.3,528.4-679.1,527.9z M-680.8,532c4.8,2.1,9.6,4,14.5,5.8     c9,2.5,18.1,4.2,27.3,5.3c2.9,0.1,5.7,0.2,8.5,0.2c6.4,0,12.8-0.3,19.2-1c9.2-1.7,18.3-3.9,27.2-7c4.7-2,9.3-3.9,13.8-6.1     c0.1,0.8,0.1,1.6,0.2,2.4c-0.2,0.1-0.4,0.2-0.6,0.2c-4.5,2.1-8.9,4-13.4,5.9c-8.9,3-18.1,5.2-27.3,6.9c-6.3,0.7-12.6,1-19,1     c-2.9,0-5.8-0.1-8.6-0.2c-9.2-1.1-18.4-2.9-27.3-5.4c-5.2-1.9-10.3-4-15.3-6.2C-681.3,533.4-681,532.7-680.8,532z M-682.4,536     c5.1,2.2,10.3,4.3,15.5,6.3c9.1,2.6,18.4,4.3,27.8,5.5c2.9,0.1,5.9,0.2,8.8,0.2c6.5,0,12.9-0.3,19.3-1.1c9.4-1.8,18.7-4,27.7-7.1     c4.5-1.8,9-3.8,13.4-5.9c0.1,1,0.1,2,0.2,3c-0.1,0-0.1,0.1-0.2,0.1c-4.4,2-8.8,3.9-13.3,5.8c-9.1,3.1-18.5,5.4-27.9,7.1     c-6.6,0.7-13.2,1-19.8,1c-2.8,0-5.7-0.1-8.5-0.2c-9.4-1.2-18.7-3-27.9-5.5c-5.5-2.1-11-4.3-16.4-6.7     C-683.1,537.8-682.8,536.9-682.4,536z M-684.1,540.1c5.4,2.4,11,4.6,16.5,6.7c9.3,2.5,18.7,4.3,28.2,5.5c2.9,0.1,5.8,0.2,8.6,0.2     c6.7,0,13.4-0.3,20-1c9.5-1.8,19-4.1,28.2-7.3c4.4-1.8,8.7-3.6,13-5.6c0.1,1.2,0.1,2.3,0.2,3.5c-4.2,2-8.6,3.8-12.9,5.5     c-9.2,3.1-18.8,5.5-28.4,7.3c-6.7,0.7-13.5,1-20.3,1.1c-2.9,0-5.7-0.1-8.6-0.2c-9.6-1.2-19.2-3-28.5-5.6     c-5.9-2.2-11.7-4.5-17.4-7.1C-685,542.1-684.6,541.1-684.1,540.1z M-685.9,544.2c5.8,2.6,11.6,4.9,17.5,7.1     c9.4,2.6,19,4.4,28.7,5.7c2.9,0.1,5.8,0.2,8.7,0.2c6.8,0,13.7-0.3,20.5-1c9.7-1.8,19.3-4.2,28.6-7.4c4.2-1.7,8.5-3.5,12.6-5.4     c0.1,1.3,0.2,2.6,0.3,3.9c-4.1,1.9-8.2,3.6-12.3,5.2c-9.4,3.2-19.2,5.7-29,7.5c-6.8,0.7-13.6,1.1-20.4,1.1c-3,0-6-0.1-9-0.2     c-9.8-1.2-19.6-3.1-29.1-5.7c-6.3-2.2-12.5-4.7-18.5-7.5C-686.8,546.5-686.3,545.3-685.9,544.2z M-687.6,548.3     c6.1,2.8,12.3,5.4,18.6,7.6c9.6,2.6,19.4,4.5,29.2,5.8c3,0.1,6,0.2,9,0.2c6.9,0,13.7-0.3,20.5-1.1c9.9-1.8,19.6-4.3,29.1-7.5     c4.1-1.6,8.1-3.3,12.1-5.1c0.3,4.4,0.5,8.9,0.7,13.3c-3.5,1.6-7,3.1-10.6,4.5c-10.1,3.3-20.3,6-30.6,7.8c-10.3,1.1-20.6,1.5-31,1     c-10.2-1.2-20.4-3.2-30.6-5.9c-7.2-2.5-14.5-5.4-21.7-8.7C-691,556.2-689.3,552.2-687.6,548.3z" fill="rgb(255, 255, 255)" data-fill-id="2"></path>
		</g>
	</g>
	<g>
		<path class="st4" d="M-576.7,467.9c0,0.2,0,0.4,0,0.6c-0.1,3.7-0.2,7.5-0.3,11.4c0,0.1,0.3,10.6-0.8,24.3    c-1,12.6-3.4,31.1-4.5,35.3c-1.1,6.7-2.4,14.8-3.3,21.5c0,0-0.1,0.1-0.2,0.1c-1.2,1.1-9.7,8.1-27.5,9.5c-4.1,0.3-8.6,0.3-13.7-0.1    c-11.5-0.9-25.6-4.1-42.6-11.2l-2.4-21.2c0-0.3-2.1-27.5-4.7-33.9c-0.5-1.1-0.9-2.8-1.3-4.7c0,0,0,0,0.1,0    c39.7-14.3,38.7-140.4,32.6-159.2v0c1.3-0.1,2.5-0.3,3.7-0.5c0.2,0,0.5-0.1,0.8-0.1c23.8-3.1,40.7-8,46.6-9.8    c1.5-0.5,2.3-0.8,2.3-0.8c1,3.7,2,8,3,12.7c3.9,18,5.3,26.5,8,38.2C-578.4,390.8-575.9,423.1-576.7,467.9z" fill="none"></path>
	</g>
</g>
<path class="st0 can-change" d="M-684.5,454.4l0.2-111.4" fill="rgb(255, 255, 255)"></path>
<path class="st4" d="M-689.3,465.2c0,0-18.7-3.1-13.1-20c5.5-16.9,6.2-22.2,5.5-29.6c-0.7-7.5-5.8-16.9,12.4-16.9" fill="none"></path>
<path class="st4" d="M-679.6,465.2c0,0,18.6-3.1,13.1-20c-5.6-16.9-6.3-22.2-5.6-29.6c0.7-7.5,5.9-16.9-12.4-16.9" fill="none"></path>
<path class="st4" d="M-778.4,351.7c0,0,33.5,12,94,12c60.6,0,93.5-13.7,93.5-13.7" fill="none"></path>
<path class="st4" d="M-778.4,354.6c0,0,33.5,11.9,94,11.9c60.6,0,93.5-13.7,93.5-13.7" fill="none"></path>
<g>
	<path class="st0 can-change" d="M-684.3,343.8c0,0,15.5,2.7,13.5,8.8C-672.8,358.8-687,346.5-684.3,343.8z" fill="rgb(255, 255, 255)"></path>
	<path class="st0 can-change" d="M-684.3,343.4c0,0-2,0.8-0.7,6.5c1.4,5.6,1.4,11.8,0.3,13.4" fill="rgb(255, 255, 255)"></path>
	<path class="st0 can-change" d="M-684.6,343.4c0,0,3.7,5.4,2.4,8.5s-7.7,1-8.5,5.4" fill="rgb(255, 255, 255)"></path>
	<path class="st0 can-change" d="M-685,343.4c0.7,0.4,3.4,2.5-3,7.5c-6.4,5-5.7-2.4-1.3-3.4C-685,346.5-685.6,343.2-685,343.4z" fill="rgb(255, 255, 255)"></path>
</g>
<g class="human-logo">
	<path d="M-772,520.8l0.8-4.6h2.1l-0.2,1.3h1.5l0.2-1.3h3.7l-0.5,2.7c0,0,0,0.1,0,0.1h0.1h1.1c0.1,0,0.1,0,0.2,0   c0.1-0.1,0.1-0.2,0.1-0.2l0.4-2.5h4.1l0.7,1.9l1.3-1.9h2.5l-0.5,2.6l1.8-2.6h2.1l1,2.7l0.5-2.7h2.4l1.2,1.9l0.3-1.9h2.1l-0.8,4.6   h-2.4l-1.2-1.9l-0.3,1.9h-3.3l-0.2-0.7h-1.7l-0.5,0.7h-3.3l0.2-1.3l-0.9,1.3h-1.4l-0.5-1.4l-0.3,1.4h-2l0.1-0.5c0,0-0.1,0-0.1,0.1   c-0.4,0.3-1,0.4-1.5,0.4h-1.6c-0.4,0-0.9-0.1-1.3-0.3c-0.1-0.1-0.2-0.2-0.3-0.3l-0.1,0.6h-2.1l0.2-1.4h-1.5l-0.2,1.4H-772   L-772,520.8z"></path>
	<polygon class="st2 can-change" points="-771.4,520.4 -770.7,516.6 -769.6,516.6 -769.8,518 -767.4,518 -767.2,516.6 -766.1,516.6    -766.7,520.4 -767.9,520.4 -767.6,519 -770,519 -770.3,520.4  " fill="rgb(255, 255, 255)"></polygon>
	<path class="st2 can-change" d="M-766,519l0.4-2.4h1.1l-0.4,2.1c-0.1,0.5,0.1,0.7,0.5,0.7h1.1c0.5,0,0.7-0.2,0.8-0.7l0.4-2.1h1.1l-0.4,2.4   c-0.2,0.9-0.7,1.4-1.8,1.4h-1.6C-765.7,520.4-766.1,520-766,519" fill="rgb(255, 255, 255)"></path>
	<polygon class="st2 can-change" points="-761,520.4 -760.3,516.6 -758.6,516.6 -757.7,519 -756,516.6 -754.2,516.6 -754.9,520.4 -756,520.4    -755.5,517.7 -755.5,517.7 -757.5,520.4 -758.4,520.4 -759.4,517.7 -759.4,517.7 -759.9,520.4  " fill="rgb(255, 255, 255)"></polygon>
	<path class="st2 can-change" d="M-751.5,517.5l-1,1.4h1.5L-751.5,517.5z M-754.7,520.4l2.7-3.7h1.5l1.4,3.7h-1.3l-0.2-0.7h-2.3l-0.5,0.7   H-754.7z" fill="rgb(255, 255, 255)"></path>
	<polygon class="st2 can-change" points="-749,520.4 -748.4,516.6 -746.6,516.6 -744.9,519.3 -744.9,519.3 -744.5,516.6 -743.3,516.6    -744,520.4 -745.7,520.4 -747.4,517.7 -747.4,517.7 -747.9,520.4  " fill="rgb(255, 255, 255)"></polygon>
	<path d="M-742.6,519.4l0-0.2h1.1c-0.1,0.4,0.1,0.4,0.4,0.4h1.4c0.2,0,0.5,0,0.5-0.3c0.1-0.3-0.1-0.3-1.5-0.3   c-1.7,0-1.9-0.2-1.7-1.1c0.1-0.7,0.3-1.2,1.7-1.2h1.6c1.3,0,1.4,0.4,1.2,1.1l0,0.1h-1.1c0-0.3,0-0.4-0.5-0.4h-1.3   c-0.2,0-0.4,0.1-0.5,0.3c-0.1,0.3,0.1,0.3,1.3,0.3c1.8,0,2.2,0.1,2,1.2c-0.2,1-0.6,1.2-2.1,1.2h-1.4   C-742.4,520.4-742.8,520.2-742.6,519.4"></path>
	<path d="M-736,517.6l-0.2,0.9h1.8c0.3,0,0.4-0.2,0.4-0.4l0-0.1c0-0.3-0.1-0.4-0.4-0.4L-736,517.6L-736,517.6z M-737.6,520.4   l0.7-3.7h3.1c1.1,0,1.3,0.5,1.1,1.3l-0.1,0.3c-0.1,0.6-0.5,1.2-1.3,1.2h-2.3l-0.2,0.9H-737.6z"></path>
	<polygon points="-732.8,520.4 -732.2,516.6 -728.1,516.6 -728.2,517.5 -731.2,517.5 -731.3,518.1 -728.5,518.1 -728.6,518.9    -731.4,518.9 -731.5,519.5 -728.5,519.5 -728.7,520.4  "></polygon>
	<polygon points="-728.2,520.4 -727.6,516.6 -723.5,516.6 -723.7,517.5 -726.6,517.5 -726.7,518.1 -723.9,518.1 -724,518.9    -726.8,518.9 -726.9,519.5 -723.9,519.5 -724.1,520.4  "></polygon>
	<path d="M-722,517.6l-0.3,1.8h2c0.5,0,0.7-0.1,0.8-0.7l0.1-0.5c0.1-0.5-0.1-0.7-0.6-0.7H-722z M-723.6,520.4l0.7-3.7h3.4   c1.1,0,1.5,0.4,1.3,1.3l-0.2,1.1c-0.2,0.9-0.6,1.3-1.8,1.3L-723.6,520.4L-723.6,520.4z"></path>
	<path d="M-716.5,516c-0.5,0-0.9,0.4-0.9,1c0,0.6,0.4,1,1,1c0.5,0,0.9-0.4,0.9-1C-715.6,516.4-716,516-716.5,516 M-716.5,515.7   c0.7,0,1.2,0.6,1.2,1.2c0,0.7-0.5,1.2-1.2,1.2c-0.7,0-1.2-0.6-1.2-1.2C-717.7,516.3-717.2,515.7-716.5,515.7 M-716.7,516.5v0.4h0.1   c0.2,0,0.3-0.1,0.3-0.2c0-0.1-0.1-0.2-0.3-0.2C-716.6,516.5-716.7,516.5-716.7,516.5 M-716.7,517.1v0.5h-0.2v-1.2   c0.1,0,0.2,0,0.4,0c0.2,0,0.3,0,0.4,0.1c0.1,0,0.1,0.1,0.1,0.3c0,0.1-0.1,0.2-0.3,0.3v0c0.1,0,0.2,0.1,0.2,0.3   c0,0.2,0.1,0.3,0.1,0.3h-0.3c-0.1-0.1-0.1-0.1-0.1-0.3c0-0.1-0.1-0.2-0.3-0.2L-716.7,517.1L-716.7,517.1z"></path>
	<rect x="-772" y="515.7" class="st6" width="56.7" height="5.2" fill="none"></rect>
	<path d="M-737.8,521.7h0.3l-0.2,1.1h-0.3L-737.8,521.7z"></path>
	<path d="M-736.7,521.7h0.5l0.5,0.8l0.2-0.8h0.3l-0.2,1.1h-0.5l-0.5-0.8l-0.2,0.8h-0.3L-736.7,521.7z"></path>
	<path d="M-734.2,521.9h-0.5l0.1-0.3h1.3l-0.1,0.3h-0.5l-0.2,0.8h-0.3L-734.2,521.9z"></path>
	<path d="M-731.5,521.7l-0.1,0.2h-0.9l0,0.2h0.8l0,0.2h-0.8l0,0.2h0.9l-0.1,0.2h-1.2l0.2-1.1L-731.5,521.7L-731.5,521.7z"></path>
	<path d="M-730.8,521.7h0.3l-0.2,0.8h0.7l-0.1,0.3h-1.1L-730.8,521.7z"></path>
	<path d="M-729.1,521.7h0.3l-0.2,0.8h0.7l-0.1,0.3h-1.1L-729.1,521.7z"></path>
	<path d="M-727.3,521.7h0.3l-0.2,1.1h-0.3L-727.3,521.7z"></path>
	<path d="M-725.3,522C-725.3,522-725.3,522-725.3,522c0-0.1,0-0.1,0-0.1c0,0,0,0-0.1,0l-0.1,0l-0.2,0c-0.1,0-0.2,0-0.2,0.1   c0,0.1-0.1,0.3-0.1,0.4c0,0.1,0.1,0.1,0.2,0.1c0,0,0.1,0,0.3,0c0.2,0,0.2,0,0.2-0.1c0,0,0,0,0-0.1h-0.4l0-0.2h0.7l0,0.1   c0,0.2,0,0.2-0.1,0.3c-0.1,0.1-0.2,0.2-0.3,0.2c0,0-0.2,0-0.4,0c-0.3,0-0.4,0-0.5-0.1c-0.1,0-0.1-0.1-0.1-0.2c0-0.1,0-0.2,0.1-0.4   c0.1-0.3,0.1-0.4,0.3-0.4c0.1,0,0.2,0,0.5,0c0.4,0,0.5,0,0.5,0.1c0.1,0,0.1,0.1,0.1,0.2c0,0,0,0.1,0,0.2L-725.3,522L-725.3,522z"></path>
	<path d="M-723,521.7l-0.1,0.2h-0.9l0,0.2h0.8l0,0.2h-0.8l0,0.2h0.9l-0.1,0.2h-1.2l0.2-1.1L-723,521.7L-723,521.7z"></path>
	<path d="M-722.2,521.7h0.5l0.5,0.8l0.2-0.8h0.3l-0.2,1.1h-0.5l-0.5-0.8l-0.2,0.8h-0.3L-722.2,521.7z"></path>
	<path d="M-719.7,521.9h-0.5l0.1-0.3h1.3l-0.1,0.3h-0.5l-0.2,0.8h-0.3L-719.7,521.9z"></path>
	<g>
		<polygon class="st7 can-change" points="-743.2,522.4 -743.3,522.8 -742.1,522.8 -742,522.4   " fill="rgb(237, 28, 36)"></polygon>
		<polygon class="st7 can-change" points="-738.4,522 -738.3,521.7 -741.5,521.7 -741.6,522   " fill="rgb(237, 28, 36)"></polygon>
		<polygon class="st7 can-change" points="-741.9,521.7 -743.1,521.7 -743.1,522 -742,522   " fill="rgb(237, 28, 36)"></polygon>
		<polygon class="st7 can-change" points="-741.8,522.8 -738.5,522.8 -738.5,522.4 -741.7,522.4   " fill="rgb(237, 28, 36)"></polygon>
		<polygon class="st2 can-change" points="-741.6,522 -741.5,521.7 -741.9,521.7 -742,522 -743.1,522 -743.2,522.4 -742,522.4 -742.1,522.8     -741.8,522.8 -741.7,522.4 -738.5,522.4 -738.4,522   " fill="rgb(255, 255, 255)"></polygon>
	</g>
</g>
<g class="human-logo">
	<path d="M-651.5,520.8l0.8-4.6h2.1l-0.2,1.3h1.5l0.2-1.3h3.7l-0.5,2.7c0,0,0,0.1,0,0.1h0.1h1.1c0.1,0,0.1,0,0.2,0   c0.1-0.1,0.1-0.2,0.1-0.2l0.4-2.5h4.1l0.7,1.9l1.3-1.9h2.5l-0.5,2.6l1.8-2.6h2.1l1,2.7l0.5-2.7h2.4l1.2,1.9l0.3-1.9h2.1l-0.8,4.6   h-2.4l-1.2-1.9l-0.3,1.9h-3.3l-0.2-0.7h-1.7l-0.5,0.7h-3.3l0.2-1.3l-0.9,1.3h-1.4l-0.5-1.4l-0.3,1.4h-2l0.1-0.5c0,0-0.1,0-0.1,0.1   c-0.4,0.3-1,0.4-1.5,0.4h-1.6c-0.4,0-0.9-0.1-1.3-0.3c-0.1-0.1-0.2-0.2-0.3-0.3l-0.1,0.6h-2.1l0.2-1.4h-1.5l-0.2,1.4H-651.5   L-651.5,520.8z"></path>
	<polygon class="st2 can-change" points="-650.9,520.4 -650.3,516.6 -649.1,516.6 -649.4,518 -647,518 -646.7,516.6 -645.6,516.6 -646.2,520.4    -647.4,520.4 -647.1,519 -649.5,519 -649.8,520.4  " fill="rgb(255, 255, 255)"></polygon>
	<path class="st2 can-change" d="M-645.5,519l0.4-2.4h1.1l-0.4,2.1c-0.1,0.5,0.1,0.7,0.5,0.7h1.1c0.5,0,0.7-0.2,0.8-0.7l0.4-2.1h1.1l-0.4,2.4   c-0.2,0.9-0.7,1.4-1.8,1.4h-1.6C-645.2,520.4-645.7,520-645.5,519" fill="rgb(255, 255, 255)"></path>
	<polygon class="st2 can-change" points="-640.5,520.4 -639.9,516.6 -638.1,516.6 -637.2,519 -635.5,516.6 -633.8,516.6 -634.4,520.4    -635.5,520.4 -635.1,517.7 -635.1,517.7 -637,520.4 -637.9,520.4 -638.9,517.7 -638.9,517.7 -639.4,520.4  " fill="rgb(255, 255, 255)"></polygon>
	<path class="st2 can-change" d="M-631,517.5l-1,1.4h1.5L-631,517.5z M-634.3,520.4l2.7-3.7h1.5l1.4,3.7h-1.3l-0.2-0.7h-2.3l-0.5,0.7H-634.3z" fill="rgb(255, 255, 255)"></path>
	<polygon class="st2 can-change" points="-628.6,520.4 -627.9,516.6 -626.1,516.6 -624.5,519.3 -624.5,519.3 -624,516.6 -622.8,516.6    -623.5,520.4 -625.3,520.4 -626.9,517.7 -626.9,517.7 -627.4,520.4  " fill="rgb(255, 255, 255)"></polygon>
	<path d="M-622.1,519.4l0-0.2h1.1c-0.1,0.4,0.1,0.4,0.4,0.4h1.4c0.2,0,0.5,0,0.5-0.3c0.1-0.3-0.1-0.3-1.5-0.3   c-1.7,0-1.9-0.2-1.7-1.1c0.1-0.7,0.3-1.2,1.7-1.2h1.6c1.3,0,1.4,0.4,1.2,1.1l0,0.1h-1.1c0-0.3,0-0.4-0.5-0.4h-1.3   c-0.2,0-0.4,0.1-0.5,0.3c-0.1,0.3,0.1,0.3,1.3,0.3c1.8,0,2.2,0.1,2,1.2c-0.2,1-0.6,1.2-2.1,1.2h-1.4   C-621.9,520.4-622.3,520.2-622.1,519.4"></path>
	<path d="M-615.5,517.6l-0.2,0.9h1.8c0.3,0,0.4-0.2,0.4-0.4l0-0.1c0-0.3-0.1-0.4-0.4-0.4L-615.5,517.6L-615.5,517.6z M-617.2,520.4   l0.7-3.7h3.1c1.1,0,1.3,0.5,1.1,1.3l-0.1,0.3c-0.1,0.6-0.5,1.2-1.3,1.2h-2.3l-0.2,0.9H-617.2z"></path>
	<polygon points="-612.3,520.4 -611.7,516.6 -607.6,516.6 -607.8,517.5 -610.7,517.5 -610.8,518.1 -608,518.1 -608.2,518.9    -610.9,518.9 -611,519.5 -608,519.5 -608.2,520.4  "></polygon>
	<polygon points="-607.8,520.4 -607.1,516.6 -603,516.6 -603.2,517.5 -606.1,517.5 -606.2,518.1 -603.4,518.1 -603.6,518.9    -606.4,518.9 -606.5,519.5 -603.5,519.5 -603.6,520.4  "></polygon>
	<path d="M-601.5,517.6l-0.3,1.8h2c0.5,0,0.7-0.1,0.8-0.7l0.1-0.5c0.1-0.5-0.1-0.7-0.6-0.7H-601.5z M-603.1,520.4l0.7-3.7h3.4   c1.1,0,1.5,0.4,1.3,1.3l-0.2,1.1c-0.2,0.9-0.6,1.3-1.8,1.3L-603.1,520.4L-603.1,520.4z"></path>
	<path d="M-596,516c-0.5,0-0.9,0.4-0.9,1c0,0.6,0.4,1,1,1c0.5,0,0.9-0.4,0.9-1C-595.1,516.4-595.5,516-596,516 M-596,515.7   c0.7,0,1.2,0.6,1.2,1.2c0,0.7-0.5,1.2-1.2,1.2c-0.7,0-1.2-0.6-1.2-1.2C-597.3,516.3-596.7,515.7-596,515.7 M-596.2,516.5v0.4h0.1   c0.2,0,0.3-0.1,0.3-0.2c0-0.1-0.1-0.2-0.3-0.2C-596.1,516.5-596.2,516.5-596.2,516.5 M-596.2,517.1v0.5h-0.2v-1.2   c0.1,0,0.2,0,0.4,0c0.2,0,0.3,0,0.4,0.1c0.1,0,0.1,0.1,0.1,0.3c0,0.1-0.1,0.2-0.3,0.3v0c0.1,0,0.2,0.1,0.2,0.3   c0,0.2,0.1,0.3,0.1,0.3h-0.3c-0.1-0.1-0.1-0.1-0.1-0.3c0-0.1-0.1-0.2-0.3-0.2L-596.2,517.1L-596.2,517.1z"></path>
	<rect x="-651.5" y="515.7" class="st6" width="56.7" height="5.2" fill="none"></rect>
	<path d="M-617.3,521.7h0.3l-0.2,1.1h-0.3L-617.3,521.7z"></path>
	<path d="M-616.3,521.7h0.5l0.5,0.8l0.2-0.8h0.3l-0.2,1.1h-0.5l-0.5-0.8l-0.2,0.8h-0.3L-616.3,521.7z"></path>
	<path d="M-613.7,521.9h-0.5l0.1-0.3h1.3l-0.1,0.3h-0.5l-0.2,0.8h-0.3L-613.7,521.9z"></path>
	<path d="M-611,521.7l-0.1,0.2h-0.9l0,0.2h0.8l0,0.2h-0.8l0,0.2h0.9l-0.1,0.2h-1.2l0.2-1.1L-611,521.7L-611,521.7z"></path>
	<path d="M-610.3,521.7h0.3l-0.2,0.8h0.7l-0.1,0.3h-1.1L-610.3,521.7z"></path>
	<path d="M-608.6,521.7h0.3l-0.2,0.8h0.7l-0.1,0.3h-1.1L-608.6,521.7z"></path>
	<path d="M-606.9,521.7h0.3l-0.2,1.1h-0.3L-606.9,521.7z"></path>
	<path d="M-604.8,522C-604.8,522-604.8,522-604.8,522c0-0.1,0-0.1,0-0.1c0,0,0,0-0.1,0l-0.1,0l-0.2,0c-0.1,0-0.2,0-0.2,0.1   c0,0.1-0.1,0.3-0.1,0.4c0,0.1,0.1,0.1,0.2,0.1c0,0,0.1,0,0.3,0c0.2,0,0.2,0,0.2-0.1c0,0,0,0,0-0.1h-0.4l0-0.2h0.7l0,0.1   c0,0.2,0,0.2-0.1,0.3c-0.1,0.1-0.2,0.2-0.3,0.2c0,0-0.2,0-0.4,0c-0.3,0-0.4,0-0.5-0.1c-0.1,0-0.1-0.1-0.1-0.2c0-0.1,0-0.2,0.1-0.4   c0.1-0.3,0.1-0.4,0.3-0.4c0.1,0,0.2,0,0.5,0c0.4,0,0.5,0,0.5,0.1c0.1,0,0.1,0.1,0.1,0.2c0,0,0,0.1,0,0.2L-604.8,522L-604.8,522z"></path>
	<path d="M-602.5,521.7l-0.1,0.2h-0.9l0,0.2h0.8l0,0.2h-0.8l0,0.2h0.9l-0.1,0.2h-1.2l0.2-1.1L-602.5,521.7L-602.5,521.7z"></path>
	<path d="M-601.8,521.7h0.5l0.5,0.8l0.2-0.8h0.3l-0.2,1.1h-0.5l-0.5-0.8l-0.2,0.8h-0.3L-601.8,521.7z"></path>
	<path d="M-599.2,521.9h-0.5l0.1-0.3h1.3l-0.1,0.3h-0.5l-0.2,0.8h-0.3L-599.2,521.9z"></path>
	<g>
		<polygon class="st7 can-change" points="-622.7,522.4 -622.8,522.8 -621.6,522.8 -621.6,522.4   " fill="rgb(237, 28, 36)"></polygon>
		<polygon class="st7 can-change" points="-617.9,522 -617.8,521.7 -621.1,521.7 -621.1,522   " fill="rgb(237, 28, 36)"></polygon>
		<polygon class="st7 can-change" points="-621.4,521.7 -622.6,521.7 -622.7,522 -621.5,522   " fill="rgb(237, 28, 36)"></polygon>
		<polygon class="st7 can-change" points="-621.3,522.8 -618.1,522.8 -618,522.4 -621.2,522.4   " fill="rgb(237, 28, 36)"></polygon>
		<polygon class="st2 can-change" points="-621.1,522 -621.1,521.7 -621.4,521.7 -621.5,522 -622.7,522 -622.7,522.4 -621.6,522.4     -621.6,522.8 -621.3,522.8 -621.2,522.4 -618,522.4 -617.9,522   " fill="rgb(255, 255, 255)"></polygon>
	</g>
</g>
</svg>