<svg xmlns="http://www.w3.org/2000/svg" xmlns:xlink="http://www.w3.org/1999/xlink" version="1.1" id="Layer_1" x="0px" y="0px" viewBox="-763 238 281 416" style="enable-background:new -763 238 281 416;" xml:space="preserve" data-product="2017513" data-design="5" data-size="m">
<style type="text/css">
	.st0{fill:#FFFFFF;stroke:#6D6E71;stroke-width:0.34;stroke-linecap:round;stroke-linejoin:round;stroke-miterlimit:10;}
	.st1{fill:#FFFFFF;}
	.st2{clip-path:url(#SVGID_10_);}
	.st3{fill:none;stroke:#6D6E71;stroke-width:0.34;stroke-linecap:round;stroke-linejoin:round;stroke-miterlimit:10;}
	.st4{clip-path:url(#SVGID_12_);}
	.st5{fill:#EDEDED;stroke:#6D6E71;stroke-width:0.34;stroke-linecap:round;stroke-linejoin:round;stroke-miterlimit:10;}
	.st6{clip-path:url(#SVGID_14_);}
	.st7{clip-path:url(#SVGID_16_);}
	.st8{fill:none;}
	.st9{fill:#ED1C24;}
</style>
<path class="st0 cannot-edit can-change" d="M-659.5,246.1c3.4,0.3,36.4,22.1,77.6,0c0,0-5.5,52-41.4,48.3c-35.9-3.7-41.6-46.9-38.9-47.6  C-659.5,246.1-662.8,245.8-659.5,246.1z" fill="rgb(255, 255, 255)"></path>
<path class="st0 can-change" d="M-578.5,243c31.8,12.2,59.1,27.6,64.2,33c0.1,0,4.1,4.6,8.4,15.2c2.4,6,5,14.2,7.1,23.6  c9.3,39.6,10.2,65,10.2,65.3c-2.2,3.6-17.2,18.4-37.2,11.2c-2.1-4.4-12.5-28.8-13.9-33.3c-1.2-3.7-8-25.6-8-25.7  c0.1-0.3-4.9-23.8-3.5-40.1c-1.2-3.7-2.8-7.1-4.9-10c-9-8.2-11.5-11.1-26.8-19.2C-579.7,251.8-580.1,252.1-578.5,243z" fill="rgb(255, 255, 255)" data-fill-id="9"></path>
<path class="st0 can-change" d="M-666.2,243c1.6,9.1,1.2,8.8,4.4,20c-15.3,8.2-17.8,11-26.8,19.2c-2.1,2.9-3.7,6.3-4.9,10  c1.3,16.3-3.6,39.8-3.5,40.1c0,0.1-6.8,22-7.9,25.7c-1.4,4.5-10.8,26.6-12.9,31.1c-20,7.2-36.3-7.9-38.5-11.6  c0-0.3,1.1-23,10.5-62.6c2-9.4,4.6-17.6,7-23.6c4.3-10.6,8.3-15.2,8.4-15.2C-725.2,270.6-698,255.2-666.2,243z" fill="rgb(255, 255, 255)" data-fill-id="14"></path>
<g>
	<g>
		<path id="SVGID_1_" class="st1 can-change" d="M-540.9,354.5c0.4,0.3,0.5,0.7,0.5,1c-1.6,9.6-3.5,23.6-3.9,30.4c0.3,14.5-3.1,24-2,65.7    c-22.9,8.5-51.8,11-76,11h0V293.5h0.1c19.8-0.2,30.5-10.8,39.7-50.7l3.6,2.5l0.4-2.3c15.1,4.9,30.7,13.3,30.8,13.4    C-557.5,310-543.7,347.8-540.9,354.5z" fill="rgb(255, 255, 255)" data-fill-id="8"></path>
	</g>
	<g>
		<defs>
			<path id="SVGID_9_" d="M-540.9,354.5c0.4,0.3,0.5,0.7,0.5,1c-1.6,9.6-3.5,23.6-3.9,30.4c0.3,14.5-3.1,24-2,65.7     c-22.9,8.5-51.8,11-76,11h0V293.5h0.1c19.8-0.2,30.5-10.8,39.7-50.7l3.6,2.5l0.4-2.3c15.1,4.9,30.7,13.3,30.8,13.4     C-557.5,310-543.7,347.8-540.9,354.5z"></path>
		</defs>
		<clipPath id="SVGID_10_">
			<use xlink:href="#SVGID_9_" style="overflow:visible;"></use>
		</clipPath>
		<g class="st2 can-change" fill="rgb(0, 0, 0)">
			<g>
				<path class="st0 can-change" d="M-597.8,345.8h7.3v217.3h-7.3V345.8z" fill="rgb(255, 255, 255)"></path>
				<path class="st0 can-change" d="M-583.1,345.8h7.3v217.3h-7.3V345.8z" fill="rgb(255, 255, 255)"></path>
				<path class="st0 can-change" d="M-590.5,345.8h7.3v217.3h-7.3V345.8z" fill="rgb(255, 255, 255)"></path>
			</g>
		</g>
	</g>
	<g>
		<path id="SVGID_2_" class="st3" d="M-540.9,354.5c0.4,0.3,0.5,0.7,0.5,1c-1.6,9.6-3.5,23.6-3.9,30.4c0.3,14.5-3.1,24-2,65.7    c-22.9,8.5-51.8,11-76,11h0V293.5h0.1c19.8-0.2,30.5-10.8,39.7-50.7l3.6,2.5l0.4-2.3c15.1,4.9,30.7,13.3,30.8,13.4    C-557.5,310-543.7,347.8-540.9,354.5z" fill="none"></path>
	</g>
</g>
<path class="st0 can-change" d="M-703.7,354.5c2.7-6.8,16.6-44.6,6.7-98.2c0.2-0.1,15.7-8.5,30.9-13.4l0.4,2.3l3.6-2.5  c9.2,39.9,19.9,50.4,39.7,50.7h0.1v169.1h0c-24.3,0-53.1-2.5-76-11c1.1-41.7-2.4-51.2-2-65.7c-0.3-6.7-2.2-20.8-3.8-30.4  C-704.2,355.2-704.1,354.9-703.7,354.5z" fill="rgb(255, 255, 255)"></path>
<g>
	<g>
		<path id="SVGID_3_" class="st1 can-change" d="M-534,564.8c0,3.3,0,6.6-0.2,10c0,0.1,0.3,8.6-0.6,19.9c-0.9,10.3-2.8,25.4-3.7,28.9    c-0.9,5.4-1.9,12.2-2.7,17.6c-0.2,0.2-19.9,18.9-68.7-1.4l-2-17.3c0-0.2-1.7-22.6-3.9-27.8c-2.2-5.2-3.3-26-3.3-26.2l0.5-15.8    c0,0-2.3,1.2-3.6,1.2c-1.2,0-3.6-1.2-3.6-1.2l0.5,15.8c0,0.2-1.1,21-3.3,26.2c-2.2,5.2-3.9,27.6-3.9,27.8l-2,17.3    c-48.8,20.3-68.5,1.5-68.7,1.4c-0.8-5.4-1.8-12.2-2.7-17.6c-0.9-3.5-2.8-18.7-3.7-28.9c-0.9-11.3-0.6-19.8-0.6-19.9    c-1.3-41.8,0.9-72.2,3.1-81.8c2.2-9.6,3.3-16.5,6.5-31.3c0.8-3.9,1.7-7.4,2.4-10.4c1.1-41.4-2.4-50.9-2-65.4    c-0.3-6.7-2.2-20.8-3.8-30.4c3.2-9.2,3.2-13.1,7.1-23.6c19.2,18.3,19.8,49.9,21.1,69.6c0.8,11.9,2.8,33.4,0.6,55.6    c13.4,2.7,31.8,5.2,53.2,5.2c21.7,0,39.9-2.6,52.8-5.3c-2.1-22.1-0.2-43.6,0.6-55.5c1.3-19.8,1.9-51.4,21.1-69.6    c4,10.5,4,14.5,7.2,23.6c-1.7,9.6-3.5,23.6-3.9,30.4c0.3,14.5-3.1,24-2,65.4c0.7,3,1.6,6.5,2.4,10.4c3.2,14.8,4.3,21.6,6.5,31.3    C-535.4,501.8-533.4,528.2-534,564.8z" fill="rgb(255, 255, 255)" data-fill-id="1"></path>
	</g>
	<g>
		<defs>
			<path id="SVGID_11_" d="M-534,564.8c0,3.3,0,6.6-0.2,10c0,0.1,0.3,8.6-0.6,19.9c-0.9,10.3-2.8,25.4-3.7,28.9     c-0.9,5.4-1.9,12.2-2.7,17.6c-0.2,0.2-19.9,18.9-68.7-1.4l-2-17.3c0-0.2-1.7-22.6-3.9-27.8c-2.2-5.2-3.3-26-3.3-26.2l0.5-15.8     c0,0-2.3,1.2-3.6,1.2c-1.2,0-3.6-1.2-3.6-1.2l0.5,15.8c0,0.2-1.1,21-3.3,26.2c-2.2,5.2-3.9,27.6-3.9,27.8l-2,17.3     c-48.8,20.3-68.5,1.5-68.7,1.4c-0.8-5.4-1.8-12.2-2.7-17.6c-0.9-3.5-2.8-18.7-3.7-28.9c-0.9-11.3-0.6-19.8-0.6-19.9     c-1.3-41.8,0.9-72.2,3.1-81.8c2.2-9.6,3.3-16.5,6.5-31.3c0.8-3.9,1.7-7.4,2.4-10.4c1.1-41.4-2.4-50.9-2-65.4     c-0.3-6.7-2.2-20.8-3.8-30.4c3.2-9.2,3.2-13.1,7.1-23.6c19.2,18.3,19.8,49.9,21.1,69.6c0.8,11.9,2.8,33.4,0.6,55.6     c13.4,2.7,31.8,5.2,53.2,5.2c21.7,0,39.9-2.6,52.8-5.3c-2.1-22.1-0.2-43.6,0.6-55.5c1.3-19.8,1.9-51.4,21.1-69.6     c4,10.5,4,14.5,7.2,23.6c-1.7,9.6-3.5,23.6-3.9,30.4c0.3,14.5-3.1,24-2,65.4c0.7,3,1.6,6.5,2.4,10.4c3.2,14.8,4.3,21.6,6.5,31.3     C-535.4,501.8-533.4,528.2-534,564.8z"></path>
		</defs>
		<clipPath id="SVGID_12_">
			<use xlink:href="#SVGID_11_" style="overflow:visible;"></use>
		</clipPath>
		<g class="st4 can-change" fill="rgb(0, 0, 0)">
			<g>
				<path class="st0 can-change" d="M-718.2,619.8l13.8,11.5c0,0,21.5,18.2,70-0.1l8.6-3.6l-0.6,20.8c0,0-59.5,20.9-84.8,0L-718.2,619.8z" fill="rgb(255, 255, 255)" data-fill-id="5"></path>
				<path class="st0 can-change" d="M-718.3,622.7l13.8,11.5c0,0,21.5,18.2,70-0.1l8.6-3.6l-0.6,20.8c0,0-59.5,20.9-84.8,0L-718.3,622.7z" fill="rgb(255, 255, 255)" data-fill-id="6"></path>
				<path class="st0 can-change" d="M-718.5,625.7l13.8,11.5c0,0,21.5,18.2,70-0.1l8.6-3.6l-0.6,20.8c0,0-59.5,21-84.8,0L-718.5,625.7z" fill="rgb(255, 255, 255)" data-fill-id="7"></path>
			</g>
			<g>
				<path class="st0 can-change" d="M-526.9,619.8l-7,28.7c-25.3,20.9-84.8,0-84.8,0l-0.6-20.8l8.6,3.6c48.5,18.3,70,0.1,70,0.1L-526.9,619.8z" fill="rgb(255, 255, 255)" data-fill-id="2"></path>
				<path class="st0 can-change" d="M-526.8,622.7l-7,28.7c-25.3,20.9-84.8,0-84.8,0l-0.6-20.8l8.6,3.6c48.5,18.3,70,0.1,70,0.1L-526.8,622.7z" fill="rgb(255, 255, 255)" data-fill-id="3"></path>
				<path class="st0 can-change" d="M-526.6,625.7l-7,28.7c-25.3,21-84.8,0-84.8,0l-0.6-20.8l8.6,3.6c48.5,18.3,70,0.1,70,0.1L-526.6,625.7z" fill="rgb(255, 255, 255)" data-fill-id="4"></path>
			</g>
		</g>
	</g>
	<g>
		<path id="SVGID_4_" class="st3" d="M-534,564.8c0,3.3,0,6.6-0.2,10c0,0.1,0.3,8.6-0.6,19.9c-0.9,10.3-2.8,25.4-3.7,28.9    c-0.9,5.4-1.9,12.2-2.7,17.6c-0.2,0.2-19.9,18.9-68.7-1.4l-2-17.3c0-0.2-1.7-22.6-3.9-27.8c-2.2-5.2-3.3-26-3.3-26.2l0.5-15.8    c0,0-2.3,1.2-3.6,1.2c-1.2,0-3.6-1.2-3.6-1.2l0.5,15.8c0,0.2-1.1,21-3.3,26.2c-2.2,5.2-3.9,27.6-3.9,27.8l-2,17.3    c-48.8,20.3-68.5,1.5-68.7,1.4c-0.8-5.4-1.8-12.2-2.7-17.6c-0.9-3.5-2.8-18.7-3.7-28.9c-0.9-11.3-0.6-19.8-0.6-19.9    c-1.3-41.8,0.9-72.2,3.1-81.8c2.2-9.6,3.3-16.5,6.5-31.3c0.8-3.9,1.7-7.4,2.4-10.4c1.1-41.4-2.4-50.9-2-65.4    c-0.3-6.7-2.2-20.8-3.8-30.4c3.2-9.2,3.2-13.1,7.1-23.6c19.2,18.3,19.8,49.9,21.1,69.6c0.8,11.9,2.8,33.4,0.6,55.6    c13.4,2.7,31.8,5.2,53.2,5.2c21.7,0,39.9-2.6,52.8-5.3c-2.1-22.1-0.2-43.6,0.6-55.5c1.3-19.8,1.9-51.4,21.1-69.6    c4,10.5,4,14.5,7.2,23.6c-1.7,9.6-3.5,23.6-3.9,30.4c0.3,14.5-3.1,24-2,65.4c0.7,3,1.6,6.5,2.4,10.4c3.2,14.8,4.3,21.6,6.5,31.3    C-535.4,501.8-533.4,528.2-534,564.8z" fill="none"></path>
	</g>
</g>
<path class="st0 can-change" d="M-659.5,242.8c0,0,35.1,20.3,74.6-0.1l-2,8.3c0,0-30.4,19-71-0.4C-657.8,250.5-659.5,242.7-659.5,242.8z" fill="rgb(255, 255, 255)"></path>
<path class="st0 can-change" d="M-622.3,554l0.1-91.3" fill="rgb(255, 255, 255)"></path>
<path class="st0 can-change" d="M-622.3,430.9l0.1-138" fill="rgb(255, 255, 255)"></path>
<path class="st0 can-change" d="M-666.2,243l6.8-0.2c0,0,2.5,17.6,11.3,34.2c5.4,10.3,16.8,14.5,26,14.1c0,0,9.8,0.4,16.5-4.7  c4.6-3.4,9.3-8.6,13-17.1c3.4-8.6,6-17.6,7.7-26.6l6.4,0.3c0,0-4.8,25.4-11.7,35.7c-6.9,10.3-16.2,19-32.3,19.3  c-16.2,0.4-28.2-10-32.7-18.1c-4.5-8.2-8.8-21.6-10.3-31.7L-666.2,243z" fill="rgb(255, 255, 255)" data-fill-id="19"></path>
<path class="st0 can-change" d="M-622.3,462.6l0-171.7" fill="rgb(255, 255, 255)"></path>
<path class="st0 can-change" d="M-620.3,462.6l0.1-171.7" fill="rgb(255, 255, 255)"></path>
<path class="st0 can-change" d="M-624.4,462.6l0.1-171.7" fill="rgb(255, 255, 255)"></path>
<g>
	<path class="st0 can-change" d="M-622.3,294.5h0.8c0,0,0.1-0.2,0.2-0.6c0-0.4,0.1-0.4,0.1-0.4s0.3-0.3,0.4-0.3c0.1-0.1,0.1-0.3,0.1-0.3   s0-0.3,0-0.8c0-0.4-0.1-0.5-0.1-0.5l-1-1v-0.5l-0.5,0l-0.5,0v0.5l-0.9,1c0,0-0.1,0-0.2,0.5c0,0.4,0,0.8,0,0.8s0,0.2,0.2,0.3   c0.1,0,0.4,0.3,0.4,0.3s0.1,0,0.1,0.4c0,0.4,0.2,0.6,0.2,0.6H-622.3" fill="rgb(255, 255, 255)"></path>
	<path class="st0 can-change" d="M-622.3,294.5h0.8c0,0,0.1-0.2,0.2-0.6c0-0.2,0-0.3,0-0.3l0.1-0.1c0,0,0.3-0.3,0.4-0.3   c0.1-0.1,0.1-0.3,0.1-0.3v0c0,0,0-0.1,0-0.4c0-0.1,0-0.3,0-0.4c0-0.4-0.1-0.5-0.1-0.5l-1-1v-0.5l-0.5,0l-0.5,0v0.5l-0.9,1   c0,0-0.1,0-0.2,0.5c0,0.1,0,0.2,0,0.4c0,0.2,0,0.4,0,0.4v0c0,0,0,0.2,0.2,0.3c0.1,0,0.4,0.3,0.4,0.3l0.1,0.1c0,0,0.1,0.1,0.1,0.3   c0,0.4,0.2,0.6,0.2,0.6H-622.3h-0.8c0,0-0.1-0.2-0.2-0.6c0-0.2,0-0.3-0.1-0.3l-0.1-0.1c0,0-0.3-0.3-0.4-0.3   c-0.1-0.1-0.2-0.3-0.2-0.3v0c0,0,0-0.1,0-0.4c0-0.1,0-0.3,0-0.4c0-0.4,0.2-0.5,0.2-0.5l0.9-1v-0.5l0.5,0l0.5,0v0.5l1,1   c0,0,0.1,0,0.1,0.5c0,0.1,0,0.2,0,0.4c0,0.2,0,0.4,0,0.4v0c0,0,0,0.2-0.1,0.3c-0.1,0-0.4,0.3-0.4,0.3l-0.1,0.1c0,0,0,0.1,0,0.3   c0,0.4-0.2,0.6-0.2,0.6H-622.3z" fill="rgb(255, 255, 255)"></path>
	<path class="st0 can-change" d="M-622.6,290.4h0.6v3h-0.6V290.4v3h0.6v-3H-622.6z" fill="rgb(255, 255, 255)"></path>
	<path class="st0 can-change" d="M-622.3,295l1.3,0c0,0,0-2.2,0.1-2.4c0-0.3-0.1-0.3-0.1-0.3h-1.3h-1.2c0,0-0.2,0-0.1,0.3   c0.1,0.2,0.1,2.4,0.1,2.4L-622.3,295" fill="rgb(255, 255, 255)"></path>
	<path class="st0 can-change" d="M-622.3,295h1.3c0,0,0-2.2,0.1-2.4v-0.1c0-0.2-0.1-0.2-0.1-0.2h-1.3h-1.2c0,0-0.1,0-0.1,0.2v0.1   c0.1,0.2,0.1,2.4,0.1,2.4H-622.3h-1.3c0,0,0-2.2-0.1-2.4v-0.1c0-0.2,0.1-0.2,0.1-0.2h1.2h1.3c0,0,0.1,0,0.1,0.2v0.1   c0,0.2-0.1,2.4-0.1,2.4H-622.3z" fill="rgb(255, 255, 255)"></path>
	<path class="st0 can-change" d="M-621.7,298.6h-1.2c-0.5-0.1-0.5-0.9-0.5-0.9l-0.2-2.7h2.5l-0.2,2.7C-621.2,297.6-621.2,298.5-621.7,298.6z" fill="rgb(255, 255, 255)"></path>
	<path class="st0 can-change" d="M-621.7,298.6c0.5-0.1,0.5-0.9,0.5-0.9l0.2-2.7h-2.5l0.2,2.7c0,0.1,0,0.8,0.5,0.9H-621.7h-1.2   c-0.5-0.1-0.5-0.9-0.5-0.9l-0.2-2.7h2.5l-0.2,2.7C-621.2,297.7-621.2,298.5-621.7,298.6z" fill="rgb(255, 255, 255)"></path>
	<path class="st0 can-change" d="M-621.9,294.8c0.1-0.6,0.3-1,0.6-1.4v-0.8h-2v0.8c0.3,0.5,0.5,0.8,0.6,1.4H-621.9h-0.8c-0.1-0.6-0.3-1-0.6-1.4   v-0.8h2v0.8C-621.6,293.9-621.8,294.2-621.9,294.8z" fill="rgb(255, 255, 255)"></path>
	<path class="st0 can-change" d="M-623.2,291.7h0.6v0.6h-0.6V291.7v0.6h0.6v-0.6H-623.2z" fill="rgb(255, 255, 255)"></path>
	<path class="st0 can-change" d="M-622,291.7h0.6v0.6h-0.6V291.7v0.6h0.6v-0.6H-622z" fill="rgb(255, 255, 255)"></path>
	<path class="st0 can-change" d="M-622,292.5h0.6v0.6h-0.6V292.5v0.6h0.6v-0.6H-622z" fill="rgb(255, 255, 255)"></path>
	<path class="st0 can-change" d="M-623.2,292.5h0.6v0.6h-0.6V292.5v0.6h0.6v-0.6H-623.2z" fill="rgb(255, 255, 255)"></path>
</g>
<g class="cannot-edit"><path class="st5 cannot-edit can-change" d="M-622.2,462.4V554h-0.1c-1.2,0-3.6-1.2-3.6-1.2l0.5,15.8c0,0.2-0.8,15.2-2.4,22.9  c-60.4-27.3-47.7-133.3-47.5-134.4C-662,459.9-643.5,462.4-622.2,462.4z" style="fill: rgb(0, 0, 0);"></path><path class="st5 cannot-edit can-change" d="M-622.5,462.4c21.4,0,39.8-2.6,53.2-5.3c0.1,1.1,12.8,107.2-47.5,134.4c-1.6-7.7-2.4-22.8-2.4-22.9l0.5-15.9  c0,0-2.4,1.2-3.6,1.2h-0.1V462.4z" style="fill: rgb(0, 0, 0);"></path></g>

<g class="cannot-edit"><path class="st3" d="M-626.2,562.8c0,0-15.2-2.5-10.7-16.4c4.6-13.8,5.1-18.2,4.6-24.3c-0.6-6.1-4.8-13.8,10.1-13.8" fill="none"></path><path class="st3" d="M-618.3,562.8c0,0,15.2-2.5,10.7-16.4c-4.5-13.8-5.1-18.2-4.5-24.3c0.6-6.1,4.8-13.8-10.2-13.8" fill="none"></path></g>

<g>
	<g>
		<path id="SVGID_5_" class="st1 can-change" d="M-756.3,377.5l1.8,2.6c17.7,16.5,36.7,9,36.7,9l-5.4,15.5c-22.2,5.3-35-10.1-35-10.1    L-756.3,377.5z" fill="rgb(255, 255, 255)" data-fill-id="15"></path>
	</g>
	<g>
		<defs>
			<path id="SVGID_13_" d="M-756.3,377.5l1.8,2.6c17.7,16.5,36.7,9,36.7,9l-5.4,15.5c-22.2,5.3-35-10.1-35-10.1L-756.3,377.5z"></path>
		</defs>
		<clipPath id="SVGID_14_">
			<use xlink:href="#SVGID_13_" style="overflow:visible;"></use>
		</clipPath>
		<g class="st6 can-change" fill="rgb(0, 0, 0)">
			<g>
				<path class="st0 can-change" d="M-758.3,380.3l1.9,2.7c18.7,17.5,38.9,9.6,38.9,9.6l-5.7,16.4c-23.5,5.6-37-10.7-37-10.7L-758.3,380.3z" fill="rgb(255, 255, 255)" data-fill-id="16"></path>
				<path class="st0 can-change" d="M-759.1,383.9l1.9,2.7c18.7,17.5,38.9,9.6,38.9,9.6l-5.8,16.4c-23.4,5.6-37-10.7-37-10.7L-759.1,383.9z" fill="rgb(255, 255, 255)" data-fill-id="17"></path>
				<path class="st0 can-change" d="M-759.8,387.5l1.9,2.7c18.7,17.5,38.9,9.6,38.9,9.6l-5.7,16.4c-23.5,5.6-37-10.7-37-10.7L-759.8,387.5z" fill="rgb(255, 255, 255)" data-fill-id="18"></path>
			</g>
		</g>
	</g>
	<g>
		<path id="SVGID_6_" class="st3" d="M-756.3,377.5l1.8,2.6c17.7,16.5,36.7,9,36.7,9l-5.4,15.5c-22.2,5.3-35-10.1-35-10.1    L-756.3,377.5z" fill="none"></path>
	</g>
</g>
<g>
	<g>
		<path id="SVGID_7_" class="st1 can-change" d="M-488.6,379.8l1.8,17c0,0-12.4,15.4-33.8,10.1l-5.2-15.5c0,0,18.4,7.5,35.5-9L-488.6,379.8z" fill="rgb(255, 255, 255)" data-fill-id="10"></path>
	</g>
	<g>
		<defs>
			<path id="SVGID_15_" d="M-488.6,379.8l1.8,17c0,0-12.4,15.4-33.8,10.1l-5.2-15.5c0,0,18.4,7.5,35.5-9L-488.6,379.8z"></path>
		</defs>
		<clipPath id="SVGID_16_">
			<use xlink:href="#SVGID_15_" style="overflow:visible;"></use>
		</clipPath>
		<g class="st7 can-change" fill="rgb(0, 0, 0)">
			<g>
				<path class="st0 can-change" d="M-486,382.6l2,18c0,0-13.6,16.3-37.1,10.7l-5.7-16.4c0,0,20.2,7.9,38.9-9.6L-486,382.6z" fill="rgb(255, 255, 255)" data-fill-id="11"></path>
				<path class="st0 can-change" d="M-485.2,386.2l2,18c0,0-13.6,16.3-37.1,10.7l-5.8-16.4c0,0,20.2,7.9,38.9-9.6L-485.2,386.2z" fill="rgb(255, 255, 255)" data-fill-id="12"></path>
				<path class="st0 can-change" d="M-484.5,389.8l2,18c0,0-13.6,16.3-37.1,10.7l-5.7-16.4c0,0,20.2,7.9,38.9-9.6L-484.5,389.8z" fill="rgb(255, 255, 255)" data-fill-id="13"></path>
			</g>
		</g>
	</g>
	<g>
		<path id="SVGID_8_" class="st3" d="M-488.6,379.8l1.8,17c0,0-12.4,15.4-33.8,10.1l-5.2-15.5c0,0,18.4,7.5,35.5-9L-488.6,379.8z" fill="none"></path>
	</g>
</g>
<g class="human-logo">
	<path d="M-613.9,332.1l0.8-4.6h2.1l-0.2,1.3h1.5l0.2-1.3h3.7l-0.5,2.7c0,0,0,0.1,0,0.1h0.1h1.1c0.1,0,0.1,0,0.2,0   c0.1-0.1,0.1-0.2,0.1-0.2l0.4-2.5h4.1l0.7,1.9l1.3-1.9h2.5l-0.5,2.6l1.8-2.6h2.1l1,2.7l0.5-2.7h2.4l1.2,1.9l0.3-1.9h2.1l-0.8,4.6   h-2.4l-1.2-1.9l-0.3,1.9h-3.3l-0.2-0.7h-1.7l-0.5,0.7h-3.3l0.2-1.3l-0.9,1.3h-1.4l-0.5-1.4l-0.3,1.4h-2l0.1-0.5c0,0-0.1,0-0.1,0.1   c-0.4,0.3-1,0.4-1.5,0.4h-1.6c-0.4,0-0.9-0.1-1.3-0.3c-0.1-0.1-0.2-0.2-0.3-0.3l-0.1,0.6h-2.1l0.2-1.4h-1.5l-0.2,1.4H-613.9z"></path>
	<polygon class="st1 can-change" points="-613.3,331.6 -612.7,327.9 -611.5,327.9 -611.8,329.2 -609.4,329.2 -609.1,327.9 -608,327.9    -608.7,331.6 -609.8,331.6 -609.5,330.2 -612,330.2 -612.2,331.6  " fill="rgb(255, 255, 255)"></polygon>
	<path class="st1 can-change" d="M-607.9,330.3l0.4-2.4h1.1l-0.4,2.1c-0.1,0.5,0.1,0.7,0.5,0.7h1.1c0.5,0,0.7-0.2,0.8-0.7l0.4-2.1h1.1l-0.4,2.4   c-0.2,0.9-0.7,1.4-1.8,1.4h-1.6C-607.7,331.6-608.1,331.2-607.9,330.3" fill="rgb(255, 255, 255)"></path>
	<polygon class="st1 can-change" points="-602.9,331.6 -602.3,327.9 -600.5,327.9 -599.7,330.3 -597.9,327.9 -596.2,327.9 -596.8,331.6    -598,331.6 -597.5,328.9 -597.5,328.9 -599.5,331.6 -600.3,331.6 -601.3,328.9 -601.3,328.9 -601.8,331.6  " fill="rgb(255, 255, 255)"></polygon>
	<path class="st1 can-change" d="M-593.4,328.7l-1,1.4h1.5L-593.4,328.7z M-596.7,331.6l2.7-3.7h1.5l1.4,3.7h-1.3l-0.2-0.7h-2.3l-0.5,0.7   H-596.7z" fill="rgb(255, 255, 255)"></path>
	<polygon class="st1 can-change" points="-591,331.6 -590.3,327.9 -588.6,327.9 -586.9,330.6 -586.9,330.6 -586.4,327.9 -585.3,327.9    -585.9,331.6 -587.7,331.6 -589.4,328.9 -589.4,328.9 -589.8,331.6  " fill="rgb(255, 255, 255)"></polygon>
	<path d="M-584.6,330.6l0-0.2h1.1c-0.1,0.4,0.1,0.4,0.4,0.4h1.4c0.2,0,0.5,0,0.5-0.3c0.1-0.3-0.1-0.3-1.5-0.3   c-1.7,0-1.9-0.2-1.7-1.1c0.1-0.7,0.3-1.2,1.7-1.2h1.6c1.3,0,1.4,0.4,1.2,1.1l0,0.1h-1.1c0-0.3,0-0.4-0.5-0.4h-1.3   c-0.2,0-0.4,0.1-0.5,0.3c-0.1,0.3,0.1,0.3,1.3,0.3c1.8,0,2.2,0.1,2,1.2c-0.2,1-0.6,1.2-2.1,1.2h-1.4   C-584.3,331.6-584.7,331.4-584.6,330.6"></path>
	<path d="M-577.9,328.8l-0.2,0.9h1.8c0.3,0,0.4-0.2,0.4-0.4l0-0.1c0-0.3-0.1-0.4-0.4-0.4L-577.9,328.8L-577.9,328.8z M-579.6,331.6   l0.7-3.7h3.1c1.1,0,1.3,0.5,1.1,1.3l-0.1,0.3c-0.1,0.5-0.5,1.2-1.3,1.2h-2.3l-0.2,0.9H-579.6z"></path>
	<polygon points="-574.8,331.6 -574.1,327.9 -570,327.9 -570.2,328.7 -573.1,328.7 -573.2,329.3 -570.4,329.3 -570.6,330.1    -573.3,330.1 -573.5,330.7 -570.5,330.7 -570.6,331.6  "></polygon>
	<polygon points="-570.2,331.6 -569.5,327.9 -565.5,327.9 -565.6,328.7 -568.5,328.7 -568.6,329.3 -565.9,329.3 -566,330.1    -568.8,330.1 -568.9,330.7 -565.9,330.7 -566,331.6  "></polygon>
	<path d="M-563.9,328.8l-0.3,1.8h2c0.5,0,0.7-0.1,0.8-0.7l0.1-0.5c0.1-0.5-0.1-0.7-0.6-0.7H-563.9z M-565.6,331.6l0.7-3.7h3.4   c1.1,0,1.5,0.4,1.3,1.3l-0.2,1.1c-0.2,0.9-0.6,1.3-1.8,1.3L-565.6,331.6L-565.6,331.6z"></path>
	<path d="M-558.4,327.2c-0.5,0-0.9,0.4-0.9,1c0,0.6,0.4,1,1,1c0.5,0,0.9-0.4,0.9-1C-557.5,327.6-557.9,327.2-558.4,327.2    M-558.4,326.9c0.7,0,1.2,0.6,1.2,1.2c0,0.7-0.5,1.2-1.2,1.2s-1.2-0.6-1.2-1.2C-559.7,327.5-559.1,326.9-558.4,326.9 M-558.6,327.7   v0.4h0.1c0.2,0,0.3-0.1,0.3-0.2c0-0.1-0.1-0.2-0.3-0.2C-558.5,327.7-558.6,327.7-558.6,327.7 M-558.6,328.3v0.5h-0.2v-1.2   c0.1,0,0.2,0,0.4,0c0.2,0,0.3,0,0.4,0.1c0.1,0,0.1,0.1,0.1,0.3c0,0.1-0.1,0.2-0.3,0.3v0c0.1,0,0.2,0.1,0.2,0.3   c0,0.2,0.1,0.3,0.1,0.3h-0.3c-0.1-0.1-0.1-0.1-0.1-0.3c0-0.1-0.1-0.2-0.3-0.2C-558.5,328.3-558.6,328.3-558.6,328.3z"></path>
	<rect x="-613.9" y="326.9" class="st8" width="56.7" height="5.2" fill="none"></rect>
	<path d="M-579.8,332.9h0.3l-0.2,1.1h-0.3L-579.8,332.9z"></path>
	<path d="M-578.7,332.9h0.5l0.5,0.8l0.2-0.8h0.3l-0.2,1.1h-0.5l-0.5-0.8l-0.2,0.8h-0.3L-578.7,332.9z"></path>
	<path d="M-576.1,333.2h-0.5l0.1-0.3h1.3l-0.1,0.3h-0.5l-0.2,0.8h-0.3L-576.1,333.2z"></path>
	<path d="M-573.5,332.9l-0.1,0.2h-0.9l0,0.2h0.8l0,0.2h-0.8l0,0.2h0.9l-0.1,0.2h-1.2l0.2-1.1L-573.5,332.9L-573.5,332.9z"></path>
	<path d="M-572.7,332.9h0.3l-0.2,0.8h0.7l-0.1,0.3h-1.1L-572.7,332.9z"></path>
	<path d="M-571,332.9h0.3l-0.2,0.8h0.7l-0.1,0.3h-1.1L-571,332.9z"></path>
	<path d="M-569.3,332.9h0.3l-0.2,1.1h-0.3L-569.3,332.9z"></path>
	<path d="M-567.2,333.3C-567.2,333.3-567.2,333.2-567.2,333.3c0-0.1,0-0.1,0-0.1c0,0,0,0-0.1,0l-0.1,0l-0.2,0c-0.1,0-0.2,0-0.2,0.1   c0,0.1-0.1,0.3-0.1,0.3c0,0.1,0.1,0.1,0.2,0.1c0,0,0.1,0,0.3,0c0.2,0,0.2,0,0.2-0.1c0,0,0,0,0-0.1h-0.4l0-0.2h0.7l0,0.1   c0,0.2,0,0.2-0.1,0.3c-0.1,0.1-0.2,0.2-0.3,0.2c0,0-0.2,0-0.4,0c-0.3,0-0.4,0-0.5-0.1c-0.1,0-0.1-0.1-0.1-0.2c0-0.1,0-0.2,0.1-0.4   c0.1-0.3,0.1-0.4,0.3-0.4c0.1,0,0.2,0,0.5,0c0.4,0,0.5,0,0.5,0.1c0.1,0,0.1,0.1,0.1,0.2c0,0,0,0.1,0,0.2L-567.2,333.3L-567.2,333.3   z"></path>
	<path d="M-564.9,332.9l-0.1,0.2h-0.9l0,0.2h0.8l0,0.2h-0.8l0,0.2h0.9l-0.1,0.2h-1.2l0.2-1.1L-564.9,332.9L-564.9,332.9z"></path>
	<path d="M-564.2,332.9h0.5l0.5,0.8l0.2-0.8h0.3l-0.2,1.1h-0.5l-0.5-0.8l-0.2,0.8h-0.3L-564.2,332.9z"></path>
	<path d="M-561.6,333.2h-0.5l0.1-0.3h1.3l-0.1,0.3h-0.5l-0.2,0.8h-0.3L-561.6,333.2z"></path>
	<g>
		<polygon class="st9 can-change" points="-585.2,333.6 -585.2,334 -584.1,334 -584,333.6   " fill="rgb(237, 28, 36)"></polygon>
		<polygon class="st9 can-change" points="-580.3,333.3 -580.3,332.9 -583.5,332.9 -583.6,333.3   " fill="rgb(237, 28, 36)"></polygon>
		<polygon class="st9 can-change" points="-583.8,332.9 -585,332.9 -585.1,333.3 -583.9,333.3   " fill="rgb(237, 28, 36)"></polygon>
		<polygon class="st9 can-change" points="-583.7,334 -580.5,334 -580.4,333.6 -583.6,333.6   " fill="rgb(237, 28, 36)"></polygon>
		<polygon class="st1 can-change" points="-583.6,333.3 -583.5,332.9 -583.8,332.9 -583.9,333.3 -585.1,333.3 -585.2,333.6 -584,333.6     -584.1,334 -583.7,334 -583.6,333.6 -580.4,333.6 -580.3,333.3   " fill="rgb(255, 255, 255)"></polygon>
	</g>
</g>
<g class="human-logo">
	<path d="M-698.7,626.4l0.8-4.6h2.1l-0.2,1.3h1.5l0.2-1.3h3.7l-0.5,2.7c0,0,0,0.1,0,0.1h0.1h1.1c0.1,0,0.1,0,0.2,0   c0.1-0.1,0.1-0.2,0.1-0.2l0.4-2.5h4.1l0.7,1.9l1.3-1.9h2.5l-0.5,2.6l1.8-2.6h2.1l1,2.7l0.5-2.7h2.4l1.2,1.9l0.3-1.9h2.1l-0.8,4.6   h-2.4l-1.2-1.9l-0.3,1.9h-3.3l-0.2-0.7h-1.7l-0.5,0.7h-3.3l0.2-1.3l-0.9,1.3h-1.4l-0.5-1.4l-0.3,1.4h-2l0.1-0.5c0,0-0.1,0-0.1,0.1   c-0.4,0.3-1,0.4-1.5,0.4h-1.6c-0.4,0-0.9-0.1-1.3-0.3c-0.1-0.1-0.2-0.2-0.3-0.3l-0.1,0.6h-2.1l0.2-1.4h-1.5l-0.2,1.4H-698.7z"></path>
	<polygon class="st1 can-change" points="-698.1,625.9 -697.5,622.2 -696.3,622.2 -696.6,623.5 -694.2,623.5 -693.9,622.2 -692.8,622.2    -693.4,625.9 -694.6,625.9 -694.3,624.5 -696.7,624.5 -697,625.9  " fill="rgb(255, 255, 255)"></polygon>
	<path class="st1 can-change" d="M-692.7,624.6l0.4-2.4h1.1l-0.4,2.1c-0.1,0.5,0.1,0.7,0.5,0.7h1.1c0.5,0,0.7-0.2,0.8-0.7l0.4-2.1h1.1l-0.4,2.4   c-0.2,0.9-0.7,1.4-1.8,1.4h-1.6C-692.5,625.9-692.9,625.5-692.7,624.6" fill="rgb(255, 255, 255)"></path>
	<polygon class="st1 can-change" points="-687.7,625.9 -687.1,622.2 -685.3,622.2 -684.4,624.6 -682.7,622.2 -681,622.2 -681.6,625.9    -682.7,625.9 -682.3,623.2 -682.3,623.2 -684.2,625.9 -685.1,625.9 -686.1,623.2 -686.1,623.2 -686.6,625.9  " fill="rgb(255, 255, 255)"></polygon>
	<path class="st1 can-change" d="M-678.2,623l-1,1.4h1.5L-678.2,623z M-681.5,625.9l2.7-3.7h1.5l1.4,3.7h-1.3l-0.2-0.7h-2.3l-0.5,0.7H-681.5z" fill="rgb(255, 255, 255)"></path>
	<polygon class="st1 can-change" points="-675.8,625.9 -675.1,622.2 -673.3,622.2 -671.7,624.9 -671.7,624.9 -671.2,622.2 -670,622.2    -670.7,625.9 -672.5,625.9 -674.1,623.2 -674.2,623.2 -674.6,625.9  " fill="rgb(255, 255, 255)"></polygon>
	<path d="M-669.3,624.9l0-0.2h1.1c-0.1,0.4,0.1,0.4,0.4,0.4h1.4c0.2,0,0.5,0,0.5-0.3c0.1-0.3-0.1-0.3-1.5-0.3   c-1.7,0-1.9-0.2-1.7-1.1c0.1-0.7,0.3-1.2,1.7-1.2h1.6c1.3,0,1.4,0.4,1.2,1.1l0,0.1h-1.1c0-0.3,0-0.4-0.5-0.4h-1.3   c-0.2,0-0.4,0.1-0.5,0.3c-0.1,0.3,0.1,0.3,1.3,0.3c1.8,0,2.2,0.1,2,1.2c-0.2,1-0.6,1.2-2.1,1.2h-1.4   C-669.1,625.9-669.5,625.7-669.3,624.9"></path>
	<path d="M-662.7,623.1l-0.2,0.9h1.8c0.3,0,0.4-0.2,0.4-0.4l0-0.1c0-0.3-0.1-0.4-0.4-0.4L-662.7,623.1L-662.7,623.1z M-664.4,625.9   l0.7-3.7h3.1c1.1,0,1.3,0.5,1.1,1.3l-0.1,0.3c-0.1,0.5-0.5,1.2-1.3,1.2h-2.3l-0.2,0.9L-664.4,625.9L-664.4,625.9z"></path>
	<polygon points="-659.5,625.9 -658.9,622.2 -654.8,622.2 -655,623 -657.9,623 -658,623.6 -655.2,623.6 -655.4,624.4 -658.1,624.4    -658.2,625 -655.2,625 -655.4,625.9  "></polygon>
	<polygon points="-655,625.9 -654.3,622.2 -650.2,622.2 -650.4,623 -653.3,623 -653.4,623.6 -650.6,623.6 -650.8,624.4    -653.6,624.4 -653.7,625 -650.7,625 -650.8,625.9  "></polygon>
	<path d="M-648.7,623.1l-0.3,1.8h2c0.5,0,0.7-0.1,0.8-0.7l0.1-0.5c0.1-0.5-0.1-0.7-0.6-0.7H-648.7z M-650.3,625.9l0.7-3.7h3.4   c1.1,0,1.5,0.4,1.3,1.3l-0.2,1.1c-0.2,0.9-0.6,1.3-1.8,1.3L-650.3,625.9L-650.3,625.9z"></path>
	<path d="M-643.2,621.5c-0.5,0-0.9,0.4-0.9,1c0,0.6,0.4,1,1,1c0.5,0,0.9-0.4,0.9-1C-642.3,621.9-642.7,621.5-643.2,621.5    M-643.2,621.2c0.7,0,1.2,0.6,1.2,1.2c0,0.7-0.5,1.2-1.2,1.2s-1.2-0.6-1.2-1.2C-644.5,621.8-643.9,621.2-643.2,621.2 M-643.4,622   v0.4h0.1c0.2,0,0.3-0.1,0.3-0.2c0-0.1-0.1-0.2-0.3-0.2C-643.3,622-643.4,622-643.4,622 M-643.4,622.6v0.5h-0.2v-1.2   c0.1,0,0.2,0,0.4,0c0.2,0,0.3,0,0.4,0.1c0.1,0,0.1,0.1,0.1,0.3c0,0.1-0.1,0.2-0.3,0.3v0c0.1,0,0.2,0.1,0.2,0.3   c0,0.2,0.1,0.3,0.1,0.3h-0.3c-0.1-0.1-0.1-0.1-0.1-0.3c0-0.1-0.1-0.2-0.3-0.2L-643.4,622.6L-643.4,622.6z"></path>
	<rect x="-698.7" y="621.2" class="st8" width="56.7" height="5.2" fill="none"></rect>
	<path d="M-664.5,627.2h0.3l-0.2,1.1h-0.3L-664.5,627.2z"></path>
	<path d="M-663.5,627.2h0.5l0.5,0.8l0.2-0.8h0.3l-0.2,1.1h-0.5l-0.5-0.8l-0.2,0.8h-0.3L-663.5,627.2z"></path>
	<path d="M-660.9,627.5h-0.5l0.1-0.3h1.3l-0.1,0.3h-0.5l-0.2,0.8h-0.3L-660.9,627.5z"></path>
	<path d="M-658.2,627.2l-0.1,0.2h-0.9l0,0.2h0.8l0,0.2h-0.8l0,0.2h0.9l-0.1,0.2h-1.2l0.2-1.1L-658.2,627.2L-658.2,627.2z"></path>
	<path d="M-657.5,627.2h0.3l-0.2,0.8h0.7l-0.1,0.3h-1.1L-657.5,627.2z"></path>
	<path d="M-655.8,627.2h0.3l-0.2,0.8h0.7l-0.1,0.3h-1.1L-655.8,627.2z"></path>
	<path d="M-654.1,627.2h0.3l-0.2,1.1h-0.3L-654.1,627.2z"></path>
	<path d="M-652,627.6C-652,627.6-652,627.5-652,627.6c0-0.1,0-0.1,0-0.1c0,0,0,0-0.1,0l-0.1,0l-0.2,0c-0.1,0-0.2,0-0.2,0.1   c0,0.1-0.1,0.3-0.1,0.4c0,0.1,0.1,0.1,0.2,0.1c0,0,0.1,0,0.3,0c0.2,0,0.2,0,0.2-0.1c0,0,0,0,0-0.1h-0.4l0-0.2h0.7l0,0.1   c0,0.2,0,0.2-0.1,0.3c-0.1,0.1-0.2,0.2-0.3,0.2c0,0-0.2,0-0.4,0c-0.3,0-0.4,0-0.5-0.1c-0.1,0-0.1-0.1-0.1-0.2c0-0.1,0-0.2,0.1-0.4   c0.1-0.3,0.1-0.4,0.3-0.4c0.1,0,0.2,0,0.5,0c0.4,0,0.5,0,0.5,0.1c0.1,0,0.1,0.1,0.1,0.2c0,0,0,0.1,0,0.2L-652,627.6L-652,627.6z"></path>
	<path d="M-649.7,627.2l-0.1,0.2h-0.9l0,0.2h0.8l0,0.2h-0.8l0,0.2h0.9l-0.1,0.2h-1.2l0.2-1.1L-649.7,627.2L-649.7,627.2z"></path>
	<path d="M-649,627.2h0.5l0.5,0.8l0.2-0.8h0.3l-0.2,1.1h-0.5l-0.5-0.8l-0.2,0.8h-0.3L-649,627.2z"></path>
	<path d="M-646.4,627.5h-0.5l0.1-0.3h1.3l-0.1,0.3h-0.5l-0.2,0.8h-0.3L-646.4,627.5z"></path>
	<g>
		<polygon class="st9 can-change" points="-669.9,627.9 -670,628.3 -668.8,628.3 -668.8,627.9   " fill="rgb(237, 28, 36)"></polygon>
		<polygon class="st9 can-change" points="-665.1,627.6 -665,627.2 -668.3,627.2 -668.3,627.6   " fill="rgb(237, 28, 36)"></polygon>
		<polygon class="st9 can-change" points="-668.6,627.2 -669.8,627.2 -669.9,627.6 -668.7,627.6   " fill="rgb(237, 28, 36)"></polygon>
		<polygon class="st9 can-change" points="-668.5,628.3 -665.3,628.3 -665.2,627.9 -668.4,627.9   " fill="rgb(237, 28, 36)"></polygon>
		<polygon class="st1 can-change" points="-668.3,627.6 -668.3,627.2 -668.6,627.2 -668.7,627.6 -669.9,627.6 -669.9,627.9 -668.8,627.9     -668.8,628.3 -668.5,628.3 -668.4,627.9 -665.2,627.9 -665.1,627.6   " fill="rgb(255, 255, 255)"></polygon>
	</g>
</g>
<g class="human-logo">
	<path d="M-600.7,626.4l0.8-4.6h2.1l-0.2,1.3h1.5l0.2-1.3h3.7l-0.5,2.7c0,0,0,0.1,0,0.1h0.1h1.1c0.1,0,0.1,0,0.2,0   c0.1-0.1,0.1-0.2,0.1-0.2l0.4-2.5h4.1l0.7,1.9l1.3-1.9h2.5l-0.5,2.6l1.8-2.6h2.1l1,2.7l0.5-2.7h2.4l1.2,1.9l0.3-1.9h2.1l-0.8,4.6   h-2.4l-1.2-1.9l-0.3,1.9h-3.3l-0.2-0.7h-1.7l-0.5,0.7h-3.3l0.2-1.3l-0.9,1.3h-1.4l-0.5-1.4l-0.3,1.4h-2l0.1-0.5c0,0-0.1,0-0.1,0.1   c-0.4,0.3-1,0.4-1.5,0.4h-1.6c-0.4,0-0.9-0.1-1.3-0.3c-0.1-0.1-0.2-0.2-0.3-0.3l-0.1,0.6h-2.1l0.2-1.4h-1.5l-0.2,1.4H-600.7z"></path>
	<polygon class="st1 can-change" points="-600.2,625.9 -599.5,622.2 -598.4,622.2 -598.6,623.5 -596.2,623.5 -596,622.2 -594.8,622.2    -595.5,625.9 -596.6,625.9 -596.4,624.5 -598.8,624.5 -599,625.9  " fill="rgb(255, 255, 255)"></polygon>
	<path class="st1 can-change" d="M-594.7,624.6l0.4-2.4h1.1l-0.4,2.1c-0.1,0.5,0.1,0.7,0.5,0.7h1.1c0.5,0,0.7-0.2,0.8-0.7l0.4-2.1h1.1l-0.4,2.4   c-0.2,0.9-0.7,1.4-1.8,1.4h-1.6C-594.5,625.9-594.9,625.5-594.7,624.6" fill="rgb(255, 255, 255)"></path>
	<polygon class="st1 can-change" points="-589.7,625.9 -589.1,622.2 -587.3,622.2 -586.5,624.6 -584.8,622.2 -583,622.2 -583.7,625.9    -584.8,625.9 -584.3,623.2 -584.3,623.2 -586.3,625.9 -587.1,625.9 -588.2,623.2 -588.2,623.2 -588.6,625.9  " fill="rgb(255, 255, 255)"></polygon>
	<path class="st1 can-change" d="M-580.2,623l-1,1.4h1.5L-580.2,623z M-583.5,625.9l2.7-3.7h1.5l1.4,3.7h-1.3l-0.2-0.7h-2.3l-0.5,0.7H-583.5z" fill="rgb(255, 255, 255)"></path>
	<polygon class="st1 can-change" points="-577.8,625.9 -577.1,622.2 -575.4,622.2 -573.7,624.9 -573.7,624.9 -573.2,622.2 -572.1,622.2    -572.7,625.9 -574.5,625.9 -576.2,623.2 -576.2,623.2 -576.7,625.9  " fill="rgb(255, 255, 255)"></polygon>
	<path d="M-571.4,624.9l0-0.2h1.1c-0.1,0.4,0.1,0.4,0.4,0.4h1.4c0.2,0,0.5,0,0.5-0.3c0.1-0.3-0.1-0.3-1.5-0.3   c-1.7,0-1.9-0.2-1.7-1.1c0.1-0.7,0.3-1.2,1.7-1.2h1.6c1.3,0,1.4,0.4,1.2,1.1l0,0.1h-1.1c0-0.3,0-0.4-0.5-0.4h-1.3   c-0.2,0-0.4,0.1-0.5,0.3c-0.1,0.3,0.1,0.3,1.3,0.3c1.8,0,2.2,0.1,2,1.2c-0.2,1-0.6,1.2-2.1,1.2h-1.4   C-571.1,625.9-571.5,625.7-571.4,624.9"></path>
	<path d="M-564.8,623.1l-0.2,0.9h1.8c0.3,0,0.4-0.2,0.4-0.4l0-0.1c0-0.3-0.1-0.4-0.4-0.4L-564.8,623.1L-564.8,623.1z M-566.4,625.9   l0.7-3.7h3.1c1.1,0,1.3,0.5,1.1,1.3l-0.1,0.3c-0.1,0.5-0.5,1.2-1.3,1.2h-2.3l-0.2,0.9L-566.4,625.9L-566.4,625.9z"></path>
	<polygon points="-561.6,625.9 -560.9,622.2 -556.9,622.2 -557,623 -559.9,623 -560,623.6 -557.3,623.6 -557.4,624.4 -560.2,624.4    -560.3,625 -557.3,625 -557.4,625.9  "></polygon>
	<polygon points="-557,625.9 -556.3,622.2 -552.3,622.2 -552.4,623 -555.3,623 -555.5,623.6 -552.7,623.6 -552.8,624.4    -555.6,624.4 -555.7,625 -552.7,625 -552.9,625.9  "></polygon>
	<path d="M-550.7,623.1l-0.3,1.8h2c0.5,0,0.7-0.1,0.8-0.7l0.1-0.5c0.1-0.5-0.1-0.7-0.6-0.7H-550.7z M-552.4,625.9l0.7-3.7h3.4   c1.1,0,1.5,0.4,1.3,1.3l-0.2,1.1c-0.2,0.9-0.6,1.3-1.8,1.3L-552.4,625.9L-552.4,625.9z"></path>
	<path d="M-545.3,621.5c-0.5,0-0.9,0.4-0.9,1c0,0.6,0.4,1,1,1c0.5,0,0.9-0.4,0.9-1C-544.3,621.9-544.7,621.5-545.3,621.5    M-545.2,621.2c0.7,0,1.2,0.6,1.2,1.2c0,0.7-0.5,1.2-1.2,1.2c-0.7,0-1.2-0.6-1.2-1.2C-546.5,621.8-546,621.2-545.2,621.2    M-545.5,622v0.4h0.1c0.2,0,0.3-0.1,0.3-0.2c0-0.1-0.1-0.2-0.3-0.2C-545.4,622-545.4,622-545.5,622 M-545.5,622.6v0.5h-0.2v-1.2   c0.1,0,0.2,0,0.4,0c0.2,0,0.3,0,0.4,0.1c0.1,0,0.1,0.1,0.1,0.3c0,0.1-0.1,0.2-0.3,0.3v0c0.1,0,0.2,0.1,0.2,0.3   c0,0.2,0.1,0.3,0.1,0.3h-0.3c-0.1-0.1-0.1-0.1-0.1-0.3c0-0.1-0.1-0.2-0.3-0.2L-545.5,622.6L-545.5,622.6z"></path>
	<rect x="-600.7" y="621.2" class="st8" width="56.7" height="5.2" fill="none"></rect>
	<path d="M-566.6,627.2h0.3l-0.2,1.1h-0.3L-566.6,627.2z"></path>
	<path d="M-565.5,627.2h0.5l0.5,0.8l0.2-0.8h0.3l-0.2,1.1h-0.5l-0.5-0.8l-0.2,0.8h-0.3L-565.5,627.2z"></path>
	<path d="M-563,627.5h-0.5l0.1-0.3h1.3l-0.1,0.3h-0.5l-0.2,0.8h-0.3L-563,627.5z"></path>
	<path d="M-560.3,627.2l-0.1,0.2h-0.9l0,0.2h0.8l0,0.2h-0.8l0,0.2h0.9l-0.1,0.2h-1.2l0.2-1.1L-560.3,627.2L-560.3,627.2z"></path>
	<path d="M-559.5,627.2h0.3l-0.2,0.8h0.7l-0.1,0.3h-1.1L-559.5,627.2z"></path>
	<path d="M-557.8,627.2h0.3l-0.2,0.8h0.7l-0.1,0.3h-1.1L-557.8,627.2z"></path>
	<path d="M-556.1,627.2h0.3l-0.2,1.1h-0.3L-556.1,627.2z"></path>
	<path d="M-554,627.6C-554,627.6-554,627.5-554,627.6c0-0.1,0-0.1,0-0.1c0,0,0,0-0.1,0l-0.1,0l-0.2,0c-0.1,0-0.2,0-0.2,0.1   c0,0.1-0.1,0.3-0.1,0.4c0,0.1,0.1,0.1,0.2,0.1c0,0,0.1,0,0.3,0c0.2,0,0.2,0,0.2-0.1c0,0,0,0,0-0.1h-0.4l0-0.2h0.7l0,0.1   c0,0.2,0,0.2-0.1,0.3c-0.1,0.1-0.2,0.2-0.3,0.2c0,0-0.2,0-0.4,0c-0.3,0-0.4,0-0.5-0.1c-0.1,0-0.1-0.1-0.1-0.2c0-0.1,0-0.2,0.1-0.4   c0.1-0.3,0.1-0.4,0.3-0.4c0.1,0,0.2,0,0.5,0c0.4,0,0.5,0,0.5,0.1c0.1,0,0.1,0.1,0.1,0.2c0,0,0,0.1,0,0.2L-554,627.6L-554,627.6z"></path>
	<path d="M-551.7,627.2l-0.1,0.2h-0.9l0,0.2h0.8l0,0.2h-0.8l0,0.2h0.9l-0.1,0.2h-1.2l0.2-1.1L-551.7,627.2L-551.7,627.2z"></path>
	<path d="M-551,627.2h0.5l0.5,0.8l0.2-0.8h0.3l-0.2,1.1h-0.5l-0.5-0.8l-0.2,0.8h-0.3L-551,627.2z"></path>
	<path d="M-548.5,627.5h-0.5l0.1-0.3h1.3l-0.1,0.3h-0.5l-0.2,0.8h-0.3L-548.5,627.5z"></path>
	<g>
		<polygon class="st9 can-change" points="-572,627.9 -572.1,628.3 -570.9,628.3 -570.8,627.9   " fill="rgb(237, 28, 36)"></polygon>
		<polygon class="st9 can-change" points="-567.2,627.6 -567.1,627.2 -570.3,627.2 -570.4,627.6   " fill="rgb(237, 28, 36)"></polygon>
		<polygon class="st9 can-change" points="-570.6,627.2 -571.8,627.2 -571.9,627.6 -570.7,627.6   " fill="rgb(237, 28, 36)"></polygon>
		<polygon class="st9 can-change" points="-570.5,628.3 -567.3,628.3 -567.2,627.9 -570.4,627.9   " fill="rgb(237, 28, 36)"></polygon>
		<polygon class="st1 can-change" points="-570.4,627.6 -570.3,627.2 -570.6,627.2 -570.7,627.6 -571.9,627.6 -572,627.9 -570.8,627.9     -570.9,628.3 -570.5,628.3 -570.4,627.9 -567.2,627.9 -567.2,627.6   " fill="rgb(255, 255, 255)"></polygon>
	</g>
</g>
</svg>