<svg xmlns="http://www.w3.org/2000/svg" xmlns:xlink="http://www.w3.org/1999/xlink" version="1.1" id="Layer_1" x="0px" y="0px" viewBox="0 0 187.667 414" style="enable-background:new 0 0 187.667 414;" xml:space="preserve" data-product="2017501" data-design="1" data-size="m">
<g>
	
		<path style="fill-rule:evenodd;clip-rule:evenodd;fill:#E6E7E8;stroke:#6D6E71;stroke-width:0.34;stroke-linecap:round;stroke-linejoin:round;stroke-miterlimit:10;" d="   M74.351,14.142c0,0,16.13-7.79,37.9-4.53c21.77,3.31,33.85,12.75,33.85,12.75s-8.79,8.62-33.85,8.62   C83.031,30.982,74.351,14.142,74.351,14.142z" class="cannot-edit can-change"/>
	
		<path style="overflow:visible;fill-rule:evenodd;clip-rule:evenodd;fill:#FFFFFF;" d="   M69.141,31.292c3.68,4.17,5.64,4.91,10.4,7.32c-8.45,28.8-23.41,121.69-23.41,121.69c-1.99-2.64-5.84-15.08-5.36-23.81   c0.42-8.76,1.81-22.37,1.81-22.37C51.791,70.132,69.141,31.292,69.141,31.292z" data-fill-id="3" class="can-change"/>
	
		<path style="fill-rule:evenodd;clip-rule:evenodd;fill:#FFFFFF;stroke:#6D6E71;stroke-width:0.34;stroke-linecap:round;stroke-linejoin:round;stroke-miterlimit:10;" d="   M122.971,46.942c0,0,10.6,0.26,22.99-7.99c0,0,5.41,48.87-6.3,80.95c-11.7,32.12-31.55,53.49-36.31,85.84   c0,0,5.41-33.74,7.37-41.36c1.9-7.65,12.44-74.83,12.19-110.66L122.971,46.942z" data-fill-id="3" class="can-change"/>
	<g>
		<defs>
			<path id="SVGID_1_" d="M54.791,82.802l0.66,0.08c-1.45,10.12-2.56,20.81-2.87,31.24c-0.03,0.11-1.39,13.61-1.81,22.37     c-0.48,8.73,3.37,21.17,5.36,23.81c-0.68,12.75-0.66,63.75-0.66,64.26c0,0.57,2.44,59.13,3.8,89.32     c1.48,30.07,0.03,74.55,0,75.03c-12.98-3.77-26.19-9.64-32.4-12.41c-6.21-2.78-7.71-6.13-7.74-6.15     c2.84-30.31,3.18-79.97,3.18-80.48c0-8.59-2.38-40.93-1.96-96.52C20.861,137.852,54.481,83.342,54.791,82.802z"/>
		</defs>
		<use xlink:href="#SVGID_1_" style="overflow:visible;fill-rule:evenodd;clip-rule:evenodd;fill:#FFFFFF;" data-fill-id="6" class="can-change"/>
		<clipPath id="SVGID_2_">
			<use xlink:href="#SVGID_1_" style="overflow:visible;"/>
		</clipPath>
		<g style="clip-path:url(#SVGID_2_);">
			<g>
				<g>
						<path style="fill-rule:evenodd;clip-rule:evenodd;fill:#FFFFFF;stroke:#6D6E71;stroke-width:0.34;stroke-linecap:round;stroke-linejoin:round;stroke-miterlimit:10;" d="       M-17.429,209.482v-12.64h100.94v12.64H-17.429z" data-fill-id="9" class="can-change"/>
					
						<path style="fill-rule:evenodd;clip-rule:evenodd;fill:#FFFFFF;stroke:#6D6E71;stroke-width:0.34;stroke-linecap:round;stroke-linejoin:round;stroke-miterlimit:10;" d="       M-17.429,171.552v-12.64h100.94v12.64H-17.429z" data-fill-id="5" class="can-change"/>
					
						<path style="fill-rule:evenodd;clip-rule:evenodd;fill:#FFFFFF;stroke:#6D6E71;stroke-width:0.34;stroke-linecap:round;stroke-linejoin:round;stroke-miterlimit:10;" d="       M-17.429,184.192v-12.64h100.94v12.64H-17.429z" data-fill-id="8" class="can-change"/>

						<path style="fill-rule:evenodd;clip-rule:evenodd;fill:#FFFFFF;stroke:#6D6E71;stroke-width:0.34;stroke-linecap:round;stroke-linejoin:round;stroke-miterlimit:10;" d="       M-17.429,196.842v-12.65h100.94v12.65H-17.429z" data-fill-id="7" class="can-change"/>
				</g>
			</g>
		</g>
		
			<use xlink:href="#SVGID_1_" style="overflow:visible;fill-rule:evenodd;clip-rule:evenodd;fill:none;stroke:#6D6E71;stroke-width:0.34;stroke-linecap:round;stroke-linejoin:round;stroke-miterlimit:10;"/>
	</g>
	
		<path style="fill-rule:evenodd;clip-rule:evenodd;fill:#FFFFFF;stroke:#6D6E71;stroke-width:0.34;stroke-linecap:round;stroke-linejoin:round;stroke-miterlimit:10;" d="   M145.761,92.662c4.25,5.98,5.89,13.1,6.69,24.15c0.71,11.06-1.02,68.21-2.87,88.93c-1.92,20.72,1.39,69.62,1.39,76.73   c0,7.09,6.04,43.4,6.95,51.02c1.02,7.52,10.2,61.43,10.54,64.32c0.34,2.95-0.59,2.95-0.59,2.95c-16.27,7.71-38.89,3.86-61.74-0.4   c-0.09-1.1-6.24-111.91-6.72-138.1c-0.51-26.11,3.91-56.18,3.94-56.52c0.45-3.77,1.33-8.37,2.04-12.14   c-1.1,6.72-1.95,12-2.04,12.14c4.76-32.35,24.61-53.72,36.31-85.84C142.701,111.662,144.281,102.162,145.761,92.662z" data-fill-id="15" class="can-change"/>
	
		<path style="fill-rule:evenodd;clip-rule:evenodd;fill:#FFFFFF;stroke:#6D6E71;stroke-width:0.34;stroke-linecap:round;stroke-linejoin:round;stroke-miterlimit:10;" d="   M105.341,386.672l-3.86-73.75c18.17,0.85,49.55-3.75,51.93-4.26c2.41-0.54,2.55,0.51,2.55,0.51s11.09,71.29,11.4,72.71   c0.25,1.42-1,1.82-1,1.82C128.241,390.752,105.341,386.672,105.341,386.672z" data-fill-id="16" class="can-change"/>
	
		<path style="fill-rule:evenodd;clip-rule:evenodd;fill:none;stroke:#6D6E71;stroke-width:0.34;stroke-linecap:round;stroke-linejoin:round;stroke-miterlimit:10;" d="   M101.881,314.792c0,0,16.78,1.98,54-4.65"/>
	
		<path style="fill-rule:evenodd;clip-rule:evenodd;fill:none;stroke:#6D6E71;stroke-width:0.34;stroke-linecap:round;stroke-linejoin:round;stroke-miterlimit:10;" d="   M101.881,316.662c0,0,16.78,1.98,54-4.65"/>
	<g>
		<defs>
			<path id="SVGID_3_" d="M56.131,160.302l20.46,29.25l2.75,28.63c14.4-5.53,23.87-12.33,24.01-12.44     c4.82,17.57,6.27,34.69,9.61,55.19c9.52,58.08,16.21,122.85,17.26,143.46c-31.77-4.14-70.78-15.42-70.95-15.48     c-12.53-3.8-27.95-10.17-28.12-10.23C38.641,245.342,55.961,161.152,56.131,160.302z"/>
		</defs>
		<use xlink:href="#SVGID_3_" style="overflow:visible;fill-rule:evenodd;clip-rule:evenodd;fill:#FFFFFF;" data-fill-id="1" class="can-change"/>
		<clipPath id="SVGID_4_">
			<use xlink:href="#SVGID_3_" style="overflow:visible;"/>
		</clipPath>
		<g style="clip-path:url(#SVGID_4_);">
			<g>
				<g>
					
						<path style="fill-rule:evenodd;clip-rule:evenodd;fill:#FFFFFF;stroke:#6D6E71;stroke-width:0.34;stroke-linecap:round;stroke-linejoin:round;stroke-miterlimit:10;" d="       M58.051,346.992h10.21v82.51h-10.21V346.992z" data-fill-id="10" class="can-change"/>
					
						<path style="fill-rule:evenodd;clip-rule:evenodd;fill:#FFFFFF;stroke:#6D6E71;stroke-width:0.34;stroke-linecap:round;stroke-linejoin:round;stroke-miterlimit:10;" d="       M88.611,346.992h10.18v82.51h-10.18V346.992z" data-fill-id="13" class="can-change"/>
					
						<path style="fill-rule:evenodd;clip-rule:evenodd;fill:#FFFFFF;stroke:#6D6E71;stroke-width:0.34;stroke-linecap:round;stroke-linejoin:round;stroke-miterlimit:10;" d="       M78.431,346.992h10.18v82.51h-10.18V346.992z" data-fill-id="12" class="can-change"/>
				
						<path style="fill-rule:evenodd;clip-rule:evenodd;fill:#FFFFFF;stroke:#6D6E71;stroke-width:0.34;stroke-linecap:round;stroke-linejoin:round;stroke-miterlimit:10;" d="       M68.261,346.992h10.17v82.51h-10.17V346.992z" data-fill-id="11" class="can-change"/>
				</g>
			</g>
		</g>
		
			<use xlink:href="#SVGID_3_" style="overflow:visible;fill-rule:evenodd;clip-rule:evenodd;fill:none;stroke:#6D6E71;stroke-width:0.34;stroke-linecap:round;stroke-linejoin:round;stroke-miterlimit:10;"/>
	</g>
	
		<path style="fill-rule:evenodd;clip-rule:evenodd;fill:#FFFFFF;stroke:#6D6E71;stroke-width:0.34;stroke-linecap:round;stroke-linejoin:round;stroke-miterlimit:10;" d="   M79.541,38.612c0,0,14.91,11.48,43.43,8.33c0,0,0.88,53.12-13.61,124.21l-2.35,14.63c0,0-2.7,11.94-3.66,19.96   c0,0-21.49,18.17-57.37,17.49c0,0,1.47-10.66,3.48-23.47c2.33-14.69,5.33-32.18,6.67-39.46c3.11-20.78,7.34-41.5,10.71-62.17   C70.751,74.442,74.611,56.802,79.541,38.612z" data-fill-id="2" class="can-change"/>
	
		<path style="fill-rule:evenodd;clip-rule:evenodd;fill:none;stroke:#000000;stroke-width:2.83;stroke-linecap:round;stroke-linejoin:round;stroke-miterlimit:10;" d="   M19.131,370.352c0,0,4.91,5.83,12.02,8.33c6.44,2.27,56.24,21.23,99.1,25.51"/>
	
		<path style="fill-rule:evenodd;clip-rule:evenodd;fill:none;stroke:#6D6E71;stroke-width:0.34;stroke-linecap:round;stroke-linejoin:round;stroke-miterlimit:10;" d="   M130.251,398.042c0,0,20.16,2.27,37.08-3.06"/>
	
		<path style="fill-rule:evenodd;clip-rule:evenodd;fill:none;stroke:#6D6E71;stroke-width:0.34;stroke-linecap:round;stroke-linejoin:round;stroke-miterlimit:10;" d="   M130.251,398.042c0,0,20.16,2.27,37.08-3.06"/>
	
		<path style="fill-rule:evenodd;clip-rule:evenodd;fill:none;stroke:#6D6E71;stroke-width:0.34;stroke-linecap:round;stroke-linejoin:round;stroke-miterlimit:10;" d="   M130.251,396.252c0,0,20.16,2.27,37.08-3.06"/>
	
		<path style="fill-rule:evenodd;clip-rule:evenodd;fill:#FFFFFF;stroke:#6D6E71;stroke-width:0.34;stroke-linecap:round;stroke-linejoin:round;stroke-miterlimit:10;" d="   M68.991,31.892l5.36-17.75c0,0,30.76,22.11,71.75,8.22v17.21c0,0-32.83,22.14-73.08-3.8L68.991,31.892z" data-fill-id="4" class="can-change"/>
</g>
<wappalyzerData id="wappalyzerData" style="display: none"/><script id="wappalyzerEnvDetection" src="chrome-extension://gppongmhjkpfnbhagpmjfkannfbllamg/js/inject.js"/></svg>