<svg xmlns="http://www.w3.org/2000/svg" xmlns:xlink="http://www.w3.org/1999/xlink" version="1.1" id="Layer_1" x="0px" y="0px" viewBox="-791 313.8 225 264.2" style="enable-background:new -791 313.8 225 264.2;" xml:space="preserve" data-product="2017511" data-design="1" data-size="m">
<style type="text/css">
	.st0{fill:#EDEDED;stroke:#6D6E71;stroke-width:0.34;stroke-linecap:round;stroke-linejoin:round;stroke-miterlimit:10;}
	.st1{fill:#FFFFFF;stroke:#6D6E71;stroke-width:0.34;stroke-linecap:round;stroke-linejoin:round;stroke-miterlimit:10;}
	.st2{fill:#FFFFFF;}
	.st3{clip-path:url(#SVGID_2_);}
	.st4{fill:none;stroke:#6D6E71;stroke-width:0.34;stroke-linecap:round;stroke-linejoin:round;stroke-miterlimit:10;}
	.st5{clip-path:url(#SVGID_4_);}
</style>
<path class="st0 cannot-edit can-change" d="M-670.7,511c2.6,6.2,4.6,33,4.7,33.2l2.3,20.8l-2.4-20.8C-666.1,543.9-668.2,517.2-670.7,511  c-2.7-6.3-4-31.1-4-31.4l0.6-18.9c0,0-2.8,1.4-4.3,1.4c-1.5-0.1-4.3-1.4-4.3-1.4l0.6,18.9c0,0.3-1.4,25.1-4,31.4  c-46.2-8.6-42.4-158.8-36-192.7c12.8-1.5,27.6-2.6,43.9-2.6c16.4,0,31.2,1.5,43.8,3.4C-628.2,354.6-624.9,502.4-670.7,511z" style="fill: rgb(0, 0, 0);"/>
<path class="st1 can-change" d="M-686.3,511c-2.6,6.2-4.7,33-4.7,33.2l-2.3,20.8c-58.4,24.3-82,1.8-82.2,1.6c-1-6.5-2.2-14.5-3.2-21.1  c-1.1-4.2-3.4-22.4-4.4-34.6c-1.1-13.5-0.8-23.8-0.8-23.8c-1.6-50,1-86.3,3.7-97.9c2.7-11.5,3.9-31.9,7.8-49.7  c0.9-4.7,2-8.8,2.9-12.4c0,0,0.1,0,0.4-0.1c0.1,0,0.1,0,0.2-0.1c0.4-0.1,1.1-0.3,1.9-0.5c0.4-0.1,0.9-0.2,1.5-0.4  c0.1,0,0.2,0,0.3-0.1c0.2,0,0.4-0.1,0.7-0.2c0,0,0,0,0.1,0c0.3-0.1,0.7-0.2,1-0.2c0.2,0,0.4-0.1,0.5-0.1c1.8-0.4,4-0.9,6.5-1.5  c0,0,0,0,0.1,0c1-0.2,2.1-0.4,3.2-0.7c0.1,0,0.1,0,0.2,0c0.8-0.2,1.7-0.3,2.5-0.5c0.4-0.1,0.9-0.2,1.3-0.3c5.4-1,11.8-2.1,19-3.1  c0,0,0,0,0.1,0c2.5-0.3,5.1-0.7,7.7-1C-728.7,352.2-732.4,502.3-686.3,511z" fill="rgb(255, 255, 255)"/>
<path class="st1 can-change" d="M-573.1,489.4c0,3.4,0,10.1-0.6,18.4c-0.1,1-0.1,2-0.2,3.1c-0.1,1.5-0.3,3.2-0.4,4.8c-1.1,11.5-3,25.6-3.9,29.6  c0,0.1,0,0.2,0,0.2c-0.1,0.4-0.1,0.8-0.2,1.2c-1,6.3-2.1,13.7-3,19.8c0,0-0.9,0.8-2.5,1.9c-0.4,0.2-0.8,0.5-1.2,0.8c0,0,0,0,0,0  c-2.1,1.2-5,2.7-8.8,3.9c-12.5,4.1-34.9,6.2-69.6-8.2l-2.3-20.8c0-0.2-2.1-27-4.7-33.2c45.8-8.6,42.5-156.4,36.1-191.8  c25.7,4,42.2,9.8,44.4,8.9c0.9,3.6,1.8,7.7,2.9,12.3c3.8,17.7,4.1,33.3,6.7,44.8c2.6,11.5,9,52,7.5,102c0,0,0,0.3,0,1  C-573.1,488.3-573.1,488.8-573.1,489.4z" fill="rgb(255, 255, 255)"/>
<g>
	<g>
		<path class="st2 can-change" d="M-573.1,489.4c0,3.4,0,10.1-0.6,18.4c-0.1,1-0.1,2-0.2,3.1c-0.1,1.5-0.3,3.2-0.4,4.8    c-1.1,11.5-2.9,25.6-3.9,29.6c0,0.1,0,0.2,0,0.2c-0.1,0.4-0.1,0.8-0.2,1.2c-1,6.3-2.1,13.7-3,19.8c0,0-0.9,0.8-2.5,1.9    c-0.4,0.2-0.8,0.5-1.2,0.8c0,0,0,0,0,0c-2,1.2-5,2.7-8.8,3.9c-12.5,4.1-34.9,6.2-69.6-8.2l-2.3-20.8c0-0.2-2.1-27-4.7-33.2    c45.8-8.6,42.5-156.4,36.1-191.8c0-0.3-0.1-0.6-0.2-0.9c28.8,3.4,47,8.8,47.2,8.8c1,3.6,2,7.8,2.9,12.4    c3.9,17.8,5.2,38.2,7.8,49.7c2.6,11.5,5.3,47.9,3.7,97.9c0,0,0,0.3,0,1C-573.1,488.3-573.1,488.8-573.1,489.4z" fill="rgb(255, 255, 255)" data-fill-id="6" style="fill: rgb(245, 130, 32);"/>
	</g>
	<g>
		<defs>
			<path id="SVGID_1_" d="M-634.7,318.3c28.8,3.4,46.9,8.8,47.2,8.8c0.9,3.6,2,7.8,2.9,12.4c3.9,17.8,5.2,38.2,7.8,49.7     c2.6,11.5,5.3,47.9,3.7,97.9c0,0.1,0.3,10.4-0.8,23.8c-1,12.2-3.3,30.5-4.4,34.6c-1,6.5-2.2,14.5-3.2,21.1     c-0.2,0.2-23.8,22.7-82.2-1.6l-2.3-20.8c0-0.2-2.1-27-4.7-33.2C-624.6,502.3-628.3,352.1-634.7,318.3z"/>
		</defs>
		<clipPath id="SVGID_2_">
			<use xlink:href="#SVGID_1_" style="overflow:visible;"/>
		</clipPath>
		<g class="st3 can-change" fill="rgb(0, 0, 0)">
			<g>
				<path class="st1 can-change" d="M-560.4,522.8l-8.6,35.5c-31.4,26-105.2,0-105.2,0l-0.7-25.8l10.6,4.5c60.1,22.7,86.8,0.1,86.8,0.1      L-560.4,522.8z" fill="rgb(255, 255, 255)" data-fill-id="7"/>
				<path class="st1 can-change" d="M-560.2,529.7l-8.7,35.5c-31.4,26-105.2,0-105.2,0l-0.7-25.8l10.6,4.5c60.1,22.7,86.8,0.1,86.8,0.1      L-560.2,529.7z" fill="rgb(255, 255, 255)" data-fill-id="8"/>
				<path class="st1 can-change" d="M-560.1,536.5l-8.7,35.5c-31.4,26-105.2,0-105.2,0l-0.7-25.8l10.6,4.4c60.1,22.7,86.8,0.1,86.8,0.1      L-560.1,536.5z" fill="rgb(255, 255, 255)" data-fill-id="9"/>
				<path class="st1 can-change" d="M-559.9,543.3l-8.7,35.5c-31.4,25.9-105.2,0-105.2,0l-0.7-25.8l10.6,4.4c60.2,22.7,86.9,0.1,86.9,0.1      L-559.9,543.3z" fill="rgb(255, 255, 255)" data-fill-id="10"/>
			</g>
		</g>
	</g>
	<g>
		<path class="st4" d="M-573.1,489.4c0,3.4,0,10.1-0.6,18.4c-0.1,1-0.1,2-0.2,3.1c-0.1,1.5-0.3,3.2-0.4,4.8    c-1.1,11.5-2.9,25.6-3.9,29.6c0,0.1,0,0.2,0,0.2c-0.1,0.4-0.1,0.8-0.2,1.2c-1,6.3-2.1,13.7-3,19.8c0,0-0.9,0.8-2.5,1.9    c-0.4,0.2-0.8,0.5-1.2,0.8c0,0,0,0,0,0c-2,1.2-5,2.7-8.8,3.9c-12.5,4.1-34.9,6.2-69.6-8.2l-2.3-20.8c0-0.2-2.1-27-4.7-33.2    c45.8-8.6,42.5-156.4,36.1-191.8c0-0.3-0.1-0.6-0.2-0.9c28.8,3.4,47,8.8,47.2,8.8c1,3.6,2,7.8,2.9,12.4    c3.9,17.8,5.2,38.2,7.8,49.7c2.6,11.5,5.3,47.9,3.7,97.9c0,0,0,0.3,0,1C-573.1,488.3-573.1,488.8-573.1,489.4z" fill="none"/>
	</g>
</g>
<g>
	<g>
		<path class="st2 can-change" d="M-686.3,511c-2.6,6.2-4.7,33-4.7,33.2l-2.3,20.8c-58.4,24.3-82,1.8-82.2,1.6c-1-6.5-2.2-14.5-3.2-21.1    c-1.1-4.2-3.4-22.4-4.4-34.6c-1.1-13.5-0.8-23.8-0.8-23.8c-1.6-50,1-86.3,3.7-97.9c2.7-11.5,3.9-31.9,7.8-49.7    c0.9-4.7,2-8.8,2.9-12.4c0,0,0.1,0,0.4-0.1c0.1,0,0.1,0,0.2-0.1c0.4-0.1,1.1-0.3,1.9-0.5c0.4-0.1,0.9-0.2,1.5-0.4    c0.1,0,0.2,0,0.3-0.1c0.2,0,0.4-0.1,0.7-0.2c0,0,0,0,0.1,0c0.3-0.1,0.7-0.2,1-0.2c0.2,0,0.4-0.1,0.5-0.1c1.8-0.4,4-0.9,6.5-1.5    c0,0,0,0,0.1,0c1-0.2,2.1-0.5,3.2-0.7c0.1,0,0.1,0,0.2,0c0.8-0.2,1.7-0.3,2.5-0.5c0.4-0.1,0.9-0.2,1.3-0.3c5.4-1,11.8-2.1,19-3.1    c0,0,0,0,0.1,0c2.5-0.4,5.1-0.7,7.7-1v0C-728.7,352.2-732.4,502.3-686.3,511z" fill="rgb(255, 255, 255)" data-fill-id="1"/>
	</g>
	<g>
		<defs>
			<path id="SVGID_3_" d="M-722.3,318.3c-6.4,33.9-10.2,184.1,36,192.7c-2.6,6.2-4.6,33-4.7,33.2l-2.3,20.8     c-58.4,24.3-82,1.8-82.2,1.6c-1-6.5-2.2-14.5-3.2-21.1c-1.1-4.2-3.4-22.4-4.4-34.6c-1.1-13.5-0.8-23.8-0.8-23.8     c-1.6-50,1-86.3,3.7-97.9c2.7-11.5,3.9-31.9,7.8-49.7c1-4.6,2-8.8,2.9-12.4C-769.2,327.1-751,321.6-722.3,318.3z"/>
		</defs>
		<clipPath id="SVGID_4_">
			<use xlink:href="#SVGID_3_" style="overflow:visible;"/>
		</clipPath>
		<g class="st5 can-change" fill="rgb(0, 0, 0)">
			<g>
				<path class="st1 can-change" d="M-796.5,522.8l17.1,14.3c0,0,26.7,22.6,86.8-0.1l10.6-4.5l-0.7,25.8c0,0-73.7,26-105.2,0L-796.5,522.8z" fill="rgb(255, 255, 255)" data-fill-id="2"/>
				<path class="st1 can-change" d="M-796.7,529.7l17.1,14.3c0,0,26.7,22.6,86.8-0.1l10.6-4.5l-0.7,25.8c0,0-73.7,26-105.2,0L-796.7,529.7z" fill="rgb(255, 255, 255)" data-fill-id="3"/>
				<path class="st1 can-change" d="M-796.8,536.5l17.1,14.3c0,0,26.7,22.6,86.8-0.1l10.6-4.4L-683,572c0,0-73.7,26-105.2,0L-796.8,536.5z" fill="rgb(255, 255, 255)" data-fill-id="4"/>
				<path class="st1 can-change" d="M-797,543.3l17.1,14.3c0,0,26.7,22.6,86.8-0.1l10.6-4.4l-0.7,25.8c0,0-73.8,25.9-105.2,0L-797,543.3z" fill="rgb(255, 255, 255)" data-fill-id="5"/>
			</g>
		</g>
	</g>
	<g>
		<path class="st4" d="M-686.3,511c-2.6,6.2-4.7,33-4.7,33.2l-2.3,20.8c-58.4,24.3-82,1.8-82.2,1.6c-1-6.5-2.2-14.5-3.2-21.1    c-1.1-4.2-3.4-22.4-4.4-34.6c-1.1-13.5-0.8-23.8-0.8-23.8c-1.6-50,1-86.3,3.7-97.9c2.7-11.5,3.9-31.9,7.8-49.7    c0.9-4.7,2-8.8,2.9-12.4c0,0,0.1,0,0.4-0.1c0.1,0,0.1,0,0.2-0.1c0.4-0.1,1.1-0.3,1.9-0.5c0.4-0.1,0.9-0.2,1.5-0.4    c0.1,0,0.2,0,0.3-0.1c0.2,0,0.4-0.1,0.7-0.2c0,0,0,0,0.1,0c0.3-0.1,0.7-0.2,1-0.2c0.2,0,0.4-0.1,0.5-0.1c1.8-0.4,4-0.9,6.5-1.5    c0,0,0,0,0.1,0c1-0.2,2.1-0.5,3.2-0.7c0.1,0,0.1,0,0.2,0c0.8-0.2,1.7-0.3,2.5-0.5c0.4-0.1,0.9-0.2,1.3-0.3c5.4-1,11.8-2.1,19-3.1    c0,0,0,0,0.1,0c2.5-0.4,5.1-0.7,7.7-1v0C-728.7,352.2-732.4,502.3-686.3,511z" fill="none"/>
	</g>
</g>
<path class="st1 can-change" d="M-678.5,462.1l0.1-146.4" fill="rgb(255, 255, 255)"/>
<path class="st4" d="M-682.2,479.6c0,0-44.6-39.6-14.5-49.3c4.2-1.3,11.2,3.6,18.7,3.6c8.2,0,12.9-4.8,17.2-3.2  c28.1,10.3-14,48.9-14,48.9" fill="none"/>
<path class="st4" d="M-774.1,351c0,0,78.9-30.6,190.4,0" fill="none"/>
<path class="st4" d="M-774.1,347.1c0,0,78.9-30.6,190.4,0" fill="none"/>
</svg>