<svg xmlns="http://www.w3.org/2000/svg" xmlns:xlink="http://www.w3.org/1999/xlink" version="1.1" id="Layer_1" x="0px" y="0px" viewBox="-801 216 205 460" style="enable-background:new -801 216 205 460;" xml:space="preserve" data-product="2017503" data-design="7" data-size="m">
<style type="text/css">
	.st0{fill:#EDEDED;stroke:#6D6E71;stroke-width:0.34;stroke-linecap:round;stroke-linejoin:round;stroke-miterlimit:10;}
	.st1{fill:#FFFFFF;stroke:#6D6E71;stroke-width:0.34;stroke-linecap:round;stroke-linejoin:round;stroke-miterlimit:10;}
	.st2{fill:#FFFFFF;}
	.st3{clip-path:url(#SVGID_2_);}
	.st4{fill:none;stroke:#6D6E71;stroke-width:0.34;stroke-linecap:round;stroke-linejoin:round;stroke-miterlimit:10;}
	.st5{clip-path:url(#SVGID_4_);}
	.st6{fill:none;}
	.st7{fill:#ED1C24;}
</style>
<path class="st0 cannot-edit can-change" d="M-772.3,435c0.3-8.2,0.7-15.4,1.8-19.7c14.5-8.8,34.5-26.8,55.5-57.9l31.8,0.1c12.3,25.4,38.6,46.9,54.8,55.8  c1,4.5,1.6,12.5,1.9,21.8H-772.3z" style="fill: rgb(0, 0, 0);"></path>
<path class="st0 cannot-edit can-change" d="M-682.8,357.6h-32.1c0.1-0.7,5.4-69.1-43.3-127.5l16.7-6.5c0.4,0.6,39.1,40.5,42,88.3  c3.1-47.8,43.9-87.7,44.3-88.3l16.2,11.8C-690.5,293.8-682.8,356.9-682.8,357.6z" style="fill: rgb(0, 0, 0);"></path>
<path class="st1 can-change" d="M-606.4,632L-606.4,632l-2.5,17.8c-0.1,0.4-0.1,0.8-0.2,1.2c0,0.2-0.1,0.4-0.1,0.6c0-0.1,0-0.2,0.1-0.3  c0.1-0.5,0.1-0.9,0.2-1.4c0-0.3,0.1-0.6,0.1-0.8c0-0.1,0-0.3,0.1-0.4c0-0.2,0.1-0.4,0.1-0.6c0,0,0-0.1,0-0.1c0-0.3,0.1-0.6,0.1-0.9  c0-0.1,0-0.1,0-0.2c0-0.3,0.1-0.6,0.1-0.9c0-0.3,0.1-0.5,0.1-0.8c0,0,0,0,0,0c0-0.3,0.1-0.6,0.1-0.8v0c0-0.1,0-0.1,0-0.2  c0.1-1,0.3-2,0.4-3c0.1-0.4,0.1-0.8,0.2-1.2c0-0.2,0-0.3,0.1-0.5c0-0.2,0-0.3,0.1-0.5c0-0.1,0-0.2,0-0.3l0-0.2  c0.1-0.8,0.2-1.6,0.3-2.2c0-0.2,0.1-0.4,0.1-0.6c0.1-0.8,0.2-1.6,0.3-2.1c0-0.1,0-0.2,0-0.3C-606.5,632.5-606.4,632.1-606.4,632  L-606.4,632z M-614.3,490.6c-2.4-9.8-2.6-13.2-6.1-28.3c-3.5-15.1-3.7-36.5-3.8-36.6l0-14.9c-10.8,3.5-13.9-6.8-14.8-14.2  c-0.4-3.7-0.3-6.7-0.3-6.8h-0.1c5.1-50.7,11.2-133,0.7-159.6c-4.9-3.5-10.6-5.7-16.6-6.5c0.1,0.8,4.4,67.9-8.1,169  c-0.1,0.8-0.2,1.7-0.3,2.5c-0.1,0.3-0.2,0.6-0.3,1v0c-0.6,2-1.5,4.7-3,7.4c-0.1,0.2-0.3,0.5-0.4,0.7c-1.4,2.5-3.1,5.1-5.5,7.5  c9.1,37.1,40.9,182-20,191.3c0.4,2,0.8,3.6,1.3,4.7c2.4,5.2,4.2,27,4.3,28.3l-0.1,0l0.3,3h0l0.2,2.2l-0.1,0l1.7,17.6v0  c2.9,1.1,5.7,2.1,8.4,3c0.5,0.2,1.1,0.3,1.6,0.5c3.2,1,6.2,1.9,9.2,2.6c0.5,0.1,1,0.2,1.5,0.3c1.1,0.3,2.1,0.5,3.2,0.7  c34.8,7.4,49.9-5.1,50.9-5.9c0,0,0,0,0,0c0,0,0,0,0,0c0.3-2.2,0.7-4.8,1.1-7.5c0-0.3,0.1-0.7,0.1-1c0-0.1,0-0.2,0.1-0.3  c0.1-0.5,0.1-0.9,0.2-1.4c0-0.3,0.1-0.6,0.1-0.8c0-0.1,0-0.3,0.1-0.4c0-0.2,0-0.4,0.1-0.6c0,0,0-0.1,0-0.1c0-0.3,0.1-0.6,0.1-0.9  c0-0.1,0-0.1,0-0.2c0.1-0.6,0.1-1.1,0.2-1.7c0-0.3,0.1-0.6,0.1-0.9c0.2-1.1,0.3-2.2,0.5-3.2c0.1-0.4,0.1-0.8,0.2-1.2  c0-0.3,0.1-0.7,0.1-1c0-0.1,0-0.2,0-0.3c0.3-2.5,0.7-4.8,0.9-6.6c0.2-1.5,0.4-2.7,0.5-3.5c0.2-0.9,0.2-1.4,0.2-1.4l0,0v0h0  c0,0,0-0.1,0-0.1c0.1-0.6,0.2-1.2,0.2-1.8c0-0.2,0-0.3,0.1-0.5c0.1-0.8,0.2-1.6,0.3-2.4v0c0.4-2.9,0.7-5.8,1-8.7  c0.2-2,0.4-4,0.6-5.9c1-11.5,0.7-20.2,0.7-20.3C-601.4,544.8-611.9,500.4-614.3,490.6z M-724.6,412.1c-0.2-0.2-0.4-0.4-0.5-0.5  c-0.2-0.2-0.5-0.5-0.7-0.8c-0.9-1-1.7-2.1-2.4-3.2c-0.5-0.7-0.9-1.4-1.3-2.1c-0.2-0.4-0.4-0.7-0.6-1.1c-0.4-0.7-0.7-1.4-1-2.1  c-0.4-1-0.8-2-1.1-2.9c-0.2-0.6-0.4-1.1-0.5-1.6c0,0,0-0.1,0-0.1c-0.2-0.5-0.3-1.1-0.4-1.5c-0.1-0.6-0.1-1.2-0.2-1.8  c-0.1-0.6-0.2-1.2-0.2-1.8c-12.5-101.2-8.1-168.2-8.1-169c-6,0.7-11.7,3-16.6,6.5c-10.4,26.2-4.5,106.7,0.5,157.5  c0.1,2.3,0.1,5.5-0.3,8.9c-0.1,0.8-0.2,1.7-0.4,2.6c0,0.2-0.1,0.4-0.1,0.6c0,0.2-0.1,0.4-0.2,0.6c-0.1,0.5-0.2,0.9-0.4,1.3  c-0.1,0.4-0.2,0.7-0.4,1.1c-0.1,0.4-0.3,0.8-0.5,1.1c-0.1,0.2-0.2,0.4-0.3,0.6c-0.1,0.2-0.2,0.4-0.3,0.5c-0.2,0.4-0.4,0.7-0.6,1  c-0.1,0.2-0.2,0.3-0.3,0.5c-0.1,0.2-0.2,0.3-0.4,0.5c-0.2,0.3-0.5,0.6-0.8,0.9c-0.1,0.1-0.2,0.2-0.4,0.3c0,0-0.1,0.1-0.1,0.1  c-0.1,0.1-0.2,0.2-0.3,0.3c0,0-0.1,0.1-0.1,0.1c-0.4,0.3-0.8,0.6-1.3,0.8c-0.3,0.1-0.5,0.3-0.8,0.4c-0.1,0.1-0.3,0.1-0.4,0.2  c-0.4,0.1-0.8,0.3-1.3,0.3c-0.1,0-0.2,0-0.3,0c-0.2,0-0.4,0.1-0.6,0.1c0,0,0,0-0.1,0c-0.3,0-0.6,0-0.8,0c-1,0-2.1-0.1-3.3-0.4  l-0.2,15.5c0,0,0,0,0,0.1c-0.1,1.4-0.4,21.9-3.8,36.6c-0.3,1.4-0.6,2.7-0.9,4c-0.2,0.8-0.3,1.6-0.5,2.3c-0.2,0.7-0.3,1.4-0.5,2.1  c-0.1,0.3-0.1,0.7-0.2,1c-1.6,7.8-2.2,11.6-4,18.9c-2.4,9.8-12.9,54.2-11.5,96.8c0,0.1-0.3,8.8,0.7,20.3c0.5,5.9,1.4,13.3,2.3,19.3  l0,0.1l0.7,5l0,0l-0.1,0c0,0,0,0.2,0.1,0.4c0,0.1,0,0.1,0,0.2c0,0.3,0.1,0.6,0.2,1c0,0.3,0.1,0.6,0.1,1c0,0.2,0,0.4,0.1,0.6  c0,0.1,0,0.3,0.1,0.5c0,0.2,0.1,0.4,0.1,0.6c0.1,0.6,0.2,1.2,0.2,1.8c0.1,0.6,0.2,1.2,0.2,1.8c0,0.3,0.1,0.7,0.2,1.1  c0.8,5.7,1.9,13.2,2.8,19.1c0.2,0.2,3.5,3,10.4,5.3c11.2,3.7,31.9,6,64.3-6.6l3.5-34.9l0-0.9c0.4-3.6,1-7.4,1.6-10.4  c0.1-0.5,0.2-0.9,0.3-1.4c0.3-1.4,0.7-2.6,1-3.4c0.5-1,0.9-2.7,1.2-4.7C-765.3,593.9-733.7,449-724.6,412.1z" style="fill: rgb(255, 255, 255);"></path>
<path class="st0 cannot-edit can-change" d="M-692.7,603.1c-1.6-8.1-2.3-21.8-2.3-22l0.5-16.1c0,0-2.6,1.1-4,1.2c-1.3,0-3.8-1.2-3.9-1.2l0.5,16.1  c0,0.2-1.2,21.3-3.6,26.7c-0.4,0.8-0.7,2-1.1,3.4c0.3-1.4,0.7-2.6,1-3.4c0.5-1,0.9-2.7,1.2-4.7c-61.1-9.2-29.5-154.1-20.4-191  c5.2,5.3,13.2,9.6,25.8,9.6c12.6,0,20.8-4.5,26.1-9.9C-663.6,448.9-631.8,593.8-692.7,603.1z" style="fill: rgb(0, 0, 0);"></path>
<g>
	<g>
		<path class="st2 can-change selected filled" d="M-704.2,603.1c-0.4,2-0.8,3.6-1.2,4.7c-0.4,0.8-0.7,2-1,3.4c-0.1,0.4-0.2,0.9-0.3,1.4    c-0.6,3-1.2,6.8-1.6,10.4l0,0.9l-3.4,34.9c-32.4,12.6-53.1,10.3-64.3,6.6c-6.9-2.3-10.2-5.1-10.4-5.3l0,0    c-0.9-5.9-2-13.4-2.8-19.1c-0.1-0.4-0.1-0.7-0.2-1.1c-0.1-0.6-0.2-1.2-0.2-1.8c-0.1-0.6-0.2-1.2-0.2-1.8c0-0.2-0.1-0.4-0.1-0.6    c0-0.2,0-0.3-0.1-0.5c0-0.2-0.1-0.4-0.1-0.6c-0.1-0.4-0.1-0.7-0.1-1c-0.1-0.4-0.1-0.8-0.2-1c0-0.1,0-0.1,0-0.2    c0-0.3-0.1-0.4-0.1-0.4l0,0l0.1,0l-0.7-5l0-0.1c-0.9-6-1.8-13.4-2.3-19.3c-1-11.5-0.7-20.2-0.7-20.3c-1.4-42.6,9.2-87,11.5-96.8    c1.8-7.3,2.3-11.1,4-18.9c0.1-0.3,0.1-0.7,0.2-1c0.2-0.7,0.3-1.4,0.5-2.1c0.2-0.8,0.3-1.5,0.5-2.3c0.3-1.2,0.6-2.5,0.9-4    c3.4-14.6,3.7-35.2,3.8-36.6c0,0,0-0.1,0-0.1l0.2-15.5h0c1.2,0.3,2.3,0.4,3.3,0.4c0.3,0,0.6,0,0.8,0c0,0,0.1,0,0.1,0    c0.2,0,0.4,0,0.6-0.1c0.1,0,0.2,0,0.3,0c0.5-0.1,0.9-0.2,1.3-0.3c0.1,0,0.3-0.1,0.4-0.2c0.3-0.1,0.5-0.2,0.8-0.4    c0.5-0.2,0.9-0.5,1.3-0.8c0.1,0,0.1-0.1,0.1-0.1c0.1-0.1,0.2-0.2,0.3-0.3c0,0,0.1,0,0.1-0.1c0.1-0.1,0.2-0.2,0.4-0.3    c0.3-0.3,0.5-0.6,0.8-0.9c0.1-0.2,0.2-0.3,0.4-0.5c0.1-0.1,0.2-0.3,0.3-0.5c0.2-0.3,0.4-0.7,0.6-1c0.1-0.2,0.2-0.4,0.3-0.5    c0.1-0.2,0.2-0.4,0.3-0.6c0.2-0.4,0.3-0.8,0.5-1.1c0.1-0.4,0.3-0.7,0.4-1.1c0.1-0.4,0.3-0.9,0.4-1.3c0.1-0.2,0.1-0.4,0.2-0.6    c0-0.2,0.1-0.4,0.1-0.6c0.2-0.9,0.3-1.7,0.4-2.6l24.5-3.9h0c0.1,0.6,0.1,1.2,0.2,1.8c0.1,0.6,0.1,1.2,0.2,1.8    c0.1,0.5,0.2,1,0.4,1.5c0,0,0,0.1,0,0.1c0.2,0.5,0.3,1.1,0.5,1.6c0.3,0.9,0.7,1.9,1.1,2.9c0.3,0.7,0.6,1.4,1,2.1    c0.2,0.3,0.4,0.7,0.6,1.1c0.4,0.7,0.8,1.4,1.3,2.1c0.7,1.1,1.5,2.1,2.4,3.2c0.2,0.3,0.4,0.5,0.7,0.8c0.2,0.2,0.3,0.4,0.5,0.5    C-733.7,449-765.3,593.9-704.2,603.1z" style="fill: rgb(0, 102, 179);" data-fill-id="5"></path>
	</g>
	<g>
		<defs>
			<path id="SVGID_1_" d="M-758.1,396.5l24.5-3.9c0.1,1.2,0.3,2.4,0.4,3.5c0.9,3.9,3.2,10.5,8.5,15.9c-9.1,36.9-40.7,181.8,20.4,191     c-0.4,2-0.8,3.6-1.2,4.7c-1.2,2.5-2.2,9.1-2.9,15.2l0,0.9l-3.5,34.9c-52.8,20.5-74.5,1.5-74.8,1.3c-1.7-11.2-4-27.9-4-28l0.1,0.1     l-0.7-5l0-0.1c-0.9-6-1.8-13.4-2.3-19.3c-1.1-11.5-0.7-20.2-0.7-20.3c-1.4-42.6,9.2-87,11.5-96.8c2.3-9.8,2.5-13.2,6.1-28.3     c3.5-15.1,3.7-36.5,3.8-36.6l0.2-15.5C-762.5,412.4-759.1,404.2-758.1,396.5z"></path>
		</defs>
		<clipPath id="SVGID_2_">
			<use xlink:href="#SVGID_1_" style="overflow:visible;"></use>
		</clipPath>
		<g class="st3 can-change" style="fill: rgb(0, 0, 0);">
			<g>
				<path class="st1 can-change" d="M-803.6,636.7l15.2,12.7c0,0,23.7,20.1,77.2-0.1l9.4-3.9l-0.7,22.9c0,0-65.5,23.1-93.5,0L-803.6,636.7z" style="fill: rgb(255, 255, 255);" data-fill-id="6"></path>
				<path class="st1 can-change" d="M-803.7,640l15.2,12.7c0,0,23.7,20.1,77.2-0.1l9.4-3.9l-0.7,22.9c0,0-65.5,23.1-93.4,0L-803.7,640z" style="fill: rgb(255, 255, 255);" data-fill-id="7"></path>
				<path class="st1 can-change" d="M-803.9,643.2l15.2,12.7c0,0,23.7,20.1,77.2-0.1l9.4-3.9l-0.6,22.9c0,0-65.5,23.1-93.5,0L-803.9,643.2z" style="fill: rgb(255, 255, 255);" data-fill-id="8"></path>
			</g>
		</g>
	</g>
	<g>
		<path class="st4" d="M-704.2,603.1c-0.4,2-0.8,3.6-1.2,4.7c-0.4,0.8-0.7,2-1,3.4c-0.1,0.4-0.2,0.9-0.3,1.4    c-0.6,3-1.2,6.8-1.6,10.4l0,0.9l-3.4,34.9c-32.4,12.6-53.1,10.3-64.3,6.6c-6.9-2.3-10.2-5.1-10.4-5.3l0,0    c-0.9-5.9-2-13.4-2.8-19.1c-0.1-0.4-0.1-0.7-0.2-1.1c-0.1-0.6-0.2-1.2-0.2-1.8c-0.1-0.6-0.2-1.2-0.2-1.8c0-0.2-0.1-0.4-0.1-0.6    c0-0.2,0-0.3-0.1-0.5c0-0.2-0.1-0.4-0.1-0.6c-0.1-0.4-0.1-0.7-0.1-1c-0.1-0.4-0.1-0.8-0.2-1c0-0.1,0-0.1,0-0.2    c0-0.3-0.1-0.4-0.1-0.4l0,0l0.1,0l-0.7-5l0-0.1c-0.9-6-1.8-13.4-2.3-19.3c-1-11.5-0.7-20.2-0.7-20.3c-1.4-42.6,9.2-87,11.5-96.8    c1.8-7.3,2.3-11.1,4-18.9c0.1-0.3,0.1-0.7,0.2-1c0.2-0.7,0.3-1.4,0.5-2.1c0.2-0.8,0.3-1.5,0.5-2.3c0.3-1.2,0.6-2.5,0.9-4    c3.4-14.6,3.7-35.2,3.8-36.6c0,0,0-0.1,0-0.1l0.2-15.5h0c1.2,0.3,2.3,0.4,3.3,0.4c0.3,0,0.6,0,0.8,0c0,0,0.1,0,0.1,0    c0.2,0,0.4,0,0.6-0.1c0.1,0,0.2,0,0.3,0c0.5-0.1,0.9-0.2,1.3-0.3c0.1,0,0.3-0.1,0.4-0.2c0.3-0.1,0.5-0.2,0.8-0.4    c0.5-0.2,0.9-0.5,1.3-0.8c0.1,0,0.1-0.1,0.1-0.1c0.1-0.1,0.2-0.2,0.3-0.3c0,0,0.1,0,0.1-0.1c0.1-0.1,0.2-0.2,0.4-0.3    c0.3-0.3,0.5-0.6,0.8-0.9c0.1-0.2,0.2-0.3,0.4-0.5c0.1-0.1,0.2-0.3,0.3-0.5c0.2-0.3,0.4-0.7,0.6-1c0.1-0.2,0.2-0.4,0.3-0.5    c0.1-0.2,0.2-0.4,0.3-0.6c0.2-0.4,0.3-0.8,0.5-1.1c0.1-0.4,0.3-0.7,0.4-1.1c0.1-0.4,0.3-0.9,0.4-1.3c0.1-0.2,0.1-0.4,0.2-0.6    c0-0.2,0.1-0.4,0.1-0.6c0.2-0.9,0.3-1.7,0.4-2.6l24.5-3.9h0c0.1,0.6,0.1,1.2,0.2,1.8c0.1,0.6,0.1,1.2,0.2,1.8    c0.1,0.5,0.2,1,0.4,1.5c0,0,0,0.1,0,0.1c0.2,0.5,0.3,1.1,0.5,1.6c0.3,0.9,0.7,1.9,1.1,2.9c0.3,0.7,0.6,1.4,1,2.1    c0.2,0.3,0.4,0.7,0.6,1.1c0.4,0.7,0.8,1.4,1.3,2.1c0.7,1.1,1.5,2.1,2.4,3.2c0.2,0.3,0.4,0.5,0.7,0.8c0.2,0.2,0.3,0.4,0.5,0.5    C-733.7,449-765.3,593.9-704.2,603.1z" style="fill: none;"></path>
	</g>
</g>
<g>
	<g>
		<path class="st2 can-change filled" d="M-602.8,587.4c0,0.1,0.3,8.8-0.7,20.3c-0.2,1.8-0.3,3.8-0.6,5.9c-0.3,2.9-0.7,5.8-1,8.7v0    c-0.1,0.8-0.2,1.6-0.3,2.4c0,0.2,0,0.3-0.1,0.5c-0.1,0.6-0.2,1.2-0.3,1.8l0,0l0,0.1v0l-0.8,5l0.1,0l0,0h0l0,0v0    c0,0.1-0.1,0.5-0.2,1.2c0,0.1,0,0.2,0,0.3c-0.1,0.6-0.2,1.3-0.3,2.1c0,0.2-0.1,0.4-0.1,0.6c-0.1,0.7-0.2,1.4-0.3,2.2    c0,0.3-0.1,0.6-0.1,0.9c0,0.2,0,0.3-0.1,0.5c0,0.4-0.1,0.8-0.2,1.2c-0.1,0.9-0.3,2-0.4,3c0,0.1,0,0.2,0,0.3c0,0.3-0.1,0.6-0.1,0.8    c0,0.3-0.1,0.6-0.1,0.9c0,0.3-0.1,0.6-0.1,0.9c0,0.1,0,0.1,0,0.2c0,0.3-0.1,0.6-0.1,0.9c0,0,0,0,0,0.1c0,0.2-0.1,0.4-0.1,0.6    c0,0.1,0,0.2-0.1,0.4c0,0.3-0.1,0.5-0.1,0.8c-0.1,0.4-0.1,0.8-0.2,1.2c0,0.2-0.1,0.4-0.1,0.6c-0.4,2.9-0.9,5.9-1.2,8.5    c0,0,0,0,0,0c0,0,0,0,0,0c-0.9,0.8-16.2,13.2-50.9,5.9c-1-0.2-2.1-0.5-3.2-0.7c-0.5-0.1-1-0.2-1.5-0.3c-2.9-0.7-6-1.6-9.2-2.6    c-0.5-0.2-1.1-0.3-1.6-0.5c-2.7-0.9-5.5-1.9-8.4-3v0h0l-3.5-34.9l0-0.9c-0.8-6.1-1.8-12.7-3-15.2c-0.4-1-0.9-2.7-1.2-4.7    c0,0,0.1,0,0.1,0c61-9.3,29.1-154.2,20-191.3c0,0,0-0.1,0-0.2c2.3-2.4,4.2-4.9,5.5-7.3c0.1-0.2,0.3-0.5,0.4-0.7    c1.5-2.8,2.5-5.4,3-7.4v0c0.1-1.2,0.3-2.3,0.4-3.5l0.2,0l24.3,3.8h0c1,7.7,4.6,16.5,14.8,14.2l0,14.9c0.1,0.1,0.3,21.5,3.8,36.6    c3.5,15.1,3.7,18.6,6.1,28.3C-611.9,500.4-601.4,544.8-602.8,587.4z" style="fill: rgb(237, 28, 36);" data-fill-id="1"></path>
	</g>
	<g>
		<defs>
			<path id="SVGID_3_" d="M-638.9,396.5c1,7.7,4.6,16.5,14.8,14.2l0,14.9c0.1,0.1,0.3,21.5,3.8,36.6c3.5,15.1,3.7,18.6,6.1,28.3     c2.4,9.8,12.9,54.2,11.5,96.8c0,0.1,0.3,8.8-0.7,20.3c-0.5,5.9-1.4,13.3-2.3,19.3l0,0.1l-0.7,5l0.1-0.1c0,0.2-2.3,16.8-4,28     c-0.2,0.2-22,19.2-74.8-1.3l-3.5-34.9l0-0.9c-0.8-6.1-1.8-12.7-3-15.2c-0.4-1-0.9-2.7-1.2-4.7c61.1-9.2,29.1-154.5,20-191.4     c5.4-5.5,7.9-11.6,8.9-15.5c0.1-1.2,0.3-2.4,0.4-3.5L-638.9,396.5z"></path>
		</defs>
		<clipPath id="SVGID_4_">
			<use xlink:href="#SVGID_3_" style="overflow:visible;"></use>
		</clipPath>
		<g class="st5 can-change" style="fill: rgb(0, 0, 0);">
			<g>
				<path class="st1 can-change" d="M-593.3,636.7l-7.7,31.6c-27.9,23.1-93.5,0-93.5,0l-0.7-22.9l9.4,3.9c53.4,20.1,77.2,0.1,77.2,0.1      L-593.3,636.7z" style="fill: rgb(255, 255, 255);" data-fill-id="2"></path>
				<path class="st1 can-change" d="M-593.2,640l-7.7,31.6c-27.9,23.1-93.4,0-93.4,0l-0.7-22.9l9.4,3.9c53.4,20.2,77.2,0.1,77.2,0.1L-593.2,640      z" style="fill: rgb(255, 255, 255);" data-fill-id="3"></path>
				<path class="st1 can-change" d="M-593,643.2l-7.7,31.6c-27.9,23.1-93.5,0-93.5,0l-0.7-22.9l9.4,3.9c53.4,20.2,77.2,0.1,77.2,0.1L-593,643.2      z" style="fill: rgb(255, 255, 255);" data-fill-id="4"></path>
			</g>
		</g>
	</g>
	<g>
		<path class="st4" d="M-602.8,587.4c0,0.1,0.3,8.8-0.7,20.3c-0.2,1.8-0.3,3.8-0.6,5.9c-0.3,2.9-0.7,5.8-1,8.7v0    c-0.1,0.8-0.2,1.6-0.3,2.4c0,0.2,0,0.3-0.1,0.5c-0.1,0.6-0.2,1.2-0.3,1.8l0,0l0,0.1v0l-0.8,5l0.1,0l0,0h0l0,0v0    c0,0.1-0.1,0.5-0.2,1.2c0,0.1,0,0.2,0,0.3c-0.1,0.6-0.2,1.3-0.3,2.1c0,0.2-0.1,0.4-0.1,0.6c-0.1,0.7-0.2,1.4-0.3,2.2    c0,0.3-0.1,0.6-0.1,0.9c0,0.2,0,0.3-0.1,0.5c0,0.4-0.1,0.8-0.2,1.2c-0.1,0.9-0.3,2-0.4,3c0,0.1,0,0.2,0,0.3c0,0.3-0.1,0.6-0.1,0.8    c0,0.3-0.1,0.6-0.1,0.9c0,0.3-0.1,0.6-0.1,0.9c0,0.1,0,0.1,0,0.2c0,0.3-0.1,0.6-0.1,0.9c0,0,0,0,0,0.1c0,0.2-0.1,0.4-0.1,0.6    c0,0.1,0,0.2-0.1,0.4c0,0.3-0.1,0.5-0.1,0.8c-0.1,0.4-0.1,0.8-0.2,1.2c0,0.2-0.1,0.4-0.1,0.6c-0.4,2.9-0.9,5.9-1.2,8.5    c0,0,0,0,0,0c0,0,0,0,0,0c-0.9,0.8-16.2,13.2-50.9,5.9c-1-0.2-2.1-0.5-3.2-0.7c-0.5-0.1-1-0.2-1.5-0.3c-2.9-0.7-6-1.6-9.2-2.6    c-0.5-0.2-1.1-0.3-1.6-0.5c-2.7-0.9-5.5-1.9-8.4-3v0h0l-3.5-34.9l0-0.9c-0.8-6.1-1.8-12.7-3-15.2c-0.4-1-0.9-2.7-1.2-4.7    c0,0,0.1,0,0.1,0c61-9.3,29.1-154.2,20-191.3c0,0,0-0.1,0-0.2c2.3-2.4,4.2-4.9,5.5-7.3c0.1-0.2,0.3-0.5,0.4-0.7    c1.5-2.8,2.5-5.4,3-7.4v0c0.1-1.2,0.3-2.3,0.4-3.5l0.2,0l24.3,3.8h0c1,7.7,4.6,16.5,14.8,14.2l0,14.9c0.1,0.1,0.3,21.5,3.8,36.6    c3.5,15.1,3.7,18.6,6.1,28.3C-611.9,500.4-601.4,544.8-602.8,587.4z" style="fill: none;"></path>
	</g>
</g>
<path class="st1 can-change" d="M-698.5,566.1l0.2-144.4" style="fill: rgb(255, 255, 255);"></path>
<path class="st4" d="M-701.9,581.1c0,0-52.4-35,2.8-35s4,35,4,35" style="fill: none;"></path>
<path class="st0 cannot-edit can-change" d="M-665.5,400.9c1-2.2,1.6-4.2,2-5.8c12.8-102.5,8.5-170.8,8.4-171.5c6,0.7,11.7,3,16.6,6.5  c10.5,26.6,4.4,108.9-0.7,159.6h0c0,0.1-0.3,6.6,1.5,12.5C-644.8,401.9-654.9,401.4-665.5,400.9z M-732,399.9  c-8.8,0.8-19.7,1.8-27.4,2.5c1.8-5,1.8-11.2,1.7-14.8c-5-50.8-10.9-131.3-0.5-157.5c4.9-3.5,10.6-5.7,16.6-6.5  c0,0.8-4.5,69.4,8.5,172.5C-732.9,397.3-732.5,398.6-732,399.9z" style="fill: rgb(0, 0, 0);"></path>


<g class="human-logo">
	<path d="M-779.5,629.2l0.8-4.6h2.1l-0.2,1.3h1.5l0.2-1.3h3.7l-0.5,2.7c0,0,0,0.1,0,0.1h0.1h1.1c0.1,0,0.1,0,0.2,0   c0.1-0.1,0.1-0.2,0.1-0.2l0.4-2.5h4.1l0.7,1.9l1.3-1.9h2.5l-0.5,2.6l1.8-2.6h2.1l1,2.7l0.5-2.7h2.4l1.2,1.9l0.3-1.9h2.1l-0.8,4.6   h-2.4l-1.2-1.9l-0.3,1.9h-3.3l-0.2-0.7h-1.7l-0.5,0.7h-3.3l0.2-1.3l-0.9,1.3h-1.4l-0.5-1.4l-0.3,1.4h-2l0.1-0.5c0,0-0.1,0-0.1,0.1   c-0.4,0.3-1,0.4-1.5,0.4h-1.6c-0.4,0-0.9-0.1-1.3-0.3c-0.1-0.1-0.2-0.2-0.3-0.3l-0.1,0.6h-2.1l0.2-1.4h-1.5l-0.2,1.4H-779.5z"></path>
	<polygon class="st2 can-change" points="-779,628.7 -778.3,625 -777.2,625 -777.4,626.3 -775,626.3 -774.8,625 -773.6,625 -774.3,628.7    -775.4,628.7 -775.2,627.3 -777.6,627.3 -777.8,628.7  " style="fill: rgb(255, 255, 255);"></polygon>
	<path class="st2 can-change" d="M-773.6,627.4l0.4-2.4h1.1l-0.4,2.1c-0.1,0.5,0.1,0.7,0.5,0.7h1.1c0.5,0,0.7-0.2,0.8-0.7l0.4-2.1h1.1l-0.4,2.4   c-0.2,0.9-0.7,1.4-1.8,1.4h-1.6C-773.3,628.8-773.7,628.3-773.6,627.4" style="fill: rgb(255, 255, 255);"></path>
	<polygon class="st2 can-change" points="-768.6,628.7 -767.9,625 -766.2,625 -765.3,627.4 -763.6,625 -761.8,625 -762.5,628.7 -763.6,628.7    -763.1,626 -763.1,626 -765.1,628.7 -766,628.7 -767,626 -767,626 -767.5,628.7  " style="fill: rgb(255, 255, 255);"></polygon>
	<path class="st2 can-change" d="M-759.1,625.8l-1,1.4h1.5L-759.1,625.8z M-762.3,628.7l2.7-3.7h1.5l1.4,3.7h-1.3l-0.2-0.7h-2.3l-0.5,0.7   H-762.3z" style="fill: rgb(255, 255, 255);"></path>
	<polygon class="st2 can-change" points="-756.6,628.7 -756,625 -754.2,625 -752.5,627.7 -752.5,627.7 -752.1,625 -750.9,625 -751.6,628.7    -753.3,628.7 -755,626 -755,626 -755.5,628.7  " style="fill: rgb(255, 255, 255);"></polygon>
	<path d="M-750.2,627.7l0-0.2h1.1c-0.1,0.4,0.1,0.4,0.4,0.4h1.4c0.2,0,0.5,0,0.5-0.3c0.1-0.3-0.1-0.3-1.5-0.3   c-1.7,0-1.9-0.2-1.7-1.1c0.1-0.7,0.3-1.2,1.7-1.2h1.6c1.3,0,1.4,0.4,1.2,1.1l0,0.1h-1.1c0-0.3,0-0.4-0.5-0.4h-1.3   c-0.2,0-0.4,0.1-0.5,0.3c-0.1,0.3,0.1,0.3,1.3,0.3c1.8,0,2.2,0.1,2,1.2c-0.2,1-0.6,1.2-2.1,1.2h-1.4   C-750,628.8-750.3,628.6-750.2,627.7"></path>
	<path d="M-743.6,625.9l-0.2,0.9h1.8c0.3,0,0.4-0.2,0.4-0.4l0-0.1c0-0.3-0.1-0.4-0.4-0.4L-743.6,625.9L-743.6,625.9z M-745.2,628.7   l0.7-3.7h3.1c1.1,0,1.3,0.5,1.1,1.3l-0.1,0.3c-0.1,0.5-0.5,1.2-1.3,1.2h-2.3l-0.2,0.9H-745.2z"></path>
	<polygon points="-740.4,628.7 -739.7,625 -735.7,625 -735.8,625.8 -738.8,625.8 -738.9,626.4 -736.1,626.4 -736.2,627.2    -739,627.2 -739.1,627.8 -736.1,627.8 -736.3,628.7  "></polygon>
	<polygon points="-735.8,628.7 -735.2,625 -731.1,625 -731.2,625.8 -734.2,625.8 -734.3,626.4 -731.5,626.4 -731.6,627.2    -734.4,627.2 -734.5,627.8 -731.5,627.8 -731.7,628.7  "></polygon>
	<path d="M-729.6,625.9l-0.3,1.8h2c0.5,0,0.7-0.1,0.8-0.7l0.1-0.5c0.1-0.5-0.1-0.7-0.6-0.7H-729.6z M-731.2,628.7l0.7-3.7h3.4   c1.1,0,1.5,0.4,1.3,1.3l-0.2,1.1c-0.2,0.9-0.6,1.3-1.8,1.3L-731.2,628.7L-731.2,628.7z"></path>
	<path d="M-724.1,624.3c-0.5,0-0.9,0.4-0.9,1c0,0.6,0.4,1,1,1c0.5,0,0.9-0.4,0.9-1C-723.1,624.7-723.6,624.3-724.1,624.3    M-724.1,624c0.7,0,1.2,0.6,1.2,1.2c0,0.7-0.6,1.2-1.2,1.2c-0.7,0-1.2-0.6-1.2-1.2C-725.3,624.6-724.8,624-724.1,624 M-724.3,624.9   v0.4h0.1c0.2,0,0.3-0.1,0.3-0.2c0-0.1-0.1-0.2-0.3-0.2C-724.2,624.8-724.3,624.9-724.3,624.9 M-724.3,625.4v0.5h-0.2v-1.2   c0.1,0,0.2,0,0.4,0c0.2,0,0.3,0,0.4,0.1c0.1,0,0.1,0.1,0.1,0.3c0,0.1-0.1,0.2-0.3,0.3v0c0.1,0,0.2,0.1,0.2,0.3   c0,0.2,0.1,0.3,0.1,0.3h-0.3c-0.1-0.1-0.1-0.1-0.1-0.3c0-0.1-0.1-0.2-0.3-0.2H-724.3L-724.3,625.4z"></path>
	<rect x="-779.5" y="624" class="st6" width="56.7" height="5.2" style="fill: none;"></rect>
	<path d="M-745.4,630h0.3l-0.2,1.1h-0.3L-745.4,630z"></path>
	<path d="M-744.3,630h0.5l0.5,0.8l0.2-0.8h0.3l-0.2,1.1h-0.5l-0.5-0.8l-0.2,0.8h-0.3L-744.3,630z"></path>
	<path d="M-741.8,630.3h-0.5l0.1-0.3h1.3l-0.1,0.3h-0.5l-0.2,0.8h-0.3L-741.8,630.3z"></path>
	<path d="M-739.1,630l-0.1,0.2h-0.9l0,0.2h0.8l0,0.2h-0.8l0,0.2h0.9l-0.1,0.2h-1.2l0.2-1.1L-739.1,630L-739.1,630z"></path>
	<path d="M-738.4,630h0.3l-0.2,0.8h0.7l-0.1,0.3h-1.1L-738.4,630z"></path>
	<path d="M-736.7,630h0.3l-0.2,0.8h0.7l-0.1,0.3h-1.1L-736.7,630z"></path>
	<path d="M-734.9,630h0.3l-0.2,1.1h-0.3L-734.9,630z"></path>
	<path d="M-732.9,630.4C-732.9,630.4-732.9,630.4-732.9,630.4c0-0.1,0-0.1,0-0.1c0,0,0,0-0.1,0l-0.1,0l-0.2,0c-0.1,0-0.2,0-0.2,0.1   c0,0.1-0.1,0.3-0.1,0.3c0,0.1,0.1,0.1,0.2,0.1c0,0,0.1,0,0.3,0c0.2,0,0.2,0,0.2-0.1c0,0,0,0,0-0.1h-0.4l0-0.2h0.7l0,0.1   c0,0.2,0,0.2-0.1,0.3c-0.1,0.1-0.2,0.2-0.3,0.2c0,0-0.2,0-0.4,0c-0.3,0-0.4,0-0.5-0.1c-0.1,0-0.1-0.1-0.1-0.2c0-0.1,0-0.2,0.1-0.4   c0.1-0.3,0.1-0.4,0.3-0.4c0.1,0,0.2,0,0.5,0c0.4,0,0.5,0,0.5,0.1c0.1,0,0.1,0.1,0.1,0.2c0,0,0,0.1,0,0.2L-732.9,630.4L-732.9,630.4   z"></path>
	<path d="M-730.6,630l-0.1,0.2h-0.9l0,0.2h0.8l0,0.2h-0.8l0,0.2h0.9l-0.1,0.2h-1.2l0.2-1.1L-730.6,630L-730.6,630z"></path>
	<path d="M-729.8,630h0.5l0.5,0.8l0.2-0.8h0.3l-0.2,1.1h-0.5l-0.5-0.8l-0.2,0.8h-0.3L-729.8,630z"></path>
	<path d="M-727.3,630.3h-0.5l0.1-0.3h1.3l-0.1,0.3h-0.5l-0.2,0.8h-0.3L-727.3,630.3z"></path>
	<g>
		<polygon class="st7 can-change" points="-750.8,630.7 -750.9,631.1 -749.7,631.1 -749.6,630.7   " style="fill: rgb(237, 28, 36);"></polygon>
		<polygon class="st7 can-change" points="-746,630.4 -745.9,630 -749.1,630 -749.2,630.4   " style="fill: rgb(237, 28, 36);"></polygon>
		<polygon class="st7 can-change" points="-749.5,630 -750.7,630 -750.7,630.4 -749.6,630.4   " style="fill: rgb(237, 28, 36);"></polygon>
		<polygon class="st7 can-change" points="-749.4,631.1 -746.1,631.1 -746.1,630.7 -749.3,630.7   " style="fill: rgb(237, 28, 36);"></polygon>
		<polygon class="st2 can-change" points="-749.2,630.4 -749.1,630 -749.5,630 -749.6,630.4 -750.7,630.4 -750.8,630.7 -749.6,630.7     -749.7,631.1 -749.4,631.1 -749.3,630.7 -746.1,630.7 -746,630.4   " style="fill: rgb(255, 255, 255);"></polygon>
	</g>
</g>
<g class="human-logo">
	<path d="M-675.5,629.2l0.8-4.6h2.1l-0.2,1.3h1.5l0.2-1.3h3.7l-0.5,2.7c0,0,0,0.1,0,0.1h0.1h1.1c0.1,0,0.1,0,0.2,0   c0.1-0.1,0.1-0.2,0.1-0.2l0.4-2.5h4.1l0.7,1.9l1.3-1.9h2.5l-0.5,2.6l1.8-2.6h2.1l1,2.7l0.5-2.7h2.4l1.2,1.9l0.3-1.9h2.1l-0.8,4.6   h-2.4l-1.2-1.9l-0.3,1.9h-3.3l-0.2-0.7h-1.7l-0.5,0.7h-3.3l0.2-1.3l-0.9,1.3h-1.4l-0.5-1.4l-0.3,1.4h-2l0.1-0.5c0,0-0.1,0-0.1,0.1   c-0.4,0.3-1,0.4-1.5,0.4h-1.6c-0.4,0-0.9-0.1-1.3-0.3c-0.1-0.1-0.2-0.2-0.3-0.3l-0.1,0.6h-2.1l0.2-1.4h-1.5l-0.2,1.4H-675.5z"></path>
	<polygon class="st2 can-change" points="-674.9,628.7 -674.2,625 -673.1,625 -673.3,626.3 -670.9,626.3 -670.7,625 -669.6,625 -670.2,628.7    -671.4,628.7 -671.1,627.3 -673.5,627.3 -673.8,628.7  " style="fill: rgb(255, 255, 255);"></polygon>
	<path class="st2 can-change" d="M-669.5,627.4l0.4-2.4h1.1l-0.4,2.1c-0.1,0.5,0.1,0.7,0.5,0.7h1.1c0.5,0,0.7-0.2,0.8-0.7l0.4-2.1h1.1l-0.4,2.4   c-0.2,0.9-0.7,1.4-1.8,1.4h-1.6C-669.2,628.8-669.6,628.3-669.5,627.4" style="fill: rgb(255, 255, 255);"></path>
	<polygon class="st2 can-change" points="-664.5,628.7 -663.8,625 -662.1,625 -661.2,627.4 -659.5,625 -657.7,625 -658.4,628.7 -659.5,628.7    -659,626 -659,626 -661,628.7 -661.9,628.7 -662.9,626 -662.9,626 -663.4,628.7  " style="fill: rgb(255, 255, 255);"></polygon>
	<path class="st2 can-change" d="M-655,625.8l-1,1.4h1.5L-655,625.8z M-658.2,628.7l2.7-3.7h1.5l1.4,3.7h-1.3l-0.2-0.7h-2.3l-0.5,0.7H-658.2z" style="fill: rgb(255, 255, 255);"></path>
	<polygon class="st2 can-change" points="-652.5,628.7 -651.9,625 -650.1,625 -648.4,627.7 -648.4,627.7 -648,625 -646.8,625 -647.5,628.7    -649.2,628.7 -650.9,626 -650.9,626 -651.4,628.7  " style="fill: rgb(255, 255, 255);"></polygon>
	<path d="M-646.1,627.7l0-0.2h1.1c-0.1,0.4,0.1,0.4,0.4,0.4h1.4c0.2,0,0.5,0,0.6-0.3c0.1-0.3-0.1-0.3-1.5-0.3   c-1.7,0-1.9-0.2-1.7-1.1c0.1-0.7,0.3-1.2,1.7-1.2h1.6c1.3,0,1.4,0.4,1.2,1.1l0,0.1h-1.1c0-0.3,0-0.4-0.5-0.4h-1.3   c-0.2,0-0.4,0.1-0.5,0.3c-0.1,0.3,0.1,0.3,1.3,0.3c1.8,0,2.2,0.1,2,1.2c-0.2,1-0.6,1.2-2.1,1.2h-1.4   C-645.9,628.8-646.3,628.6-646.1,627.7"></path>
	<path d="M-639.5,625.9l-0.2,0.9h1.8c0.3,0,0.4-0.2,0.4-0.4l0-0.1c0-0.3-0.1-0.4-0.4-0.4L-639.5,625.9L-639.5,625.9z M-641.1,628.7   l0.7-3.7h3.1c1.1,0,1.3,0.5,1.1,1.3l-0.1,0.3c-0.1,0.5-0.5,1.2-1.3,1.2h-2.3l-0.2,0.9H-641.1z"></path>
	<polygon points="-636.3,628.7 -635.7,625 -631.6,625 -631.7,625.8 -634.7,625.8 -634.8,626.4 -632,626.4 -632.1,627.2    -634.9,627.2 -635,627.8 -632,627.8 -632.2,628.7  "></polygon>
	<polygon points="-631.7,628.7 -631.1,625 -627,625 -627.2,625.8 -630.1,625.8 -630.2,626.4 -627.4,626.4 -627.5,627.2    -630.3,627.2 -630.4,627.8 -627.4,627.8 -627.6,628.7  "></polygon>
	<path d="M-625.5,625.9l-0.3,1.8h2c0.5,0,0.7-0.1,0.8-0.7l0.1-0.5c0.1-0.5-0.1-0.7-0.6-0.7H-625.5z M-627.1,628.7l0.7-3.7h3.4   c1.1,0,1.5,0.4,1.3,1.3l-0.2,1.1c-0.2,0.9-0.6,1.3-1.8,1.3L-627.1,628.7L-627.1,628.7z"></path>
	<path d="M-620,624.3c-0.5,0-0.9,0.4-0.9,1c0,0.6,0.4,1,1,1c0.5,0,0.9-0.4,0.9-1C-619.1,624.7-619.5,624.3-620,624.3 M-620,624   c0.7,0,1.2,0.6,1.2,1.2c0,0.7-0.5,1.2-1.2,1.2s-1.2-0.6-1.2-1.2C-621.2,624.6-620.7,624-620,624 M-620.2,624.9v0.4h0.1   c0.2,0,0.3-0.1,0.3-0.2c0-0.1-0.1-0.2-0.3-0.2C-620.1,624.8-620.2,624.9-620.2,624.9 M-620.2,625.4v0.5h-0.2v-1.2   c0.1,0,0.2,0,0.4,0c0.2,0,0.3,0,0.4,0.1c0.1,0,0.1,0.1,0.1,0.3c0,0.1-0.1,0.2-0.3,0.3v0c0.1,0,0.2,0.1,0.2,0.3   c0,0.2,0.1,0.3,0.1,0.3h-0.3c-0.1-0.1-0.1-0.1-0.1-0.3c0-0.1-0.1-0.2-0.3-0.2H-620.2L-620.2,625.4z"></path>
	<rect x="-675.5" y="624" class="st6" width="56.7" height="5.2" style="fill: none;"></rect>
	<path d="M-641.3,630h0.3l-0.2,1.1h-0.3L-641.3,630z"></path>
	<path d="M-640.2,630h0.5l0.5,0.8l0.2-0.8h0.3l-0.2,1.1h-0.5l-0.5-0.8l-0.2,0.8h-0.3L-640.2,630z"></path>
	<path d="M-637.7,630.3h-0.5l0.1-0.3h1.3l-0.1,0.3h-0.5l-0.2,0.8h-0.3L-637.7,630.3z"></path>
	<path d="M-635,630l-0.1,0.2h-0.9l0,0.2h0.8l0,0.2h-0.8l0,0.2h0.9l-0.1,0.2h-1.2l0.2-1.1L-635,630L-635,630z"></path>
	<path d="M-634.3,630h0.3l-0.2,0.8h0.7l-0.1,0.3h-1.1L-634.3,630z"></path>
	<path d="M-632.6,630h0.3l-0.2,0.8h0.7l-0.1,0.3h-1.1L-632.6,630z"></path>
	<path d="M-630.8,630h0.3l-0.2,1.1h-0.3L-630.8,630z"></path>
	<path d="M-628.8,630.4C-628.8,630.4-628.8,630.4-628.8,630.4c0-0.1,0-0.1,0-0.1c0,0,0,0-0.1,0l-0.1,0l-0.2,0c-0.1,0-0.2,0-0.2,0.1   c0,0.1-0.1,0.3-0.1,0.3c0,0.1,0.1,0.1,0.2,0.1c0,0,0.1,0,0.3,0c0.2,0,0.2,0,0.2-0.1c0,0,0,0,0-0.1h-0.4l0-0.2h0.7l0,0.1   c0,0.2,0,0.2-0.1,0.3c-0.1,0.1-0.2,0.2-0.3,0.2c0,0-0.2,0-0.4,0c-0.3,0-0.4,0-0.5-0.1c-0.1,0-0.1-0.1-0.1-0.2c0-0.1,0-0.2,0.1-0.4   c0.1-0.3,0.1-0.4,0.3-0.4c0.1,0,0.2,0,0.5,0c0.4,0,0.5,0,0.5,0.1c0.1,0,0.1,0.1,0.1,0.2c0,0,0,0.1,0,0.2L-628.8,630.4L-628.8,630.4   z"></path>
	<path d="M-626.5,630l-0.1,0.2h-0.9l0,0.2h0.8l0,0.2h-0.8l0,0.2h0.9l-0.1,0.2h-1.2l0.2-1.1L-626.5,630L-626.5,630z"></path>
	<path d="M-625.7,630h0.5l0.5,0.8l0.2-0.8h0.3l-0.2,1.1h-0.5l-0.5-0.8l-0.2,0.8h-0.3L-625.7,630z"></path>
	<path d="M-623.2,630.3h-0.5l0.1-0.3h1.3l-0.1,0.3h-0.5l-0.2,0.8h-0.3L-623.2,630.3z"></path>
	<g>
		<polygon class="st7 can-change" points="-646.7,630.7 -646.8,631.1 -645.6,631.1 -645.5,630.7   " style="fill: rgb(237, 28, 36);"></polygon>
		<polygon class="st7 can-change" points="-641.9,630.4 -641.8,630 -645,630 -645.1,630.4   " style="fill: rgb(237, 28, 36);"></polygon>
		<polygon class="st7 can-change" points="-645.4,630 -646.6,630 -646.6,630.4 -645.5,630.4   " style="fill: rgb(237, 28, 36);"></polygon>
		<polygon class="st7 can-change" points="-645.3,631.1 -642,631.1 -642,630.7 -645.2,630.7   " style="fill: rgb(237, 28, 36);"></polygon>
		<polygon class="st2 can-change" points="-645.1,630.4 -645,630 -645.4,630 -645.5,630.4 -646.6,630.4 -646.7,630.7 -645.5,630.7     -645.6,631.1 -645.3,631.1 -645.2,630.7 -642,630.7 -641.9,630.4   " style="fill: rgb(255, 255, 255);"></polygon>
	</g>
</g>
</svg>