<svg xmlns="http://www.w3.org/2000/svg" xmlns:xlink="http://www.w3.org/1999/xlink" version="1.1" id="Layer_1" x="0px" y="0px" viewBox="0 0 153.2 399.8" enable-background="new 0 0 153.2 399.8" xml:space="preserve" data-product="2017501" data-design="3" data-size="m">
<g>
	
		<path fill-rule="evenodd" clip-rule="evenodd" fill="#E6E7E8" stroke="#6D6E70" stroke-width="0.34" stroke-linecap="round" stroke-linejoin="round" stroke-miterlimit="10" d="   M57.1,6.5c0,0,16.1-7.8,37.9-4.5c21.8,3.3,33.9,12.8,33.9,12.8s-8.8,8.6-33.9,8.6C65.8,23.3,57.1,6.5,57.1,6.5z" class="cannot-edit can-change selected filled" style="fill: rgb(230, 231, 232);"/>
	
		<path fill-rule="evenodd" clip-rule="evenodd" fill="#FFFFFF" stroke="#6D6E70" stroke-width="0.34" stroke-linecap="round" stroke-linejoin="round" stroke-miterlimit="10" d="   M51.9,23.6c3.7,4.2,5.6,4.9,10.4,7.3c-8.5,28.8-23.4,121.7-23.4,121.7c-2-2.6-5.8-15.1-5.4-23.8c0.4-8.8,1.8-22.4,1.8-22.4   C34.5,62.5,51.9,23.6,51.9,23.6z" data-fill-id="4" class="can-change"/>
	
		<path fill-rule="evenodd" clip-rule="evenodd" fill="#FFFFFF" stroke="#6D6E70" stroke-width="0.34" stroke-linecap="round" stroke-linejoin="round" stroke-miterlimit="10" d="   M105.7,39.3c0,0,10.6,0.3,23-8c0,0,5.4,48.9-6.3,81c-11.7,32.1-31.6,53.5-36.3,85.8c0,0,5.4-33.7,7.4-41.4   c1.9-7.7,12.4-74.8,12.2-110.7L105.7,39.3z" data-fill-id="9" class="can-change"/>
	
		<path fill-rule="evenodd" clip-rule="evenodd" fill="#FFFFFF" stroke="#6D6E70" stroke-width="0.34" stroke-linecap="round" stroke-linejoin="round" stroke-miterlimit="10" d="   M37.5,75.2l0.7,0.1c-1.5,10.1-2.6,20.8-2.9,31.2c0,0.1-1.4,13.6-1.8,22.4c-0.5,8.7,3.4,21.2,5.4,23.8c-0.7,12.8-0.7,63.8-0.7,64.3   c0,0.6,2.4,59.1,3.8,89.3c1.5,30.1,0,74.6,0,75c-13-3.8-26.2-9.6-32.4-12.4c-6.2-2.8-7.7-6.1-7.7-6.1c2.8-30.3,3.2-80,3.2-80.5   c0-8.6-2.4-40.9-2-96.5C3.6,130.2,37.2,75.7,37.5,75.2z" data-fill-id="1" class="can-change"/>
	
		<path fill-rule="evenodd" clip-rule="evenodd" fill="#FFFFFF" stroke="#6D6E70" stroke-width="0.34" stroke-linecap="round" stroke-linejoin="round" stroke-miterlimit="10" d="   M128.5,85c4.2,6,5.9,13.1,6.7,24.2c0.7,11.1-1,68.2-2.9,88.9c-1.9,20.7,1.4,69.6,1.4,76.7c0,7.1,6,43.4,6.9,51   c1,7.5,10.2,61.4,10.5,64.3c0.3,2.9-0.6,2.9-0.6,2.9c-16.3,7.7-38.9,3.9-61.7-0.4c-0.1-1.1-6.2-111.9-6.7-138.1   c-0.5-26.1,3.9-56.2,3.9-56.5c0.5-3.8,1.3-8.4,2-12.1c-1.1,6.7-1.9,12-2,12.1c4.8-32.3,24.6-53.7,36.3-85.8   C125.4,104,127,94.5,128.5,85z" data-fill-id="10" class="can-change"/>
	
		<path fill-rule="evenodd" clip-rule="evenodd" fill="#FFFFFF" stroke="#6D6E70" stroke-width="0.34" stroke-linecap="round" stroke-linejoin="round" stroke-miterlimit="10" d="   M88.1,379l-3.9-73.8c18.2,0.9,49.5-3.8,51.9-4.3c2.4-0.5,2.6,0.5,2.6,0.5s11.1,71.3,11.4,72.7c0.2,1.4-1,1.8-1,1.8   C111,383.1,88.1,379,88.1,379z" data-fill-id="11" class="can-change"/>
	
		<path fill-rule="evenodd" clip-rule="evenodd" fill="none" stroke="#6D6E70" stroke-width="0.34" stroke-linecap="round" stroke-linejoin="round" stroke-miterlimit="10" d="   M84.6,307.1c0,0,16.8,2,54-4.6"/>
	
		<path fill-rule="evenodd" clip-rule="evenodd" fill="none" stroke="#6D6E70" stroke-width="0.34" stroke-linecap="round" stroke-linejoin="round" stroke-miterlimit="10" d="   M84.6,309c0,0,16.8,2,54-4.6"/>
	
		<path fill-rule="evenodd" clip-rule="evenodd" fill="#FFFFFF" stroke="#6D6E70" stroke-width="0.34" stroke-linecap="round" stroke-linejoin="round" stroke-miterlimit="10" d="   M38.9,152.7l20.5,29.2l2.8,28.6c14.4-5.5,23.9-12.3,24-12.4c4.8,17.6,6.3,34.7,9.6,55.2c9.5,58.1,16.2,122.8,17.3,143.5   c-31.8-4.1-70.8-15.4-70.9-15.5c-12.5-3.8-27.9-10.2-28.1-10.2C21.4,237.7,38.7,153.5,38.9,152.7z" data-fill-id="2" class="can-change"/>
	
		<path fill-rule="evenodd" clip-rule="evenodd" fill="#FFFFFF" stroke="#6D6E70" stroke-width="0.34" stroke-linecap="round" stroke-linejoin="round" stroke-miterlimit="10" d="   M62.3,31c0,0,14.9,11.5,43.4,8.3c0,0,0.9,53.1-13.6,124.2l-2.3,14.6c0,0-2.7,11.9-3.7,20c0,0-21.5,18.2-57.4,17.5   c0,0,1.5-10.7,3.5-23.5c2.3-14.7,5.3-32.2,6.7-39.5c3.1-20.8,7.3-41.5,10.7-62.2C53.5,66.8,57.4,49.2,62.3,31z" data-fill-id="3" class="can-change"/>
	
		<path fill-rule="evenodd" clip-rule="evenodd" fill="none" stroke="#000000" stroke-width="2.83" stroke-linecap="round" stroke-linejoin="round" stroke-miterlimit="10" d="   M1.9,362.7c0,0,4.9,5.8,12,8.3c6.4,2.3,56.2,21.2,99.1,25.5"/>
	
		<path fill-rule="evenodd" clip-rule="evenodd" fill="#FFFFFF" stroke="#6D6E70" stroke-width="0.34" stroke-linecap="round" stroke-linejoin="round" stroke-miterlimit="10" d="   M51.7,24.2l5.4-17.8c0,0,30.8,22.1,71.8,8.2v17.2c0,0-32.8,22.1-73.1-3.8L51.7,24.2z" data-fill-id="5" class="can-change"/>
</g>
</svg>